{
  "m_GameObject": {
    "m_FileID": 0,
    "m_PathID": 0
  },
  "m_Enabled": 1,
  "m_Script": {
    "m_FileID": 0,
    "m_PathID": -2767099076474933927
  },
  "m_Name": "dc_1310100_sd",
  "Version": 65537,
  "TableCellMap": [
    {
      "Name": "1310100_sd",
      "SizeOriginal": {
        "x": 2048.0,
        "y": 2048.0
      },
      "TableCell": [
        {
          "Name": "body",
          "Rectangle": {
            "x": 88.0,
            "y": 0.0,
            "width": 309.0,
            "height": 538.0
          },
          "Pivot": {
            "x": 154.5,
            "y": 538.0
          },
          "Mesh": {
            "TableCoordinate": [],
            "TableIndexVertex": []
          }
        },
        {
          "Name": "left_str",
          "Rectangle": {
            "x": 0.0,
            "y": 122.0,
            "width": 85.0,
            "height": 421.0
          },
          "Pivot": {
            "x": 42.5,
            "y": 210.5
          },
          "Mesh": {
            "TableCoordinate": [],
            "TableIndexVertex": []
          }
        },
        {
          "Name": "right_str",
          "Rectangle": {
            "x": 412.0,
            "y": 0.0,
            "width": 96.0,
            "height": 418.0
          },
          "Pivot": {
            "x": 48.0,
            "y": 209.0
          },
          "Mesh": {
            "TableCoordinate": [],
            "TableIndexVertex": []
          }
        }
      ]
    }
  ]
}