{
  "m_GameObject": {
    "m_FileID": 0,
    "m_PathID": 0
  },
  "m_Enabled": 1,
  "m_Script": {
    "m_FileID": 0,
    "m_PathID": -2767099076474933927
  },
  "m_Name": "dc_2010700_sd",
  "Version": 65537,
  "TableCellMap": [
    {
      "Name": "2010700_sd",
      "SizeOriginal": {
        "x": 1024.0,
        "y": 1024.0
      },
      "TableCell": [
        {
          "Name": "head",
          "Rectangle": {
            "x": 898.0,
            "y": 4.0,
            "width": 79.0,
            "height": 135.0
          },
          "Pivot": {
            "x": 41.0,
            "y": 96.0
          },
          "Mesh": {
            "TableCoordinate": [],
            "TableIndexVertex": []
          }
        },
        {
          "Name": "hand_r",
          "Rectangle": {
            "x": 640.0,
            "y": 112.0,
            "width": 258.0,
            "height": 107.0
          },
          "Pivot": {
            "x": 24.0000038,
            "y": 61.0
          },
          "Mesh": {
            "TableCoordinate": [],
            "TableIndexVertex": []
          }
        },
        {
          "Name": "arm_r",
          "Rectangle": {
            "x": 166.0,
            "y": 4.0,
            "width": 195.0,
            "height": 330.0
          },
          "Pivot": {
            "x": 155.0,
            "y": 117.0
          },
          "Mesh": {
            "TableCoordinate": [],
            "TableIndexVertex": []
          }
        },
        {
          "Name": "body",
          "Rectangle": {
            "x": 362.0,
            "y": 4.0,
            "width": 278.0,
            "height": 340.0
          },
          "Pivot": {
            "x": 133.0,
            "y": 273.0
          },
          "Mesh": {
            "TableCoordinate": [],
            "TableIndexVertex": []
          }
        },
        {
          "Name": "thigh_r",
          "Rectangle": {
            "x": 244.0,
            "y": 334.0,
            "width": 89.0,
            "height": 147.0
          },
          "Pivot": {
            "x": 42.0,
            "y": 127.0
          },
          "Mesh": {
            "TableCoordinate": [],
            "TableIndexVertex": []
          }
        },
        {
          "Name": "leg_r",
          "Rectangle": {
            "x": 4.0,
            "y": 310.0,
            "width": 103.0,
            "height": 210.0
          },
          "Pivot": {
            "x": 42.0,
            "y": 151.0
          },
          "Mesh": {
            "TableCoordinate": [],
            "TableIndexVertex": []
          }
        },
        {
          "Name": "thigh_l",
          "Rectangle": {
            "x": 108.0,
            "y": 334.0,
            "width": 135.0,
            "height": 138.0
          },
          "Pivot": {
            "x": 98.0,
            "y": 109.0
          },
          "Mesh": {
            "TableCoordinate": [],
            "TableIndexVertex": []
          }
        },
        {
          "Name": "leg_l",
          "Rectangle": {
            "x": 806.0,
            "y": 220.0,
            "width": 127.0,
            "height": 198.0
          },
          "Pivot": {
            "x": 46.0,
            "y": 156.0
          },
          "Mesh": {
            "TableCoordinate": [],
            "TableIndexVertex": []
          }
        },
        {
          "Name": "hip",
          "Rectangle": {
            "x": 640.0,
            "y": 220.0,
            "width": 166.0,
            "height": 169.0
          },
          "Pivot": {
            "x": 81.0,
            "y": 118.0
          },
          "Mesh": {
            "TableCoordinate": [],
            "TableIndexVertex": []
          }
        },
        {
          "Name": "hand_l",
          "Rectangle": {
            "x": 640.0,
            "y": 4.0,
            "width": 258.0,
            "height": 107.0
          },
          "Pivot": {
            "x": 26.9999981,
            "y": 63.0
          },
          "Mesh": {
            "TableCoordinate": [],
            "TableIndexVertex": []
          }
        },
        {
          "Name": "arm_l",
          "Rectangle": {
            "x": 4.0,
            "y": 4.0,
            "width": 161.0,
            "height": 306.0
          },
          "Pivot": {
            "x": 22.9999981,
            "y": 113.0
          },
          "Mesh": {
            "TableCoordinate": [],
            "TableIndexVertex": []
          }
        },
        {
          "Name": "hear_back_c",
          "Rectangle": {
            "x": 978.0,
            "y": 4.0,
            "width": 16.0,
            "height": 16.0
          },
          "Pivot": {
            "x": 8.0,
            "y": 8.0
          },
          "Mesh": {
            "TableCoordinate": [],
            "TableIndexVertex": []
          }
        }
      ]
    }
  ]
}