{
  "m_GameObject": {
    "m_FileID": 0,
    "m_PathID": 0
  },
  "m_Enabled": 1,
  "m_Script": {
    "m_FileID": 0,
    "m_PathID": -2195584510539435343
  },
  "m_Name": "adv_200201.book",
  "importVersion": 0,
  "importGridList": [
    {
      "rows": [
        {
          "rowIndex": 0,
          "strings": [
            "Command",
            "Arg1",
            "Arg2",
            "Arg3",
            "Arg4",
            "Arg5",
            "Arg6",
            "WaitType",
            "Text",
            "PageCtrl",
            "Voice",
            "WindowType"
          ],
          "isEmpty": 0,
          "isCommentOut": 0
        },
        {
          "rowIndex": 1,
          "strings": [
            "Bgm",
            "疑惑",
            "",
            "",
            "",
            "",
            "",
            "",
            "",
            "",
            "",
            ""
          ],
          "isEmpty": 0,
          "isCommentOut": 0
        },
        {
          "rowIndex": 2,
          "strings": [
            "FadeOut",
            "black",
            "",
            "",
            "",
            "",
            "0",
            "",
            "",
            "",
            "",
            ""
          ],
          "isEmpty": 0,
          "isCommentOut": 0
        },
        {
          "rowIndex": 3,
          "strings": [
            "Bg",
            "背景(洞窟)",
            "",
            "",
            "",
            "",
            "",
            "",
            "",
            "",
            "",
            ""
          ],
          "isEmpty": 0,
          "isCommentOut": 0
        },
        {
          "rowIndex": 4,
          "strings": [
            "Wait",
            "",
            "",
            "",
            "",
            "",
            ".3",
            "",
            "",
            "",
            "",
            ""
          ],
          "isEmpty": 0,
          "isCommentOut": 0
        },
        {
          "rowIndex": 5,
          "strings": [
            "FadeIn",
            "black",
            "",
            "",
            "",
            "",
            "1",
            "",
            "",
            "",
            "",
            ""
          ],
          "isEmpty": 0,
          "isCommentOut": 0
        },
        {
          "rowIndex": 6,
          "strings": [
            "Wait",
            "",
            "",
            "",
            "",
            "",
            "1",
            "",
            "",
            "",
            "",
            ""
          ],
          "isEmpty": 0,
          "isCommentOut": 0
        },
        {
          "rowIndex": 7,
          "strings": [
            "Se",
            "爆発音",
            "",
            "",
            "",
            "",
            "",
            "",
            "",
            "",
            "",
            ""
          ],
          "isEmpty": 0,
          "isCommentOut": 0
        },
        {
          "rowIndex": 8,
          "strings": [
            "Shake",
            "Camera",
            "x=5 time=.3",
            "",
            "",
            "",
            "",
            "NoWait",
            "",
            "",
            "",
            ""
          ],
          "isEmpty": 0,
          "isCommentOut": 0
        },
        {
          "rowIndex": 9,
          "strings": [
            "Wait",
            "",
            "",
            "",
            "",
            "",
            "1.2",
            "",
            "",
            "",
            "",
            ""
          ],
          "isEmpty": 0,
          "isCommentOut": 0
        },
        {
          "rowIndex": 10,
          "strings": [
            "",
            "ロゼ",
            "悲しみ",
            "キャラ中央",
            "",
            "",
            "1.5",
            "Add",
            "",
            "",
            "",
            ""
          ],
          "isEmpty": 0,
          "isCommentOut": 0
        },
        {
          "rowIndex": 11,
          "strings": [
            "Tween",
            "ロゼ",
            "MoveFrom",
            "x=0 y=-100 islocal=true time=1.5",
            "easeOutQuad",
            "",
            "",
            "",
            "",
            "",
            "",
            ""
          ],
          "isEmpty": 0,
          "isCommentOut": 0
        },
        {
          "rowIndex": 12,
          "strings": [
            "Wait",
            "",
            "",
            "",
            "",
            "",
            ".3",
            "",
            "",
            "",
            "",
            ""
          ],
          "isEmpty": 0,
          "isCommentOut": 0
        },
        {
          "rowIndex": 13,
          "strings": [
            "",
            "ロゼ",
            "真剣",
            "",
            "",
            "",
            ".2",
            "",
            "",
            "",
            "",
            ""
          ],
          "isEmpty": 0,
          "isCommentOut": 0
        },
        {
          "rowIndex": 14,
          "strings": [
            "Tween",
            "ロゼ",
            "ScaleTo",
            "x=0.9 y=0.9 time=0.2",
            "",
            "",
            "",
            "",
            "",
            "",
            "",
            ""
          ],
          "isEmpty": 0,
          "isCommentOut": 0
        },
        {
          "rowIndex": 15,
          "strings": [
            "Wait",
            "",
            "",
            "",
            "",
            "",
            ".2",
            "",
            "",
            "",
            "",
            ""
          ],
          "isEmpty": 0,
          "isCommentOut": 0
        },
        {
          "rowIndex": 16,
          "strings": [
            "Se",
            "疾走音",
            "",
            "",
            "",
            "",
            "",
            "",
            "",
            "",
            "",
            ""
          ],
          "isEmpty": 0,
          "isCommentOut": 0
        },
        {
          "rowIndex": 17,
          "strings": [
            "Tween",
            "ロゼ",
            "ScaleTo",
            "x=2 y=2 time=0.5",
            "",
            "",
            "",
            "Add",
            "",
            "",
            "",
            ""
          ],
          "isEmpty": 0,
          "isCommentOut": 0
        },
        {
          "rowIndex": 18,
          "strings": [
            "Tween",
            "ロゼ",
            "MoveTo",
            "x=0 y=-150 islocal=true time=.5",
            "",
            "",
            "",
            "Add",
            "",
            "",
            "",
            ""
          ],
          "isEmpty": 0,
          "isCommentOut": 0
        },
        {
          "rowIndex": 19,
          "strings": [
            "CharacterOff",
            "",
            "",
            "",
            "",
            "",
            "",
            "",
            "",
            "",
            "",
            ""
          ],
          "isEmpty": 0,
          "isCommentOut": 0
        },
        {
          "rowIndex": 20,
          "strings": [
            "Wait",
            "",
            "",
            "",
            "",
            "",
            ".3",
            "",
            "",
            "",
            "",
            ""
          ],
          "isEmpty": 0,
          "isCommentOut": 0
        },
        {
          "rowIndex": 21,
          "strings": [
            "Wait",
            "",
            "",
            "",
            "",
            "",
            ".5",
            "",
            "",
            "",
            "",
            ""
          ],
          "isEmpty": 0,
          "isCommentOut": 0
        },
        {
          "rowIndex": 22,
          "strings": [
            "",
            "ファウスト",
            "通常",
            "キャラ中央",
            "",
            "",
            "",
            "",
            "",
            "",
            "",
            ""
          ],
          "isEmpty": 0,
          "isCommentOut": 0
        },
        {
          "rowIndex": 23,
          "strings": [
            "Wait",
            "",
            "",
            "",
            "",
            "",
            ".5",
            "",
            "",
            "",
            "",
            ""
          ],
          "isEmpty": 0,
          "isCommentOut": 0
        },
        {
          "rowIndex": 24,
          "strings": [
            "Se",
            "パリィ音",
            "",
            "",
            "",
            "",
            "",
            "",
            "",
            "",
            "",
            ""
          ],
          "isEmpty": 0,
          "isCommentOut": 0
        },
        {
          "rowIndex": 25,
          "strings": [
            "FadeOut",
            "white",
            "",
            "",
            "",
            "",
            ".2",
            "",
            "",
            "",
            "",
            ""
          ],
          "isEmpty": 0,
          "isCommentOut": 0
        },
        {
          "rowIndex": 26,
          "strings": [
            "FadeIn",
            "white",
            "",
            "",
            "",
            "",
            ".2",
            "",
            "",
            "",
            "",
            ""
          ],
          "isEmpty": 0,
          "isCommentOut": 0
        },
        {
          "rowIndex": 27,
          "strings": [
            "Wait",
            "",
            "",
            "",
            "",
            "",
            ".3",
            "",
            "",
            "",
            "",
            ""
          ],
          "isEmpty": 0,
          "isCommentOut": 0
        },
        {
          "rowIndex": 28,
          "strings": [
            "",
            "ロゼ",
            "真剣",
            "キャラ中央",
            "",
            "",
            ".5",
            "Add",
            "",
            "",
            "",
            ""
          ],
          "isEmpty": 0,
          "isCommentOut": 0
        },
        {
          "rowIndex": 29,
          "strings": [
            "Tween",
            "ロゼ",
            "ScaleFrom",
            "x=2 y=2 time=0.5",
            "",
            "",
            "",
            "Add",
            "",
            "",
            "",
            ""
          ],
          "isEmpty": 0,
          "isCommentOut": 0
        },
        {
          "rowIndex": 30,
          "strings": [
            "Se",
            "踏み込み音",
            "",
            "",
            "",
            "",
            "",
            "",
            "",
            "",
            "",
            ""
          ],
          "isEmpty": 0,
          "isCommentOut": 0
        },
        {
          "rowIndex": 31,
          "strings": [
            "Wait",
            "",
            "",
            "",
            "",
            "",
            ".5",
            "",
            "",
            "",
            "",
            ""
          ],
          "isEmpty": 0,
          "isCommentOut": 0
        },
        {
          "rowIndex": 32,
          "strings": [
            "",
            "ロゼ",
            "",
            "",
            "",
            "",
            "",
            "",
            "……くっ！？",
            "",
            "",
            ""
          ],
          "isEmpty": 0,
          "isCommentOut": 0
        },
        {
          "rowIndex": 33,
          "strings": [
            "",
            "リーリア",
            "真剣",
            "キャラ中央",
            "",
            "",
            "",
            "",
            "無駄な抵抗はやめて、大人しくしなさい",
            "",
            "",
            ""
          ],
          "isEmpty": 0,
          "isCommentOut": 0
        },
        {
          "rowIndex": 34,
          "strings": [
            "",
            "ロゼ",
            "真剣",
            "キャラ中央",
            "",
            "",
            "",
            "",
            "黙れ！　卑劣な人間め！",
            "",
            "",
            ""
          ],
          "isEmpty": 0,
          "isCommentOut": 0
        },
        {
          "rowIndex": 35,
          "strings": [
            "CharacterOff",
            "",
            "",
            "",
            "",
            "",
            "",
            "",
            "",
            "",
            "",
            ""
          ],
          "isEmpty": 0,
          "isCommentOut": 0
        },
        {
          "rowIndex": 36,
          "strings": [
            "",
            "ファウスト",
            "通常",
            "キャラ右",
            "",
            "",
            "",
            "",
            "",
            "",
            "",
            ""
          ],
          "isEmpty": 0,
          "isCommentOut": 0
        },
        {
          "rowIndex": 37,
          "strings": [
            "",
            "リーリア",
            "悲しみ",
            "キャラ左",
            "",
            "",
            "",
            "",
            "卑劣って、別にこんなことしたいわけじゃ……",
            "",
            "",
            ""
          ],
          "isEmpty": 0,
          "isCommentOut": 0
        },
        {
          "rowIndex": 38,
          "strings": [
            "",
            "ファウスト",
            "通常",
            "キャラ右",
            "",
            "",
            "",
            "",
            "無駄口はそのくらいにしておきなさい",
            "Br",
            "",
            ""
          ],
          "isEmpty": 0,
          "isCommentOut": 0
        },
        {
          "rowIndex": 39,
          "strings": [
            "Wait",
            "",
            "",
            "",
            "",
            "",
            ".3",
            "",
            "",
            "",
            "",
            ""
          ],
          "isEmpty": 0,
          "isCommentOut": 0
        },
        {
          "rowIndex": 40,
          "strings": [
            "",
            "ファウスト",
            "悲しみ",
            "",
            "",
            "",
            ".2",
            "",
            "こんな仕事、さっさと片付けたいわ",
            "",
            "",
            ""
          ],
          "isEmpty": 0,
          "isCommentOut": 0
        },
        {
          "rowIndex": 41,
          "strings": [
            "CharacterOff",
            "",
            "",
            "",
            "",
            "",
            "",
            "",
            "",
            "",
            "",
            ""
          ],
          "isEmpty": 0,
          "isCommentOut": 0
        },
        {
          "rowIndex": 42,
          "strings": [
            "",
            "イクス",
            "笑い",
            "",
            "",
            "",
            "",
            "",
            "あっれー、みんなテンション低め？\nもしかしてそれって、コイツのせい？",
            "",
            "",
            ""
          ],
          "isEmpty": 0,
          "isCommentOut": 0
        },
        {
          "rowIndex": 43,
          "strings": [
            "CharacterOff",
            "",
            "",
            "",
            "",
            "",
            "",
            "",
            "",
            "",
            "",
            ""
          ],
          "isEmpty": 0,
          "isCommentOut": 0
        },
        {
          "rowIndex": 44,
          "strings": [
            "",
            "ルルシィ",
            "悲しみ",
            "",
            "",
            "",
            "",
            "",
            "",
            "",
            "",
            ""
          ],
          "isEmpty": 0,
          "isCommentOut": 0
        },
        {
          "rowIndex": 45,
          "strings": [
            "Tween",
            "ルルシィ",
            "ShakePosition",
            "x=10 islocal=true time=.3",
            "",
            "",
            "",
            "Add",
            "",
            "",
            "",
            ""
          ],
          "isEmpty": 0,
          "isCommentOut": 0
        },
        {
          "rowIndex": 46,
          "strings": [
            "",
            "ルルシィ",
            "悲しみ",
            "",
            "",
            "",
            "",
            "",
            "あうっ……！",
            "",
            "",
            ""
          ],
          "isEmpty": 0,
          "isCommentOut": 0
        },
        {
          "rowIndex": 47,
          "strings": [
            "CharacterOff",
            "",
            "",
            "",
            "",
            "",
            "",
            "",
            "",
            "",
            "",
            ""
          ],
          "isEmpty": 0,
          "isCommentOut": 0
        },
        {
          "rowIndex": 48,
          "strings": [
            "",
            "イクス",
            "笑い",
            "キャラ右",
            "",
            "",
            "",
            "",
            "",
            "",
            "",
            ""
          ],
          "isEmpty": 0,
          "isCommentOut": 0
        },
        {
          "rowIndex": 49,
          "strings": [
            "",
            "ロゼ",
            "悲しみ",
            "キャラ左",
            "",
            "",
            "",
            "",
            "くっ……！？　",
            "",
            "",
            ""
          ],
          "isEmpty": 0,
          "isCommentOut": 0
        },
        {
          "rowIndex": 50,
          "strings": [
            "",
            "イクス",
            "笑い",
            "",
            "",
            "",
            "",
            "",
            "えっくせれ～んと！　いい顔だぜ！\nやっぱ人質の使い方はこうじゃないとなー",
            "",
            "",
            ""
          ],
          "isEmpty": 0,
          "isCommentOut": 0
        },
        {
          "rowIndex": 51,
          "strings": [
            "",
            "ロゼ",
            "真剣",
            "",
            "",
            "",
            ".2",
            "",
            "なんの罪もないモンスター娘を盾にするなんて、\nそれが戦う力を持つ者がやることなの！？",
            "",
            "",
            ""
          ],
          "isEmpty": 0,
          "isCommentOut": 0
        },
        {
          "rowIndex": 52,
          "strings": [
            "CharacterOff",
            "",
            "",
            "",
            "",
            "",
            "",
            "",
            "",
            "",
            "",
            ""
          ],
          "isEmpty": 0,
          "isCommentOut": 0
        },
        {
          "rowIndex": 53,
          "strings": [
            "",
            "ファウスト",
            "通常",
            "キャラ右",
            "",
            "",
            "",
            "",
            "",
            "",
            "",
            ""
          ],
          "isEmpty": 0,
          "isCommentOut": 0
        },
        {
          "rowIndex": 54,
          "strings": [
            "",
            "リーリア",
            "真剣",
            "キャラ左",
            "",
            "",
            "",
            "",
            "うっさい！　こっちだって命懸けなのよ！",
            "Br",
            "",
            ""
          ],
          "isEmpty": 0,
          "isCommentOut": 0
        },
        {
          "rowIndex": 55,
          "strings": [
            "Wait",
            "",
            "",
            "",
            "",
            "",
            ".3",
            "",
            "",
            "",
            "",
            ""
          ],
          "isEmpty": 0,
          "isCommentOut": 0
        },
        {
          "rowIndex": 56,
          "strings": [
            "",
            "リーリア",
            "悲しみ",
            "",
            "",
            "",
            ".2",
            "",
            "もう失敗は許されないんだから……",
            "",
            "",
            ""
          ],
          "isEmpty": 0,
          "isCommentOut": 0
        },
        {
          "rowIndex": 57,
          "strings": [
            "",
            "ファウスト",
            "悲しみ",
            "",
            "",
            "",
            ".2",
            "",
            "本当に耳の痛い話ね。",
            "Br",
            "",
            ""
          ],
          "isEmpty": 0,
          "isCommentOut": 0
        },
        {
          "rowIndex": 58,
          "strings": [
            "Wait",
            "",
            "",
            "",
            "",
            "",
            ".3",
            "",
            "",
            "",
            "",
            ""
          ],
          "isEmpty": 0,
          "isCommentOut": 0
        },
        {
          "rowIndex": 59,
          "strings": [
            "",
            "ファウスト",
            "真剣",
            "",
            "",
            "",
            ".2",
            "",
            "だからといって、同情はしないわ。これで終わりよ",
            "",
            "",
            ""
          ],
          "isEmpty": 0,
          "isCommentOut": 0
        },
        {
          "rowIndex": 60,
          "strings": [
            "CharacterOff",
            "",
            "",
            "",
            "",
            "",
            "",
            "",
            "",
            "",
            "",
            ""
          ],
          "isEmpty": 0,
          "isCommentOut": 0
        },
        {
          "rowIndex": 61,
          "strings": [
            "",
            "ロゼ",
            "真剣",
            "キャラ中央",
            "",
            "",
            "",
            "",
            "",
            "",
            "",
            ""
          ],
          "isEmpty": 0,
          "isCommentOut": 0
        },
        {
          "rowIndex": 62,
          "strings": [
            "Wait",
            "",
            "",
            "",
            "",
            "",
            ".5",
            "",
            "",
            "",
            "",
            ""
          ],
          "isEmpty": 0,
          "isCommentOut": 0
        },
        {
          "rowIndex": 63,
          "strings": [
            "Se",
            "爆音",
            "",
            "",
            "",
            "",
            "",
            "",
            "",
            "",
            "",
            ""
          ],
          "isEmpty": 0,
          "isCommentOut": 0
        },
        {
          "rowIndex": 64,
          "strings": [
            "FadeOut",
            "red",
            "",
            "",
            "",
            "",
            ".2",
            "",
            "",
            "",
            "",
            ""
          ],
          "isEmpty": 0,
          "isCommentOut": 0
        },
        {
          "rowIndex": 65,
          "strings": [
            "FadeIn",
            "red",
            "",
            "",
            "",
            "",
            ".2",
            "",
            "",
            "",
            "",
            ""
          ],
          "isEmpty": 0,
          "isCommentOut": 0
        },
        {
          "rowIndex": 66,
          "strings": [
            "Shake",
            "Camera",
            "x=5 time=.3",
            "",
            "",
            "",
            "",
            "NoWait",
            "",
            "",
            "",
            ""
          ],
          "isEmpty": 0,
          "isCommentOut": 0
        },
        {
          "rowIndex": 67,
          "strings": [
            "Wait",
            "",
            "",
            "",
            "",
            "",
            "1",
            "",
            "",
            "",
            "",
            ""
          ],
          "isEmpty": 0,
          "isCommentOut": 0
        },
        {
          "rowIndex": 68,
          "strings": [
            "",
            "ロゼ",
            "悲しみ",
            "",
            "",
            "",
            "",
            "",
            "ああああっ！！",
            "",
            "",
            ""
          ],
          "isEmpty": 0,
          "isCommentOut": 0
        },
        {
          "rowIndex": 69,
          "strings": [
            "Tween",
            "ロゼ",
            "MoveTo",
            "x=0 y=-100 islocal=true time=1",
            "easeOutQuad",
            "",
            "",
            "Add",
            "",
            "",
            "",
            ""
          ],
          "isEmpty": 0,
          "isCommentOut": 0
        },
        {
          "rowIndex": 70,
          "strings": [
            "CharacterOff",
            "ロゼ",
            "",
            "",
            "",
            "",
            "1",
            "",
            "",
            "",
            "",
            ""
          ],
          "isEmpty": 0,
          "isCommentOut": 0
        },
        {
          "rowIndex": 71,
          "strings": [
            "Wait",
            "",
            "",
            "",
            "",
            "",
            ".5",
            "",
            "",
            "",
            "",
            ""
          ],
          "isEmpty": 0,
          "isCommentOut": 0
        },
        {
          "rowIndex": 72,
          "strings": [
            "Se",
            "倒れる音",
            "",
            "",
            "",
            "",
            "",
            "",
            "",
            "",
            "",
            ""
          ],
          "isEmpty": 0,
          "isCommentOut": 0
        },
        {
          "rowIndex": 73,
          "strings": [
            "CharacterOff",
            "",
            "",
            "",
            "",
            "",
            "",
            "",
            "",
            "",
            "",
            ""
          ],
          "isEmpty": 0,
          "isCommentOut": 0
        },
        {
          "rowIndex": 74,
          "strings": [
            "",
            "ルルシィ",
            "真剣",
            "",
            "",
            "",
            "",
            "",
            "ロゼさん！",
            "",
            "",
            ""
          ],
          "isEmpty": 0,
          "isCommentOut": 0
        },
        {
          "rowIndex": 75,
          "strings": [
            "CharacterOff",
            "",
            "",
            "",
            "",
            "",
            "",
            "",
            "",
            "",
            "",
            ""
          ],
          "isEmpty": 0,
          "isCommentOut": 0
        },
        {
          "rowIndex": 76,
          "strings": [
            "",
            "イクス",
            "通常",
            "キャラ中央",
            "",
            "",
            "",
            "",
            "",
            "",
            "",
            ""
          ],
          "isEmpty": 0,
          "isCommentOut": 0
        },
        {
          "rowIndex": 77,
          "strings": [
            "",
            "ファウスト",
            "通常",
            "キャラ右",
            "",
            "",
            "",
            "",
            "",
            "",
            "",
            ""
          ],
          "isEmpty": 0,
          "isCommentOut": 0
        },
        {
          "rowIndex": 78,
          "strings": [
            "",
            "リーリア",
            "通常",
            "キャラ左",
            "",
            "",
            "",
            "",
            "はぁ～、やっと大人しくなってくれたわ",
            "",
            "",
            ""
          ],
          "isEmpty": 0,
          "isCommentOut": 0
        },
        {
          "rowIndex": 79,
          "strings": [
            "",
            "イクス",
            "通常",
            "",
            "",
            "",
            "",
            "",
            "ていうか、倒すのおそくねー？",
            "",
            "",
            ""
          ],
          "isEmpty": 0,
          "isCommentOut": 0
        },
        {
          "rowIndex": 80,
          "strings": [
            "",
            "ファウスト",
            "真剣",
            "",
            "",
            "",
            ".2",
            "",
            "黙りなさい",
            "",
            "",
            ""
          ],
          "isEmpty": 0,
          "isCommentOut": 0
        },
        {
          "rowIndex": 81,
          "strings": [
            "",
            "ファウスト",
            "真剣",
            "",
            "",
            "",
            "",
            "",
            "あなたが神経を逆なでするようなことを言うから\nこんなにも面倒な事態になったのよ",
            "",
            "",
            ""
          ],
          "isEmpty": 0,
          "isCommentOut": 0
        },
        {
          "rowIndex": 82,
          "strings": [
            "",
            "イクス",
            "通常",
            "",
            "",
            "",
            "",
            "",
            "へいへーい、そりゃ悪ぅございましたー",
            "",
            "",
            ""
          ],
          "isEmpty": 0,
          "isCommentOut": 0
        },
        {
          "rowIndex": 83,
          "strings": [
            "",
            "リーリア",
            "通常",
            "",
            "",
            "",
            "",
            "",
            "いいから早く片付けてよ",
            "",
            "",
            ""
          ],
          "isEmpty": 0,
          "isCommentOut": 0
        },
        {
          "rowIndex": 84,
          "strings": [
            "",
            "リーリア",
            "悲しみ",
            "",
            "",
            "",
            ".2",
            "",
            "そもそもネームレスがいれば話は簡単なのに、\nアイツなんで来ないのよ？",
            "",
            "",
            ""
          ],
          "isEmpty": 0,
          "isCommentOut": 0
        },
        {
          "rowIndex": 85,
          "strings": [
            "",
            "イクス",
            "通常",
            "",
            "",
            "",
            "",
            "",
            "アイツは保守思考だからな。\nそれはともかく……じゃ、頼むわ巫女さん",
            "",
            "",
            ""
          ],
          "isEmpty": 0,
          "isCommentOut": 0
        },
        {
          "rowIndex": 86,
          "strings": [
            "CharacterOff",
            "",
            "",
            "",
            "",
            "",
            "",
            "",
            "",
            "",
            "",
            ""
          ],
          "isEmpty": 0,
          "isCommentOut": 0
        },
        {
          "rowIndex": 87,
          "strings": [
            "",
            "ルルシィ",
            "悲しみ",
            "",
            "",
            "",
            "",
            "",
            "",
            "",
            "",
            ""
          ],
          "isEmpty": 0,
          "isCommentOut": 0
        },
        {
          "rowIndex": 88,
          "strings": [
            "Tween",
            "ルルシィ",
            "ShakePosition",
            "x=10 islocal=true time=.3",
            "",
            "",
            "",
            "Add",
            "",
            "",
            "",
            ""
          ],
          "isEmpty": 0,
          "isCommentOut": 0
        },
        {
          "rowIndex": 89,
          "strings": [
            "",
            "ルルシィ",
            "悲しみ",
            "",
            "",
            "",
            "",
            "",
            "あうっ……",
            "",
            "",
            ""
          ],
          "isEmpty": 0,
          "isCommentOut": 0
        },
        {
          "rowIndex": 90,
          "strings": [
            "CharacterOff",
            "",
            "",
            "",
            "",
            "",
            "",
            "",
            "",
            "",
            "",
            ""
          ],
          "isEmpty": 0,
          "isCommentOut": 0
        },
        {
          "rowIndex": 91,
          "strings": [
            "",
            "ファウスト",
            "通常",
            "キャラ右",
            "",
            "",
            "",
            "",
            "",
            "",
            "",
            ""
          ],
          "isEmpty": 0,
          "isCommentOut": 0
        },
        {
          "rowIndex": 92,
          "strings": [
            "",
            "リーリア",
            "通常",
            "キャラ左",
            "",
            "",
            "",
            "",
            "",
            "",
            "",
            ""
          ],
          "isEmpty": 0,
          "isCommentOut": 0
        },
        {
          "rowIndex": 93,
          "strings": [
            "",
            "イクス",
            "通常",
            "キャラ中央",
            "",
            "",
            "",
            "",
            "てめぇの持ってる『常闇のブラ』を、\nそこでのびてる女に着けさせな",
            "",
            "",
            ""
          ],
          "isEmpty": 0,
          "isCommentOut": 0
        },
        {
          "rowIndex": 94,
          "strings": [
            "CharacterOff",
            "",
            "",
            "",
            "",
            "",
            "",
            "",
            "",
            "",
            "",
            ""
          ],
          "isEmpty": 0,
          "isCommentOut": 0
        },
        {
          "rowIndex": 95,
          "strings": [
            "",
            "ルルシィ",
            "悲しみ",
            "",
            "",
            "",
            "",
            "",
            "うぅ……ごめんなさい……",
            "",
            "",
            ""
          ],
          "isEmpty": 0,
          "isCommentOut": 0
        },
        {
          "rowIndex": 96,
          "strings": [
            "CharacterOff",
            "",
            "",
            "",
            "",
            "",
            "",
            "",
            "",
            "",
            "",
            ""
          ],
          "isEmpty": 0,
          "isCommentOut": 0
        },
        {
          "rowIndex": 97,
          "strings": [
            "",
            "ファウスト",
            "通常",
            "キャラ右",
            "",
            "",
            "",
            "",
            "",
            "",
            "",
            ""
          ],
          "isEmpty": 0,
          "isCommentOut": 0
        },
        {
          "rowIndex": 98,
          "strings": [
            "",
            "イクス",
            "通常",
            "キャラ中央",
            "",
            "",
            "",
            "",
            "",
            "",
            "",
            ""
          ],
          "isEmpty": 0,
          "isCommentOut": 0
        },
        {
          "rowIndex": 99,
          "strings": [
            "",
            "リーリア",
            "悲しみ",
            "キャラ左",
            "",
            "",
            "",
            "",
            "なに？　その『常闇のブラ』って",
            "",
            "",
            ""
          ],
          "isEmpty": 0,
          "isCommentOut": 0
        },
        {
          "rowIndex": 100,
          "strings": [
            "",
            "イクス",
            "笑い",
            "",
            "",
            "",
            ".2",
            "",
            "お、よくぞ聞いてくれた",
            "",
            "",
            ""
          ],
          "isEmpty": 0,
          "isCommentOut": 0
        },
        {
          "rowIndex": 101,
          "strings": [
            "",
            "イクス",
            "通常",
            "",
            "",
            "",
            ".2",
            "",
            "『常闇のブラ』には、その者が心に抱える負の感情を\n表に引き出す効果があるんだ",
            "",
            "",
            ""
          ],
          "isEmpty": 0,
          "isCommentOut": 0
        },
        {
          "rowIndex": 102,
          "strings": [
            "",
            "イクス",
            "通常",
            "",
            "",
            "",
            "",
            "",
            "そこの女は人間のことをずいぶんと憎んでるからな、",
            "Br",
            "",
            ""
          ],
          "isEmpty": 0,
          "isCommentOut": 0
        },
        {
          "rowIndex": 103,
          "strings": [
            "Wait",
            "",
            "",
            "",
            "",
            "",
            ".3",
            "",
            "",
            "",
            "",
            ""
          ],
          "isEmpty": 0,
          "isCommentOut": 0
        },
        {
          "rowIndex": 104,
          "strings": [
            "",
            "イクス",
            "笑い",
            "",
            "",
            "",
            ".2",
            "",
            "きっと暴れまくってくれるはずだぜ",
            "",
            "",
            ""
          ],
          "isEmpty": 0,
          "isCommentOut": 0
        },
        {
          "rowIndex": 105,
          "strings": [
            "",
            "イクス",
            "通常",
            "",
            "",
            "",
            "",
            "",
            "ちなみに、このモンスター娘が務める大神殿には、\nもう一つ『光明のパンツ』って秘宝があるんだ",
            "",
            "",
            ""
          ],
          "isEmpty": 0,
          "isCommentOut": 0
        },
        {
          "rowIndex": 106,
          "strings": [
            "",
            "イクス",
            "通常",
            "",
            "",
            "",
            "",
            "",
            "神次元の一帯はその二つの秘宝の調和によって、\n世界のバランスを保っている",
            "",
            "",
            ""
          ],
          "isEmpty": 0,
          "isCommentOut": 0
        },
        {
          "rowIndex": 107,
          "strings": [
            "",
            "イクス",
            "通常",
            "",
            "",
            "",
            "",
            "",
            "片方が離れてしまえばその均衡が崩れ、\nその地域一体は天変地異を起こし――",
            "",
            "",
            ""
          ],
          "isEmpty": 0,
          "isCommentOut": 0
        },
        {
          "rowIndex": 108,
          "strings": [
            "",
            "イクス",
            "通常",
            "",
            "",
            "",
            "",
            "",
            "世界を崩壊させるきっかけになるとも\n云われている",
            "",
            "",
            ""
          ],
          "isEmpty": 0,
          "isCommentOut": 0
        },
        {
          "rowIndex": 109,
          "strings": [
            "",
            "イクス",
            "笑い",
            "",
            "",
            "",
            ".2",
            "",
            "ロゼの心の闇を解放して暴れさせる！\nついでに『神次元』は崩壊の危機に陥る！",
            "",
            "",
            ""
          ],
          "isEmpty": 0,
          "isCommentOut": 0
        },
        {
          "rowIndex": 110,
          "strings": [
            "",
            "イクス",
            "笑い",
            "",
            "",
            "",
            "",
            "",
            "一粒で二度美味しい展開だろ！？",
            "",
            "",
            ""
          ],
          "isEmpty": 0,
          "isCommentOut": 0
        },
        {
          "rowIndex": 111,
          "strings": [
            "",
            "ファウスト",
            "通常",
            "",
            "",
            "",
            "",
            "",
            "ネームレスの『マインド・フォース』なら、\n洗脳なんて簡単なこと",
            "",
            "",
            ""
          ],
          "isEmpty": 0,
          "isCommentOut": 0
        },
        {
          "rowIndex": 112,
          "strings": [
            "",
            "ファウスト",
            "悲しみ",
            "",
            "",
            "",
            ".2",
            "",
            "どうしてこんな回りくどいやり方をするのかと\n思っていたのだけど……",
            "",
            "",
            ""
          ],
          "isEmpty": 0,
          "isCommentOut": 0
        },
        {
          "rowIndex": 113,
          "strings": [
            "",
            "ファウスト",
            "通常",
            "",
            "",
            "",
            ".2",
            "",
            "今回の作戦を考えたのはネームレスじゃなくて、\nイクス、あなたね？",
            "",
            "",
            ""
          ],
          "isEmpty": 0,
          "isCommentOut": 0
        },
        {
          "rowIndex": 114,
          "strings": [
            "",
            "イクス",
            "笑い",
            "",
            "",
            "",
            "",
            "",
            "あら、バレバレンてぃん？",
            "",
            "",
            ""
          ],
          "isEmpty": 0,
          "isCommentOut": 0
        },
        {
          "rowIndex": 115,
          "strings": [
            "",
            "ファウスト",
            "真剣",
            "",
            "",
            "",
            ".2",
            "",
            "……相変わらず趣味が悪いわ",
            "",
            "",
            ""
          ],
          "isEmpty": 0,
          "isCommentOut": 0
        },
        {
          "rowIndex": 116,
          "strings": [
            "",
            "イクス",
            "笑い",
            "",
            "",
            "",
            "",
            "",
            "そいつは褒め言葉として受け取っとくよ。",
            "Br",
            "",
            ""
          ],
          "isEmpty": 0,
          "isCommentOut": 0
        },
        {
          "rowIndex": 117,
          "strings": [
            "Wait",
            "",
            "",
            "",
            "",
            "",
            ".3",
            "",
            "",
            "",
            "",
            ""
          ],
          "isEmpty": 0,
          "isCommentOut": 0
        },
        {
          "rowIndex": 118,
          "strings": [
            "",
            "イクス",
            "真剣",
            "",
            "",
            "",
            ".2",
            "",
            "って、おいこら巫女。さっさとやれよ",
            "",
            "",
            ""
          ],
          "isEmpty": 0,
          "isCommentOut": 0
        },
        {
          "rowIndex": 119,
          "strings": [
            "CharacterOff",
            "",
            "",
            "",
            "",
            "",
            "",
            "",
            "",
            "",
            "",
            ""
          ],
          "isEmpty": 0,
          "isCommentOut": 0
        },
        {
          "rowIndex": 120,
          "strings": [
            "",
            "ロゼ",
            "目閉じ",
            "キャラ右",
            "",
            "",
            "",
            "",
            "",
            "",
            "",
            ""
          ],
          "isEmpty": 0,
          "isCommentOut": 0
        },
        {
          "rowIndex": 121,
          "strings": [
            "",
            "ルルシィ",
            "悲しみ",
            "キャラ左",
            "",
            "",
            "",
            "",
            "うっ……ごめんなさい……ロゼさん",
            "",
            "",
            ""
          ],
          "isEmpty": 0,
          "isCommentOut": 0
        },
        {
          "rowIndex": 122,
          "strings": [
            "Tween",
            "ルルシィ",
            "MoveTo",
            "x=550 y=0 islocal=true time=2",
            "easeOutQuad",
            "",
            "",
            "",
            "",
            "",
            "",
            ""
          ],
          "isEmpty": 0,
          "isCommentOut": 0
        },
        {
          "rowIndex": 123,
          "strings": [
            "Wait",
            "",
            "",
            "",
            "",
            "",
            ".3",
            "",
            "",
            "",
            "",
            ""
          ],
          "isEmpty": 0,
          "isCommentOut": 0
        },
        {
          "rowIndex": 124,
          "strings": [
            "Se",
            "踏み込み音",
            "",
            "",
            "",
            "",
            "",
            "",
            "",
            "",
            "",
            ""
          ],
          "isEmpty": 0,
          "isCommentOut": 0
        },
        {
          "rowIndex": 125,
          "strings": [
            "Wait",
            "",
            "",
            "",
            "",
            "",
            ".2",
            "",
            "",
            "",
            "",
            ""
          ],
          "isEmpty": 0,
          "isCommentOut": 0
        },
        {
          "rowIndex": 126,
          "strings": [
            "StopSe",
            "",
            "",
            "",
            "",
            "",
            "",
            "",
            "",
            "",
            "",
            ""
          ],
          "isEmpty": 0,
          "isCommentOut": 0
        },
        {
          "rowIndex": 127,
          "strings": [
            "Wait",
            "",
            "",
            "",
            "",
            "",
            ".5",
            "",
            "",
            "",
            "",
            ""
          ],
          "isEmpty": 0,
          "isCommentOut": 0
        },
        {
          "rowIndex": 128,
          "strings": [
            "Tween",
            "ルルシィ",
            "MoveTo",
            "x=-100 y=0 islocal=true time=1",
            "easeOutQuad",
            "",
            "",
            "Add",
            "",
            "",
            "",
            ""
          ],
          "isEmpty": 0,
          "isCommentOut": 0
        },
        {
          "rowIndex": 129,
          "strings": [
            "CharacterOff",
            "ルルシィ",
            "",
            "",
            "",
            "",
            "1",
            "",
            "",
            "",
            "",
            ""
          ],
          "isEmpty": 0,
          "isCommentOut": 0
        },
        {
          "rowIndex": 130,
          "strings": [
            "Wait",
            "",
            "",
            "",
            "",
            "",
            "1",
            "",
            "",
            "",
            "",
            ""
          ],
          "isEmpty": 0,
          "isCommentOut": 0
        },
        {
          "rowIndex": 131,
          "strings": [
            "Se",
            "鼓動音",
            "",
            "",
            "",
            "",
            "",
            "",
            "",
            "",
            "",
            ""
          ],
          "isEmpty": 0,
          "isCommentOut": 0
        },
        {
          "rowIndex": 132,
          "strings": [
            "Se",
            "鼓動音",
            "",
            "",
            "",
            "",
            "",
            "",
            "",
            "",
            "",
            ""
          ],
          "isEmpty": 0,
          "isCommentOut": 0
        },
        {
          "rowIndex": 133,
          "strings": [
            "CaptureImage",
            "キャプチャーイメージ",
            "SpriteCamera",
            "キャプチャ画像レイヤー",
            "",
            "",
            "",
            "",
            "",
            "",
            "",
            ""
          ],
          "isEmpty": 0,
          "isCommentOut": 0
        },
        {
          "rowIndex": 134,
          "strings": [
            "Tween",
            "キャプチャーイメージ",
            "ScaleTo",
            "time=.2 x=1.05 y=1.05",
            "",
            "",
            "",
            "",
            "",
            "",
            "",
            ""
          ],
          "isEmpty": 0,
          "isCommentOut": 0
        },
        {
          "rowIndex": 135,
          "strings": [
            "ImageEffect",
            "SpriteCamera",
            "MotionBlur",
            "",
            "",
            "",
            "",
            "",
            "",
            "",
            "",
            ""
          ],
          "isEmpty": 0,
          "isCommentOut": 0
        },
        {
          "rowIndex": 136,
          "strings": [
            "Tween",
            "キャプチャーイメージ",
            "ScaleTo",
            "time=.4 x=1 y=1",
            "",
            "",
            "",
            "",
            "",
            "",
            "",
            ""
          ],
          "isEmpty": 0,
          "isCommentOut": 0
        },
        {
          "rowIndex": 137,
          "strings": [
            "ImageEffect",
            "SpriteCamera",
            "MotionBlur",
            "",
            "",
            "",
            "",
            "",
            "",
            "",
            "",
            ""
          ],
          "isEmpty": 0,
          "isCommentOut": 0
        },
        {
          "rowIndex": 138,
          "strings": [
            "RuleFadeOut",
            "キャプチャーイメージ",
            "FadeCircle",
            "",
            "",
            "",
            "",
            "",
            "",
            "",
            "",
            ""
          ],
          "isEmpty": 0,
          "isCommentOut": 0
        },
        {
          "rowIndex": 139,
          "strings": [
            "Wait",
            "",
            "",
            "",
            "",
            "",
            ".5",
            "",
            "",
            "",
            "",
            ""
          ],
          "isEmpty": 0,
          "isCommentOut": 0
        },
        {
          "rowIndex": 140,
          "strings": [
            "Tween",
            "ロゼ",
            "ShakePosition",
            "x=10 islocal=true time=2",
            "",
            "",
            "",
            "Add",
            "",
            "",
            "",
            ""
          ],
          "isEmpty": 0,
          "isCommentOut": 0
        },
        {
          "rowIndex": 141,
          "strings": [
            "",
            "ロゼ",
            "",
            "",
            "",
            "",
            "",
            "",
            "うがああああああああ！！",
            "",
            "",
            ""
          ],
          "isEmpty": 0,
          "isCommentOut": 0
        },
        {
          "rowIndex": 142,
          "strings": [
            "CharacterOff",
            "",
            "",
            "",
            "",
            "",
            "",
            "",
            "",
            "",
            "",
            ""
          ],
          "isEmpty": 0,
          "isCommentOut": 0
        },
        {
          "rowIndex": 143,
          "strings": [
            "",
            "ルルシィ",
            "悲しみ",
            "キャラ中央",
            "",
            "",
            "",
            "",
            "……大神殿の神官、先代巫女の緋乃芽さま、\nそして女神様……申し訳ございません",
            "",
            "",
            ""
          ],
          "isEmpty": 0,
          "isCommentOut": 0
        },
        {
          "rowIndex": 144,
          "strings": [
            "CharacterOff",
            "",
            "",
            "",
            "",
            "",
            "",
            "",
            "",
            "",
            "",
            ""
          ],
          "isEmpty": 0,
          "isCommentOut": 0
        },
        {
          "rowIndex": 145,
          "strings": [
            "CharacterOff",
            "",
            "",
            "",
            "",
            "",
            "0",
            "",
            "",
            "",
            "",
            ""
          ],
          "isEmpty": 0,
          "isCommentOut": 0
        },
        {
          "rowIndex": 146,
          "strings": [
            "",
            "ロゼ",
            "目閉じ",
            "キャラ中央",
            "",
            "",
            "",
            "",
            "",
            "",
            "",
            ""
          ],
          "isEmpty": 0,
          "isCommentOut": 0
        },
        {
          "rowIndex": 147,
          "strings": [
            "Wait",
            "",
            "",
            "",
            "",
            "",
            "1",
            "",
            "",
            "",
            "",
            ""
          ],
          "isEmpty": 0,
          "isCommentOut": 0
        },
        {
          "rowIndex": 148,
          "strings": [
            "Se",
            "消滅音",
            "",
            "",
            "",
            "",
            "",
            "",
            "",
            "",
            "",
            ""
          ],
          "isEmpty": 0,
          "isCommentOut": 0
        },
        {
          "rowIndex": 149,
          "strings": [
            "",
            "常闇ロゼ",
            "目閉じ",
            "キャラ中央",
            "",
            "",
            "",
            "",
            "",
            "",
            "",
            ""
          ],
          "isEmpty": 0,
          "isCommentOut": 0
        },
        {
          "rowIndex": 150,
          "strings": [
            "RuleFadeIn",
            "常闇ロゼ",
            "Noise",
            "",
            "",
            "",
            "1",
            "",
            "",
            "",
            "",
            ""
          ],
          "isEmpty": 0,
          "isCommentOut": 0
        },
        {
          "rowIndex": 151,
          "strings": [
            "Wait",
            "",
            "",
            "",
            "",
            "",
            "1.5",
            "",
            "",
            "",
            "",
            ""
          ],
          "isEmpty": 0,
          "isCommentOut": 0
        },
        {
          "rowIndex": 152,
          "strings": [
            "",
            "常闇ロゼ",
            "目閉じ",
            "キャラ中央",
            "",
            "",
            "",
            "",
            "う……あ……",
            "",
            "",
            ""
          ],
          "isEmpty": 0,
          "isCommentOut": 0
        },
        {
          "rowIndex": 153,
          "strings": [
            "CharacterOff",
            "",
            "",
            "",
            "",
            "",
            "",
            "",
            "",
            "",
            "",
            ""
          ],
          "isEmpty": 0,
          "isCommentOut": 0
        },
        {
          "rowIndex": 154,
          "strings": [
            "",
            "ファウスト",
            "通常",
            "キャラ右",
            "",
            "",
            "",
            "",
            "",
            "",
            "",
            ""
          ],
          "isEmpty": 0,
          "isCommentOut": 0
        },
        {
          "rowIndex": 155,
          "strings": [
            "",
            "リーリア",
            "通常",
            "キャラ左",
            "",
            "",
            "",
            "",
            "",
            "",
            "",
            ""
          ],
          "isEmpty": 0,
          "isCommentOut": 0
        },
        {
          "rowIndex": 156,
          "strings": [
            "",
            "イクス",
            "笑い",
            "キャラ中央",
            "",
            "",
            "",
            "",
            "キタキタ～！　闇堕ち完了ってな！",
            "",
            "",
            ""
          ],
          "isEmpty": 0,
          "isCommentOut": 0
        },
        {
          "rowIndex": 157,
          "strings": [
            "",
            "リーリア",
            "悲しみ",
            "",
            "",
            "",
            ".2",
            "",
            "ふぅ……これで嫌な仕事も終わりね",
            "",
            "",
            ""
          ],
          "isEmpty": 0,
          "isCommentOut": 0
        },
        {
          "rowIndex": 158,
          "strings": [
            "",
            "ファウスト",
            "真剣",
            "",
            "",
            "",
            ".2",
            "",
            "っ……来るわ",
            "",
            "",
            ""
          ],
          "isEmpty": 0,
          "isCommentOut": 0
        },
        {
          "rowIndex": 159,
          "strings": [
            "CharacterOff",
            "",
            "",
            "",
            "",
            "",
            "",
            "",
            "",
            "",
            "",
            ""
          ],
          "isEmpty": 0,
          "isCommentOut": 0
        },
        {
          "rowIndex": 160,
          "strings": [
            "Wait",
            "",
            "",
            "",
            "",
            "",
            "1",
            "",
            "",
            "",
            "",
            ""
          ],
          "isEmpty": 0,
          "isCommentOut": 0
        },
        {
          "rowIndex": 161,
          "strings": [
            "Se",
            "次元転移音",
            "",
            "",
            "",
            "",
            "",
            "",
            "",
            "",
            "",
            ""
          ],
          "isEmpty": 0,
          "isCommentOut": 0
        },
        {
          "rowIndex": 162,
          "strings": [
            "FadeOut",
            "white",
            "",
            "",
            "",
            "",
            "1",
            "",
            "",
            "",
            "",
            ""
          ],
          "isEmpty": 0,
          "isCommentOut": 0
        },
        {
          "rowIndex": 163,
          "strings": [
            "",
            "ブラックハート神次元",
            "通常",
            "キャラ左",
            "",
            "",
            "0",
            "",
            "",
            "",
            "",
            ""
          ],
          "isEmpty": 0,
          "isCommentOut": 0
        },
        {
          "rowIndex": 164,
          "strings": [
            "Jump",
            "*case 200201-1",
            "is_heroine",
            "",
            "",
            "",
            "",
            "",
            "",
            "",
            "",
            ""
          ],
          "isEmpty": 0,
          "isCommentOut": 0
        },
        {
          "rowIndex": 165,
          "strings": [
            "",
            "敵アイナ",
            "通常",
            "キャラ右",
            "",
            "",
            "0",
            "",
            "",
            "",
            "",
            ""
          ],
          "isEmpty": 0,
          "isCommentOut": 0
        },
        {
          "rowIndex": 166,
          "strings": [
            "FadeIn",
            "white",
            "",
            "",
            "",
            "",
            "1",
            "",
            "",
            "",
            "",
            ""
          ],
          "isEmpty": 0,
          "isCommentOut": 0
        },
        {
          "rowIndex": 167,
          "strings": [
            "",
            "ブラックハート神次元",
            "通常",
            "",
            "",
            "",
            "",
            "",
            "ルルシィが連れ去られたのは、この次元ね",
            "",
            "",
            ""
          ],
          "isEmpty": 0,
          "isCommentOut": 0
        },
        {
          "rowIndex": 168,
          "strings": [
            "",
            "敵アイナ",
            "通常",
            "",
            "",
            "",
            "",
            "",
            "でも、遅かったみたい",
            "",
            "",
            ""
          ],
          "isEmpty": 0,
          "isCommentOut": 0
        },
        {
          "rowIndex": 169,
          "strings": [
            "CharacterOff",
            "",
            "",
            "",
            "",
            "",
            "",
            "",
            "",
            "",
            "",
            ""
          ],
          "isEmpty": 0,
          "isCommentOut": 0
        },
        {
          "rowIndex": 170,
          "strings": [
            "",
            "常闇ロゼ",
            "目閉じ",
            "",
            "",
            "",
            "",
            "",
            "",
            "",
            "",
            ""
          ],
          "isEmpty": 0,
          "isCommentOut": 0
        },
        {
          "rowIndex": 171,
          "strings": [
            "Wait",
            "",
            "",
            "",
            "",
            "",
            "1.5",
            "",
            "",
            "",
            "",
            ""
          ],
          "isEmpty": 0,
          "isCommentOut": 0
        },
        {
          "rowIndex": 172,
          "strings": [
            "CharacterOff",
            "",
            "",
            "",
            "",
            "",
            "",
            "",
            "",
            "",
            "",
            ""
          ],
          "isEmpty": 0,
          "isCommentOut": 0
        },
        {
          "rowIndex": 173,
          "strings": [
            "",
            "敵アイナ",
            "通常",
            "キャラ右",
            "",
            "",
            "",
            "",
            "",
            "",
            "",
            ""
          ],
          "isEmpty": 0,
          "isCommentOut": 0
        },
        {
          "rowIndex": 174,
          "strings": [
            "",
            "ブラックハート神次元",
            "真剣",
            "キャラ左",
            "",
            "",
            "",
            "",
            "まさか、『常闇のブラ』を！？",
            "",
            "",
            ""
          ],
          "isEmpty": 0,
          "isCommentOut": 0
        },
        {
          "rowIndex": 175,
          "strings": [
            "CharacterOff",
            "",
            "",
            "",
            "",
            "",
            "",
            "",
            "",
            "",
            "",
            ""
          ],
          "isEmpty": 0,
          "isCommentOut": 0
        },
        {
          "rowIndex": 176,
          "strings": [
            "",
            "ファウスト",
            "",
            "キャラ右",
            "",
            "",
            "",
            "",
            "",
            "",
            "",
            ""
          ],
          "isEmpty": 0,
          "isCommentOut": 0
        },
        {
          "rowIndex": 177,
          "strings": [
            "",
            "リーリア",
            "",
            "キャラ左",
            "",
            "",
            "",
            "",
            "",
            "",
            "",
            ""
          ],
          "isEmpty": 0,
          "isCommentOut": 0
        },
        {
          "rowIndex": 178,
          "strings": [
            "",
            "イクス",
            "通常",
            "キャラ中央",
            "",
            "",
            "",
            "",
            "おっと、面倒なのがきちまったな。\nここは退散するぜっ",
            "",
            "",
            ""
          ],
          "isEmpty": 0,
          "isCommentOut": 0
        },
        {
          "rowIndex": 179,
          "strings": [
            "",
            "ファウスト",
            "通常",
            "",
            "",
            "",
            "",
            "",
            "無駄な戦いをしている暇はないものね",
            "",
            "",
            ""
          ],
          "isEmpty": 0,
          "isCommentOut": 0
        },
        {
          "rowIndex": 180,
          "strings": [
            "",
            "リーリア",
            "通常",
            "",
            "",
            "",
            "",
            "",
            "はいはい、たいさーんっ",
            "",
            "",
            ""
          ],
          "isEmpty": 0,
          "isCommentOut": 0
        },
        {
          "rowIndex": 181,
          "strings": [
            "Se",
            "次元転移音",
            "",
            "",
            "",
            "",
            "",
            "",
            "",
            "",
            "",
            ""
          ],
          "isEmpty": 0,
          "isCommentOut": 0
        },
        {
          "rowIndex": 182,
          "strings": [
            "FadeOut",
            "white",
            "",
            "",
            "",
            "",
            "1",
            "",
            "",
            "",
            "",
            ""
          ],
          "isEmpty": 0,
          "isCommentOut": 0
        },
        {
          "rowIndex": 183,
          "strings": [
            "CharacterOff",
            "",
            "",
            "",
            "",
            "",
            "0",
            "",
            "",
            "",
            "",
            ""
          ],
          "isEmpty": 0,
          "isCommentOut": 0
        },
        {
          "rowIndex": 184,
          "strings": [
            "FadeIn",
            "white",
            "",
            "",
            "",
            "",
            "1",
            "",
            "",
            "",
            "",
            ""
          ],
          "isEmpty": 0,
          "isCommentOut": 0
        },
        {
          "rowIndex": 185,
          "strings": [
            "Wait",
            "",
            "",
            "",
            "",
            "",
            ".5",
            "",
            "",
            "",
            "",
            ""
          ],
          "isEmpty": 0,
          "isCommentOut": 0
        },
        {
          "rowIndex": 186,
          "strings": [
            "",
            "ブラックハート神次元",
            "真剣",
            "キャラ左",
            "",
            "",
            "",
            "",
            "",
            "",
            "",
            ""
          ],
          "isEmpty": 0,
          "isCommentOut": 0
        },
        {
          "rowIndex": 187,
          "strings": [
            "",
            "敵アイナ",
            "悲しみ",
            "キャラ右",
            "",
            "",
            "",
            "",
            "くっ……逃げられた",
            "",
            "",
            ""
          ],
          "isEmpty": 0,
          "isCommentOut": 0
        },
        {
          "rowIndex": 188,
          "strings": [
            "",
            "ブラックハート神次元",
            "悲しみ",
            "",
            "",
            "",
            "",
            "",
            "『奴ら』、ルルシィを……『常闇のブラ』を使って、\nいったい何をするつもりなの……",
            "",
            "",
            ""
          ],
          "isEmpty": 0,
          "isCommentOut": 0
        },
        {
          "rowIndex": 189,
          "strings": [
            "FadeOut",
            "black",
            "",
            "",
            "",
            "",
            "1",
            "",
            "",
            "",
            "",
            ""
          ],
          "isEmpty": 0,
          "isCommentOut": 0
        },
        {
          "rowIndex": 190,
          "strings": [
            "Wait",
            "",
            "",
            "",
            "",
            "",
            ".3",
            "",
            "",
            "",
            "",
            ""
          ],
          "isEmpty": 0,
          "isCommentOut": 0
        },
        {
          "rowIndex": 191,
          "strings": [
            "EndScenario",
            "",
            "",
            "",
            "",
            "",
            "",
            "",
            "",
            "",
            "",
            ""
          ],
          "isEmpty": 0,
          "isCommentOut": 0
        },
        {
          "rowIndex": 192,
          "strings": [
            "*case 200201-1",
            "",
            "",
            "",
            "",
            "",
            "",
            "",
            "",
            "",
            "",
            ""
          ],
          "isEmpty": 0,
          "isCommentOut": 0
        },
        {
          "rowIndex": 193,
          "strings": [
            "",
            "敵アルト",
            "通常",
            "",
            "",
            "",
            "0",
            "",
            "",
            "",
            "",
            ""
          ],
          "isEmpty": 0,
          "isCommentOut": 0
        },
        {
          "rowIndex": 194,
          "strings": [
            "FadeIn",
            "white",
            "",
            "",
            "",
            "",
            "1",
            "",
            "",
            "",
            "",
            ""
          ],
          "isEmpty": 0,
          "isCommentOut": 0
        },
        {
          "rowIndex": 195,
          "strings": [
            "",
            "ブラックハート神次元",
            "通常",
            "",
            "",
            "",
            "",
            "",
            "ルルシィが連れ去られたのは、この次元ね",
            "",
            "",
            ""
          ],
          "isEmpty": 0,
          "isCommentOut": 0
        },
        {
          "rowIndex": 196,
          "strings": [
            "",
            "敵アルト",
            "通常",
            "",
            "",
            "",
            "",
            "",
            "ああ……でも、遅かったみたいだ",
            "",
            "",
            ""
          ],
          "isEmpty": 0,
          "isCommentOut": 0
        },
        {
          "rowIndex": 197,
          "strings": [
            "CharacterOff",
            "",
            "",
            "",
            "",
            "",
            "",
            "",
            "",
            "",
            "",
            ""
          ],
          "isEmpty": 0,
          "isCommentOut": 0
        },
        {
          "rowIndex": 198,
          "strings": [
            "",
            "常闇ロゼ",
            "目閉じ",
            "",
            "",
            "",
            "",
            "",
            "",
            "",
            "",
            ""
          ],
          "isEmpty": 0,
          "isCommentOut": 0
        },
        {
          "rowIndex": 199,
          "strings": [
            "Wait",
            "",
            "",
            "",
            "",
            "",
            "1.5",
            "",
            "",
            "",
            "",
            ""
          ],
          "isEmpty": 0,
          "isCommentOut": 0
        },
        {
          "rowIndex": 200,
          "strings": [
            "CharacterOff",
            "",
            "",
            "",
            "",
            "",
            "",
            "",
            "",
            "",
            "",
            ""
          ],
          "isEmpty": 0,
          "isCommentOut": 0
        },
        {
          "rowIndex": 201,
          "strings": [
            "",
            "敵アルト",
            "通常",
            "キャラ右",
            "",
            "",
            "",
            "",
            "",
            "",
            "",
            ""
          ],
          "isEmpty": 0,
          "isCommentOut": 0
        },
        {
          "rowIndex": 202,
          "strings": [
            "",
            "ブラックハート神次元",
            "真剣",
            "キャラ左",
            "",
            "",
            "",
            "",
            "まさか、『常闇のブラ』を！？",
            "",
            "",
            ""
          ],
          "isEmpty": 0,
          "isCommentOut": 0
        },
        {
          "rowIndex": 203,
          "strings": [
            "CharacterOff",
            "",
            "",
            "",
            "",
            "",
            "",
            "",
            "",
            "",
            "",
            ""
          ],
          "isEmpty": 0,
          "isCommentOut": 0
        },
        {
          "rowIndex": 204,
          "strings": [
            "",
            "ファウスト",
            "",
            "キャラ右",
            "",
            "",
            "",
            "",
            "",
            "",
            "",
            ""
          ],
          "isEmpty": 0,
          "isCommentOut": 0
        },
        {
          "rowIndex": 205,
          "strings": [
            "",
            "リーリア",
            "",
            "キャラ左",
            "",
            "",
            "",
            "",
            "",
            "",
            "",
            ""
          ],
          "isEmpty": 0,
          "isCommentOut": 0
        },
        {
          "rowIndex": 206,
          "strings": [
            "",
            "イクス",
            "通常",
            "キャラ中央",
            "",
            "",
            "",
            "",
            "おっと、面倒なのがきちまったな。\nここは退散するぜっ",
            "",
            "",
            ""
          ],
          "isEmpty": 0,
          "isCommentOut": 0
        },
        {
          "rowIndex": 207,
          "strings": [
            "",
            "ファウスト",
            "通常",
            "",
            "",
            "",
            "",
            "",
            "無駄な戦いをしている暇はないものね",
            "",
            "",
            ""
          ],
          "isEmpty": 0,
          "isCommentOut": 0
        },
        {
          "rowIndex": 208,
          "strings": [
            "",
            "リーリア",
            "通常",
            "",
            "",
            "",
            "",
            "",
            "はいはい、たいさーんっ",
            "",
            "",
            ""
          ],
          "isEmpty": 0,
          "isCommentOut": 0
        },
        {
          "rowIndex": 209,
          "strings": [
            "Se",
            "次元転移音",
            "",
            "",
            "",
            "",
            "",
            "",
            "",
            "",
            "",
            ""
          ],
          "isEmpty": 0,
          "isCommentOut": 0
        },
        {
          "rowIndex": 210,
          "strings": [
            "FadeOut",
            "white",
            "",
            "",
            "",
            "",
            "1",
            "",
            "",
            "",
            "",
            ""
          ],
          "isEmpty": 0,
          "isCommentOut": 0
        },
        {
          "rowIndex": 211,
          "strings": [
            "CharacterOff",
            "",
            "",
            "",
            "",
            "",
            "0",
            "",
            "",
            "",
            "",
            ""
          ],
          "isEmpty": 0,
          "isCommentOut": 0
        },
        {
          "rowIndex": 212,
          "strings": [
            "FadeIn",
            "white",
            "",
            "",
            "",
            "",
            "1",
            "",
            "",
            "",
            "",
            ""
          ],
          "isEmpty": 0,
          "isCommentOut": 0
        },
        {
          "rowIndex": 213,
          "strings": [
            "Wait",
            "",
            "",
            "",
            "",
            "",
            ".5",
            "",
            "",
            "",
            "",
            ""
          ],
          "isEmpty": 0,
          "isCommentOut": 0
        },
        {
          "rowIndex": 214,
          "strings": [
            "",
            "ブラックハート神次元",
            "真剣",
            "キャラ左",
            "",
            "",
            "",
            "",
            "",
            "",
            "",
            ""
          ],
          "isEmpty": 0,
          "isCommentOut": 0
        },
        {
          "rowIndex": 215,
          "strings": [
            "",
            "敵アルト",
            "悲しみ",
            "キャラ右",
            "",
            "",
            "",
            "",
            "くっ……逃げられたか",
            "",
            "",
            ""
          ],
          "isEmpty": 0,
          "isCommentOut": 0
        },
        {
          "rowIndex": 216,
          "strings": [
            "",
            "ブラックハート神次元",
            "悲しみ",
            "",
            "",
            "",
            "",
            "",
            "『奴ら』、ルルシィを……『常闇のブラ』を使って、\nいったい何をするつもりなの……",
            "",
            "",
            ""
          ],
          "isEmpty": 0,
          "isCommentOut": 0
        },
        {
          "rowIndex": 217,
          "strings": [
            "FadeOut",
            "black",
            "",
            "",
            "",
            "",
            "1",
            "",
            "",
            "",
            "",
            ""
          ],
          "isEmpty": 0,
          "isCommentOut": 0
        },
        {
          "rowIndex": 218,
          "strings": [
            "Wait",
            "",
            "",
            "",
            "",
            "",
            ".3",
            "",
            "",
            "",
            "",
            ""
          ],
          "isEmpty": 0,
          "isCommentOut": 0
        },
        {
          "rowIndex": 219,
          "strings": [
            "EndScenario",
            "",
            "",
            "",
            "",
            "",
            "",
            "",
            "",
            "",
            "",
            ""
          ],
          "isEmpty": 0,
          "isCommentOut": 0
        }
      ],
      "name": "Assets/BundleResources/Data/Adventure/Event/Story2002/adv_200201.xls:200201",
      "type": 1,
      "textLength": 4088,
      "headerRow": 0,
      "entityIndexTbl": [],
      "entityDataList": []
    }
  ]
}