{
  "m_GameObject": {
    "m_FileID": 0,
    "m_PathID": 0
  },
  "m_Enabled": 1,
  "m_Script": {
    "m_FileID": 0,
    "m_PathID": -8016775561480030637
  },
  "m_Name": "adv_200301.chapter",
  "chapterName": "",
  "dataList": [
    {
      "m_FileID": 0,
      "m_PathID": 865163589898549820
    }
  ],
  "settingList": [
    {
      "rows": [
        {
          "rowIndex": 0,
          "strings": [
            "CharacterName",
            "NameText",
            "Pattern",
            "X",
            "Y",
            "Z",
            "Pivot",
            "Scale",
            "Conditional",
            "BundlePath",
            "FileName",
            "SubFileName",
            "FileType",
            "Animation",
            "RenderTexture",
            "RenderRect",
            "EyeBlink",
            "LipSynch",
            "Icon",
            "IconSubFileName",
            "IconRect"
          ],
          "isEmpty": 0,
          "isCommentOut": 0
        },
        {
          "rowIndex": 1,
          "strings": [
            "ロゼ",
            "",
            "通常",
            "",
            "-50",
            "",
            "",
            "",
            "",
            "texture/character/stand/1160200_stand",
            "1160200_stand.asset",
            "1160200_stand_01",
            "Dicing"
          ],
          "isEmpty": 0,
          "isCommentOut": 0
        },
        {
          "rowIndex": 2,
          "strings": [
            "",
            "",
            "目閉じ",
            "",
            "-50",
            "",
            "",
            "",
            "",
            "texture/character/stand/1160200_stand",
            "1160200_stand.asset",
            "1160200_stand_02",
            "Dicing"
          ],
          "isEmpty": 0,
          "isCommentOut": 0
        },
        {
          "rowIndex": 3,
          "strings": [
            "",
            "",
            "真剣",
            "",
            "-50",
            "",
            "",
            "",
            "",
            "texture/character/stand/1160200_stand",
            "1160200_stand.asset",
            "1160200_stand_03",
            "Dicing"
          ],
          "isEmpty": 0,
          "isCommentOut": 0
        },
        {
          "rowIndex": 4,
          "strings": [
            "",
            "",
            "笑い",
            "",
            "-50",
            "",
            "",
            "",
            "",
            "texture/character/stand/1160200_stand",
            "1160200_stand.asset",
            "1160200_stand_04",
            "Dicing"
          ],
          "isEmpty": 0,
          "isCommentOut": 0
        },
        {
          "rowIndex": 5,
          "strings": [
            "",
            "",
            "悲しみ",
            "",
            "-50",
            "",
            "",
            "",
            "",
            "texture/character/stand/1160200_stand",
            "1160200_stand.asset",
            "1160200_stand_05",
            "Dicing"
          ],
          "isEmpty": 0,
          "isCommentOut": 0
        },
        {
          "rowIndex": 6,
          "strings": [
            "",
            "",
            "照れ",
            "",
            "-50",
            "",
            "",
            "",
            "",
            "texture/character/stand/1160200_stand",
            "1160200_stand.asset",
            "1160200_stand_06",
            "Dicing"
          ],
          "isEmpty": 0,
          "isCommentOut": 0
        },
        {
          "rowIndex": 7,
          "strings": [
            "",
            "",
            "固有",
            "",
            "-50",
            "",
            "",
            "",
            "",
            "texture/character/stand/1160200_stand",
            "1160200_stand.asset",
            "1160200_stand_07",
            "Dicing"
          ],
          "isEmpty": 0,
          "isCommentOut": 0
        },
        {
          "rowIndex": 8,
          "strings": [
            "ルアンナ",
            "",
            "通常",
            "",
            "-50",
            "",
            "",
            "",
            "",
            "texture/character/stand/1090100_stand",
            "1090100_stand.asset",
            "1090100_stand_01",
            "Dicing"
          ],
          "isEmpty": 0,
          "isCommentOut": 0
        },
        {
          "rowIndex": 9,
          "strings": [
            "//",
            "",
            "目閉じ",
            "",
            "-50",
            "",
            "",
            "",
            "",
            "texture/character/stand/1090100_stand",
            "1090100_stand.asset",
            "1090100_stand_02",
            "Dicing"
          ],
          "isEmpty": 0,
          "isCommentOut": 1
        },
        {
          "rowIndex": 10,
          "strings": [
            "",
            "",
            "真剣",
            "",
            "-50",
            "",
            "",
            "",
            "",
            "texture/character/stand/1090100_stand",
            "1090100_stand.asset",
            "1090100_stand_03",
            "Dicing"
          ],
          "isEmpty": 0,
          "isCommentOut": 0
        },
        {
          "rowIndex": 11,
          "strings": [
            "",
            "",
            "笑い",
            "",
            "-50",
            "",
            "",
            "",
            "",
            "texture/character/stand/1090100_stand",
            "1090100_stand.asset",
            "1090100_stand_04",
            "Dicing"
          ],
          "isEmpty": 0,
          "isCommentOut": 0
        },
        {
          "rowIndex": 12,
          "strings": [
            "",
            "",
            "悲しみ",
            "",
            "-50",
            "",
            "",
            "",
            "",
            "texture/character/stand/1090100_stand",
            "1090100_stand.asset",
            "1090100_stand_05",
            "Dicing"
          ],
          "isEmpty": 0,
          "isCommentOut": 0
        },
        {
          "rowIndex": 13,
          "strings": [
            "",
            "",
            "照れ",
            "",
            "-50",
            "",
            "",
            "",
            "",
            "texture/character/stand/1090100_stand",
            "1090100_stand.asset",
            "1090100_stand_06",
            "Dicing"
          ],
          "isEmpty": 0,
          "isCommentOut": 0
        },
        {
          "rowIndex": 14,
          "strings": [
            "",
            "",
            "固有",
            "",
            "-50",
            "",
            "",
            "",
            "",
            "texture/character/stand/1090100_stand",
            "1090100_stand.asset",
            "1090100_stand_07",
            "Dicing"
          ],
          "isEmpty": 0,
          "isCommentOut": 0
        },
        {
          "rowIndex": 15,
          "strings": [
            "敵アルト",
            "アルト",
            "通常",
            "",
            "0",
            "",
            "",
            "",
            "",
            "texture/character/stand/1000300_stand",
            "1000300_stand.asset",
            "1000300_stand_01",
            "Dicing"
          ],
          "isEmpty": 0,
          "isCommentOut": 0
        },
        {
          "rowIndex": 16,
          "strings": [
            "//",
            "",
            "目閉じ",
            "",
            "0",
            "",
            "",
            "",
            "",
            "texture/character/stand/1000300_stand",
            "1000300_stand.asset",
            "1000300_stand_02",
            "Dicing"
          ],
          "isEmpty": 0,
          "isCommentOut": 1
        },
        {
          "rowIndex": 17,
          "strings": [
            "//",
            "",
            "真剣",
            "",
            "0",
            "",
            "",
            "",
            "",
            "texture/character/stand/1000300_stand",
            "1000300_stand.asset",
            "1000300_stand_03",
            "Dicing"
          ],
          "isEmpty": 0,
          "isCommentOut": 1
        },
        {
          "rowIndex": 18,
          "strings": [
            "",
            "",
            "笑い",
            "",
            "0",
            "",
            "",
            "",
            "",
            "texture/character/stand/1000300_stand",
            "1000300_stand.asset",
            "1000300_stand_04",
            "Dicing"
          ],
          "isEmpty": 0,
          "isCommentOut": 0
        },
        {
          "rowIndex": 19,
          "strings": [
            "",
            "",
            "悲しみ",
            "",
            "0",
            "",
            "",
            "",
            "",
            "texture/character/stand/1000300_stand",
            "1000300_stand.asset",
            "1000300_stand_05",
            "Dicing"
          ],
          "isEmpty": 0,
          "isCommentOut": 0
        },
        {
          "rowIndex": 20,
          "strings": [
            "",
            "",
            "照れ",
            "",
            "0",
            "",
            "",
            "",
            "",
            "texture/character/stand/1000300_stand",
            "1000300_stand.asset",
            "1000300_stand_06",
            "Dicing"
          ],
          "isEmpty": 0,
          "isCommentOut": 0
        },
        {
          "rowIndex": 21,
          "strings": [
            "",
            "",
            "固有",
            "",
            "0",
            "",
            "",
            "",
            "",
            "texture/character/stand/1000300_stand",
            "1000300_stand.asset",
            "1000300_stand_07",
            "Dicing"
          ],
          "isEmpty": 0,
          "isCommentOut": 0
        },
        {
          "rowIndex": 22,
          "strings": [
            "敵アイナ",
            "アイナ",
            "通常",
            "",
            "-50",
            "",
            "",
            "",
            "",
            "texture/character/stand/1000400_stand",
            "1000400_stand.asset",
            "1000400_stand_01",
            "Dicing"
          ],
          "isEmpty": 0,
          "isCommentOut": 0
        },
        {
          "rowIndex": 23,
          "strings": [
            "//",
            "",
            "目閉じ",
            "",
            "-50",
            "",
            "",
            "",
            "",
            "texture/character/stand/1000400_stand",
            "1000400_stand.asset",
            "1000400_stand_02",
            "Dicing"
          ],
          "isEmpty": 0,
          "isCommentOut": 1
        },
        {
          "rowIndex": 24,
          "strings": [
            "",
            "",
            "真剣",
            "",
            "-50",
            "",
            "",
            "",
            "",
            "texture/character/stand/1000400_stand",
            "1000400_stand.asset",
            "1000400_stand_03",
            "Dicing"
          ],
          "isEmpty": 0,
          "isCommentOut": 0
        },
        {
          "rowIndex": 25,
          "strings": [
            "",
            "",
            "笑い",
            "",
            "-50",
            "",
            "",
            "",
            "",
            "texture/character/stand/1000400_stand",
            "1000400_stand.asset",
            "1000400_stand_04",
            "Dicing"
          ],
          "isEmpty": 0,
          "isCommentOut": 0
        },
        {
          "rowIndex": 26,
          "strings": [
            "",
            "",
            "悲しみ",
            "",
            "-50",
            "",
            "",
            "",
            "",
            "texture/character/stand/1000400_stand",
            "1000400_stand.asset",
            "1000400_stand_05",
            "Dicing"
          ],
          "isEmpty": 0,
          "isCommentOut": 0
        },
        {
          "rowIndex": 27,
          "strings": [
            "",
            "",
            "照れ",
            "",
            "-50",
            "",
            "",
            "",
            "",
            "texture/character/stand/1000400_stand",
            "1000400_stand.asset",
            "1000400_stand_06",
            "Dicing"
          ],
          "isEmpty": 0,
          "isCommentOut": 0
        },
        {
          "rowIndex": 28,
          "strings": [
            "",
            "",
            "固有",
            "",
            "-50",
            "",
            "",
            "",
            "",
            "texture/character/stand/1000400_stand",
            "1000400_stand.asset",
            "1000400_stand_07",
            "Dicing"
          ],
          "isEmpty": 0,
          "isCommentOut": 0
        },
        {
          "rowIndex": 29,
          "strings": [
            "アルト",
            "",
            "通常",
            "",
            "0",
            "",
            "",
            "",
            "",
            "texture/character/stand/1000100_stand",
            "1000100_stand.asset",
            "1000100_stand_01",
            "Dicing"
          ],
          "isEmpty": 0,
          "isCommentOut": 0
        },
        {
          "rowIndex": 30,
          "strings": [
            "//",
            "",
            "目閉じ",
            "",
            "0",
            "",
            "",
            "",
            "",
            "texture/character/stand/1000100_stand",
            "1000100_stand.asset",
            "1000100_stand_02",
            "Dicing"
          ],
          "isEmpty": 0,
          "isCommentOut": 1
        },
        {
          "rowIndex": 31,
          "strings": [
            "",
            "",
            "真剣",
            "",
            "0",
            "",
            "",
            "",
            "",
            "texture/character/stand/1000100_stand",
            "1000100_stand.asset",
            "1000100_stand_03",
            "Dicing"
          ],
          "isEmpty": 0,
          "isCommentOut": 0
        },
        {
          "rowIndex": 32,
          "strings": [
            "",
            "",
            "笑い",
            "",
            "0",
            "",
            "",
            "",
            "",
            "texture/character/stand/1000100_stand",
            "1000100_stand.asset",
            "1000100_stand_04",
            "Dicing"
          ],
          "isEmpty": 0,
          "isCommentOut": 0
        },
        {
          "rowIndex": 33,
          "strings": [
            "",
            "",
            "悲しみ",
            "",
            "0",
            "",
            "",
            "",
            "",
            "texture/character/stand/1000100_stand",
            "1000100_stand.asset",
            "1000100_stand_05",
            "Dicing"
          ],
          "isEmpty": 0,
          "isCommentOut": 0
        },
        {
          "rowIndex": 34,
          "strings": [
            "",
            "",
            "照れ",
            "",
            "0",
            "",
            "",
            "",
            "",
            "texture/character/stand/1000100_stand",
            "1000100_stand.asset",
            "1000100_stand_06",
            "Dicing"
          ],
          "isEmpty": 0,
          "isCommentOut": 0
        },
        {
          "rowIndex": 35,
          "strings": [
            "",
            "",
            "固有",
            "",
            "0",
            "",
            "",
            "",
            "",
            "texture/character/stand/1000100_stand",
            "1000100_stand.asset",
            "1000100_stand_07",
            "Dicing"
          ],
          "isEmpty": 0,
          "isCommentOut": 0
        },
        {
          "rowIndex": 36,
          "strings": [
            "",
            "",
            "シルエット",
            "",
            "0",
            "",
            "",
            "",
            "",
            "texture/character/stand/1000100_stand",
            "1000100_stand.asset",
            "1000100_stand_08",
            "Dicing"
          ],
          "isEmpty": 0,
          "isCommentOut": 0
        },
        {
          "rowIndex": 37,
          "strings": [
            "アイナ",
            "",
            "通常",
            "",
            "-50",
            "",
            "",
            "",
            "",
            "texture/character/stand/1000200_stand",
            "1000200_stand.asset",
            "1000200_stand_01",
            "Dicing"
          ],
          "isEmpty": 0,
          "isCommentOut": 0
        },
        {
          "rowIndex": 38,
          "strings": [
            "//",
            "",
            "目閉じ",
            "",
            "-50",
            "",
            "",
            "",
            "",
            "texture/character/stand/1000200_stand",
            "1000200_stand.asset",
            "1000200_stand_02",
            "Dicing"
          ],
          "isEmpty": 0,
          "isCommentOut": 1
        },
        {
          "rowIndex": 39,
          "strings": [
            "",
            "",
            "真剣",
            "",
            "-50",
            "",
            "",
            "",
            "",
            "texture/character/stand/1000200_stand",
            "1000200_stand.asset",
            "1000200_stand_03",
            "Dicing"
          ],
          "isEmpty": 0,
          "isCommentOut": 0
        },
        {
          "rowIndex": 40,
          "strings": [
            "",
            "",
            "笑い",
            "",
            "-50",
            "",
            "",
            "",
            "",
            "texture/character/stand/1000200_stand",
            "1000200_stand.asset",
            "1000200_stand_04",
            "Dicing"
          ],
          "isEmpty": 0,
          "isCommentOut": 0
        },
        {
          "rowIndex": 41,
          "strings": [
            "",
            "",
            "悲しみ",
            "",
            "-50",
            "",
            "",
            "",
            "",
            "texture/character/stand/1000200_stand",
            "1000200_stand.asset",
            "1000200_stand_05",
            "Dicing"
          ],
          "isEmpty": 0,
          "isCommentOut": 0
        },
        {
          "rowIndex": 42,
          "strings": [
            "",
            "",
            "照れ",
            "",
            "-50",
            "",
            "",
            "",
            "",
            "texture/character/stand/1000200_stand",
            "1000200_stand.asset",
            "1000200_stand_06",
            "Dicing"
          ],
          "isEmpty": 0,
          "isCommentOut": 0
        },
        {
          "rowIndex": 43,
          "strings": [
            "",
            "",
            "固有",
            "",
            "-50",
            "",
            "",
            "",
            "",
            "texture/character/stand/1000200_stand",
            "1000200_stand.asset",
            "1000200_stand_07",
            "Dicing"
          ],
          "isEmpty": 0,
          "isCommentOut": 0
        },
        {
          "rowIndex": 44,
          "strings": [
            "",
            "",
            "シルエット",
            "",
            "-50",
            "",
            "",
            "",
            "",
            "texture/character/stand/1000200_stand",
            "1000200_stand.asset",
            "1000200_stand_08",
            "Dicing"
          ],
          "isEmpty": 0,
          "isCommentOut": 0
        },
        {
          "rowIndex": 45,
          "strings": [
            "ネプテューヌ",
            "",
            "通常",
            "",
            "-100",
            "",
            "",
            "",
            "",
            "texture/character/stand/1010100_stand",
            "1010100_stand.asset",
            "1010100_stand_01",
            "Dicing"
          ],
          "isEmpty": 0,
          "isCommentOut": 0
        },
        {
          "rowIndex": 46,
          "strings": [
            "//",
            "",
            "目閉じ",
            "",
            "-100",
            "",
            "",
            "",
            "",
            "texture/character/stand/1010100_stand",
            "1010100_stand.asset",
            "1010100_stand_02",
            "Dicing"
          ],
          "isEmpty": 0,
          "isCommentOut": 1
        },
        {
          "rowIndex": 47,
          "strings": [
            "",
            "",
            "真剣",
            "",
            "-100",
            "",
            "",
            "",
            "",
            "texture/character/stand/1010100_stand",
            "1010100_stand.asset",
            "1010100_stand_03",
            "Dicing"
          ],
          "isEmpty": 0,
          "isCommentOut": 0
        },
        {
          "rowIndex": 48,
          "strings": [
            "",
            "",
            "笑い",
            "",
            "-100",
            "",
            "",
            "",
            "",
            "texture/character/stand/1010100_stand",
            "1010100_stand.asset",
            "1010100_stand_04",
            "Dicing"
          ],
          "isEmpty": 0,
          "isCommentOut": 0
        },
        {
          "rowIndex": 49,
          "strings": [
            "",
            "",
            "悲しみ",
            "",
            "-100",
            "",
            "",
            "",
            "",
            "texture/character/stand/1010100_stand",
            "1010100_stand.asset",
            "1010100_stand_05",
            "Dicing"
          ],
          "isEmpty": 0,
          "isCommentOut": 0
        },
        {
          "rowIndex": 50,
          "strings": [
            "",
            "",
            "照れ",
            "",
            "-100",
            "",
            "",
            "",
            "",
            "texture/character/stand/1010100_stand",
            "1010100_stand.asset",
            "1010100_stand_06",
            "Dicing"
          ],
          "isEmpty": 0,
          "isCommentOut": 0
        },
        {
          "rowIndex": 51,
          "strings": [
            "",
            "",
            "固有",
            "",
            "-100",
            "",
            "",
            "",
            "",
            "texture/character/stand/1010100_stand",
            "1010100_stand.asset",
            "1010100_stand_07",
            "Dicing"
          ],
          "isEmpty": 0,
          "isCommentOut": 0
        },
        {
          "rowIndex": 52,
          "strings": [
            "ルゥシェ",
            "",
            "通常",
            "",
            "-50",
            "",
            "",
            "",
            "",
            "texture/character/stand/1120200_stand",
            "1120200_stand.asset",
            "1120200_stand_01",
            "Dicing"
          ],
          "isEmpty": 0,
          "isCommentOut": 0
        },
        {
          "rowIndex": 53,
          "strings": [
            "//",
            "",
            "目閉じ",
            "",
            "-50",
            "",
            "",
            "",
            "",
            "texture/character/stand/1120200_stand",
            "1120200_stand.asset",
            "1120200_stand_02",
            "Dicing"
          ],
          "isEmpty": 0,
          "isCommentOut": 1
        },
        {
          "rowIndex": 54,
          "strings": [
            "",
            "",
            "真剣",
            "",
            "-50",
            "",
            "",
            "",
            "",
            "texture/character/stand/1120200_stand",
            "1120200_stand.asset",
            "1120200_stand_03",
            "Dicing"
          ],
          "isEmpty": 0,
          "isCommentOut": 0
        },
        {
          "rowIndex": 55,
          "strings": [
            "",
            "",
            "笑い",
            "",
            "-50",
            "",
            "",
            "",
            "",
            "texture/character/stand/1120200_stand",
            "1120200_stand.asset",
            "1120200_stand_04",
            "Dicing"
          ],
          "isEmpty": 0,
          "isCommentOut": 0
        },
        {
          "rowIndex": 56,
          "strings": [
            "",
            "",
            "悲しみ",
            "",
            "-50",
            "",
            "",
            "",
            "",
            "texture/character/stand/1120200_stand",
            "1120200_stand.asset",
            "1120200_stand_05",
            "Dicing"
          ],
          "isEmpty": 0,
          "isCommentOut": 0
        },
        {
          "rowIndex": 57,
          "strings": [
            "",
            "",
            "照れ",
            "",
            "-50",
            "",
            "",
            "",
            "",
            "texture/character/stand/1120200_stand",
            "1120200_stand.asset",
            "1120200_stand_06",
            "Dicing"
          ],
          "isEmpty": 0,
          "isCommentOut": 0
        },
        {
          "rowIndex": 58,
          "strings": [
            "",
            "",
            "固有",
            "",
            "-50",
            "",
            "",
            "",
            "",
            "texture/character/stand/1120200_stand",
            "1120200_stand.asset",
            "1120200_stand_07",
            "Dicing"
          ],
          "isEmpty": 0,
          "isCommentOut": 0
        },
        {
          "rowIndex": 59,
          "strings": [
            "マモン",
            "",
            "通常",
            "",
            "-50",
            "",
            "",
            "",
            "",
            "texture/character/stand/1120500_stand",
            "1120500_stand.asset",
            "1120500_stand_01",
            "Dicing"
          ],
          "isEmpty": 0,
          "isCommentOut": 0
        },
        {
          "rowIndex": 60,
          "strings": [
            "//",
            "",
            "目閉じ",
            "",
            "-50",
            "",
            "",
            "",
            "",
            "texture/character/stand/1120500_stand",
            "1120500_stand.asset",
            "1120500_stand_02",
            "Dicing"
          ],
          "isEmpty": 0,
          "isCommentOut": 1
        },
        {
          "rowIndex": 61,
          "strings": [
            "",
            "",
            "真剣",
            "",
            "-50",
            "",
            "",
            "",
            "",
            "texture/character/stand/1120500_stand",
            "1120500_stand.asset",
            "1120500_stand_03",
            "Dicing"
          ],
          "isEmpty": 0,
          "isCommentOut": 0
        },
        {
          "rowIndex": 62,
          "strings": [
            "",
            "",
            "笑い",
            "",
            "-50",
            "",
            "",
            "",
            "",
            "texture/character/stand/1120500_stand",
            "1120500_stand.asset",
            "1120500_stand_04",
            "Dicing"
          ],
          "isEmpty": 0,
          "isCommentOut": 0
        },
        {
          "rowIndex": 63,
          "strings": [
            "",
            "",
            "悲しみ",
            "",
            "-50",
            "",
            "",
            "",
            "",
            "texture/character/stand/1120500_stand",
            "1120500_stand.asset",
            "1120500_stand_05",
            "Dicing"
          ],
          "isEmpty": 0,
          "isCommentOut": 0
        },
        {
          "rowIndex": 64,
          "strings": [
            "",
            "",
            "照れ",
            "",
            "-50",
            "",
            "",
            "",
            "",
            "texture/character/stand/1120500_stand",
            "1120500_stand.asset",
            "1120500_stand_06",
            "Dicing"
          ],
          "isEmpty": 0,
          "isCommentOut": 0
        },
        {
          "rowIndex": 65,
          "strings": [
            "",
            "",
            "固有",
            "",
            "-50",
            "",
            "",
            "",
            "",
            "texture/character/stand/1120500_stand",
            "1120500_stand.asset",
            "1120500_stand_07",
            "Dicing"
          ],
          "isEmpty": 0,
          "isCommentOut": 0
        },
        {
          "rowIndex": 66,
          "strings": [
            "ヒロ",
            "",
            "通常",
            "",
            "-50",
            "",
            "",
            "",
            "",
            "texture/character/stand/1160100_stand",
            "1160100_stand.asset",
            "1160100_stand_01",
            "Dicing"
          ],
          "isEmpty": 0,
          "isCommentOut": 0
        },
        {
          "rowIndex": 67,
          "strings": [
            "",
            "",
            "目閉じ",
            "",
            "-50",
            "",
            "",
            "",
            "",
            "texture/character/stand/1160100_stand",
            "1160100_stand.asset",
            "1160100_stand_02",
            "Dicing"
          ],
          "isEmpty": 0,
          "isCommentOut": 0
        },
        {
          "rowIndex": 68,
          "strings": [
            "",
            "",
            "真剣",
            "",
            "-50",
            "",
            "",
            "",
            "",
            "texture/character/stand/1160100_stand",
            "1160100_stand.asset",
            "1160100_stand_03",
            "Dicing"
          ],
          "isEmpty": 0,
          "isCommentOut": 0
        },
        {
          "rowIndex": 69,
          "strings": [
            "",
            "",
            "笑い",
            "",
            "-50",
            "",
            "",
            "",
            "",
            "texture/character/stand/1160100_stand",
            "1160100_stand.asset",
            "1160100_stand_04",
            "Dicing"
          ],
          "isEmpty": 0,
          "isCommentOut": 0
        },
        {
          "rowIndex": 70,
          "strings": [
            "",
            "",
            "悲しみ",
            "",
            "-50",
            "",
            "",
            "",
            "",
            "texture/character/stand/1160100_stand",
            "1160100_stand.asset",
            "1160100_stand_05",
            "Dicing"
          ],
          "isEmpty": 0,
          "isCommentOut": 0
        },
        {
          "rowIndex": 71,
          "strings": [
            "",
            "",
            "照れ",
            "",
            "-50",
            "",
            "",
            "",
            "",
            "texture/character/stand/1160100_stand",
            "1160100_stand.asset",
            "1160100_stand_06",
            "Dicing"
          ],
          "isEmpty": 0,
          "isCommentOut": 0
        },
        {
          "rowIndex": 72,
          "strings": [
            "",
            "",
            "固有",
            "",
            "-50",
            "",
            "",
            "",
            "",
            "texture/character/stand/1160100_stand",
            "1160100_stand.asset",
            "1160100_stand_07",
            "Dicing"
          ],
          "isEmpty": 0,
          "isCommentOut": 0
        },
        {
          "rowIndex": 73,
          "strings": [
            "ヒロテューヌ",
            "",
            "通常",
            "",
            "-50",
            "",
            "",
            "",
            "",
            "texture/character/stand/1170100_stand",
            "1170100_stand.asset",
            "1170100_stand_01",
            "Dicing"
          ],
          "isEmpty": 0,
          "isCommentOut": 0
        },
        {
          "rowIndex": 74,
          "strings": [
            "",
            "",
            "目閉じ",
            "",
            "-50",
            "",
            "",
            "",
            "",
            "texture/character/stand/1170100_stand",
            "1170100_stand.asset",
            "1170100_stand_02",
            "Dicing"
          ],
          "isEmpty": 0,
          "isCommentOut": 0
        },
        {
          "rowIndex": 75,
          "strings": [
            "",
            "",
            "真剣",
            "",
            "-50",
            "",
            "",
            "",
            "",
            "texture/character/stand/1170100_stand",
            "1170100_stand.asset",
            "1170100_stand_03",
            "Dicing"
          ],
          "isEmpty": 0,
          "isCommentOut": 0
        },
        {
          "rowIndex": 76,
          "strings": [
            "",
            "",
            "笑い",
            "",
            "-50",
            "",
            "",
            "",
            "",
            "texture/character/stand/1170100_stand",
            "1170100_stand.asset",
            "1170100_stand_04",
            "Dicing"
          ],
          "isEmpty": 0,
          "isCommentOut": 0
        },
        {
          "rowIndex": 77,
          "strings": [
            "",
            "",
            "悲しみ",
            "",
            "-50",
            "",
            "",
            "",
            "",
            "texture/character/stand/1170100_stand",
            "1170100_stand.asset",
            "1170100_stand_05",
            "Dicing"
          ],
          "isEmpty": 0,
          "isCommentOut": 0
        },
        {
          "rowIndex": 78,
          "strings": [
            "",
            "",
            "照れ",
            "",
            "-50",
            "",
            "",
            "",
            "",
            "texture/character/stand/1170100_stand",
            "1170100_stand.asset",
            "1170100_stand_06",
            "Dicing"
          ],
          "isEmpty": 0,
          "isCommentOut": 0
        },
        {
          "rowIndex": 79,
          "strings": [
            "",
            "",
            "固有",
            "",
            "-50",
            "",
            "",
            "",
            "",
            "texture/character/stand/1170100_stand",
            "1170100_stand.asset",
            "1170100_stand_07",
            "Dicing"
          ],
          "isEmpty": 0,
          "isCommentOut": 0
        },
        {
          "rowIndex": 80,
          "strings": [
            "",
            "",
            "",
            "",
            "",
            "",
            "",
            "",
            "",
            "",
            "",
            "",
            ""
          ],
          "isEmpty": 1,
          "isCommentOut": 0
        }
      ],
      "name": "Assets/BundleResources/Data/Adventure/Event/Story2003/adv_200301.xls:Character",
      "type": 1,
      "textLength": 6791,
      "headerRow": 0
    },
    {
      "rows": [
        {
          "rowIndex": 0,
          "strings": [
            "Label",
            "Title",
            "Type",
            "BundlePath",
            "FileName",
            "IntroTime",
            "Volume",
            "Comment"
          ],
          "isEmpty": 0,
          "isCommentOut": 0
        },
        {
          "rowIndex": 1,
          "strings": [
            "//BGM",
            "",
            "",
            "",
            "",
            "",
            "",
            ""
          ],
          "isEmpty": 0,
          "isCommentOut": 1
        },
        {
          "rowIndex": 2,
          "strings": [
            "疑惑",
            "",
            "Bgm",
            "sound/bgm/adventure/bgm_suspiction",
            "bgm_suspiction.wav",
            "",
            "",
            "既存BGM104"
          ],
          "isEmpty": 0,
          "isCommentOut": 0
        },
        {
          "rowIndex": 3,
          "strings": [
            "未来へ",
            "",
            "Bgm",
            "sound/bgm/adventure/bgm_tomorrow",
            "bgm_tomorrow.wav",
            "",
            "",
            "新規ＢＧＭ03。 \n『反撃』をテーマにした曲。"
          ],
          "isEmpty": 0,
          "isCommentOut": 0
        },
        {
          "rowIndex": 4,
          "strings": [
            "不穏",
            "",
            "Bgm",
            "sound/bgm/adventure/bgm_unrest",
            "bgm_unrest.wav",
            "",
            "",
            "既存BGM127"
          ],
          "isEmpty": 0,
          "isCommentOut": 0
        },
        {
          "rowIndex": 5,
          "strings": [
            "魔法陣展開",
            "",
            "Se",
            "sound/se/adventure/se_magic_circle",
            "se_magic_circle.wav",
            "",
            "",
            ""
          ],
          "isEmpty": 0,
          "isCommentOut": 0
        },
        {
          "rowIndex": 6,
          "strings": [
            "消滅音",
            "",
            "Se",
            "sound/se/adventure/se_disappear",
            "se_disappear.wav",
            "",
            "",
            "プロローグ-1節 主人公の消滅音（転移するようなイメージ）"
          ],
          "isEmpty": 0,
          "isCommentOut": 0
        },
        {
          "rowIndex": 7,
          "strings": [
            "フュージョン音",
            "",
            "Se",
            "sound/se/adventure/se_fusion",
            "se_fusion.wav",
            "",
            "",
            ""
          ],
          "isEmpty": 0,
          "isCommentOut": 0
        },
        {
          "rowIndex": 8,
          "strings": [
            "",
            "",
            "",
            "",
            "",
            "",
            "",
            ""
          ],
          "isEmpty": 1,
          "isCommentOut": 0
        },
        {
          "rowIndex": 9,
          "strings": [
            "",
            "",
            "",
            "",
            "",
            "",
            "",
            ""
          ],
          "isEmpty": 1,
          "isCommentOut": 0
        },
        {
          "rowIndex": 10,
          "strings": [
            "",
            "",
            "",
            "",
            "",
            "",
            "",
            ""
          ],
          "isEmpty": 1,
          "isCommentOut": 0
        },
        {
          "rowIndex": 11,
          "strings": [
            "",
            "",
            "",
            "",
            "",
            "",
            "",
            ""
          ],
          "isEmpty": 1,
          "isCommentOut": 0
        },
        {
          "rowIndex": 12,
          "strings": [
            "",
            "",
            "",
            "",
            "",
            "",
            "",
            ""
          ],
          "isEmpty": 1,
          "isCommentOut": 0
        },
        {
          "rowIndex": 13,
          "strings": [
            "",
            "",
            "",
            "",
            "",
            "",
            "",
            ""
          ],
          "isEmpty": 1,
          "isCommentOut": 0
        },
        {
          "rowIndex": 14,
          "strings": [
            "",
            "",
            "",
            "",
            "",
            "",
            "",
            ""
          ],
          "isEmpty": 1,
          "isCommentOut": 0
        },
        {
          "rowIndex": 15,
          "strings": [
            "",
            "",
            "",
            "",
            "",
            "",
            "",
            ""
          ],
          "isEmpty": 1,
          "isCommentOut": 0
        },
        {
          "rowIndex": 16,
          "strings": [
            "",
            "",
            "",
            "",
            "",
            "",
            "",
            ""
          ],
          "isEmpty": 1,
          "isCommentOut": 0
        },
        {
          "rowIndex": 17,
          "strings": [
            "",
            "",
            "",
            "",
            "",
            "",
            "",
            ""
          ],
          "isEmpty": 1,
          "isCommentOut": 0
        },
        {
          "rowIndex": 18,
          "strings": [
            "",
            "",
            "",
            "",
            "",
            "",
            "",
            ""
          ],
          "isEmpty": 1,
          "isCommentOut": 0
        },
        {
          "rowIndex": 19,
          "strings": [
            "",
            "",
            "",
            "",
            "",
            "",
            "",
            ""
          ],
          "isEmpty": 1,
          "isCommentOut": 0
        },
        {
          "rowIndex": 20,
          "strings": [
            "",
            "",
            "",
            "",
            "",
            "",
            "",
            ""
          ],
          "isEmpty": 1,
          "isCommentOut": 0
        },
        {
          "rowIndex": 21,
          "strings": [
            "",
            "",
            "",
            "",
            "",
            "",
            "",
            ""
          ],
          "isEmpty": 1,
          "isCommentOut": 0
        },
        {
          "rowIndex": 22,
          "strings": [
            "",
            "",
            "",
            "",
            "",
            "",
            "",
            ""
          ],
          "isEmpty": 1,
          "isCommentOut": 0
        },
        {
          "rowIndex": 23,
          "strings": [
            "",
            "",
            "",
            "",
            "",
            "",
            "",
            ""
          ],
          "isEmpty": 1,
          "isCommentOut": 0
        }
      ],
      "name": "Assets/BundleResources/Data/Adventure/Event/Story2003/adv_200301.xls:Sound",
      "type": 1,
      "textLength": 449,
      "headerRow": 0
    },
    {
      "rows": [
        {
          "rowIndex": 0,
          "strings": [
            "Label",
            "Type",
            "X",
            "Y",
            "Z",
            "Pivot",
            "Scale",
            "Conditional",
            "BundlePath",
            "FileName",
            "FileType",
            "SubFileName",
            "Animation",
            "RenderTexture",
            "RenderRect",
            "Thumbnail",
            "CgCategolly",
            "元画像名"
          ],
          "isEmpty": 0,
          "isCommentOut": 0
        },
        {
          "rowIndex": 1,
          "strings": [
            "//背景",
            "",
            "",
            "",
            "",
            "",
            "",
            "",
            "",
            ""
          ],
          "isEmpty": 0,
          "isCommentOut": 1
        },
        {
          "rowIndex": 2,
          "strings": [
            "背景(黒)",
            "Bg",
            "",
            "",
            "",
            "",
            "x=1.25 y=0.9375",
            "",
            "texture/background/bg_007_ll",
            "bg_007_LL.png"
          ],
          "isEmpty": 0,
          "isCommentOut": 0
        },
        {
          "rowIndex": 3,
          "strings": [
            "背景(白)",
            "Bg",
            "",
            "",
            "",
            "",
            "x=1.25 y=0.9375",
            "",
            "texture/background/bg_022_ll",
            "bg_022_LL.png"
          ],
          "isEmpty": 0,
          "isCommentOut": 0
        },
        {
          "rowIndex": 4,
          "strings": [
            "背景(遺跡)",
            "Bg",
            "",
            "",
            "",
            "",
            "x=1.25 y=0.9375",
            "",
            "texture/background/bg_001_ll",
            "bg_001_LL.png"
          ],
          "isEmpty": 0,
          "isCommentOut": 0
        },
        {
          "rowIndex": 5,
          "strings": [
            "背景(山岳)",
            "Bg",
            "",
            "",
            "",
            "",
            "x=1.25 y=0.9375",
            "",
            "texture/background/bg_034_ll",
            "bg_034_LL.png"
          ],
          "isEmpty": 0,
          "isCommentOut": 0
        },
        {
          "rowIndex": 6,
          "strings": [
            "",
            "",
            "",
            "",
            "",
            "",
            "",
            "",
            "",
            ""
          ],
          "isEmpty": 1,
          "isCommentOut": 0
        },
        {
          "rowIndex": 7,
          "strings": [
            "",
            "",
            "",
            "",
            "",
            "",
            "",
            "",
            "",
            ""
          ],
          "isEmpty": 1,
          "isCommentOut": 0
        },
        {
          "rowIndex": 8,
          "strings": [
            "",
            "",
            "",
            "",
            "",
            "",
            "",
            "",
            "",
            ""
          ],
          "isEmpty": 1,
          "isCommentOut": 0
        },
        {
          "rowIndex": 9,
          "strings": [
            "",
            "",
            "",
            "",
            "",
            "",
            "",
            "",
            "",
            ""
          ],
          "isEmpty": 1,
          "isCommentOut": 0
        },
        {
          "rowIndex": 10,
          "strings": [
            "",
            "",
            "",
            "",
            "",
            "",
            "",
            "",
            "",
            ""
          ],
          "isEmpty": 1,
          "isCommentOut": 0
        },
        {
          "rowIndex": 11,
          "strings": [
            "",
            "",
            "",
            "",
            "",
            "",
            "",
            "",
            "",
            ""
          ],
          "isEmpty": 1,
          "isCommentOut": 0
        }
      ],
      "name": "Assets/BundleResources/Data/Adventure/Event/Story2003/adv_200301.xls:Texture",
      "type": 1,
      "textLength": 384,
      "headerRow": 0
    },
    {
      "rows": [
        {
          "rowIndex": 0,
          "strings": [
            "Label",
            "FileName",
            "BundlePath"
          ],
          "isEmpty": 0,
          "isCommentOut": 0
        },
        {
          "rowIndex": 1,
          "strings": [
            "",
            "",
            ""
          ],
          "isEmpty": 1,
          "isCommentOut": 0
        },
        {
          "rowIndex": 2,
          "strings": [
            "",
            "",
            ""
          ],
          "isEmpty": 1,
          "isCommentOut": 0
        }
      ],
      "name": "Assets/BundleResources/Data/Adventure/Event/Story2003/adv_200301.xls:Particle",
      "type": 1,
      "textLength": 23,
      "headerRow": 0
    },
    {
      "rows": [
        {
          "rowIndex": 0,
          "strings": [
            "LayerName",
            "Type",
            "X",
            "Y",
            "Order",
            "LayerMask",
            "ScaleX",
            "ScaleY",
            "FlipX",
            "FlipY",
            "Width",
            "Height",
            "BorderLeft",
            "BorderRight",
            "BorderTop",
            "BorderBottom",
            "Align"
          ],
          "isEmpty": 0,
          "isCommentOut": 0
        },
        {
          "rowIndex": 1,
          "strings": [
            "キャラ中央",
            "Character",
            "0",
            "0",
            "1",
            "",
            "",
            "",
            "",
            "",
            "",
            "",
            "",
            "",
            "",
            "0"
          ],
          "isEmpty": 0,
          "isCommentOut": 0
        },
        {
          "rowIndex": 2,
          "strings": [
            "キャラ左",
            "Character",
            "-350",
            "0",
            "2",
            "",
            "",
            "",
            "",
            "",
            "",
            "",
            "",
            "",
            "",
            "0"
          ],
          "isEmpty": 0,
          "isCommentOut": 0
        },
        {
          "rowIndex": 3,
          "strings": [
            "キャラ右",
            "Character",
            "350",
            "0",
            "3",
            "",
            "",
            "",
            "",
            "",
            "",
            "",
            "",
            "",
            "",
            "0"
          ],
          "isEmpty": 0,
          "isCommentOut": 0
        },
        {
          "rowIndex": 4,
          "strings": [
            "背景",
            "Bg",
            "0",
            "0",
            "0"
          ],
          "isEmpty": 0,
          "isCommentOut": 0
        },
        {
          "rowIndex": 5,
          "strings": [],
          "isEmpty": 1,
          "isCommentOut": 0
        },
        {
          "rowIndex": 6,
          "strings": [
            "フェードレイヤー",
            "Sprite",
            "0",
            "0",
            "150"
          ],
          "isEmpty": 0,
          "isCommentOut": 0
        },
        {
          "rowIndex": 7,
          "strings": [
            "スプライトレイヤー",
            "Sprite",
            "0",
            "0",
            "151"
          ],
          "isEmpty": 0,
          "isCommentOut": 0
        },
        {
          "rowIndex": 8,
          "strings": [
            "キャプチャ画像レイヤー",
            "Sprite",
            "0",
            "0",
            "500"
          ],
          "isEmpty": 0,
          "isCommentOut": 0
        }
      ],
      "name": "Assets/BundleResources/Data/Adventure/Event/Story2003/adv_200301.xls:Layer",
      "type": 1,
      "textLength": 234,
      "headerRow": 0
    },
    {
      "rows": [
        {
          "rowIndex": 0,
          "strings": [
            "Label",
            "Type",
            "Value",
            "FileType"
          ],
          "isEmpty": 0,
          "isCommentOut": 0
        },
        {
          "rowIndex": 1,
          "strings": [
            "player_name",
            "String",
            "アルト"
          ],
          "isEmpty": 0,
          "isCommentOut": 0
        },
        {
          "rowIndex": 2,
          "strings": [
            "is_heroine",
            "Bool",
            "FALSE"
          ],
          "isEmpty": 0,
          "isCommentOut": 0
        }
      ],
      "name": "Assets/BundleResources/Data/Adventure/Event/Story2003/adv_200301.xls:Param",
      "type": 1,
      "textLength": 61,
      "headerRow": 0
    }
  ]
}