{
  "m_GameObject": {
    "m_FileID": 0,
    "m_PathID": 0
  },
  "m_Enabled": 1,
  "m_Script": {
    "m_FileID": 0,
    "m_PathID": 8527011069456626154
  },
  "m_Name": "adv_200308_path",
  "advPathList": [
    {
      "assetName": "",
      "assetPath": "texture/character/stand/1030800_stand",
      "resourcePath": "Texture/Character/1030800_stand.asset"
    },
    {
      "assetName": "",
      "assetPath": "texture/character/stand/1160200_stand",
      "resourcePath": "Texture/Character/1160200_stand.asset"
    },
    {
      "assetName": "",
      "assetPath": "texture/character/stand/1160100_stand",
      "resourcePath": "Texture/Character/1160100_stand.asset"
    },
    {
      "assetName": "",
      "assetPath": "texture/character/stand/1100200_stand",
      "resourcePath": "Texture/Character/1100200_stand.asset"
    },
    {
      "assetName": "",
      "assetPath": "texture/character/stand/1100100_stand",
      "resourcePath": "Texture/Character/1100100_stand.asset"
    },
    {
      "assetName": "",
      "assetPath": "texture/character/stand/1090100_stand",
      "resourcePath": "Texture/Character/1090100_stand.asset"
    },
    {
      "assetName": "",
      "assetPath": "texture/character/stand/1081400_stand",
      "resourcePath": "Texture/Character/1081400_stand.asset"
    },
    {
      "assetName": "",
      "assetPath": "texture/character/stand/1081600_stand",
      "resourcePath": "Texture/Character/1081600_stand.asset"
    },
    {
      "assetName": "",
      "assetPath": "texture/character/stand/1000300_stand",
      "resourcePath": "Texture/Character/1000300_stand.asset"
    },
    {
      "assetName": "",
      "assetPath": "texture/character/stand/1000400_stand",
      "resourcePath": "Texture/Character/1000400_stand.asset"
    },
    {
      "assetName": "",
      "assetPath": "texture/character/stand/1170300_stand",
      "resourcePath": "Texture/Character/1170300_stand.asset"
    },
    {
      "assetName": "",
      "assetPath": "sound/bgm/adventure/bgm_ultra_dimension",
      "resourcePath": "Sound/BGM/bgm_ultra_dimension.wav"
    },
    {
      "assetName": "",
      "assetPath": "sound/se/adventure/se_sprint",
      "resourcePath": "Sound/SE/se_sprint.wav"
    },
    {
      "assetName": "",
      "assetPath": "sound/se/adventure/se_slashing_sin",
      "resourcePath": "Sound/SE/se_slashing_sin.wav"
    },
    {
      "assetName": "",
      "assetPath": "sound/bgm/adventure/bgm_vow",
      "resourcePath": "Sound/BGM/bgm_vow.wav"
    },
    {
      "assetName": "",
      "assetPath": "sound/se/adventure/se_fusion",
      "resourcePath": "Sound/SE/se_fusion.wav"
    },
    {
      "assetName": "",
      "assetPath": "sound/se/adventure/se_down",
      "resourcePath": "Sound/SE/se_down.wav"
    },
    {
      "assetName": "",
      "assetPath": "sound/se/adventure/se_metastasis",
      "resourcePath": "Sound/SE/se_metastasis.wav"
    },
    {
      "assetName": "",
      "assetPath": "sound/bgm/adventure/bgm_description",
      "resourcePath": "Sound/BGM/bgm_description.wav"
    },
    {
      "assetName": "",
      "assetPath": "texture/background/bg_007_ll",
      "resourcePath": "Texture/BG/bg_007_LL.png"
    },
    {
      "assetName": "",
      "assetPath": "texture/background/bg_022_ll",
      "resourcePath": "Texture/BG/bg_022_LL.png"
    },
    {
      "assetName": "",
      "assetPath": "texture/background/bg_001_ll",
      "resourcePath": "Texture/BG/bg_001_LL.png"
    },
    {
      "assetName": "",
      "assetPath": "texture/background/bg_030_ll",
      "resourcePath": "Texture/BG/bg_030_LL.png"
    },
    {
      "assetName": "",
      "assetPath": "prefabs/effect/adventure/eff_017/eff_017",
      "resourcePath": "Particle/eff_017.prefab"
    },
    {
      "assetName": "",
      "assetPath": "prefabs/effect/adventure/eff_018/eff_018",
      "resourcePath": "Particle/eff_018.prefab"
    },
    {
      "assetName": "",
      "assetPath": "prefabs/effect/adventure/eff_020/eff_020",
      "resourcePath": "Particle/eff_020.prefab"
    },
    {
      "assetName": "",
      "assetPath": "data/adventure/event/story2003/adv_200308.scenarios",
      "resourcePath": "adv_200308.scenarios.asset"
    }
  ]
}