{
  "m_GameObject": {
    "m_FileID": 0,
    "m_PathID": 0
  },
  "m_Enabled": 1,
  "m_Script": {
    "m_FileID": 0,
    "m_PathID": 8527011069456626154
  },
  "m_Name": "adv_202404_path",
  "advPathList": [
    {
      "assetName": "",
      "assetPath": "texture/character/stand/1060600_stand",
      "resourcePath": "Texture/Character/1060600_stand.asset"
    },
    {
      "assetName": "",
      "assetPath": "texture/character/stand/1011000_stand",
      "resourcePath": "Texture/Character/1011000_stand.asset"
    },
    {
      "assetName": "",
      "assetPath": "texture/character/stand/1020100_stand",
      "resourcePath": "Texture/Character/1020100_stand.asset"
    },
    {
      "assetName": "",
      "assetPath": "texture/character/stand/1010900_stand",
      "resourcePath": "Texture/Character/1010900_stand.asset"
    },
    {
      "assetName": "",
      "assetPath": "texture/character/stand/1012800_stand",
      "resourcePath": "Texture/Character/1012800_stand.asset"
    },
    {
      "assetName": "",
      "assetPath": "texture/character/stand/1062000_stand",
      "resourcePath": "Texture/Character/1062000_stand.asset"
    },
    {
      "assetName": "",
      "assetPath": "texture/character/stand/1030800_stand",
      "resourcePath": "Texture/Character/1030800_stand.asset"
    },
    {
      "assetName": "",
      "assetPath": "texture/character/stand/1012000_stand",
      "resourcePath": "Texture/Character/1012000_stand.asset"
    },
    {
      "assetName": "",
      "assetPath": "texture/character/stand/1040200_stand",
      "resourcePath": "Texture/Character/1040200_stand.asset"
    },
    {
      "assetName": "",
      "assetPath": "texture/character/stand/1041500_stand",
      "resourcePath": "Texture/Character/1041500_stand.asset"
    },
    {
      "assetName": "",
      "assetPath": "texture/character/stand/1011200_stand",
      "resourcePath": "Texture/Character/1011200_stand.asset"
    },
    {
      "assetName": "",
      "assetPath": "texture/background/bg_084_ll",
      "resourcePath": "Texture/BG/bg_084_LL.png"
    },
    {
      "assetName": "",
      "assetPath": "texture/background/bg_007_ll",
      "resourcePath": "Texture/BG/bg_007_LL.png"
    },
    {
      "assetName": "",
      "assetPath": "texture/event/eventlogo/event_logo_0024",
      "resourcePath": "Texture/Sprite/event_logo_0024.png"
    },
    {
      "assetName": "",
      "assetPath": "prefabs/effect/adventure/eff_040/eff_040",
      "resourcePath": "Particle/eff_040.prefab"
    },
    {
      "assetName": "",
      "assetPath": "sound/bgm/adventure/bgm_adv_general",
      "resourcePath": "Sound/BGM/bgm_adv_general.wav"
    },
    {
      "assetName": "",
      "assetPath": "sound/se/adventure/se_depression",
      "resourcePath": "Sound/SE/se_depression.wav"
    },
    {
      "assetName": "",
      "assetPath": "sound/se/adventure/se_turn_page",
      "resourcePath": "Sound/SE/se_turn_page.wav"
    },
    {
      "assetName": "",
      "assetPath": "sound/bgm/adventure/bgm_comical",
      "resourcePath": "Sound/BGM/bgm_comical.wav"
    },
    {
      "assetName": "",
      "assetPath": "sound/bgm/adventure/bgm_bright",
      "resourcePath": "Sound/BGM/bgm_bright.wav"
    },
    {
      "assetName": "",
      "assetPath": "sound/se/adventure/se_heart_sound",
      "resourcePath": "Sound/SE/se_heart_sound.wav"
    },
    {
      "assetName": "",
      "assetPath": "sound/bgm/adventure/bgm_description",
      "resourcePath": "Sound/BGM/bgm_description.wav"
    },
    {
      "assetName": "",
      "assetPath": "data/adventure/event/story2024/adv_202404.scenarios",
      "resourcePath": "adv_202404.scenarios.asset"
    }
  ]
}