{
  "m_GameObject": {
    "m_FileID": 0,
    "m_PathID": 0
  },
  "m_Enabled": 1,
  "m_Script": {
    "m_FileID": 0,
    "m_PathID": 8527011069456626154
  },
  "m_Name": "adv_200104_path",
  "advPathList": [
    {
      "assetName": "",
      "assetPath": "texture/character/stand/1040100_stand",
      "resourcePath": "Texture/Character/1040100_stand.asset"
    },
    {
      "assetName": "",
      "assetPath": "texture/character/stand/1030800_stand",
      "resourcePath": "Texture/Character/1030800_stand.asset"
    },
    {
      "assetName": "",
      "assetPath": "texture/character/stand/1000300_stand",
      "resourcePath": "Texture/Character/1000300_stand.asset"
    },
    {
      "assetName": "",
      "assetPath": "texture/character/stand/1000400_stand",
      "resourcePath": "Texture/Character/1000400_stand.asset"
    },
    {
      "assetName": "",
      "assetPath": "texture/character/stand/1010100_stand",
      "resourcePath": "Texture/Character/1010100_stand.asset"
    },
    {
      "assetName": "",
      "assetPath": "texture/character/stand/1160100_stand",
      "resourcePath": "Texture/Character/1160100_stand.asset"
    },
    {
      "assetName": "",
      "assetPath": "texture/character/stand/1030900_stand",
      "resourcePath": "Texture/Character/1030900_stand.asset"
    },
    {
      "assetName": "",
      "assetPath": "texture/character/stand/1120200_stand",
      "resourcePath": "Texture/Character/1120200_stand.asset"
    },
    {
      "assetName": "",
      "assetPath": "texture/character/stand/1120500_stand",
      "resourcePath": "Texture/Character/1120500_stand.asset"
    },
    {
      "assetName": "",
      "assetPath": "sound/bgm/bgm_battle01",
      "resourcePath": "Sound/BGM/bgm_battle01.wav"
    },
    {
      "assetName": "",
      "assetPath": "sound/se/adventure/se_flame",
      "resourcePath": "Sound/SE/se_flame.wav"
    },
    {
      "assetName": "",
      "assetPath": "sound/se/adventure/se_magic_circle",
      "resourcePath": "Sound/SE/se_magic_circle.wav"
    },
    {
      "assetName": "",
      "assetPath": "texture/background/bg_007_ll",
      "resourcePath": "Texture/BG/bg_007_LL.png"
    },
    {
      "assetName": "",
      "assetPath": "texture/background/bg_022_ll",
      "resourcePath": "Texture/BG/bg_022_LL.png"
    },
    {
      "assetName": "",
      "assetPath": "texture/background/bg_001_ll",
      "resourcePath": "Texture/BG/bg_001_LL.png"
    },
    {
      "assetName": "",
      "assetPath": "prefabs/effect/adventure/eff_022/eff_022",
      "resourcePath": "Particle/eff_022.prefab"
    },
    {
      "assetName": "",
      "assetPath": "data/adventure/event/story2001/adv_200104.scenarios",
      "resourcePath": "adv_200104.scenarios.asset"
    }
  ]
}