{
  "m_GameObject": {
    "m_FileID": 0,
    "m_PathID": 0
  },
  "m_Enabled": 1,
  "m_Script": {
    "m_FileID": 0,
    "m_PathID": 1584530041059784091
  },
  "m_Name": "adv_200108.scenarios",
  "importVersion": 3,
  "chapters": [
    {
      "m_FileID": 0,
      "m_PathID": -1281660038488625124
    }
  ]
}