{
  "m_GameObject": {
    "m_FileID": 0,
    "m_PathID": 0
  },
  "m_Enabled": 1,
  "m_Script": {
    "m_FileID": 0,
    "m_PathID": 8527011069456626154
  },
  "m_Name": "adv_200108_path",
  "advPathList": [
    {
      "assetName": "",
      "assetPath": "texture/character/stand/1040100_stand",
      "resourcePath": "Texture/Character/1040100_stand.asset"
    },
    {
      "assetName": "",
      "assetPath": "texture/character/stand/1030800_stand",
      "resourcePath": "Texture/Character/1030800_stand.asset"
    },
    {
      "assetName": "",
      "assetPath": "texture/character/stand/1160100_stand",
      "resourcePath": "Texture/Character/1160100_stand.asset"
    },
    {
      "assetName": "",
      "assetPath": "texture/character/stand/1170100_stand",
      "resourcePath": "Texture/Character/1170100_stand.asset"
    },
    {
      "assetName": "",
      "assetPath": "texture/character/stand/1120200_stand",
      "resourcePath": "Texture/Character/1120200_stand.asset"
    },
    {
      "assetName": "",
      "assetPath": "texture/character/stand/1120500_stand",
      "resourcePath": "Texture/Character/1120500_stand.asset"
    },
    {
      "assetName": "",
      "assetPath": "texture/character/stand/1030900_stand",
      "resourcePath": "Texture/Character/1030900_stand.asset"
    },
    {
      "assetName": "",
      "assetPath": "texture/character/stand/1010100_stand",
      "resourcePath": "Texture/Character/1010100_stand.asset"
    },
    {
      "assetName": "",
      "assetPath": "texture/character/stand/1000300_stand",
      "resourcePath": "Texture/Character/1000300_stand.asset"
    },
    {
      "assetName": "",
      "assetPath": "texture/character/stand/1000400_stand",
      "resourcePath": "Texture/Character/1000400_stand.asset"
    },
    {
      "assetName": "",
      "assetPath": "sound/bgm/bgm_battle01",
      "resourcePath": "Sound/BGM/bgm_battle01.wav"
    },
    {
      "assetName": "",
      "assetPath": "sound/bgm/adventure/bgm_adv_general",
      "resourcePath": "Sound/BGM/bgm_adv_general.wav"
    },
    {
      "assetName": "",
      "assetPath": "sound/se/adventure/se_disappear",
      "resourcePath": "Sound/SE/se_disappear.wav"
    },
    {
      "assetName": "",
      "assetPath": "sound/se/adventure/se_metastasis",
      "resourcePath": "Sound/SE/se_metastasis.wav"
    },
    {
      "assetName": "",
      "assetPath": "sound/se/adventure/se_fusion",
      "resourcePath": "Sound/SE/se_fusion.wav"
    },
    {
      "assetName": "",
      "assetPath": "sound/se/adventure/se_depression",
      "resourcePath": "Sound/SE/se_depression.wav"
    },
    {
      "assetName": "",
      "assetPath": "texture/background/bg_007_ll",
      "resourcePath": "Texture/BG/bg_007_LL.png"
    },
    {
      "assetName": "",
      "assetPath": "texture/background/bg_022_ll",
      "resourcePath": "Texture/BG/bg_022_LL.png"
    },
    {
      "assetName": "",
      "assetPath": "texture/background/bg_009_ll",
      "resourcePath": "Texture/BG/bg_009_LL.png"
    },
    {
      "assetName": "",
      "assetPath": "texture/background/bg_001_ll",
      "resourcePath": "Texture/BG/bg_001_LL.png"
    },
    {
      "assetName": "",
      "assetPath": "data/adventure/event/story2001/adv_200108.scenarios",
      "resourcePath": "adv_200108.scenarios.asset"
    }
  ]
}