{
  "m_GameObject": {
    "m_FileID": 0,
    "m_PathID": 0
  },
  "m_Enabled": 1,
  "m_Script": {
    "m_FileID": 0,
    "m_PathID": -8016775561480030637
  },
  "m_Name": "adv_200911.chapter",
  "chapterName": "",
  "dataList": [
    {
      "m_FileID": 0,
      "m_PathID": -2529553931393654023
    }
  ],
  "settingList": [
    {
      "rows": [
        {
          "rowIndex": 0,
          "strings": [
            "CharacterName",
            "NameText",
            "Pattern",
            "X",
            "Y",
            "Z",
            "Pivot",
            "Scale",
            "Conditional",
            "BundlePath",
            "FileName",
            "SubFileName",
            "FileType",
            "Animation",
            "RenderTexture",
            "RenderRect",
            "EyeBlink",
            "LipSynch",
            "Icon",
            "IconSubFileName",
            "IconRect"
          ],
          "isEmpty": 0,
          "isCommentOut": 0
        },
        {
          "rowIndex": 1,
          "strings": [
            "クロワール",
            "",
            "通常",
            "",
            "-50",
            "",
            "",
            "",
            "",
            "texture/character/stand/1030800_stand",
            "1030800_stand.asset",
            "1030800_stand_01",
            "Dicing"
          ],
          "isEmpty": 0,
          "isCommentOut": 0
        },
        {
          "rowIndex": 2,
          "strings": [
            "//",
            "",
            "目閉じ",
            "",
            "-50",
            "",
            "",
            "",
            "",
            "texture/character/stand/1030800_stand",
            "1030800_stand.asset",
            "1030800_stand_02",
            "Dicing"
          ],
          "isEmpty": 0,
          "isCommentOut": 1
        },
        {
          "rowIndex": 3,
          "strings": [
            "",
            "",
            "真剣",
            "",
            "-50",
            "",
            "",
            "",
            "",
            "texture/character/stand/1030800_stand",
            "1030800_stand.asset",
            "1030800_stand_03",
            "Dicing"
          ],
          "isEmpty": 0,
          "isCommentOut": 0
        },
        {
          "rowIndex": 4,
          "strings": [
            "",
            "",
            "笑い",
            "",
            "-50",
            "",
            "",
            "",
            "",
            "texture/character/stand/1030800_stand",
            "1030800_stand.asset",
            "1030800_stand_04",
            "Dicing"
          ],
          "isEmpty": 0,
          "isCommentOut": 0
        },
        {
          "rowIndex": 5,
          "strings": [
            "",
            "",
            "悲しみ",
            "",
            "-50",
            "",
            "",
            "",
            "",
            "texture/character/stand/1030800_stand",
            "1030800_stand.asset",
            "1030800_stand_05",
            "Dicing"
          ],
          "isEmpty": 0,
          "isCommentOut": 0
        },
        {
          "rowIndex": 6,
          "strings": [
            "//",
            "",
            "照れ",
            "",
            "-50",
            "",
            "",
            "",
            "",
            "texture/character/stand/1030800_stand",
            "1030800_stand.asset",
            "1030800_stand_06",
            "Dicing"
          ],
          "isEmpty": 0,
          "isCommentOut": 1
        },
        {
          "rowIndex": 7,
          "strings": [
            "",
            "",
            "固有",
            "",
            "-50",
            "",
            "",
            "",
            "",
            "texture/character/stand/1030800_stand",
            "1030800_stand.asset",
            "1030800_stand_07",
            "Dicing"
          ],
          "isEmpty": 0,
          "isCommentOut": 0
        },
        {
          "rowIndex": 8,
          "strings": [
            "クロワールV",
            "クロワール",
            "通常",
            "",
            "-50",
            "",
            "",
            "",
            "",
            "texture/character/stand/1031200_stand",
            "1031200_stand.asset",
            "1031200_stand_01",
            "Dicing"
          ],
          "isEmpty": 0,
          "isCommentOut": 0
        },
        {
          "rowIndex": 9,
          "strings": [
            "//",
            "クロワール",
            "目閉じ",
            "",
            "-50",
            "",
            "",
            "",
            "",
            "texture/character/stand/1031200_stand",
            "1031200_stand.asset",
            "1031200_stand_02",
            "Dicing"
          ],
          "isEmpty": 0,
          "isCommentOut": 1
        },
        {
          "rowIndex": 10,
          "strings": [
            "",
            "クロワール",
            "真剣",
            "",
            "-50",
            "",
            "",
            "",
            "",
            "texture/character/stand/1031200_stand",
            "1031200_stand.asset",
            "1031200_stand_03",
            "Dicing"
          ],
          "isEmpty": 0,
          "isCommentOut": 0
        },
        {
          "rowIndex": 11,
          "strings": [
            "",
            "クロワール",
            "笑い",
            "",
            "-50",
            "",
            "",
            "",
            "",
            "texture/character/stand/1031200_stand",
            "1031200_stand.asset",
            "1031200_stand_04",
            "Dicing"
          ],
          "isEmpty": 0,
          "isCommentOut": 0
        },
        {
          "rowIndex": 12,
          "strings": [
            "",
            "クロワール",
            "悲しみ",
            "",
            "-50",
            "",
            "",
            "",
            "",
            "texture/character/stand/1031200_stand",
            "1031200_stand.asset",
            "1031200_stand_05",
            "Dicing"
          ],
          "isEmpty": 0,
          "isCommentOut": 0
        },
        {
          "rowIndex": 13,
          "strings": [
            "//",
            "クロワール",
            "照れ",
            "",
            "-50",
            "",
            "",
            "",
            "",
            "texture/character/stand/1031200_stand",
            "1031200_stand.asset",
            "1031200_stand_06",
            "Dicing"
          ],
          "isEmpty": 0,
          "isCommentOut": 1
        },
        {
          "rowIndex": 14,
          "strings": [
            "",
            "クロワール",
            "固有",
            "",
            "-50",
            "",
            "",
            "",
            "",
            "texture/character/stand/1031200_stand",
            "1031200_stand.asset",
            "1031200_stand_07",
            "Dicing"
          ],
          "isEmpty": 0,
          "isCommentOut": 0
        },
        {
          "rowIndex": 15,
          "strings": [
            "大人ネプテューヌ",
            "ネプテューヌ",
            "通常",
            "",
            "-50",
            "",
            "",
            "",
            "",
            "texture/character/stand/1040100_stand",
            "1040100_stand.asset",
            "1040100_stand_01",
            "Dicing"
          ],
          "isEmpty": 0,
          "isCommentOut": 0
        },
        {
          "rowIndex": 16,
          "strings": [
            "",
            "",
            "目閉じ",
            "",
            "-50",
            "",
            "",
            "",
            "",
            "texture/character/stand/1040100_stand",
            "1040100_stand.asset",
            "1040100_stand_02",
            "Dicing"
          ],
          "isEmpty": 0,
          "isCommentOut": 0
        },
        {
          "rowIndex": 17,
          "strings": [
            "",
            "",
            "真剣",
            "",
            "-50",
            "",
            "",
            "",
            "",
            "texture/character/stand/1040100_stand",
            "1040100_stand.asset",
            "1040100_stand_03",
            "Dicing"
          ],
          "isEmpty": 0,
          "isCommentOut": 0
        },
        {
          "rowIndex": 18,
          "strings": [
            "",
            "",
            "笑い",
            "",
            "-50",
            "",
            "",
            "",
            "",
            "texture/character/stand/1040100_stand",
            "1040100_stand.asset",
            "1040100_stand_04",
            "Dicing"
          ],
          "isEmpty": 0,
          "isCommentOut": 0
        },
        {
          "rowIndex": 19,
          "strings": [
            "",
            "",
            "悲しみ",
            "",
            "-50",
            "",
            "",
            "",
            "",
            "texture/character/stand/1040100_stand",
            "1040100_stand.asset",
            "1040100_stand_05",
            "Dicing"
          ],
          "isEmpty": 0,
          "isCommentOut": 0
        },
        {
          "rowIndex": 20,
          "strings": [
            "",
            "",
            "照れ",
            "",
            "-50",
            "",
            "",
            "",
            "",
            "texture/character/stand/1040100_stand",
            "1040100_stand.asset",
            "1040100_stand_06",
            "Dicing"
          ],
          "isEmpty": 0,
          "isCommentOut": 0
        },
        {
          "rowIndex": 21,
          "strings": [
            "",
            "",
            "固有",
            "",
            "-50",
            "",
            "",
            "",
            "",
            "texture/character/stand/1040100_stand",
            "1040100_stand.asset",
            "1040100_stand_07",
            "Dicing"
          ],
          "isEmpty": 0,
          "isCommentOut": 0
        },
        {
          "rowIndex": 22,
          "strings": [
            "五河琴里",
            "",
            "通常",
            "",
            "-100",
            "",
            "",
            "",
            "",
            "texture/character/stand/1200500_stand",
            "1200500_stand.asset",
            "1200500_stand_01",
            "Dicing"
          ],
          "isEmpty": 0,
          "isCommentOut": 0
        },
        {
          "rowIndex": 23,
          "strings": [
            "",
            "",
            "目閉じ",
            "",
            "-100",
            "",
            "",
            "",
            "",
            "texture/character/stand/1200500_stand",
            "1200500_stand.asset",
            "1200500_stand_02",
            "Dicing"
          ],
          "isEmpty": 0,
          "isCommentOut": 0
        },
        {
          "rowIndex": 24,
          "strings": [
            "",
            "",
            "真剣",
            "",
            "-100",
            "",
            "",
            "",
            "",
            "texture/character/stand/1200500_stand",
            "1200500_stand.asset",
            "1200500_stand_03",
            "Dicing"
          ],
          "isEmpty": 0,
          "isCommentOut": 0
        },
        {
          "rowIndex": 25,
          "strings": [
            "",
            "",
            "笑い",
            "",
            "-100",
            "",
            "",
            "",
            "",
            "texture/character/stand/1200500_stand",
            "1200500_stand.asset",
            "1200500_stand_04",
            "Dicing"
          ],
          "isEmpty": 0,
          "isCommentOut": 0
        },
        {
          "rowIndex": 26,
          "strings": [
            "",
            "",
            "悲しみ",
            "",
            "-100",
            "",
            "",
            "",
            "",
            "texture/character/stand/1200500_stand",
            "1200500_stand.asset",
            "1200500_stand_05",
            "Dicing"
          ],
          "isEmpty": 0,
          "isCommentOut": 0
        },
        {
          "rowIndex": 27,
          "strings": [
            "",
            "",
            "照れ",
            "",
            "-100",
            "",
            "",
            "",
            "",
            "texture/character/stand/1200500_stand",
            "1200500_stand.asset",
            "1200500_stand_06",
            "Dicing"
          ],
          "isEmpty": 0,
          "isCommentOut": 0
        },
        {
          "rowIndex": 28,
          "strings": [
            "",
            "",
            "固有",
            "",
            "-100",
            "",
            "",
            "",
            "",
            "texture/character/stand/1200500_stand",
            "1200500_stand.asset",
            "1200500_stand_07",
            "Dicing"
          ],
          "isEmpty": 0,
          "isCommentOut": 0
        },
        {
          "rowIndex": 29,
          "strings": [
            "",
            "",
            "目閉じ笑顔",
            "",
            "-100",
            "",
            "",
            "",
            "",
            "texture/character/stand/1200500_stand",
            "1200500_stand.asset",
            "1200500_stand_08",
            "Dicing"
          ],
          "isEmpty": 0,
          "isCommentOut": 0
        },
        {
          "rowIndex": 30,
          "strings": [
            "夜刀神十香",
            "",
            "通常",
            "",
            "-40",
            "",
            "",
            "",
            "",
            "texture/character/stand/1200600_stand",
            "1200600_stand.asset",
            "1200600_stand_01",
            "Dicing"
          ],
          "isEmpty": 0,
          "isCommentOut": 0
        },
        {
          "rowIndex": 31,
          "strings": [
            "",
            "",
            "目閉じ",
            "",
            "-40",
            "",
            "",
            "",
            "",
            "texture/character/stand/1200600_stand",
            "1200600_stand.asset",
            "1200600_stand_02",
            "Dicing"
          ],
          "isEmpty": 0,
          "isCommentOut": 0
        },
        {
          "rowIndex": 32,
          "strings": [
            "",
            "",
            "真剣",
            "",
            "-40",
            "",
            "",
            "",
            "",
            "texture/character/stand/1200600_stand",
            "1200600_stand.asset",
            "1200600_stand_03",
            "Dicing"
          ],
          "isEmpty": 0,
          "isCommentOut": 0
        },
        {
          "rowIndex": 33,
          "strings": [
            "",
            "",
            "笑い",
            "",
            "-40",
            "",
            "",
            "",
            "",
            "texture/character/stand/1200600_stand",
            "1200600_stand.asset",
            "1200600_stand_04",
            "Dicing"
          ],
          "isEmpty": 0,
          "isCommentOut": 0
        },
        {
          "rowIndex": 34,
          "strings": [
            "",
            "",
            "悲しみ",
            "",
            "-40",
            "",
            "",
            "",
            "",
            "texture/character/stand/1200600_stand",
            "1200600_stand.asset",
            "1200600_stand_05",
            "Dicing"
          ],
          "isEmpty": 0,
          "isCommentOut": 0
        },
        {
          "rowIndex": 35,
          "strings": [
            "",
            "",
            "照れ",
            "",
            "-40",
            "",
            "",
            "",
            "",
            "texture/character/stand/1200600_stand",
            "1200600_stand.asset",
            "1200600_stand_06",
            "Dicing"
          ],
          "isEmpty": 0,
          "isCommentOut": 0
        },
        {
          "rowIndex": 36,
          "strings": [
            "",
            "",
            "固有",
            "",
            "-40",
            "",
            "",
            "",
            "",
            "texture/character/stand/1200600_stand",
            "1200600_stand.asset",
            "1200600_stand_07",
            "Dicing"
          ],
          "isEmpty": 0,
          "isCommentOut": 0
        },
        {
          "rowIndex": 37,
          "strings": [
            "時崎狂三",
            "",
            "通常",
            "",
            "-65",
            "",
            "",
            "",
            "",
            "texture/character/stand/1200800_stand",
            "1200800_stand.asset",
            "1200800_stand_01",
            "Dicing"
          ],
          "isEmpty": 0,
          "isCommentOut": 0
        },
        {
          "rowIndex": 38,
          "strings": [
            "",
            "",
            "目閉じ",
            "",
            "-65",
            "",
            "",
            "",
            "",
            "texture/character/stand/1200800_stand",
            "1200800_stand.asset",
            "1200800_stand_02",
            "Dicing"
          ],
          "isEmpty": 0,
          "isCommentOut": 0
        },
        {
          "rowIndex": 39,
          "strings": [
            "",
            "",
            "真剣",
            "",
            "-65",
            "",
            "",
            "",
            "",
            "texture/character/stand/1200800_stand",
            "1200800_stand.asset",
            "1200800_stand_03",
            "Dicing"
          ],
          "isEmpty": 0,
          "isCommentOut": 0
        },
        {
          "rowIndex": 40,
          "strings": [
            "",
            "",
            "笑い",
            "",
            "-65",
            "",
            "",
            "",
            "",
            "texture/character/stand/1200800_stand",
            "1200800_stand.asset",
            "1200800_stand_04",
            "Dicing"
          ],
          "isEmpty": 0,
          "isCommentOut": 0
        },
        {
          "rowIndex": 41,
          "strings": [
            "",
            "",
            "悲しみ",
            "",
            "-65",
            "",
            "",
            "",
            "",
            "texture/character/stand/1200800_stand",
            "1200800_stand.asset",
            "1200800_stand_05",
            "Dicing"
          ],
          "isEmpty": 0,
          "isCommentOut": 0
        },
        {
          "rowIndex": 42,
          "strings": [
            "",
            "",
            "照れ",
            "",
            "-65",
            "",
            "",
            "",
            "",
            "texture/character/stand/1200800_stand",
            "1200800_stand.asset",
            "1200800_stand_06",
            "Dicing"
          ],
          "isEmpty": 0,
          "isCommentOut": 0
        },
        {
          "rowIndex": 43,
          "strings": [
            "",
            "",
            "固有",
            "",
            "-65",
            "",
            "",
            "",
            "",
            "texture/character/stand/1200800_stand",
            "1200800_stand.asset",
            "1200800_stand_07",
            "Dicing"
          ],
          "isEmpty": 0,
          "isCommentOut": 0
        },
        {
          "rowIndex": 44,
          "strings": [
            "",
            "",
            "驚き",
            "",
            "-65",
            "",
            "",
            "",
            "",
            "texture/character/stand/1200800_stand",
            "1200800_stand.asset",
            "1200800_stand_08",
            "Dicing"
          ],
          "isEmpty": 0,
          "isCommentOut": 0
        },
        {
          "rowIndex": 45,
          "strings": [
            "四糸乃",
            "",
            "通常",
            "",
            "-130",
            "",
            "",
            "",
            "",
            "texture/character/stand/1200700_stand",
            "1200700_stand.asset",
            "1200700_stand_01",
            "Dicing"
          ],
          "isEmpty": 0,
          "isCommentOut": 0
        },
        {
          "rowIndex": 46,
          "strings": [
            "",
            "",
            "目閉じ",
            "",
            "-130",
            "",
            "",
            "",
            "",
            "texture/character/stand/1200700_stand",
            "1200700_stand.asset",
            "1200700_stand_02",
            "Dicing"
          ],
          "isEmpty": 0,
          "isCommentOut": 0
        },
        {
          "rowIndex": 47,
          "strings": [
            "",
            "",
            "真剣",
            "",
            "-130",
            "",
            "",
            "",
            "",
            "texture/character/stand/1200700_stand",
            "1200700_stand.asset",
            "1200700_stand_03",
            "Dicing"
          ],
          "isEmpty": 0,
          "isCommentOut": 0
        },
        {
          "rowIndex": 48,
          "strings": [
            "",
            "",
            "笑い",
            "",
            "-130",
            "",
            "",
            "",
            "",
            "texture/character/stand/1200700_stand",
            "1200700_stand.asset",
            "1200700_stand_04",
            "Dicing"
          ],
          "isEmpty": 0,
          "isCommentOut": 0
        },
        {
          "rowIndex": 49,
          "strings": [
            "",
            "",
            "悲しみ",
            "",
            "-130",
            "",
            "",
            "",
            "",
            "texture/character/stand/1200700_stand",
            "1200700_stand.asset",
            "1200700_stand_05",
            "Dicing"
          ],
          "isEmpty": 0,
          "isCommentOut": 0
        },
        {
          "rowIndex": 50,
          "strings": [
            "",
            "",
            "照れ",
            "",
            "-130",
            "",
            "",
            "",
            "",
            "texture/character/stand/1200700_stand",
            "1200700_stand.asset",
            "1200700_stand_06",
            "Dicing"
          ],
          "isEmpty": 0,
          "isCommentOut": 0
        },
        {
          "rowIndex": 51,
          "strings": [
            "",
            "",
            "固有",
            "",
            "-130",
            "",
            "",
            "",
            "",
            "texture/character/stand/1200700_stand",
            "1200700_stand.asset",
            "1200700_stand_07",
            "Dicing"
          ],
          "isEmpty": 0,
          "isCommentOut": 0
        },
        {
          "rowIndex": 52,
          "strings": [
            "ヒロ",
            "",
            "通常",
            "",
            "-50",
            "",
            "",
            "",
            "",
            "texture/character/stand/1160100_stand",
            "1160100_stand.asset",
            "1160100_stand_01",
            "Dicing"
          ],
          "isEmpty": 0,
          "isCommentOut": 0
        },
        {
          "rowIndex": 53,
          "strings": [
            "",
            "",
            "目閉じ",
            "",
            "-50",
            "",
            "",
            "",
            "",
            "texture/character/stand/1160100_stand",
            "1160100_stand.asset",
            "1160100_stand_02",
            "Dicing"
          ],
          "isEmpty": 0,
          "isCommentOut": 0
        },
        {
          "rowIndex": 54,
          "strings": [
            "",
            "",
            "真剣",
            "",
            "-50",
            "",
            "",
            "",
            "",
            "texture/character/stand/1160100_stand",
            "1160100_stand.asset",
            "1160100_stand_03",
            "Dicing"
          ],
          "isEmpty": 0,
          "isCommentOut": 0
        },
        {
          "rowIndex": 55,
          "strings": [
            "",
            "",
            "笑い",
            "",
            "-50",
            "",
            "",
            "",
            "",
            "texture/character/stand/1160100_stand",
            "1160100_stand.asset",
            "1160100_stand_04",
            "Dicing"
          ],
          "isEmpty": 0,
          "isCommentOut": 0
        },
        {
          "rowIndex": 56,
          "strings": [
            "",
            "",
            "悲しみ",
            "",
            "-50",
            "",
            "",
            "",
            "",
            "texture/character/stand/1160100_stand",
            "1160100_stand.asset",
            "1160100_stand_05",
            "Dicing"
          ],
          "isEmpty": 0,
          "isCommentOut": 0
        },
        {
          "rowIndex": 57,
          "strings": [
            "",
            "",
            "照れ",
            "",
            "-50",
            "",
            "",
            "",
            "",
            "texture/character/stand/1160100_stand",
            "1160100_stand.asset",
            "1160100_stand_06",
            "Dicing"
          ],
          "isEmpty": 0,
          "isCommentOut": 0
        },
        {
          "rowIndex": 58,
          "strings": [
            "",
            "",
            "固有",
            "",
            "-50",
            "",
            "",
            "",
            "",
            "texture/character/stand/1160100_stand",
            "1160100_stand.asset",
            "1160100_stand_07",
            "Dicing"
          ],
          "isEmpty": 0,
          "isCommentOut": 0
        },
        {
          "rowIndex": 59,
          "strings": [
            "天王星うずめ",
            "",
            "通常",
            "",
            "-50",
            "",
            "",
            "",
            "",
            "texture/character/stand/1040200_stand",
            "1040200_stand.asset",
            "1040200_stand_01",
            "Dicing"
          ],
          "isEmpty": 0,
          "isCommentOut": 0
        },
        {
          "rowIndex": 60,
          "strings": [
            "",
            "",
            "目閉じ",
            "",
            "-50",
            "",
            "",
            "",
            "",
            "texture/character/stand/1040200_stand",
            "1040200_stand.asset",
            "1040200_stand_02",
            "Dicing"
          ],
          "isEmpty": 0,
          "isCommentOut": 0
        },
        {
          "rowIndex": 61,
          "strings": [
            "",
            "",
            "真剣",
            "",
            "-50",
            "",
            "",
            "",
            "",
            "texture/character/stand/1040200_stand",
            "1040200_stand.asset",
            "1040200_stand_03",
            "Dicing"
          ],
          "isEmpty": 0,
          "isCommentOut": 0
        },
        {
          "rowIndex": 62,
          "strings": [
            "",
            "",
            "笑い",
            "",
            "-50",
            "",
            "",
            "",
            "",
            "texture/character/stand/1040200_stand",
            "1040200_stand.asset",
            "1040200_stand_04",
            "Dicing"
          ],
          "isEmpty": 0,
          "isCommentOut": 0
        },
        {
          "rowIndex": 63,
          "strings": [
            "",
            "",
            "悲しみ",
            "",
            "-50",
            "",
            "",
            "",
            "",
            "texture/character/stand/1040200_stand",
            "1040200_stand.asset",
            "1040200_stand_05",
            "Dicing"
          ],
          "isEmpty": 0,
          "isCommentOut": 0
        },
        {
          "rowIndex": 64,
          "strings": [
            "",
            "",
            "照れ",
            "",
            "-50",
            "",
            "",
            "",
            "",
            "texture/character/stand/1040200_stand",
            "1040200_stand.asset",
            "1040200_stand_06",
            "Dicing"
          ],
          "isEmpty": 0,
          "isCommentOut": 0
        },
        {
          "rowIndex": 65,
          "strings": [
            "",
            "",
            "固有",
            "",
            "-50",
            "",
            "",
            "",
            "",
            "texture/character/stand/1040200_stand",
            "1040200_stand.asset",
            "1040200_stand_07",
            "Dicing"
          ],
          "isEmpty": 0,
          "isCommentOut": 0
        },
        {
          "rowIndex": 66,
          "strings": [
            "",
            "",
            "妄想笑い",
            "",
            "-50",
            "",
            "",
            "",
            "",
            "texture/character/stand/1040200_stand",
            "1040200_stand.asset",
            "1040200_stand_08",
            "Dicing"
          ],
          "isEmpty": 0,
          "isCommentOut": 0
        },
        {
          "rowIndex": 67,
          "strings": [
            "蓮",
            "",
            "通常",
            "",
            "-35",
            "",
            "",
            "",
            "",
            "texture/character/stand/1200900_stand",
            "1200900_stand.asset",
            "1200900_stand_01",
            "Dicing"
          ],
          "isEmpty": 0,
          "isCommentOut": 0
        },
        {
          "rowIndex": 68,
          "strings": [
            "",
            "",
            "目閉じ",
            "",
            "-35",
            "",
            "",
            "",
            "",
            "texture/character/stand/1200900_stand",
            "1200900_stand.asset",
            "1200900_stand_02",
            "Dicing"
          ],
          "isEmpty": 0,
          "isCommentOut": 0
        },
        {
          "rowIndex": 69,
          "strings": [
            "",
            "",
            "真剣",
            "",
            "-35",
            "",
            "",
            "",
            "",
            "texture/character/stand/1200900_stand",
            "1200900_stand.asset",
            "1200900_stand_03",
            "Dicing"
          ],
          "isEmpty": 0,
          "isCommentOut": 0
        },
        {
          "rowIndex": 70,
          "strings": [
            "",
            "",
            "笑い",
            "",
            "-35",
            "",
            "",
            "",
            "",
            "texture/character/stand/1200900_stand",
            "1200900_stand.asset",
            "1200900_stand_04",
            "Dicing"
          ],
          "isEmpty": 0,
          "isCommentOut": 0
        },
        {
          "rowIndex": 71,
          "strings": [
            "",
            "",
            "悲しみ",
            "",
            "-35",
            "",
            "",
            "",
            "",
            "texture/character/stand/1200900_stand",
            "1200900_stand.asset",
            "1200900_stand_05",
            "Dicing"
          ],
          "isEmpty": 0,
          "isCommentOut": 0
        },
        {
          "rowIndex": 72,
          "strings": [
            "",
            "",
            "照れ",
            "",
            "-35",
            "",
            "",
            "",
            "",
            "texture/character/stand/1200900_stand",
            "1200900_stand.asset",
            "1200900_stand_06",
            "Dicing"
          ],
          "isEmpty": 0,
          "isCommentOut": 0
        },
        {
          "rowIndex": 73,
          "strings": [
            "",
            "",
            "固有",
            "",
            "-35",
            "",
            "",
            "",
            "",
            "texture/character/stand/1200900_stand",
            "1200900_stand.asset",
            "1200900_stand_07",
            "Dicing"
          ],
          "isEmpty": 0,
          "isCommentOut": 0
        },
        {
          "rowIndex": 74,
          "strings": [
            "",
            "",
            "目閉じ笑顔",
            "",
            "-35",
            "",
            "",
            "",
            "",
            "texture/character/stand/1200900_stand",
            "1200900_stand.asset",
            "1200900_stand_08",
            "Dicing"
          ],
          "isEmpty": 0,
          "isCommentOut": 0
        },
        {
          "rowIndex": 75,
          "strings": [
            "",
            "",
            "片目通常",
            "",
            "-35",
            "",
            "",
            "",
            "",
            "texture/character/stand/1200900_stand",
            "1200900_stand.asset",
            "1200900_stand_09",
            "Dicing"
          ],
          "isEmpty": 0,
          "isCommentOut": 0
        },
        {
          "rowIndex": 76,
          "strings": [
            "",
            "",
            "片目目閉じ",
            "",
            "-35",
            "",
            "",
            "",
            "",
            "texture/character/stand/1200900_stand",
            "1200900_stand.asset",
            "1200900_stand_10",
            "Dicing"
          ],
          "isEmpty": 0,
          "isCommentOut": 0
        },
        {
          "rowIndex": 77,
          "strings": [
            "",
            "",
            "片目真剣",
            "",
            "-35",
            "",
            "",
            "",
            "",
            "texture/character/stand/1200900_stand",
            "1200900_stand.asset",
            "1200900_stand_11",
            "Dicing"
          ],
          "isEmpty": 0,
          "isCommentOut": 0
        },
        {
          "rowIndex": 78,
          "strings": [
            "",
            "",
            "片目笑い",
            "",
            "-35",
            "",
            "",
            "",
            "",
            "texture/character/stand/1200900_stand",
            "1200900_stand.asset",
            "1200900_stand_12",
            "Dicing"
          ],
          "isEmpty": 0,
          "isCommentOut": 0
        },
        {
          "rowIndex": 79,
          "strings": [
            "",
            "",
            "片目悲しみ",
            "",
            "-35",
            "",
            "",
            "",
            "",
            "texture/character/stand/1200900_stand",
            "1200900_stand.asset",
            "1200900_stand_13",
            "Dicing"
          ],
          "isEmpty": 0,
          "isCommentOut": 0
        },
        {
          "rowIndex": 80,
          "strings": [
            "",
            "",
            "片目照れ",
            "",
            "-35",
            "",
            "",
            "",
            "",
            "texture/character/stand/1200900_stand",
            "1200900_stand.asset",
            "1200900_stand_14",
            "Dicing"
          ],
          "isEmpty": 0,
          "isCommentOut": 0
        },
        {
          "rowIndex": 81,
          "strings": [
            "",
            "",
            "片目固有",
            "",
            "-35",
            "",
            "",
            "",
            "",
            "texture/character/stand/1200900_stand",
            "1200900_stand.asset",
            "1200900_stand_15",
            "Dicing"
          ],
          "isEmpty": 0,
          "isCommentOut": 0
        },
        {
          "rowIndex": 82,
          "strings": [
            "",
            "",
            "片目目閉じ笑顔",
            "",
            "-35",
            "",
            "",
            "",
            "",
            "texture/character/stand/1200900_stand",
            "1200900_stand.asset",
            "1200900_stand_16",
            "Dicing"
          ],
          "isEmpty": 0,
          "isCommentOut": 0
        },
        {
          "rowIndex": 83,
          "strings": [
            "",
            "",
            "両目通常",
            "",
            "-35",
            "",
            "",
            "",
            "",
            "texture/character/stand/1200900_stand",
            "1200900_stand.asset",
            "1200900_stand_17",
            "Dicing"
          ],
          "isEmpty": 0,
          "isCommentOut": 0
        },
        {
          "rowIndex": 84,
          "strings": [
            "",
            "",
            "両目目閉じ",
            "",
            "-35",
            "",
            "",
            "",
            "",
            "texture/character/stand/1200900_stand",
            "1200900_stand.asset",
            "1200900_stand_18",
            "Dicing"
          ],
          "isEmpty": 0,
          "isCommentOut": 0
        },
        {
          "rowIndex": 85,
          "strings": [
            "",
            "",
            "両目真剣",
            "",
            "-35",
            "",
            "",
            "",
            "",
            "texture/character/stand/1200900_stand",
            "1200900_stand.asset",
            "1200900_stand_19",
            "Dicing"
          ],
          "isEmpty": 0,
          "isCommentOut": 0
        },
        {
          "rowIndex": 86,
          "strings": [
            "",
            "",
            "両目笑い",
            "",
            "-35",
            "",
            "",
            "",
            "",
            "texture/character/stand/1200900_stand",
            "1200900_stand.asset",
            "1200900_stand_20",
            "Dicing"
          ],
          "isEmpty": 0,
          "isCommentOut": 0
        },
        {
          "rowIndex": 87,
          "strings": [
            "",
            "",
            "両目悲しみ",
            "",
            "-35",
            "",
            "",
            "",
            "",
            "texture/character/stand/1200900_stand",
            "1200900_stand.asset",
            "1200900_stand_21",
            "Dicing"
          ],
          "isEmpty": 0,
          "isCommentOut": 0
        },
        {
          "rowIndex": 88,
          "strings": [
            "",
            "",
            "両目照れ",
            "",
            "-35",
            "",
            "",
            "",
            "",
            "texture/character/stand/1200900_stand",
            "1200900_stand.asset",
            "1200900_stand_22",
            "Dicing"
          ],
          "isEmpty": 0,
          "isCommentOut": 0
        },
        {
          "rowIndex": 89,
          "strings": [
            "",
            "",
            "両目固有",
            "",
            "-35",
            "",
            "",
            "",
            "",
            "texture/character/stand/1200900_stand",
            "1200900_stand.asset",
            "1200900_stand_23",
            "Dicing"
          ],
          "isEmpty": 0,
          "isCommentOut": 0
        },
        {
          "rowIndex": 90,
          "strings": [
            "",
            "",
            "両目目閉じ笑顔",
            "",
            "-35",
            "",
            "",
            "",
            "",
            "texture/character/stand/1200900_stand",
            "1200900_stand.asset",
            "1200900_stand_24",
            "Dicing"
          ],
          "isEmpty": 0,
          "isCommentOut": 0
        },
        {
          "rowIndex": 91,
          "strings": [
            "蓮&サマエル",
            "蓮",
            "通常",
            "",
            "-180",
            "",
            "",
            "",
            "",
            "texture/character/stand_whole/1200400_stand_whole",
            "1200400_stand_whole.asset",
            "1200400_stand_whole_01",
            "Dicing"
          ],
          "isEmpty": 0,
          "isCommentOut": 0
        },
        {
          "rowIndex": 92,
          "strings": [
            "",
            "",
            "目閉じ",
            "",
            "-180",
            "",
            "",
            "",
            "",
            "texture/character/stand_whole/1200400_stand_whole",
            "1200400_stand_whole.asset",
            "1200400_stand_whole_02",
            "Dicing"
          ],
          "isEmpty": 0,
          "isCommentOut": 0
        },
        {
          "rowIndex": 93,
          "strings": [
            "",
            "",
            "真剣",
            "",
            "-180",
            "",
            "",
            "",
            "",
            "texture/character/stand_whole/1200400_stand_whole",
            "1200400_stand_whole.asset",
            "1200400_stand_whole_03",
            "Dicing"
          ],
          "isEmpty": 0,
          "isCommentOut": 0
        },
        {
          "rowIndex": 94,
          "strings": [
            "",
            "",
            "笑い",
            "",
            "-180",
            "",
            "",
            "",
            "",
            "texture/character/stand_whole/1200400_stand_whole",
            "1200400_stand_whole.asset",
            "1200400_stand_whole_04",
            "Dicing"
          ],
          "isEmpty": 0,
          "isCommentOut": 0
        },
        {
          "rowIndex": 95,
          "strings": [
            "",
            "",
            "暗い笑い",
            "",
            "-180",
            "",
            "",
            "",
            "",
            "texture/character/stand_whole/1200400_stand_whole",
            "1200400_stand_whole.asset",
            "1200400_stand_whole_05",
            "Dicing"
          ],
          "isEmpty": 0,
          "isCommentOut": 0
        },
        {
          "rowIndex": 96,
          "strings": [
            "",
            "",
            "照れ",
            "",
            "-180",
            "",
            "",
            "",
            "",
            "texture/character/stand_whole/1200400_stand_whole",
            "1200400_stand_whole.asset",
            "1200400_stand_whole_06",
            "Dicing"
          ],
          "isEmpty": 0,
          "isCommentOut": 0
        },
        {
          "rowIndex": 97,
          "strings": [
            "",
            "",
            "固有",
            "",
            "-180",
            "",
            "",
            "",
            "",
            "texture/character/stand_whole/1200400_stand_whole",
            "1200400_stand_whole.asset",
            "1200400_stand_whole_07",
            "Dicing"
          ],
          "isEmpty": 0,
          "isCommentOut": 0
        },
        {
          "rowIndex": 98,
          "strings": [
            "",
            "",
            "目閉じ笑顔",
            "",
            "-180",
            "",
            "",
            "",
            "",
            "texture/character/stand_whole/1200400_stand_whole",
            "1200400_stand_whole.asset",
            "1200400_stand_whole_08",
            "Dicing"
          ],
          "isEmpty": 0,
          "isCommentOut": 0
        },
        {
          "rowIndex": 99,
          "strings": [
            "",
            "",
            "悲しみ",
            "",
            "-180",
            "",
            "",
            "",
            "",
            "texture/character/stand_whole/1200400_stand_whole",
            "1200400_stand_whole.asset",
            "1200400_stand_whole_09",
            "Dicing"
          ],
          "isEmpty": 0,
          "isCommentOut": 0
        },
        {
          "rowIndex": 100,
          "strings": [
            "",
            "",
            "不敵",
            "",
            "-180",
            "",
            "",
            "",
            "",
            "texture/character/stand_whole/1200400_stand_whole",
            "1200400_stand_whole.asset",
            "1200400_stand_whole_10",
            "Dicing"
          ],
          "isEmpty": 0,
          "isCommentOut": 0
        },
        {
          "rowIndex": 101,
          "strings": [
            "暗黒星くろめ",
            "",
            "通常",
            "",
            "-50",
            "",
            "",
            "",
            "",
            "texture/character/stand/3000600_stand",
            "3000600_stand.asset",
            "3000600_stand_01",
            "Dicing"
          ],
          "isEmpty": 0,
          "isCommentOut": 0
        },
        {
          "rowIndex": 102,
          "strings": [
            "",
            "",
            "目閉じ",
            "",
            "-50",
            "",
            "",
            "",
            "",
            "texture/character/stand/3000600_stand",
            "3000600_stand.asset",
            "3000600_stand_02",
            "Dicing"
          ],
          "isEmpty": 0,
          "isCommentOut": 0
        },
        {
          "rowIndex": 103,
          "strings": [
            "",
            "",
            "真剣",
            "",
            "-50",
            "",
            "",
            "",
            "",
            "texture/character/stand/3000600_stand",
            "3000600_stand.asset",
            "3000600_stand_03",
            "Dicing"
          ],
          "isEmpty": 0,
          "isCommentOut": 0
        },
        {
          "rowIndex": 104,
          "strings": [
            "",
            "",
            "笑い",
            "",
            "-50",
            "",
            "",
            "",
            "",
            "texture/character/stand/3000600_stand",
            "3000600_stand.asset",
            "3000600_stand_04",
            "Dicing"
          ],
          "isEmpty": 0,
          "isCommentOut": 0
        },
        {
          "rowIndex": 105,
          "strings": [
            "",
            "",
            "悲しみ",
            "",
            "-50",
            "",
            "",
            "",
            "",
            "texture/character/stand/3000600_stand",
            "3000600_stand.asset",
            "3000600_stand_05",
            "Dicing"
          ],
          "isEmpty": 0,
          "isCommentOut": 0
        },
        {
          "rowIndex": 106,
          "strings": [
            "",
            "",
            "照れ",
            "",
            "-50",
            "",
            "",
            "",
            "",
            "texture/character/stand/3000600_stand",
            "3000600_stand.asset",
            "3000600_stand_06",
            "Dicing"
          ],
          "isEmpty": 0,
          "isCommentOut": 0
        },
        {
          "rowIndex": 107,
          "strings": [
            "",
            "",
            "固有",
            "",
            "-50",
            "",
            "",
            "",
            "",
            "texture/character/stand/3000600_stand",
            "3000600_stand.asset",
            "3000600_stand_07",
            "Dicing"
          ],
          "isEmpty": 0,
          "isCommentOut": 0
        },
        {
          "rowIndex": 108,
          "strings": [
            "ネプテューヌ",
            "",
            "通常",
            "",
            "-100",
            "",
            "",
            "",
            "",
            "texture/character/stand/1010100_stand",
            "1010100_stand.asset",
            "1010100_stand_01",
            "Dicing"
          ],
          "isEmpty": 0,
          "isCommentOut": 0
        },
        {
          "rowIndex": 109,
          "strings": [
            "//",
            "",
            "目閉じ",
            "",
            "-100",
            "",
            "",
            "",
            "",
            "texture/character/stand/1010100_stand",
            "1010100_stand.asset",
            "1010100_stand_02",
            "Dicing"
          ],
          "isEmpty": 0,
          "isCommentOut": 1
        },
        {
          "rowIndex": 110,
          "strings": [
            "",
            "",
            "真剣",
            "",
            "-100",
            "",
            "",
            "",
            "",
            "texture/character/stand/1010100_stand",
            "1010100_stand.asset",
            "1010100_stand_03",
            "Dicing"
          ],
          "isEmpty": 0,
          "isCommentOut": 0
        },
        {
          "rowIndex": 111,
          "strings": [
            "",
            "",
            "笑い",
            "",
            "-100",
            "",
            "",
            "",
            "",
            "texture/character/stand/1010100_stand",
            "1010100_stand.asset",
            "1010100_stand_04",
            "Dicing"
          ],
          "isEmpty": 0,
          "isCommentOut": 0
        },
        {
          "rowIndex": 112,
          "strings": [
            "",
            "",
            "悲しみ",
            "",
            "-100",
            "",
            "",
            "",
            "",
            "texture/character/stand/1010100_stand",
            "1010100_stand.asset",
            "1010100_stand_05",
            "Dicing"
          ],
          "isEmpty": 0,
          "isCommentOut": 0
        },
        {
          "rowIndex": 113,
          "strings": [
            "",
            "",
            "照れ",
            "",
            "-100",
            "",
            "",
            "",
            "",
            "texture/character/stand/1010100_stand",
            "1010100_stand.asset",
            "1010100_stand_06",
            "Dicing"
          ],
          "isEmpty": 0,
          "isCommentOut": 0
        },
        {
          "rowIndex": 114,
          "strings": [
            "",
            "",
            "固有",
            "",
            "-100",
            "",
            "",
            "",
            "",
            "texture/character/stand/1010100_stand",
            "1010100_stand.asset",
            "1010100_stand_07",
            "Dicing"
          ],
          "isEmpty": 0,
          "isCommentOut": 0
        },
        {
          "rowIndex": 115,
          "strings": [
            "ヒロテューヌ",
            "",
            "通常",
            "",
            "-50",
            "",
            "",
            "",
            "",
            "texture/character/stand/1170100_stand",
            "1170100_stand.asset",
            "1170100_stand_01",
            "Dicing"
          ],
          "isEmpty": 0,
          "isCommentOut": 0
        },
        {
          "rowIndex": 116,
          "strings": [
            "",
            "",
            "目閉じ",
            "",
            "-50",
            "",
            "",
            "",
            "",
            "texture/character/stand/1170100_stand",
            "1170100_stand.asset",
            "1170100_stand_02",
            "Dicing"
          ],
          "isEmpty": 0,
          "isCommentOut": 0
        },
        {
          "rowIndex": 117,
          "strings": [
            "",
            "",
            "真剣",
            "",
            "-50",
            "",
            "",
            "",
            "",
            "texture/character/stand/1170100_stand",
            "1170100_stand.asset",
            "1170100_stand_03",
            "Dicing"
          ],
          "isEmpty": 0,
          "isCommentOut": 0
        },
        {
          "rowIndex": 118,
          "strings": [
            "",
            "",
            "笑い",
            "",
            "-50",
            "",
            "",
            "",
            "",
            "texture/character/stand/1170100_stand",
            "1170100_stand.asset",
            "1170100_stand_04",
            "Dicing"
          ],
          "isEmpty": 0,
          "isCommentOut": 0
        },
        {
          "rowIndex": 119,
          "strings": [
            "",
            "",
            "悲しみ",
            "",
            "-50",
            "",
            "",
            "",
            "",
            "texture/character/stand/1170100_stand",
            "1170100_stand.asset",
            "1170100_stand_05",
            "Dicing"
          ],
          "isEmpty": 0,
          "isCommentOut": 0
        },
        {
          "rowIndex": 120,
          "strings": [
            "",
            "",
            "照れ",
            "",
            "-50",
            "",
            "",
            "",
            "",
            "texture/character/stand/1170100_stand",
            "1170100_stand.asset",
            "1170100_stand_06",
            "Dicing"
          ],
          "isEmpty": 0,
          "isCommentOut": 0
        },
        {
          "rowIndex": 121,
          "strings": [
            "",
            "",
            "固有",
            "",
            "-50",
            "",
            "",
            "",
            "",
            "texture/character/stand/1170100_stand",
            "1170100_stand.asset",
            "1170100_stand_07",
            "Dicing"
          ],
          "isEmpty": 0,
          "isCommentOut": 0
        },
        {
          "rowIndex": 122,
          "strings": [
            "夜刀神十香&サンダルフォン",
            "夜刀神十香",
            "通常",
            "-100",
            "50",
            "",
            "",
            "",
            "",
            "texture/character/stand_whole/1200100_stand_whole",
            "1200100_stand_whole.asset",
            "1200100_stand_whole_01",
            "Dicing"
          ],
          "isEmpty": 0,
          "isCommentOut": 0
        },
        {
          "rowIndex": 123,
          "strings": [
            "",
            "",
            "目閉じ",
            "-100",
            "50",
            "",
            "",
            "",
            "",
            "texture/character/stand_whole/1200100_stand_whole",
            "1200100_stand_whole.asset",
            "1200100_stand_whole_02",
            "Dicing"
          ],
          "isEmpty": 0,
          "isCommentOut": 0
        },
        {
          "rowIndex": 124,
          "strings": [
            "",
            "",
            "真剣",
            "-100",
            "50",
            "",
            "",
            "",
            "",
            "texture/character/stand_whole/1200100_stand_whole",
            "1200100_stand_whole.asset",
            "1200100_stand_whole_03",
            "Dicing"
          ],
          "isEmpty": 0,
          "isCommentOut": 0
        },
        {
          "rowIndex": 125,
          "strings": [
            "",
            "",
            "笑い",
            "-100",
            "50",
            "",
            "",
            "",
            "",
            "texture/character/stand_whole/1200100_stand_whole",
            "1200100_stand_whole.asset",
            "1200100_stand_whole_04",
            "Dicing"
          ],
          "isEmpty": 0,
          "isCommentOut": 0
        },
        {
          "rowIndex": 126,
          "strings": [
            "",
            "",
            "悲しみ",
            "-100",
            "50",
            "",
            "",
            "",
            "",
            "texture/character/stand_whole/1200100_stand_whole",
            "1200100_stand_whole.asset",
            "1200100_stand_whole_05",
            "Dicing"
          ],
          "isEmpty": 0,
          "isCommentOut": 0
        },
        {
          "rowIndex": 127,
          "strings": [
            "",
            "",
            "照れ",
            "-100",
            "50",
            "",
            "",
            "",
            "",
            "texture/character/stand_whole/1200100_stand_whole",
            "1200100_stand_whole.asset",
            "1200100_stand_whole_06",
            "Dicing"
          ],
          "isEmpty": 0,
          "isCommentOut": 0
        },
        {
          "rowIndex": 128,
          "strings": [
            "",
            "",
            "固有",
            "-100",
            "50",
            "",
            "",
            "",
            "",
            "texture/character/stand_whole/1200100_stand_whole",
            "1200100_stand_whole.asset",
            "1200100_stand_whole_07",
            "Dicing"
          ],
          "isEmpty": 0,
          "isCommentOut": 0
        },
        {
          "rowIndex": 129,
          "strings": [
            "",
            "",
            "笑顔",
            "-100",
            "50",
            "",
            "",
            "",
            "",
            "texture/character/stand_whole/1200100_stand_whole",
            "1200100_stand_whole.asset",
            "1200100_stand_whole_08",
            "Dicing"
          ],
          "isEmpty": 0,
          "isCommentOut": 0
        },
        {
          "rowIndex": 130,
          "strings": [
            "",
            "",
            "",
            "",
            "",
            "",
            "",
            "",
            "",
            "",
            "",
            "",
            ""
          ],
          "isEmpty": 1,
          "isCommentOut": 0
        }
      ],
      "name": "Assets/BundleResources/Data/Adventure/Event/Story2009/adv_200911.xls:Character",
      "type": 1,
      "textLength": 11582,
      "headerRow": 0
    },
    {
      "rows": [
        {
          "rowIndex": 0,
          "strings": [
            "Label",
            "Type",
            "X",
            "Y",
            "Z",
            "Pivot",
            "Scale",
            "Conditional",
            "BundlePath",
            "FileName",
            "FileType",
            "SubFileName",
            "Animation",
            "RenderTexture",
            "RenderRect",
            "Thumbnail",
            "CgCategolly",
            "元画像名"
          ],
          "isEmpty": 0,
          "isCommentOut": 0
        },
        {
          "rowIndex": 1,
          "strings": [
            "//背景",
            "",
            "",
            "",
            "",
            "",
            "",
            "",
            "",
            ""
          ],
          "isEmpty": 0,
          "isCommentOut": 1
        },
        {
          "rowIndex": 2,
          "strings": [
            "背景(黒)",
            "Bg",
            "",
            "",
            "",
            "",
            "x=1.25 y=0.9375",
            "",
            "texture/background/bg_007_ll",
            "bg_007_LL.png",
            "",
            "",
            "",
            "",
            "",
            "",
            "01_0048.png"
          ],
          "isEmpty": 0,
          "isCommentOut": 0
        },
        {
          "rowIndex": 3,
          "strings": [
            "背景(白)",
            "Bg",
            "",
            "",
            "",
            "",
            "x=1.25 y=0.9375",
            "",
            "texture/background/bg_022_ll",
            "bg_022_LL.png"
          ],
          "isEmpty": 0,
          "isCommentOut": 0
        },
        {
          "rowIndex": 4,
          "strings": [
            "背景(廃墟ビル：屋内)",
            "Bg",
            "",
            "",
            "",
            "",
            "x=1.25 y=0.9375",
            "",
            "texture/background/bg_071_ll",
            "bg_071_LL.png"
          ],
          "isEmpty": 0,
          "isCommentOut": 0
        },
        {
          "rowIndex": 5,
          "strings": [
            "背景(異空間)",
            "Bg",
            "",
            "",
            "",
            "",
            "x=1.25 y=0.9375",
            "",
            "texture/background/bg_008_ll",
            "bg_008_LL.png"
          ],
          "isEmpty": 0,
          "isCommentOut": 0
        },
        {
          "rowIndex": 6,
          "strings": [
            "",
            "",
            "",
            "",
            "",
            "",
            "",
            "",
            "",
            ""
          ],
          "isEmpty": 1,
          "isCommentOut": 0
        },
        {
          "rowIndex": 7,
          "strings": [
            "",
            "",
            "",
            "",
            "",
            "",
            "",
            "",
            "",
            ""
          ],
          "isEmpty": 1,
          "isCommentOut": 0
        },
        {
          "rowIndex": 8,
          "strings": [
            "",
            "",
            "",
            "",
            "",
            "",
            "",
            "",
            "",
            ""
          ],
          "isEmpty": 1,
          "isCommentOut": 0
        },
        {
          "rowIndex": 9,
          "strings": [
            "",
            "",
            "",
            "",
            "",
            "",
            "",
            "",
            "",
            ""
          ],
          "isEmpty": 1,
          "isCommentOut": 0
        },
        {
          "rowIndex": 10,
          "strings": [
            "",
            "",
            "",
            "",
            "",
            "",
            "",
            "",
            "",
            ""
          ],
          "isEmpty": 1,
          "isCommentOut": 0
        },
        {
          "rowIndex": 11,
          "strings": [
            "",
            "",
            "",
            "",
            "",
            "",
            "",
            "",
            "",
            ""
          ],
          "isEmpty": 1,
          "isCommentOut": 0
        }
      ],
      "name": "Assets/BundleResources/Data/Adventure/Event/Story2009/adv_200911.xls:Texture",
      "type": 1,
      "textLength": 401,
      "headerRow": 0
    },
    {
      "rows": [
        {
          "rowIndex": 0,
          "strings": [
            "Label",
            "Title",
            "Type",
            "BundlePath",
            "FileName",
            "IntroTime",
            "Volume",
            "Comment"
          ],
          "isEmpty": 0,
          "isCommentOut": 0
        },
        {
          "rowIndex": 1,
          "strings": [
            "//BGM",
            "",
            "",
            "",
            "",
            "",
            "",
            ""
          ],
          "isEmpty": 0,
          "isCommentOut": 1
        },
        {
          "rowIndex": 2,
          "strings": [
            "冒険者たちの軌跡",
            "",
            "Bgm",
            "sound/bgm/bgm_battle01",
            "bgm_battle01.wav",
            "",
            "",
            "戦闘で使用するBGM"
          ],
          "isEmpty": 0,
          "isCommentOut": 0
        },
        {
          "rowIndex": 3,
          "strings": [
            "踏み込み音",
            "",
            "Se",
            "sound/se/adventure/se_depression",
            "se_depression.wav",
            "",
            "",
            ""
          ],
          "isEmpty": 0,
          "isCommentOut": 0
        },
        {
          "rowIndex": 4,
          "strings": [
            "疑惑",
            "",
            "Bgm",
            "sound/bgm/adventure/bgm_suspiction",
            "bgm_suspiction.wav",
            "",
            "",
            "既存BGM104"
          ],
          "isEmpty": 0,
          "isCommentOut": 0
        },
        {
          "rowIndex": 5,
          "strings": [
            "増殖音",
            "",
            "Se",
            "sound/se/adventure/se_proliferation",
            "se_proliferation.wav",
            "",
            "",
            "0076.バグ発生_A_b"
          ],
          "isEmpty": 0,
          "isCommentOut": 0
        },
        {
          "rowIndex": 6,
          "strings": [
            "拍手音",
            "",
            "Se",
            "sound/se/adventure/se_applause",
            "se_applause.wav",
            "",
            "",
            "90091.拍手の音_A.wav"
          ],
          "isEmpty": 0,
          "isCommentOut": 0
        },
        {
          "rowIndex": 7,
          "strings": [
            "次元の渦発生音",
            "",
            "Se",
            "sound/se/adventure/se_dimensional_vortex",
            "se_dimensional_vortex.wav",
            "",
            "",
            "38.ワールドパートからの移動_I.wav"
          ],
          "isEmpty": 0,
          "isCommentOut": 0
        },
        {
          "rowIndex": 8,
          "strings": [
            "共鳴音",
            "",
            "Se",
            "sound/se/adventure/se_resonance",
            "se_resonance.wav",
            "",
            "",
            "0088.回復音_E"
          ],
          "isEmpty": 0,
          "isCommentOut": 0
        },
        {
          "rowIndex": 9,
          "strings": [
            "魔法陣展開",
            "",
            "Se",
            "sound/se/adventure/se_magic_circle",
            "se_magic_circle.wav",
            "",
            "",
            ""
          ],
          "isEmpty": 0,
          "isCommentOut": 0
        },
        {
          "rowIndex": 10,
          "strings": [
            "ピンチ",
            "",
            "Bgm",
            "sound/bgm/adventure/bgm_pinch",
            "bgm_pinch.wav",
            "",
            "",
            "既存BGM102"
          ],
          "isEmpty": 0,
          "isCommentOut": 0
        },
        {
          "rowIndex": 11,
          "strings": [
            "鼓動音",
            "",
            "Se",
            "sound/se/adventure/se_heart_sound",
            "se_heart_sound.wav",
            "",
            "",
            ""
          ],
          "isEmpty": 0,
          "isCommentOut": 0
        },
        {
          "rowIndex": 12,
          "strings": [
            "消滅音",
            "",
            "Se",
            "sound/se/adventure/se_disappear",
            "se_disappear.wav",
            "",
            "",
            "プロローグ-1節 主人公の消滅音（転移するようなイメージ）"
          ],
          "isEmpty": 0,
          "isCommentOut": 0
        },
        {
          "rowIndex": 13,
          "strings": [
            "バトル超次元",
            "",
            "Bgm",
            "sound/bgm/adventure/bgm_ultra_dimension",
            "bgm_ultra_dimension.wav",
            "",
            "",
            "213.wav：バトル超次元"
          ],
          "isEmpty": 0,
          "isCommentOut": 0
        },
        {
          "rowIndex": 14,
          "strings": [
            "魔法チャージ音",
            "",
            "Se",
            "sound/se/adventure/se_magic_charge",
            "se_magic_charge.wav",
            "",
            "",
            ""
          ],
          "isEmpty": 0,
          "isCommentOut": 0
        },
        {
          "rowIndex": 15,
          "strings": [
            "フュージョン音",
            "",
            "Se",
            "sound/se/adventure/se_fusion",
            "se_fusion.wav",
            "",
            "",
            ""
          ],
          "isEmpty": 0,
          "isCommentOut": 0
        },
        {
          "rowIndex": 16,
          "strings": [
            "",
            "",
            "",
            "",
            "",
            "",
            "",
            ""
          ],
          "isEmpty": 1,
          "isCommentOut": 0
        },
        {
          "rowIndex": 17,
          "strings": [
            "",
            "",
            "",
            "",
            "",
            "",
            "",
            ""
          ],
          "isEmpty": 1,
          "isCommentOut": 0
        }
      ],
      "name": "Assets/BundleResources/Data/Adventure/Event/Story2009/adv_200911.xls:Sound",
      "type": 1,
      "textLength": 985,
      "headerRow": 0
    },
    {
      "rows": [
        {
          "rowIndex": 0,
          "strings": [
            "Label",
            "FileName",
            "BundlePath"
          ],
          "isEmpty": 0,
          "isCommentOut": 0
        },
        {
          "rowIndex": 1,
          "strings": [
            "黒いモヤ",
            "eff_036",
            "prefabs/effect/adventure/eff_036/eff_036"
          ],
          "isEmpty": 0,
          "isCommentOut": 0
        },
        {
          "rowIndex": 2,
          "strings": [
            "闇オーラ",
            "eff_038",
            "prefabs/effect/adventure/eff_038/eff_038"
          ],
          "isEmpty": 0,
          "isCommentOut": 0
        },
        {
          "rowIndex": 3,
          "strings": [
            "白オーラ",
            "eff_026",
            "prefabs/effect/adventure/eff_026/eff_026",
            "白いオーラが立ち上るエフェクト(ADVで使用)"
          ],
          "isEmpty": 0,
          "isCommentOut": 0
        },
        {
          "rowIndex": 4,
          "strings": [
            "",
            "",
            ""
          ],
          "isEmpty": 1,
          "isCommentOut": 0
        }
      ],
      "name": "Assets/BundleResources/Data/Adventure/Event/Story2009/adv_200911.xls:Particle",
      "type": 1,
      "textLength": 199,
      "headerRow": 0
    },
    {
      "rows": [
        {
          "rowIndex": 0,
          "strings": [
            "LayerName",
            "Type",
            "X",
            "Y",
            "Order",
            "LayerMask",
            "ScaleX",
            "ScaleY",
            "FlipX",
            "FlipY",
            "Width",
            "Height",
            "BorderLeft",
            "BorderRight",
            "BorderTop",
            "BorderBottom",
            "Align"
          ],
          "isEmpty": 0,
          "isCommentOut": 0
        },
        {
          "rowIndex": 1,
          "strings": [
            "キャラ中央",
            "Character",
            "0",
            "0",
            "2",
            "",
            "",
            "",
            "",
            "",
            "",
            "",
            "",
            "",
            "",
            "0"
          ],
          "isEmpty": 0,
          "isCommentOut": 0
        },
        {
          "rowIndex": 2,
          "strings": [
            "キャラ左",
            "Character",
            "-350",
            "0",
            "3",
            "",
            "",
            "",
            "",
            "",
            "",
            "",
            "",
            "",
            "",
            "0"
          ],
          "isEmpty": 0,
          "isCommentOut": 0
        },
        {
          "rowIndex": 3,
          "strings": [
            "キャラ右",
            "Character",
            "350",
            "0",
            "4",
            "",
            "",
            "",
            "",
            "",
            "",
            "",
            "",
            "",
            "",
            "0"
          ],
          "isEmpty": 0,
          "isCommentOut": 0
        },
        {
          "rowIndex": 4,
          "strings": [
            "背景",
            "Bg",
            "0",
            "0",
            "0"
          ],
          "isEmpty": 0,
          "isCommentOut": 0
        },
        {
          "rowIndex": 5,
          "strings": [],
          "isEmpty": 1,
          "isCommentOut": 0
        },
        {
          "rowIndex": 6,
          "strings": [
            "キャラ背面",
            "Sprite",
            "0",
            "0",
            "1"
          ],
          "isEmpty": 0,
          "isCommentOut": 0
        },
        {
          "rowIndex": 7,
          "strings": [
            "フェードレイヤー",
            "Sprite",
            "0",
            "0",
            "150"
          ],
          "isEmpty": 0,
          "isCommentOut": 0
        },
        {
          "rowIndex": 8,
          "strings": [
            "スプライトレイヤー",
            "Sprite",
            "0",
            "0",
            "151"
          ],
          "isEmpty": 0,
          "isCommentOut": 0
        },
        {
          "rowIndex": 9,
          "strings": [
            "キャプチャ画像レイヤー",
            "Sprite",
            "0",
            "0",
            "500"
          ],
          "isEmpty": 0,
          "isCommentOut": 0
        }
      ],
      "name": "Assets/BundleResources/Data/Adventure/Event/Story2009/adv_200911.xls:Layer",
      "type": 1,
      "textLength": 248,
      "headerRow": 0
    },
    {
      "rows": [
        {
          "rowIndex": 0,
          "strings": [
            "Label",
            "Type",
            "Value",
            "FileType"
          ],
          "isEmpty": 0,
          "isCommentOut": 0
        },
        {
          "rowIndex": 1,
          "strings": [
            "player_name",
            "String",
            "アルト"
          ],
          "isEmpty": 0,
          "isCommentOut": 0
        },
        {
          "rowIndex": 2,
          "strings": [
            "is_heroine",
            "Bool",
            "FALSE"
          ],
          "isEmpty": 0,
          "isCommentOut": 0
        }
      ],
      "name": "Assets/BundleResources/Data/Adventure/Event/Story2009/adv_200911.xls:Param",
      "type": 1,
      "textLength": 61,
      "headerRow": 0
    }
  ]
}