{
  "m_GameObject": {
    "m_FileID": 0,
    "m_PathID": 0
  },
  "m_Enabled": 1,
  "m_Script": {
    "m_FileID": 0,
    "m_PathID": 8527011069456626154
  },
  "m_Name": "adv_200903_path",
  "advPathList": [
    {
      "assetName": "",
      "assetPath": "texture/character/stand/1040100_stand",
      "resourcePath": "Texture/Character/1040100_stand.asset"
    },
    {
      "assetName": "",
      "assetPath": "texture/character/stand/1030800_stand",
      "resourcePath": "Texture/Character/1030800_stand.asset"
    },
    {
      "assetName": "",
      "assetPath": "texture/character/stand/1040200_stand",
      "resourcePath": "Texture/Character/1040200_stand.asset"
    },
    {
      "assetName": "",
      "assetPath": "texture/character/stand/1200500_stand",
      "resourcePath": "Texture/Character/1200500_stand.asset"
    },
    {
      "assetName": "",
      "assetPath": "texture/character/stand/1200600_stand",
      "resourcePath": "Texture/Character/1200600_stand.asset"
    },
    {
      "assetName": "",
      "assetPath": "texture/character/stand/1200700_stand",
      "resourcePath": "Texture/Character/1200700_stand.asset"
    },
    {
      "assetName": "",
      "assetPath": "texture/character/stand/1200800_stand",
      "resourcePath": "Texture/Character/1200800_stand.asset"
    },
    {
      "assetName": "",
      "assetPath": "texture/character/stand/1160100_stand",
      "resourcePath": "Texture/Character/1160100_stand.asset"
    },
    {
      "assetName": "",
      "assetPath": "texture/background/bg_007_ll",
      "resourcePath": "Texture/BG/bg_007_LL.png"
    },
    {
      "assetName": "",
      "assetPath": "texture/background/bg_032_ll",
      "resourcePath": "Texture/BG/bg_032_LL.png"
    },
    {
      "assetName": "",
      "assetPath": "sound/bgm/adventure/bgm_adv_general",
      "resourcePath": "Sound/BGM/bgm_adv_general.wav"
    },
    {
      "assetName": "",
      "assetPath": "sound/se/adventure/se_depression",
      "resourcePath": "Sound/SE/se_depression.wav"
    },
    {
      "assetName": "",
      "assetPath": "data/adventure/event/story2009/adv_200903.scenarios",
      "resourcePath": "adv_200903.scenarios.asset"
    }
  ]
}