{
  "m_GameObject": {
    "m_FileID": 0,
    "m_PathID": 0
  },
  "m_Enabled": 1,
  "m_Script": {
    "m_FileID": 0,
    "m_PathID": -8016775561480030637
  },
  "m_Name": "adv_200901.chapter",
  "chapterName": "",
  "dataList": [
    {
      "m_FileID": 0,
      "m_PathID": -6631589939710328835
    }
  ],
  "settingList": [
    {
      "rows": [
        {
          "rowIndex": 0,
          "strings": [
            "CharacterName",
            "NameText",
            "Pattern",
            "X",
            "Y",
            "Z",
            "Pivot",
            "Scale",
            "Conditional",
            "BundlePath",
            "FileName",
            "SubFileName",
            "FileType",
            "Animation",
            "RenderTexture",
            "RenderRect",
            "EyeBlink",
            "LipSynch",
            "Icon",
            "IconSubFileName",
            "IconRect"
          ],
          "isEmpty": 0,
          "isCommentOut": 0
        },
        {
          "rowIndex": 1,
          "strings": [
            "大人ネプテューヌ",
            "ネプテューヌ",
            "通常",
            "",
            "-50",
            "",
            "",
            "",
            "",
            "texture/character/stand/1040100_stand",
            "1040100_stand.asset",
            "1040100_stand_01",
            "Dicing"
          ],
          "isEmpty": 0,
          "isCommentOut": 0
        },
        {
          "rowIndex": 2,
          "strings": [
            "",
            "",
            "目閉じ",
            "",
            "-50",
            "",
            "",
            "",
            "",
            "texture/character/stand/1040100_stand",
            "1040100_stand.asset",
            "1040100_stand_02",
            "Dicing"
          ],
          "isEmpty": 0,
          "isCommentOut": 0
        },
        {
          "rowIndex": 3,
          "strings": [
            "",
            "",
            "真剣",
            "",
            "-50",
            "",
            "",
            "",
            "",
            "texture/character/stand/1040100_stand",
            "1040100_stand.asset",
            "1040100_stand_03",
            "Dicing"
          ],
          "isEmpty": 0,
          "isCommentOut": 0
        },
        {
          "rowIndex": 4,
          "strings": [
            "",
            "",
            "笑い",
            "",
            "-50",
            "",
            "",
            "",
            "",
            "texture/character/stand/1040100_stand",
            "1040100_stand.asset",
            "1040100_stand_04",
            "Dicing"
          ],
          "isEmpty": 0,
          "isCommentOut": 0
        },
        {
          "rowIndex": 5,
          "strings": [
            "",
            "",
            "悲しみ",
            "",
            "-50",
            "",
            "",
            "",
            "",
            "texture/character/stand/1040100_stand",
            "1040100_stand.asset",
            "1040100_stand_05",
            "Dicing"
          ],
          "isEmpty": 0,
          "isCommentOut": 0
        },
        {
          "rowIndex": 6,
          "strings": [
            "",
            "",
            "照れ",
            "",
            "-50",
            "",
            "",
            "",
            "",
            "texture/character/stand/1040100_stand",
            "1040100_stand.asset",
            "1040100_stand_06",
            "Dicing"
          ],
          "isEmpty": 0,
          "isCommentOut": 0
        },
        {
          "rowIndex": 7,
          "strings": [
            "",
            "",
            "固有",
            "",
            "-50",
            "",
            "",
            "",
            "",
            "texture/character/stand/1040100_stand",
            "1040100_stand.asset",
            "1040100_stand_07",
            "Dicing"
          ],
          "isEmpty": 0,
          "isCommentOut": 0
        },
        {
          "rowIndex": 8,
          "strings": [
            "クロワール",
            "",
            "通常",
            "",
            "-50",
            "",
            "",
            "",
            "",
            "texture/character/stand/1030800_stand",
            "1030800_stand.asset",
            "1030800_stand_01",
            "Dicing"
          ],
          "isEmpty": 0,
          "isCommentOut": 0
        },
        {
          "rowIndex": 9,
          "strings": [
            "//",
            "",
            "目閉じ",
            "",
            "-50",
            "",
            "",
            "",
            "",
            "texture/character/stand/1030800_stand",
            "1030800_stand.asset",
            "1030800_stand_02",
            "Dicing"
          ],
          "isEmpty": 0,
          "isCommentOut": 1
        },
        {
          "rowIndex": 10,
          "strings": [
            "",
            "",
            "真剣",
            "",
            "-50",
            "",
            "",
            "",
            "",
            "texture/character/stand/1030800_stand",
            "1030800_stand.asset",
            "1030800_stand_03",
            "Dicing"
          ],
          "isEmpty": 0,
          "isCommentOut": 0
        },
        {
          "rowIndex": 11,
          "strings": [
            "",
            "",
            "笑い",
            "",
            "-50",
            "",
            "",
            "",
            "",
            "texture/character/stand/1030800_stand",
            "1030800_stand.asset",
            "1030800_stand_04",
            "Dicing"
          ],
          "isEmpty": 0,
          "isCommentOut": 0
        },
        {
          "rowIndex": 12,
          "strings": [
            "",
            "",
            "悲しみ",
            "",
            "-50",
            "",
            "",
            "",
            "",
            "texture/character/stand/1030800_stand",
            "1030800_stand.asset",
            "1030800_stand_05",
            "Dicing"
          ],
          "isEmpty": 0,
          "isCommentOut": 0
        },
        {
          "rowIndex": 13,
          "strings": [
            "//",
            "",
            "照れ",
            "",
            "-50",
            "",
            "",
            "",
            "",
            "texture/character/stand/1030800_stand",
            "1030800_stand.asset",
            "1030800_stand_06",
            "Dicing"
          ],
          "isEmpty": 0,
          "isCommentOut": 1
        },
        {
          "rowIndex": 14,
          "strings": [
            "",
            "",
            "固有",
            "",
            "-50",
            "",
            "",
            "",
            "",
            "texture/character/stand/1030800_stand",
            "1030800_stand.asset",
            "1030800_stand_07",
            "Dicing"
          ],
          "isEmpty": 0,
          "isCommentOut": 0
        },
        {
          "rowIndex": 15,
          "strings": [
            "天王星うずめ",
            "",
            "通常",
            "",
            "-50",
            "",
            "",
            "",
            "",
            "texture/character/stand/1040200_stand",
            "1040200_stand.asset",
            "1040200_stand_01",
            "Dicing"
          ],
          "isEmpty": 0,
          "isCommentOut": 0
        },
        {
          "rowIndex": 16,
          "strings": [
            "",
            "",
            "目閉じ",
            "",
            "-50",
            "",
            "",
            "",
            "",
            "texture/character/stand/1040200_stand",
            "1040200_stand.asset",
            "1040200_stand_02",
            "Dicing"
          ],
          "isEmpty": 0,
          "isCommentOut": 0
        },
        {
          "rowIndex": 17,
          "strings": [
            "",
            "",
            "真剣",
            "",
            "-50",
            "",
            "",
            "",
            "",
            "texture/character/stand/1040200_stand",
            "1040200_stand.asset",
            "1040200_stand_03",
            "Dicing"
          ],
          "isEmpty": 0,
          "isCommentOut": 0
        },
        {
          "rowIndex": 18,
          "strings": [
            "",
            "",
            "笑い",
            "",
            "-50",
            "",
            "",
            "",
            "",
            "texture/character/stand/1040200_stand",
            "1040200_stand.asset",
            "1040200_stand_04",
            "Dicing"
          ],
          "isEmpty": 0,
          "isCommentOut": 0
        },
        {
          "rowIndex": 19,
          "strings": [
            "",
            "",
            "悲しみ",
            "",
            "-50",
            "",
            "",
            "",
            "",
            "texture/character/stand/1040200_stand",
            "1040200_stand.asset",
            "1040200_stand_05",
            "Dicing"
          ],
          "isEmpty": 0,
          "isCommentOut": 0
        },
        {
          "rowIndex": 20,
          "strings": [
            "",
            "",
            "照れ",
            "",
            "-50",
            "",
            "",
            "",
            "",
            "texture/character/stand/1040200_stand",
            "1040200_stand.asset",
            "1040200_stand_06",
            "Dicing"
          ],
          "isEmpty": 0,
          "isCommentOut": 0
        },
        {
          "rowIndex": 21,
          "strings": [
            "",
            "",
            "固有",
            "",
            "-50",
            "",
            "",
            "",
            "",
            "texture/character/stand/1040200_stand",
            "1040200_stand.asset",
            "1040200_stand_07",
            "Dicing"
          ],
          "isEmpty": 0,
          "isCommentOut": 0
        },
        {
          "rowIndex": 22,
          "strings": [
            "",
            "",
            "妄想笑い",
            "",
            "-50",
            "",
            "",
            "",
            "",
            "texture/character/stand/1040200_stand",
            "1040200_stand.asset",
            "1040200_stand_08",
            "Dicing"
          ],
          "isEmpty": 0,
          "isCommentOut": 0
        },
        {
          "rowIndex": 23,
          "strings": [
            "五河琴里",
            "",
            "通常",
            "",
            "-100",
            "",
            "",
            "",
            "",
            "texture/character/stand/1200500_stand",
            "1200500_stand.asset",
            "1200500_stand_01",
            "Dicing"
          ],
          "isEmpty": 0,
          "isCommentOut": 0
        },
        {
          "rowIndex": 24,
          "strings": [
            "",
            "",
            "目閉じ",
            "",
            "-100",
            "",
            "",
            "",
            "",
            "texture/character/stand/1200500_stand",
            "1200500_stand.asset",
            "1200500_stand_02",
            "Dicing"
          ],
          "isEmpty": 0,
          "isCommentOut": 0
        },
        {
          "rowIndex": 25,
          "strings": [
            "",
            "",
            "真剣",
            "",
            "-100",
            "",
            "",
            "",
            "",
            "texture/character/stand/1200500_stand",
            "1200500_stand.asset",
            "1200500_stand_03",
            "Dicing"
          ],
          "isEmpty": 0,
          "isCommentOut": 0
        },
        {
          "rowIndex": 26,
          "strings": [
            "",
            "",
            "笑い",
            "",
            "-100",
            "",
            "",
            "",
            "",
            "texture/character/stand/1200500_stand",
            "1200500_stand.asset",
            "1200500_stand_04",
            "Dicing"
          ],
          "isEmpty": 0,
          "isCommentOut": 0
        },
        {
          "rowIndex": 27,
          "strings": [
            "",
            "",
            "悲しみ",
            "",
            "-100",
            "",
            "",
            "",
            "",
            "texture/character/stand/1200500_stand",
            "1200500_stand.asset",
            "1200500_stand_05",
            "Dicing"
          ],
          "isEmpty": 0,
          "isCommentOut": 0
        },
        {
          "rowIndex": 28,
          "strings": [
            "",
            "",
            "照れ",
            "",
            "-100",
            "",
            "",
            "",
            "",
            "texture/character/stand/1200500_stand",
            "1200500_stand.asset",
            "1200500_stand_06",
            "Dicing"
          ],
          "isEmpty": 0,
          "isCommentOut": 0
        },
        {
          "rowIndex": 29,
          "strings": [
            "",
            "",
            "固有",
            "",
            "-100",
            "",
            "",
            "",
            "",
            "texture/character/stand/1200500_stand",
            "1200500_stand.asset",
            "1200500_stand_07",
            "Dicing"
          ],
          "isEmpty": 0,
          "isCommentOut": 0
        },
        {
          "rowIndex": 30,
          "strings": [
            "",
            "",
            "目閉じ笑顔",
            "",
            "-100",
            "",
            "",
            "",
            "",
            "texture/character/stand/1200500_stand",
            "1200500_stand.asset",
            "1200500_stand_08",
            "Dicing"
          ],
          "isEmpty": 0,
          "isCommentOut": 0
        },
        {
          "rowIndex": 31,
          "strings": [
            "夜刀神十香",
            "",
            "通常",
            "",
            "-40",
            "",
            "",
            "",
            "",
            "texture/character/stand/1200600_stand",
            "1200600_stand.asset",
            "1200600_stand_01",
            "Dicing"
          ],
          "isEmpty": 0,
          "isCommentOut": 0
        },
        {
          "rowIndex": 32,
          "strings": [
            "",
            "",
            "目閉じ",
            "",
            "-40",
            "",
            "",
            "",
            "",
            "texture/character/stand/1200600_stand",
            "1200600_stand.asset",
            "1200600_stand_02",
            "Dicing"
          ],
          "isEmpty": 0,
          "isCommentOut": 0
        },
        {
          "rowIndex": 33,
          "strings": [
            "",
            "",
            "真剣",
            "",
            "-40",
            "",
            "",
            "",
            "",
            "texture/character/stand/1200600_stand",
            "1200600_stand.asset",
            "1200600_stand_03",
            "Dicing"
          ],
          "isEmpty": 0,
          "isCommentOut": 0
        },
        {
          "rowIndex": 34,
          "strings": [
            "",
            "",
            "笑い",
            "",
            "-40",
            "",
            "",
            "",
            "",
            "texture/character/stand/1200600_stand",
            "1200600_stand.asset",
            "1200600_stand_04",
            "Dicing"
          ],
          "isEmpty": 0,
          "isCommentOut": 0
        },
        {
          "rowIndex": 35,
          "strings": [
            "",
            "",
            "悲しみ",
            "",
            "-40",
            "",
            "",
            "",
            "",
            "texture/character/stand/1200600_stand",
            "1200600_stand.asset",
            "1200600_stand_05",
            "Dicing"
          ],
          "isEmpty": 0,
          "isCommentOut": 0
        },
        {
          "rowIndex": 36,
          "strings": [
            "",
            "",
            "照れ",
            "",
            "-40",
            "",
            "",
            "",
            "",
            "texture/character/stand/1200600_stand",
            "1200600_stand.asset",
            "1200600_stand_06",
            "Dicing"
          ],
          "isEmpty": 0,
          "isCommentOut": 0
        },
        {
          "rowIndex": 37,
          "strings": [
            "",
            "",
            "固有",
            "",
            "-40",
            "",
            "",
            "",
            "",
            "texture/character/stand/1200600_stand",
            "1200600_stand.asset",
            "1200600_stand_07",
            "Dicing"
          ],
          "isEmpty": 0,
          "isCommentOut": 0
        },
        {
          "rowIndex": 38,
          "strings": [
            "四糸乃",
            "",
            "通常",
            "",
            "-130",
            "",
            "",
            "",
            "",
            "texture/character/stand/1200700_stand",
            "1200700_stand.asset",
            "1200700_stand_01",
            "Dicing"
          ],
          "isEmpty": 0,
          "isCommentOut": 0
        },
        {
          "rowIndex": 39,
          "strings": [
            "",
            "",
            "目閉じ",
            "",
            "-130",
            "",
            "",
            "",
            "",
            "texture/character/stand/1200700_stand",
            "1200700_stand.asset",
            "1200700_stand_02",
            "Dicing"
          ],
          "isEmpty": 0,
          "isCommentOut": 0
        },
        {
          "rowIndex": 40,
          "strings": [
            "",
            "",
            "真剣",
            "",
            "-130",
            "",
            "",
            "",
            "",
            "texture/character/stand/1200700_stand",
            "1200700_stand.asset",
            "1200700_stand_03",
            "Dicing"
          ],
          "isEmpty": 0,
          "isCommentOut": 0
        },
        {
          "rowIndex": 41,
          "strings": [
            "",
            "",
            "笑い",
            "",
            "-130",
            "",
            "",
            "",
            "",
            "texture/character/stand/1200700_stand",
            "1200700_stand.asset",
            "1200700_stand_04",
            "Dicing"
          ],
          "isEmpty": 0,
          "isCommentOut": 0
        },
        {
          "rowIndex": 42,
          "strings": [
            "",
            "",
            "悲しみ",
            "",
            "-130",
            "",
            "",
            "",
            "",
            "texture/character/stand/1200700_stand",
            "1200700_stand.asset",
            "1200700_stand_05",
            "Dicing"
          ],
          "isEmpty": 0,
          "isCommentOut": 0
        },
        {
          "rowIndex": 43,
          "strings": [
            "",
            "",
            "照れ",
            "",
            "-130",
            "",
            "",
            "",
            "",
            "texture/character/stand/1200700_stand",
            "1200700_stand.asset",
            "1200700_stand_06",
            "Dicing"
          ],
          "isEmpty": 0,
          "isCommentOut": 0
        },
        {
          "rowIndex": 44,
          "strings": [
            "",
            "",
            "固有",
            "",
            "-130",
            "",
            "",
            "",
            "",
            "texture/character/stand/1200700_stand",
            "1200700_stand.asset",
            "1200700_stand_07",
            "Dicing"
          ],
          "isEmpty": 0,
          "isCommentOut": 0
        },
        {
          "rowIndex": 45,
          "strings": [
            "蓮",
            "",
            "通常",
            "",
            "-35",
            "",
            "",
            "",
            "",
            "texture/character/stand/1200900_stand",
            "1200900_stand.asset",
            "1200900_stand_01",
            "Dicing"
          ],
          "isEmpty": 0,
          "isCommentOut": 0
        },
        {
          "rowIndex": 46,
          "strings": [
            "",
            "",
            "目閉じ",
            "",
            "-35",
            "",
            "",
            "",
            "",
            "texture/character/stand/1200900_stand",
            "1200900_stand.asset",
            "1200900_stand_02",
            "Dicing"
          ],
          "isEmpty": 0,
          "isCommentOut": 0
        },
        {
          "rowIndex": 47,
          "strings": [
            "",
            "",
            "真剣",
            "",
            "-35",
            "",
            "",
            "",
            "",
            "texture/character/stand/1200900_stand",
            "1200900_stand.asset",
            "1200900_stand_03",
            "Dicing"
          ],
          "isEmpty": 0,
          "isCommentOut": 0
        },
        {
          "rowIndex": 48,
          "strings": [
            "",
            "",
            "笑い",
            "",
            "-35",
            "",
            "",
            "",
            "",
            "texture/character/stand/1200900_stand",
            "1200900_stand.asset",
            "1200900_stand_04",
            "Dicing"
          ],
          "isEmpty": 0,
          "isCommentOut": 0
        },
        {
          "rowIndex": 49,
          "strings": [
            "",
            "",
            "悲しみ",
            "",
            "-35",
            "",
            "",
            "",
            "",
            "texture/character/stand/1200900_stand",
            "1200900_stand.asset",
            "1200900_stand_05",
            "Dicing"
          ],
          "isEmpty": 0,
          "isCommentOut": 0
        },
        {
          "rowIndex": 50,
          "strings": [
            "",
            "",
            "照れ",
            "",
            "-35",
            "",
            "",
            "",
            "",
            "texture/character/stand/1200900_stand",
            "1200900_stand.asset",
            "1200900_stand_06",
            "Dicing"
          ],
          "isEmpty": 0,
          "isCommentOut": 0
        },
        {
          "rowIndex": 51,
          "strings": [
            "",
            "",
            "固有",
            "",
            "-35",
            "",
            "",
            "",
            "",
            "texture/character/stand/1200900_stand",
            "1200900_stand.asset",
            "1200900_stand_07",
            "Dicing"
          ],
          "isEmpty": 0,
          "isCommentOut": 0
        },
        {
          "rowIndex": 52,
          "strings": [
            "",
            "",
            "目閉じ笑顔",
            "",
            "-35",
            "",
            "",
            "",
            "",
            "texture/character/stand/1200900_stand",
            "1200900_stand.asset",
            "1200900_stand_08",
            "Dicing"
          ],
          "isEmpty": 0,
          "isCommentOut": 0
        },
        {
          "rowIndex": 53,
          "strings": [
            "",
            "",
            "片目通常",
            "",
            "-35",
            "",
            "",
            "",
            "",
            "texture/character/stand/1200900_stand",
            "1200900_stand.asset",
            "1200900_stand_09",
            "Dicing"
          ],
          "isEmpty": 0,
          "isCommentOut": 0
        },
        {
          "rowIndex": 54,
          "strings": [
            "",
            "",
            "片目目閉じ",
            "",
            "-35",
            "",
            "",
            "",
            "",
            "texture/character/stand/1200900_stand",
            "1200900_stand.asset",
            "1200900_stand_10",
            "Dicing"
          ],
          "isEmpty": 0,
          "isCommentOut": 0
        },
        {
          "rowIndex": 55,
          "strings": [
            "",
            "",
            "片目真剣",
            "",
            "-35",
            "",
            "",
            "",
            "",
            "texture/character/stand/1200900_stand",
            "1200900_stand.asset",
            "1200900_stand_11",
            "Dicing"
          ],
          "isEmpty": 0,
          "isCommentOut": 0
        },
        {
          "rowIndex": 56,
          "strings": [
            "",
            "",
            "片目笑い",
            "",
            "-35",
            "",
            "",
            "",
            "",
            "texture/character/stand/1200900_stand",
            "1200900_stand.asset",
            "1200900_stand_12",
            "Dicing"
          ],
          "isEmpty": 0,
          "isCommentOut": 0
        },
        {
          "rowIndex": 57,
          "strings": [
            "",
            "",
            "片目悲しみ",
            "",
            "-35",
            "",
            "",
            "",
            "",
            "texture/character/stand/1200900_stand",
            "1200900_stand.asset",
            "1200900_stand_13",
            "Dicing"
          ],
          "isEmpty": 0,
          "isCommentOut": 0
        },
        {
          "rowIndex": 58,
          "strings": [
            "",
            "",
            "片目照れ",
            "",
            "-35",
            "",
            "",
            "",
            "",
            "texture/character/stand/1200900_stand",
            "1200900_stand.asset",
            "1200900_stand_14",
            "Dicing"
          ],
          "isEmpty": 0,
          "isCommentOut": 0
        },
        {
          "rowIndex": 59,
          "strings": [
            "",
            "",
            "片目固有",
            "",
            "-35",
            "",
            "",
            "",
            "",
            "texture/character/stand/1200900_stand",
            "1200900_stand.asset",
            "1200900_stand_15",
            "Dicing"
          ],
          "isEmpty": 0,
          "isCommentOut": 0
        },
        {
          "rowIndex": 60,
          "strings": [
            "",
            "",
            "片目目閉じ笑顔",
            "",
            "-35",
            "",
            "",
            "",
            "",
            "texture/character/stand/1200900_stand",
            "1200900_stand.asset",
            "1200900_stand_16",
            "Dicing"
          ],
          "isEmpty": 0,
          "isCommentOut": 0
        },
        {
          "rowIndex": 61,
          "strings": [
            "",
            "",
            "両目通常",
            "",
            "-35",
            "",
            "",
            "",
            "",
            "texture/character/stand/1200900_stand",
            "1200900_stand.asset",
            "1200900_stand_17",
            "Dicing"
          ],
          "isEmpty": 0,
          "isCommentOut": 0
        },
        {
          "rowIndex": 62,
          "strings": [
            "",
            "",
            "両目目閉じ",
            "",
            "-35",
            "",
            "",
            "",
            "",
            "texture/character/stand/1200900_stand",
            "1200900_stand.asset",
            "1200900_stand_18",
            "Dicing"
          ],
          "isEmpty": 0,
          "isCommentOut": 0
        },
        {
          "rowIndex": 63,
          "strings": [
            "",
            "",
            "両目真剣",
            "",
            "-35",
            "",
            "",
            "",
            "",
            "texture/character/stand/1200900_stand",
            "1200900_stand.asset",
            "1200900_stand_19",
            "Dicing"
          ],
          "isEmpty": 0,
          "isCommentOut": 0
        },
        {
          "rowIndex": 64,
          "strings": [
            "",
            "",
            "両目笑い",
            "",
            "-35",
            "",
            "",
            "",
            "",
            "texture/character/stand/1200900_stand",
            "1200900_stand.asset",
            "1200900_stand_20",
            "Dicing"
          ],
          "isEmpty": 0,
          "isCommentOut": 0
        },
        {
          "rowIndex": 65,
          "strings": [
            "",
            "",
            "両目悲しみ",
            "",
            "-35",
            "",
            "",
            "",
            "",
            "texture/character/stand/1200900_stand",
            "1200900_stand.asset",
            "1200900_stand_21",
            "Dicing"
          ],
          "isEmpty": 0,
          "isCommentOut": 0
        },
        {
          "rowIndex": 66,
          "strings": [
            "",
            "",
            "両目照れ",
            "",
            "-35",
            "",
            "",
            "",
            "",
            "texture/character/stand/1200900_stand",
            "1200900_stand.asset",
            "1200900_stand_22",
            "Dicing"
          ],
          "isEmpty": 0,
          "isCommentOut": 0
        },
        {
          "rowIndex": 67,
          "strings": [
            "",
            "",
            "両目固有",
            "",
            "-35",
            "",
            "",
            "",
            "",
            "texture/character/stand/1200900_stand",
            "1200900_stand.asset",
            "1200900_stand_23",
            "Dicing"
          ],
          "isEmpty": 0,
          "isCommentOut": 0
        },
        {
          "rowIndex": 68,
          "strings": [
            "",
            "",
            "両目目閉じ笑顔",
            "",
            "-35",
            "",
            "",
            "",
            "",
            "texture/character/stand/1200900_stand",
            "1200900_stand.asset",
            "1200900_stand_24",
            "Dicing"
          ],
          "isEmpty": 0,
          "isCommentOut": 0
        },
        {
          "rowIndex": 69,
          "strings": [
            "下っ端",
            "",
            "通常",
            "",
            "-100",
            "",
            "",
            "",
            "",
            "texture/character/stand/2000400_stand",
            "2000400_stand.asset",
            "2000400_stand_01",
            "Dicing"
          ],
          "isEmpty": 0,
          "isCommentOut": 0
        },
        {
          "rowIndex": 70,
          "strings": [
            "",
            "",
            "目閉じ",
            "",
            "-100",
            "",
            "",
            "",
            "",
            "texture/character/stand/2000400_stand",
            "2000400_stand.asset",
            "2000400_stand_02",
            "Dicing"
          ],
          "isEmpty": 0,
          "isCommentOut": 0
        },
        {
          "rowIndex": 71,
          "strings": [
            "",
            "",
            "真剣",
            "",
            "-100",
            "",
            "",
            "",
            "",
            "texture/character/stand/2000400_stand",
            "2000400_stand.asset",
            "2000400_stand_03",
            "Dicing"
          ],
          "isEmpty": 0,
          "isCommentOut": 0
        },
        {
          "rowIndex": 72,
          "strings": [
            "",
            "",
            "笑い",
            "",
            "-100",
            "",
            "",
            "",
            "",
            "texture/character/stand/2000400_stand",
            "2000400_stand.asset",
            "2000400_stand_04",
            "Dicing"
          ],
          "isEmpty": 0,
          "isCommentOut": 0
        },
        {
          "rowIndex": 73,
          "strings": [
            "",
            "",
            "困り",
            "",
            "-100",
            "",
            "",
            "",
            "",
            "texture/character/stand/2000400_stand",
            "2000400_stand.asset",
            "2000400_stand_05",
            "Dicing"
          ],
          "isEmpty": 0,
          "isCommentOut": 0
        },
        {
          "rowIndex": 74,
          "strings": [
            "",
            "",
            "驚き",
            "",
            "-100",
            "",
            "",
            "",
            "",
            "texture/character/stand/2000400_stand",
            "2000400_stand.asset",
            "2000400_stand_06",
            "Dicing"
          ],
          "isEmpty": 0,
          "isCommentOut": 0
        },
        {
          "rowIndex": 75,
          "strings": [
            "",
            "",
            "固有",
            "",
            "-100",
            "",
            "",
            "",
            "",
            "texture/character/stand/2000400_stand",
            "2000400_stand.asset",
            "2000400_stand_07",
            "Dicing"
          ],
          "isEmpty": 0,
          "isCommentOut": 0
        },
        {
          "rowIndex": 76,
          "strings": [
            "",
            "",
            "",
            "",
            "",
            "",
            "",
            "",
            "",
            "",
            "",
            "",
            ""
          ],
          "isEmpty": 1,
          "isCommentOut": 0
        }
      ],
      "name": "Assets/BundleResources/Data/Adventure/Event/Story2009/adv_200901.xls:Character",
      "type": 1,
      "textLength": 6521,
      "headerRow": 0
    },
    {
      "rows": [
        {
          "rowIndex": 0,
          "strings": [
            "Label",
            "Type",
            "X",
            "Y",
            "Z",
            "Pivot",
            "Scale",
            "Conditional",
            "BundlePath",
            "FileName",
            "FileType",
            "SubFileName",
            "Animation",
            "RenderTexture",
            "RenderRect",
            "Thumbnail",
            "CgCategolly",
            "元画像名"
          ],
          "isEmpty": 0,
          "isCommentOut": 0
        },
        {
          "rowIndex": 1,
          "strings": [
            "//背景",
            "",
            "",
            "",
            "",
            "",
            "",
            "",
            "",
            ""
          ],
          "isEmpty": 0,
          "isCommentOut": 1
        },
        {
          "rowIndex": 2,
          "strings": [
            "背景(黒)",
            "Bg",
            "",
            "",
            "",
            "",
            "x=1.25 y=0.9375",
            "",
            "texture/background/bg_007_ll",
            "bg_007_LL.png",
            "",
            "",
            "",
            "",
            "",
            "",
            "01_0048.png"
          ],
          "isEmpty": 0,
          "isCommentOut": 0
        },
        {
          "rowIndex": 3,
          "strings": [
            "背景(白)",
            "Bg",
            "",
            "",
            "",
            "",
            "x=1.25 y=0.9375",
            "",
            "texture/background/bg_022_ll",
            "bg_022_LL.png"
          ],
          "isEmpty": 0,
          "isCommentOut": 0
        },
        {
          "rowIndex": 4,
          "strings": [
            "背景(宿の部屋)",
            "Bg",
            "",
            "",
            "",
            "",
            "x=1.25 y=0.9375",
            "",
            "texture/background/bg_033_ll",
            "bg_033_LL.png"
          ],
          "isEmpty": 0,
          "isCommentOut": 0
        },
        {
          "rowIndex": 5,
          "strings": [
            "背景(宿の部屋：夜)",
            "Bg",
            "",
            "",
            "",
            "",
            "x=1.25 y=0.9375",
            "",
            "texture/background/bg_048_ll",
            "bg_048_LL.png"
          ],
          "isEmpty": 0,
          "isCommentOut": 0
        },
        {
          "rowIndex": 6,
          "strings": [
            "背景(フラクシナス：艦内)",
            "Bg",
            "",
            "",
            "",
            "",
            "x=1.25 y=0.9375",
            "",
            "texture/background/bg_067_ll",
            "bg_067_LL.png"
          ],
          "isEmpty": 0,
          "isCommentOut": 0
        },
        {
          "rowIndex": 7,
          "strings": [
            "背景(草原：昼)",
            "Bg",
            "",
            "",
            "",
            "",
            "x=1.25 y=0.9375",
            "",
            "texture/background/bg_003_ll",
            "bg_003_LL.png"
          ],
          "isEmpty": 0,
          "isCommentOut": 0
        },
        {
          "rowIndex": 8,
          "strings": [
            "背景(街)",
            "Bg",
            "",
            "",
            "",
            "",
            "x=1.25 y=0.9375",
            "",
            "texture/background/bg_032_ll",
            "bg_032_LL.png"
          ],
          "isEmpty": 0,
          "isCommentOut": 0
        },
        {
          "rowIndex": 9,
          "strings": [
            "背景(路地裏：昼)",
            "Bg",
            "",
            "",
            "",
            "",
            "x=1.25 y=0.9375",
            "",
            "texture/background/bg_019_ll",
            "bg_019_LL.png"
          ],
          "isEmpty": 0,
          "isCommentOut": 0
        },
        {
          "rowIndex": 10,
          "strings": [
            "デアラコラボ用箱開封画像",
            "Sprite",
            "",
            "",
            "",
            "",
            "y=0.898438",
            "",
            "texture/adventure/sprite_dal_box_open",
            "sprite_dal_box_open.png"
          ],
          "isEmpty": 0,
          "isCommentOut": 0
        },
        {
          "rowIndex": 11,
          "strings": [
            "デアラコラボ用箱未開封画像",
            "Sprite",
            "",
            "",
            "",
            "",
            "y=0.671875",
            "",
            "texture/adventure/sprite_dal_box_close",
            "sprite_dal_box_close.png"
          ],
          "isEmpty": 0,
          "isCommentOut": 0
        },
        {
          "rowIndex": 12,
          "strings": [
            "スポットライト",
            "Sprite",
            "",
            "",
            "",
            "",
            "x=1.25 y=0.9375",
            "",
            "texture/adventure/sprite_spotlight",
            "sprite_spotlight.png"
          ],
          "isEmpty": 0,
          "isCommentOut": 0
        },
        {
          "rowIndex": 13,
          "strings": [
            "",
            "",
            "",
            "",
            "",
            "",
            "",
            "",
            "",
            ""
          ],
          "isEmpty": 1,
          "isCommentOut": 0
        },
        {
          "rowIndex": 14,
          "strings": [
            "",
            "",
            "",
            "",
            "",
            "",
            "",
            "",
            "",
            ""
          ],
          "isEmpty": 1,
          "isCommentOut": 0
        }
      ],
      "name": "Assets/BundleResources/Data/Adventure/Event/Story2009/adv_200901.xls:Texture",
      "type": 1,
      "textLength": 929,
      "headerRow": 0
    },
    {
      "rows": [
        {
          "rowIndex": 0,
          "strings": [
            "Label",
            "Title",
            "Type",
            "BundlePath",
            "FileName",
            "IntroTime",
            "Volume",
            "Comment"
          ],
          "isEmpty": 0,
          "isCommentOut": 0
        },
        {
          "rowIndex": 1,
          "strings": [
            "//BGM",
            "",
            "",
            "",
            "",
            "",
            "",
            ""
          ],
          "isEmpty": 0,
          "isCommentOut": 1
        },
        {
          "rowIndex": 2,
          "strings": [
            "ADV通常",
            "",
            "Bgm",
            "sound/bgm/adventure/bgm_adv_general",
            "bgm_adv_general.wav",
            "",
            "",
            "既存BGM113"
          ],
          "isEmpty": 0,
          "isCommentOut": 0
        },
        {
          "rowIndex": 3,
          "strings": [
            "不穏",
            "",
            "Bgm",
            "sound/bgm/adventure/bgm_unrest",
            "bgm_unrest.wav",
            "",
            "",
            "既存BGM127"
          ],
          "isEmpty": 0,
          "isCommentOut": 0
        },
        {
          "rowIndex": 4,
          "strings": [
            "緊張感",
            "",
            "Bgm",
            "sound/bgm/adventure/bgm_nervous",
            "bgm_nervous.wav",
            "",
            "",
            "121.wav：緊張感"
          ],
          "isEmpty": 0,
          "isCommentOut": 0
        },
        {
          "rowIndex": 5,
          "strings": [
            "疑惑",
            "",
            "Bgm",
            "sound/bgm/adventure/bgm_suspiction",
            "bgm_suspiction.wav",
            "",
            "",
            "既存BGM104"
          ],
          "isEmpty": 0,
          "isCommentOut": 0
        },
        {
          "rowIndex": 6,
          "strings": [
            "コミカル",
            "",
            "Bgm",
            "sound/bgm/adventure/bgm_comical",
            "bgm_comical.wav",
            "",
            "",
            "既存BGM126"
          ],
          "isEmpty": 0,
          "isCommentOut": 0
        },
        {
          "rowIndex": 7,
          "strings": [
            "ツボが割れる音",
            "",
            "Se",
            "sound/se/adventure/se_break_pot",
            "se_break_pot.wav",
            "",
            "",
            "90157.茶碗など陶器が叩き割れる音_A.wav"
          ],
          "isEmpty": 0,
          "isCommentOut": 0
        },
        {
          "rowIndex": 8,
          "strings": [
            "踏み込み音",
            "",
            "Se",
            "sound/se/adventure/se_depression",
            "se_depression.wav",
            "",
            "",
            ""
          ],
          "isEmpty": 0,
          "isCommentOut": 0
        },
        {
          "rowIndex": 9,
          "strings": [
            "箱を開ける音",
            "",
            "Se",
            "sound/se/adventure/se_open_box",
            "se_open_box.wav",
            "",
            "",
            "90125.棺を開く音.wav"
          ],
          "isEmpty": 0,
          "isCommentOut": 0
        },
        {
          "rowIndex": 10,
          "strings": [
            "タイピング音",
            "",
            "Se",
            "sound/se/adventure/se_typing",
            "se_typing.wav",
            "",
            "",
            "20.機械の操作音_A2.wav"
          ],
          "isEmpty": 0,
          "isCommentOut": 0
        },
        {
          "rowIndex": 11,
          "strings": [
            "砂嵐ノイズ音",
            "",
            "Se",
            "sound/se/adventure/se_noise_sandstorm",
            "se_noise_sandstorm.wav",
            "",
            "",
            "0081.バグ吸収_I2_b.wav"
          ],
          "isEmpty": 0,
          "isCommentOut": 0
        },
        {
          "rowIndex": 12,
          "strings": [
            "共鳴音",
            "",
            "Se",
            "sound/se/adventure/se_resonance",
            "se_resonance.wav",
            "",
            "",
            "0088.回復音_E"
          ],
          "isEmpty": 0,
          "isCommentOut": 0
        },
        {
          "rowIndex": 13,
          "strings": [
            "次元の渦発生音",
            "",
            "Se",
            "sound/se/adventure/se_dimensional_vortex",
            "se_dimensional_vortex.wav",
            "",
            "",
            "38.ワールドパートからの移動_I.wav"
          ],
          "isEmpty": 0,
          "isCommentOut": 0
        },
        {
          "rowIndex": 14,
          "strings": [
            "着地音",
            "",
            "Se",
            "sound/se/adventure/se_landing",
            "se_landing.wav",
            "",
            "",
            "22.着地音_b1.wav"
          ],
          "isEmpty": 0,
          "isCommentOut": 0
        },
        {
          "rowIndex": 15,
          "strings": [
            "倒れる音",
            "",
            "Se",
            "sound/se/adventure/se_down",
            "se_down.wav",
            "",
            "",
            ""
          ],
          "isEmpty": 0,
          "isCommentOut": 0
        },
        {
          "rowIndex": 16,
          "strings": [
            "落下音",
            "",
            "Se",
            "sound/se/adventure/se_falling",
            "se_falling.wav",
            "",
            "",
            "1章-4節 ネプテューヌ落下音(コミカル)"
          ],
          "isEmpty": 0,
          "isCommentOut": 0
        },
        {
          "rowIndex": 17,
          "strings": [
            "爆発音",
            "",
            "Se",
            "sound/se/adventure/se_explosion",
            "se_explosion.wav",
            "",
            "",
            "2章-3節 ホッペル、リーリアの自爆音"
          ],
          "isEmpty": 0,
          "isCommentOut": 0
        },
        {
          "rowIndex": 18,
          "strings": [
            "",
            "",
            "",
            "",
            "",
            "",
            "",
            ""
          ],
          "isEmpty": 1,
          "isCommentOut": 0
        },
        {
          "rowIndex": 19,
          "strings": [
            "",
            "",
            "",
            "",
            "",
            "",
            "",
            ""
          ],
          "isEmpty": 1,
          "isCommentOut": 0
        },
        {
          "rowIndex": 20,
          "strings": [
            "",
            "",
            "",
            "",
            "",
            "",
            "",
            ""
          ],
          "isEmpty": 1,
          "isCommentOut": 0
        },
        {
          "rowIndex": 21,
          "strings": [
            "",
            "",
            "",
            "",
            "",
            "",
            "",
            ""
          ],
          "isEmpty": 1,
          "isCommentOut": 0
        },
        {
          "rowIndex": 22,
          "strings": [
            "",
            "",
            "",
            "",
            "",
            "",
            "",
            ""
          ],
          "isEmpty": 1,
          "isCommentOut": 0
        },
        {
          "rowIndex": 23,
          "strings": [
            "",
            "",
            "",
            "",
            "",
            "",
            "",
            ""
          ],
          "isEmpty": 1,
          "isCommentOut": 0
        },
        {
          "rowIndex": 24,
          "strings": [
            "",
            "",
            "",
            "",
            "",
            "",
            "",
            ""
          ],
          "isEmpty": 1,
          "isCommentOut": 0
        },
        {
          "rowIndex": 25,
          "strings": [
            "",
            "",
            "",
            "",
            "",
            "",
            "",
            ""
          ],
          "isEmpty": 1,
          "isCommentOut": 0
        }
      ],
      "name": "Assets/BundleResources/Data/Adventure/Event/Story2009/adv_200901.xls:Sound",
      "type": 1,
      "textLength": 1131,
      "headerRow": 0
    },
    {
      "rows": [
        {
          "rowIndex": 0,
          "strings": [
            "Label",
            "FileName",
            "BundlePath"
          ],
          "isEmpty": 0,
          "isCommentOut": 0
        },
        {
          "rowIndex": 1,
          "strings": [
            "次元の渦",
            "eff_039",
            "prefabs/effect/adventure/eff_039/eff_039"
          ],
          "isEmpty": 0,
          "isCommentOut": 0
        },
        {
          "rowIndex": 2,
          "strings": [
            "",
            "",
            ""
          ],
          "isEmpty": 1,
          "isCommentOut": 0
        }
      ],
      "name": "Assets/BundleResources/Data/Adventure/Event/Story2009/adv_200901.xls:Particle",
      "type": 1,
      "textLength": 74,
      "headerRow": 0
    },
    {
      "rows": [
        {
          "rowIndex": 0,
          "strings": [
            "LayerName",
            "Type",
            "X",
            "Y",
            "Order",
            "LayerMask",
            "ScaleX",
            "ScaleY",
            "FlipX",
            "FlipY",
            "Width",
            "Height",
            "BorderLeft",
            "BorderRight",
            "BorderTop",
            "BorderBottom",
            "Align"
          ],
          "isEmpty": 0,
          "isCommentOut": 0
        },
        {
          "rowIndex": 1,
          "strings": [
            "キャラ中央",
            "Character",
            "0",
            "0",
            "2",
            "",
            "",
            "",
            "",
            "",
            "",
            "",
            "",
            "",
            "",
            "0"
          ],
          "isEmpty": 0,
          "isCommentOut": 0
        },
        {
          "rowIndex": 2,
          "strings": [
            "キャラ左",
            "Character",
            "-350",
            "0",
            "3",
            "",
            "",
            "",
            "",
            "",
            "",
            "",
            "",
            "",
            "",
            "0"
          ],
          "isEmpty": 0,
          "isCommentOut": 0
        },
        {
          "rowIndex": 3,
          "strings": [
            "キャラ右",
            "Character",
            "350",
            "0",
            "4",
            "",
            "",
            "",
            "",
            "",
            "",
            "",
            "",
            "",
            "",
            "0"
          ],
          "isEmpty": 0,
          "isCommentOut": 0
        },
        {
          "rowIndex": 4,
          "strings": [
            "背景",
            "Bg",
            "0",
            "0",
            "0"
          ],
          "isEmpty": 0,
          "isCommentOut": 0
        },
        {
          "rowIndex": 5,
          "strings": [],
          "isEmpty": 1,
          "isCommentOut": 0
        },
        {
          "rowIndex": 6,
          "strings": [
            "キャラ背面",
            "Sprite",
            "0",
            "0",
            "1"
          ],
          "isEmpty": 0,
          "isCommentOut": 0
        },
        {
          "rowIndex": 7,
          "strings": [
            "フェードレイヤー",
            "Sprite",
            "0",
            "0",
            "150"
          ],
          "isEmpty": 0,
          "isCommentOut": 0
        },
        {
          "rowIndex": 8,
          "strings": [
            "スプライトレイヤー",
            "Sprite",
            "0",
            "0",
            "151"
          ],
          "isEmpty": 0,
          "isCommentOut": 0
        },
        {
          "rowIndex": 9,
          "strings": [
            "キャプチャ画像レイヤー",
            "Sprite",
            "0",
            "0",
            "500"
          ],
          "isEmpty": 0,
          "isCommentOut": 0
        }
      ],
      "name": "Assets/BundleResources/Data/Adventure/Event/Story2009/adv_200901.xls:Layer",
      "type": 1,
      "textLength": 248,
      "headerRow": 0
    },
    {
      "rows": [
        {
          "rowIndex": 0,
          "strings": [
            "Label",
            "Type",
            "Value",
            "FileType"
          ],
          "isEmpty": 0,
          "isCommentOut": 0
        },
        {
          "rowIndex": 1,
          "strings": [
            "player_name",
            "String",
            "アルト"
          ],
          "isEmpty": 0,
          "isCommentOut": 0
        },
        {
          "rowIndex": 2,
          "strings": [
            "is_heroine",
            "Bool",
            "FALSE"
          ],
          "isEmpty": 0,
          "isCommentOut": 0
        }
      ],
      "name": "Assets/BundleResources/Data/Adventure/Event/Story2009/adv_200901.xls:Param",
      "type": 1,
      "textLength": 61,
      "headerRow": 0
    }
  ]
}