{
  "m_GameObject": {
    "m_FileID": 0,
    "m_PathID": 0
  },
  "m_Enabled": 1,
  "m_Script": {
    "m_FileID": 0,
    "m_PathID": 8527011069456626154
  },
  "m_Name": "adv_201204_path",
  "advPathList": [
    {
      "assetName": "",
      "assetPath": "texture/character/stand/1040100_stand",
      "resourcePath": "Texture/Character/1040100_stand.asset"
    },
    {
      "assetName": "",
      "assetPath": "texture/character/stand/1030800_stand",
      "resourcePath": "Texture/Character/1030800_stand.asset"
    },
    {
      "assetName": "",
      "assetPath": "texture/character/stand/1000500_stand",
      "resourcePath": "Texture/Character/1000500_stand.asset"
    },
    {
      "assetName": "",
      "assetPath": "texture/character/stand/1040200_stand",
      "resourcePath": "Texture/Character/1040200_stand.asset"
    },
    {
      "assetName": "",
      "assetPath": "texture/character/stand/adventure/1010401_stand",
      "resourcePath": "Texture/Character/1010401_stand.asset"
    },
    {
      "assetName": "",
      "assetPath": "texture/character/stand/1010900_stand",
      "resourcePath": "Texture/Character/1010900_stand.asset"
    },
    {
      "assetName": "",
      "assetPath": "texture/character/stand/1011400_stand",
      "resourcePath": "Texture/Character/1011400_stand.asset"
    },
    {
      "assetName": "",
      "assetPath": "texture/background/bg_007_ll",
      "resourcePath": "Texture/BG/bg_007_LL.png"
    },
    {
      "assetName": "",
      "assetPath": "texture/background/bg_022_ll",
      "resourcePath": "Texture/BG/bg_022_LL.png"
    },
    {
      "assetName": "",
      "assetPath": "texture/background/bg_010_ll",
      "resourcePath": "Texture/BG/bg_010_LL.png"
    },
    {
      "assetName": "",
      "assetPath": "texture/background/bg_002_ll",
      "resourcePath": "Texture/BG/bg_002_LL.png"
    },
    {
      "assetName": "",
      "assetPath": "texture/background/bg_029_ll",
      "resourcePath": "Texture/BG/bg_029_LL.png"
    },
    {
      "assetName": "",
      "assetPath": "texture/event/eventlogo/event_logo_0012",
      "resourcePath": "Texture/Sprite/event_logo_0012.png"
    },
    {
      "assetName": "",
      "assetPath": "sound/bgm/adventure/bgm_bright",
      "resourcePath": "Sound/BGM/bgm_bright.wav"
    },
    {
      "assetName": "",
      "assetPath": "sound/bgm/adventure/bgm_comical",
      "resourcePath": "Sound/BGM/bgm_comical.wav"
    },
    {
      "assetName": "",
      "assetPath": "sound/bgm/adventure/bgm_peace",
      "resourcePath": "Sound/BGM/bgm_peace.wav"
    },
    {
      "assetName": "",
      "assetPath": "sound/se/adventure/se_depression",
      "resourcePath": "Sound/SE/se_depression.wav"
    },
    {
      "assetName": "",
      "assetPath": "data/adventure/event/story2012/adv_201204.scenarios",
      "resourcePath": "adv_201204.scenarios.asset"
    }
  ]
}