{
  "m_GameObject": {
    "m_FileID": 0,
    "m_PathID": 0
  },
  "m_Enabled": 1,
  "m_Script": {
    "m_FileID": 0,
    "m_PathID": -2767099076474933927
  },
  "m_Name": "dc_1220200_sd",
  "Version": 65537,
  "TableCellMap": [
    {
      "Name": "1220200_sd",
      "SizeOriginal": {
        "x": 2048.0,
        "y": 2048.0
      },
      "TableCell": [
        {
          "Name": "face_normal",
          "Rectangle": {
            "x": 4.0,
            "y": 654.0,
            "width": 250.0,
            "height": 250.0
          },
          "Pivot": {
            "x": 125.0,
            "y": 135.0
          },
          "Mesh": {
            "TableCoordinate": [],
            "TableIndexVertex": []
          }
        },
        {
          "Name": "face_eye_close_normal",
          "Rectangle": {
            "x": 1164.0,
            "y": 584.0,
            "width": 250.0,
            "height": 250.0
          },
          "Pivot": {
            "x": 125.0,
            "y": 135.0
          },
          "Mesh": {
            "TableCoordinate": [],
            "TableIndexVertex": []
          }
        },
        {
          "Name": "face_mouth_open_happy",
          "Rectangle": {
            "x": 1664.0,
            "y": 614.0,
            "width": 250.0,
            "height": 250.0
          },
          "Pivot": {
            "x": 125.0,
            "y": 135.0
          },
          "Mesh": {
            "TableCoordinate": [],
            "TableIndexVertex": []
          }
        },
        {
          "Name": "face_happy",
          "Rectangle": {
            "x": 1414.0,
            "y": 584.0,
            "width": 250.0,
            "height": 250.0
          },
          "Pivot": {
            "x": 125.0,
            "y": 135.0
          },
          "Mesh": {
            "TableCoordinate": [],
            "TableIndexVertex": []
          }
        },
        {
          "Name": "face_attack",
          "Rectangle": {
            "x": 134.0,
            "y": 404.0,
            "width": 250.0,
            "height": 250.0
          },
          "Pivot": {
            "x": 125.0,
            "y": 135.0
          },
          "Mesh": {
            "TableCoordinate": [],
            "TableIndexVertex": []
          }
        },
        {
          "Name": "face_damage",
          "Rectangle": {
            "x": 384.0,
            "y": 404.0,
            "width": 250.0,
            "height": 250.0
          },
          "Pivot": {
            "x": 125.0,
            "y": 135.0
          },
          "Mesh": {
            "TableCoordinate": [],
            "TableIndexVertex": []
          }
        },
        {
          "Name": "face_unique",
          "Rectangle": {
            "x": 254.0,
            "y": 654.0,
            "width": 250.0,
            "height": 250.0
          },
          "Pivot": {
            "x": 125.0,
            "y": 135.0
          },
          "Mesh": {
            "TableCoordinate": [],
            "TableIndexVertex": []
          }
        },
        {
          "Name": "hear_front_c",
          "Rectangle": {
            "x": 4.0,
            "y": 904.0,
            "width": 430.0,
            "height": 320.0
          },
          "Pivot": {
            "x": 216.0,
            "y": 71.00001
          },
          "Mesh": {
            "TableCoordinate": [
              {
                "x": 139.0,
                "y": 216.0
              },
              {
                "x": 70.0,
                "y": 248.0
              },
              {
                "x": 69.0,
                "y": 208.0
              },
              {
                "x": 94.0,
                "y": 275.0
              },
              {
                "x": 162.0,
                "y": 252.0
              },
              {
                "x": 135.0,
                "y": 316.0
              },
              {
                "x": 172.0,
                "y": 270.0
              },
              {
                "x": 170.0,
                "y": 302.0
              },
              {
                "x": 96.0,
                "y": 303.0
              },
              {
                "x": 169.0,
                "y": 244.0
              },
              {
                "x": 181.0,
                "y": 198.0
              },
              {
                "x": 203.0,
                "y": 217.0
              },
              {
                "x": 206.0,
                "y": 241.0
              },
              {
                "x": 113.0,
                "y": 182.0
              },
              {
                "x": 89.0,
                "y": 142.0
              },
              {
                "x": 135.0,
                "y": 128.0
              },
              {
                "x": 202.0,
                "y": 167.0
              },
              {
                "x": 204.0,
                "y": 192.0
              },
              {
                "x": 157.0,
                "y": 95.0
              },
              {
                "x": 116.0,
                "y": 76.0
              },
              {
                "x": 155.0,
                "y": 42.0
              },
              {
                "x": 185.0,
                "y": 79.0
              },
              {
                "x": 228.0,
                "y": 126.0
              },
              {
                "x": 264.0,
                "y": 135.0
              },
              {
                "x": 265.0,
                "y": 200.0
              },
              {
                "x": 294.0,
                "y": 184.0
              },
              {
                "x": 315.0,
                "y": 115.0
              },
              {
                "x": 360.0,
                "y": 153.0
              },
              {
                "x": 330.0,
                "y": 217.0
              },
              {
                "x": 287.0,
                "y": 209.0
              },
              {
                "x": 294.0,
                "y": 231.0
              },
              {
                "x": 272.0,
                "y": 217.0
              },
              {
                "x": 272.0,
                "y": 230.0
              },
              {
                "x": 354.0,
                "y": 108.0
              },
              {
                "x": 297.0,
                "y": 54.0
              },
              {
                "x": 251.0,
                "y": 84.0
              },
              {
                "x": 255.0,
                "y": 33.0
              },
              {
                "x": 219.0,
                "y": 76.0
              },
              {
                "x": 200.0,
                "y": 29.0
              },
              {
                "x": 245.0,
                "y": 220.0
              },
              {
                "x": 258.0,
                "y": 220.0
              }
            ],
            "TableIndexVertex": [
              0,
              1,
              2,
              3,
              1,
              0,
              3,
              0,
              4,
              4,
              5,
              3,
              4,
              6,
              5,
              6,
              7,
              5,
              5,
              8,
              3,
              4,
              0,
              9,
              9,
              0,
              10,
              9,
              10,
              11,
              9,
              11,
              12,
              0,
              13,
              10,
              0,
              2,
              13,
              2,
              14,
              13,
              13,
              14,
              15,
              10,
              13,
              15,
              16,
              10,
              15,
              17,
              10,
              16,
              15,
              18,
              16,
              15,
              19,
              18,
              14,
              19,
              15,
              18,
              19,
              20,
              21,
              18,
              20,
              22,
              18,
              21,
              16,
              18,
              22,
              23,
              16,
              22,
              23,
              24,
              16,
              25,
              24,
              23,
              25,
              23,
              26,
              25,
              26,
              27,
              28,
              25,
              27,
              29,
              25,
              28,
              30,
              29,
              28,
              30,
              31,
              29,
              30,
              32,
              31,
              26,
              33,
              27,
              26,
              34,
              33,
              35,
              34,
              26,
              35,
              36,
              34,
              35,
              37,
              36,
              22,
              37,
              35,
              21,
              37,
              22,
              37,
              21,
              38,
              37,
              38,
              36,
              21,
              20,
              38,
              22,
              35,
              23,
              23,
              35,
              26,
              16,
              24,
              39,
              40,
              39,
              24
            ]
          }
        },
        {
          "Name": "hear_front_r",
          "Rectangle": {
            "x": 1800.0,
            "y": 864.0,
            "width": 200.0,
            "height": 380.0
          },
          "Pivot": {
            "x": 107.0,
            "y": 99.0
          },
          "Mesh": {
            "TableCoordinate": [
              {
                "x": 72.0,
                "y": 147.0
              },
              {
                "x": 71.0,
                "y": 90.0
              },
              {
                "x": 85.0,
                "y": 117.0
              },
              {
                "x": 126.0,
                "y": 142.0
              },
              {
                "x": 86.0,
                "y": 173.0
              },
              {
                "x": 119.0,
                "y": 190.0
              },
              {
                "x": 137.0,
                "y": 153.0
              },
              {
                "x": 162.0,
                "y": 190.0
              },
              {
                "x": 155.0,
                "y": 204.0
              },
              {
                "x": 119.0,
                "y": 205.0
              },
              {
                "x": 108.0,
                "y": 195.0
              },
              {
                "x": 108.0,
                "y": 205.0
              },
              {
                "x": 120.0,
                "y": 216.0
              },
              {
                "x": 165.0,
                "y": 163.0
              },
              {
                "x": 170.0,
                "y": 172.0
              },
              {
                "x": 171.0,
                "y": 187.0
              },
              {
                "x": 113.0,
                "y": 116.0
              },
              {
                "x": 106.0,
                "y": 81.0
              },
              {
                "x": 84.0,
                "y": 70.0
              },
              {
                "x": 99.0,
                "y": 72.0
              }
            ],
            "TableIndexVertex": [
              0,
              1,
              2,
              3,
              0,
              2,
              4,
              0,
              3,
              5,
              4,
              3,
              5,
              3,
              6,
              7,
              5,
              6,
              8,
              5,
              7,
              9,
              5,
              8,
              9,
              10,
              5,
              9,
              11,
              10,
              12,
              9,
              8,
              13,
              7,
              6,
              14,
              7,
              13,
              15,
              7,
              14,
              3,
              2,
              16,
              2,
              17,
              16,
              2,
              1,
              17,
              18,
              17,
              1,
              17,
              18,
              19
            ]
          }
        },
        {
          "Name": "head",
          "Rectangle": {
            "x": 730.0,
            "y": 694.0,
            "width": 290.0,
            "height": 250.0
          },
          "Pivot": {
            "x": 163.000015,
            "y": 225.0
          },
          "Mesh": {
            "TableCoordinate": [],
            "TableIndexVertex": []
          }
        },
        {
          "Name": "hear_front_l",
          "Rectangle": {
            "x": 504.0,
            "y": 840.0,
            "width": 200.0,
            "height": 380.0
          },
          "Pivot": {
            "x": 90.0,
            "y": 83.99999
          },
          "Mesh": {
            "TableCoordinate": [
              {
                "x": 69.0,
                "y": 209.0
              },
              {
                "x": 54.0,
                "y": 195.0
              },
              {
                "x": 78.0,
                "y": 195.0
              },
              {
                "x": 79.0,
                "y": 209.0
              },
              {
                "x": 54.0,
                "y": 174.0
              },
              {
                "x": 85.0,
                "y": 188.0
              },
              {
                "x": 75.0,
                "y": 152.0
              },
              {
                "x": 105.0,
                "y": 183.0
              },
              {
                "x": 114.0,
                "y": 157.0
              },
              {
                "x": 114.0,
                "y": 174.0
              },
              {
                "x": 100.0,
                "y": 117.0
              },
              {
                "x": 75.0,
                "y": 98.0
              },
              {
                "x": 101.0,
                "y": 88.0
              },
              {
                "x": 81.0,
                "y": 86.0
              }
            ],
            "TableIndexVertex": [
              0,
              1,
              2,
              0,
              2,
              3,
              2,
              1,
              4,
              5,
              2,
              4,
              5,
              4,
              6,
              7,
              5,
              6,
              7,
              6,
              8,
              9,
              7,
              8,
              6,
              10,
              8,
              6,
              11,
              10,
              10,
              11,
              12,
              12,
              11,
              13
            ]
          }
        },
        {
          "Name": "acce_body_front",
          "Rectangle": {
            "x": 4.0,
            "y": 4.0,
            "width": 250.0,
            "height": 275.0
          },
          "Pivot": {
            "x": 125.0,
            "y": 101.999977
          },
          "Mesh": {
            "TableCoordinate": [],
            "TableIndexVertex": []
          }
        },
        {
          "Name": "hand_r",
          "Rectangle": {
            "x": 504.0,
            "y": 660.0,
            "width": 130.0,
            "height": 180.0
          },
          "Pivot": {
            "x": 83.37772,
            "y": 61.00002
          },
          "Mesh": {
            "TableCoordinate": [],
            "TableIndexVertex": []
          }
        },
        {
          "Name": "hand_r_rev",
          "Rectangle": {
            "x": 1484.0,
            "y": 4.0,
            "width": 130.0,
            "height": 180.0
          },
          "Pivot": {
            "x": 83.37772,
            "y": 61.00002
          },
          "Mesh": {
            "TableCoordinate": [],
            "TableIndexVertex": []
          }
        },
        {
          "Name": "arm_r",
          "Rectangle": {
            "x": 4.0,
            "y": 280.0,
            "width": 130.0,
            "height": 180.0
          },
          "Pivot": {
            "x": 78.99996,
            "y": 64.00008
          },
          "Mesh": {
            "TableCoordinate": [],
            "TableIndexVertex": []
          }
        },
        {
          "Name": "body",
          "Rectangle": {
            "x": 1164.0,
            "y": 364.0,
            "width": 180.0,
            "height": 220.0
          },
          "Pivot": {
            "x": 93.99996,
            "y": 151.000076
          },
          "Mesh": {
            "TableCoordinate": [],
            "TableIndexVertex": []
          }
        },
        {
          "Name": "body_rev",
          "Rectangle": {
            "x": 1165.0,
            "y": 144.0,
            "width": 180.0,
            "height": 220.0
          },
          "Pivot": {
            "x": 92.99996,
            "y": 151.000076
          },
          "Mesh": {
            "TableCoordinate": [],
            "TableIndexVertex": []
          }
        },
        {
          "Name": "acce_hip_front",
          "Rectangle": {
            "x": 1664.0,
            "y": 284.0,
            "width": 330.0,
            "height": 330.0
          },
          "Pivot": {
            "x": 173.0,
            "y": 90.0
          },
          "Mesh": {
            "TableCoordinate": [
              {
                "x": 130.0,
                "y": 218.0
              },
              {
                "x": 168.0,
                "y": 232.0
              },
              {
                "x": 134.0,
                "y": 230.0
              },
              {
                "x": 169.0,
                "y": 201.0
              },
              {
                "x": 208.0,
                "y": 216.0
              },
              {
                "x": 170.0,
                "y": 164.0
              },
              {
                "x": 139.0,
                "y": 194.0
              },
              {
                "x": 140.0,
                "y": 137.0
              },
              {
                "x": 172.0,
                "y": 132.0
              },
              {
                "x": 204.0,
                "y": 148.0
              },
              {
                "x": 173.0,
                "y": 95.0
              },
              {
                "x": 141.0,
                "y": 80.0
              },
              {
                "x": 170.0,
                "y": 73.0
              },
              {
                "x": 206.0,
                "y": 78.0
              }
            ],
            "TableIndexVertex": [
              0,
              1,
              2,
              3,
              1,
              0,
              1,
              3,
              4,
              3,
              5,
              4,
              3,
              6,
              5,
              3,
              0,
              6,
              6,
              7,
              5,
              5,
              7,
              8,
              5,
              8,
              9,
              5,
              9,
              4,
              8,
              10,
              9,
              8,
              7,
              10,
              10,
              7,
              11,
              11,
              12,
              10,
              10,
              12,
              13,
              9,
              10,
              13
            ]
          }
        },
        {
          "Name": "acce_hip_front_rev",
          "Rectangle": {
            "x": 834.0,
            "y": 34.0,
            "width": 330.0,
            "height": 330.0
          },
          "Pivot": {
            "x": 173.0,
            "y": 90.0
          },
          "Mesh": {
            "TableCoordinate": [
              {
                "x": 168.0,
                "y": 232.0
              },
              {
                "x": 130.0,
                "y": 218.0
              },
              {
                "x": 169.0,
                "y": 211.0
              },
              {
                "x": 210.0,
                "y": 220.0
              },
              {
                "x": 202.0,
                "y": 192.0
              },
              {
                "x": 168.0,
                "y": 190.0
              },
              {
                "x": 139.0,
                "y": 194.0
              },
              {
                "x": 171.0,
                "y": 161.0
              },
              {
                "x": 205.0,
                "y": 135.0
              },
              {
                "x": 168.0,
                "y": 132.0
              },
              {
                "x": 140.0,
                "y": 137.0
              },
              {
                "x": 171.0,
                "y": 97.0
              },
              {
                "x": 206.0,
                "y": 78.0
              },
              {
                "x": 172.0,
                "y": 73.0
              },
              {
                "x": 141.0,
                "y": 80.0
              }
            ],
            "TableIndexVertex": [
              0,
              1,
              2,
              0,
              2,
              3,
              2,
              4,
              3,
              2,
              5,
              4,
              6,
              5,
              2,
              5,
              6,
              7,
              5,
              7,
              4,
              4,
              7,
              8,
              7,
              9,
              8,
              10,
              9,
              7,
              9,
              10,
              11,
              9,
              11,
              8,
              8,
              11,
              12,
              11,
              13,
              12,
              11,
              14,
              13,
              11,
              10,
              14,
              7,
              6,
              10,
              1,
              6,
              2
            ]
          }
        },
        {
          "Name": "thigh_r",
          "Rectangle": {
            "x": 864.0,
            "y": 1124.0,
            "width": 130.0,
            "height": 180.0
          },
          "Pivot": {
            "x": 61.00003,
            "y": 68.00004
          },
          "Mesh": {
            "TableCoordinate": [],
            "TableIndexVertex": []
          }
        },
        {
          "Name": "leg_r",
          "Rectangle": {
            "x": 1914.0,
            "y": 614.0,
            "width": 130.0,
            "height": 180.0
          },
          "Pivot": {
            "x": 78.0,
            "y": 54.0
          },
          "Mesh": {
            "TableCoordinate": [],
            "TableIndexVertex": []
          }
        },
        {
          "Name": "hip",
          "Rectangle": {
            "x": 704.0,
            "y": 944.0,
            "width": 180.0,
            "height": 180.0
          },
          "Pivot": {
            "x": 95.00004,
            "y": 109.000076
          },
          "Mesh": {
            "TableCoordinate": [],
            "TableIndexVertex": []
          }
        },
        {
          "Name": "thigh_l",
          "Rectangle": {
            "x": 884.0,
            "y": 944.0,
            "width": 130.0,
            "height": 180.0
          },
          "Pivot": {
            "x": 61.99999,
            "y": 68.00004
          },
          "Mesh": {
            "TableCoordinate": [],
            "TableIndexVertex": []
          }
        },
        {
          "Name": "leg_l",
          "Rectangle": {
            "x": 4.0,
            "y": 460.0,
            "width": 130.0,
            "height": 180.0
          },
          "Pivot": {
            "x": 71.99998,
            "y": 55.00008
          },
          "Mesh": {
            "TableCoordinate": [],
            "TableIndexVertex": []
          }
        },
        {
          "Name": "weapon_b",
          "Rectangle": {
            "x": 1294.0,
            "y": 1384.0,
            "width": 250.0,
            "height": 500.0
          },
          "Pivot": {
            "x": 129.0,
            "y": 442.0
          },
          "Mesh": {
            "TableCoordinate": [],
            "TableIndexVertex": []
          }
        },
        {
          "Name": "weapon_b_1",
          "Rectangle": {
            "x": 1294.0,
            "y": 1384.0,
            "width": 250.0,
            "height": 500.0
          },
          "Pivot": {
            "x": 128.0,
            "y": 446.0
          },
          "Mesh": {
            "TableCoordinate": [],
            "TableIndexVertex": []
          }
        },
        {
          "Name": "weapon_b_2",
          "Rectangle": {
            "x": 1294.0,
            "y": 1384.0,
            "width": 250.0,
            "height": 500.0
          },
          "Pivot": {
            "x": 125.0,
            "y": 250.0
          },
          "Mesh": {
            "TableCoordinate": [],
            "TableIndexVertex": []
          }
        },
        {
          "Name": "hand_l",
          "Rectangle": {
            "x": 684.0,
            "y": 404.0,
            "width": 130.0,
            "height": 180.0
          },
          "Pivot": {
            "x": 52.0,
            "y": 66.0
          },
          "Mesh": {
            "TableCoordinate": [],
            "TableIndexVertex": []
          }
        },
        {
          "Name": "hand_l_rev",
          "Rectangle": {
            "x": 1614.0,
            "y": 4.0,
            "width": 130.0,
            "height": 180.0
          },
          "Pivot": {
            "x": 52.0,
            "y": 66.0
          },
          "Mesh": {
            "TableCoordinate": [],
            "TableIndexVertex": []
          }
        },
        {
          "Name": "arm_l",
          "Rectangle": {
            "x": 1864.0,
            "y": 4.0,
            "width": 130.0,
            "height": 180.0
          },
          "Pivot": {
            "x": 49.99995,
            "y": 63.0
          },
          "Mesh": {
            "TableCoordinate": [],
            "TableIndexVertex": []
          }
        },
        {
          "Name": "hear_back_c",
          "Rectangle": {
            "x": 1020.0,
            "y": 834.0,
            "width": 260.0,
            "height": 520.0
          },
          "Pivot": {
            "x": 139.0,
            "y": 79.00001
          },
          "Mesh": {
            "TableCoordinate": [
              {
                "x": 37.0,
                "y": 255.0
              },
              {
                "x": 20.0,
                "y": 194.0
              },
              {
                "x": 52.0,
                "y": 214.0
              },
              {
                "x": 89.0,
                "y": 262.0
              },
              {
                "x": 57.0,
                "y": 274.0
              },
              {
                "x": 35.0,
                "y": 295.0
              },
              {
                "x": 50.0,
                "y": 297.0
              },
              {
                "x": 76.0,
                "y": 292.0
              },
              {
                "x": 97.0,
                "y": 293.0
              },
              {
                "x": 88.0,
                "y": 306.0
              },
              {
                "x": 77.0,
                "y": 306.0
              },
              {
                "x": 131.0,
                "y": 257.0
              },
              {
                "x": 127.0,
                "y": 299.0
              },
              {
                "x": 154.0,
                "y": 266.0
              },
              {
                "x": 156.0,
                "y": 297.0
              },
              {
                "x": 169.0,
                "y": 296.0
              },
              {
                "x": 184.0,
                "y": 241.0
              },
              {
                "x": 218.0,
                "y": 254.0
              },
              {
                "x": 206.0,
                "y": 308.0
              },
              {
                "x": 172.0,
                "y": 308.0
              },
              {
                "x": 225.0,
                "y": 299.0
              },
              {
                "x": 247.0,
                "y": 260.0
              },
              {
                "x": 261.0,
                "y": 236.0
              },
              {
                "x": 260.0,
                "y": 259.0
              },
              {
                "x": 239.0,
                "y": 206.0
              },
              {
                "x": 180.0,
                "y": 205.0
              },
              {
                "x": 221.0,
                "y": 182.0
              },
              {
                "x": 245.0,
                "y": 136.0
              },
              {
                "x": 199.0,
                "y": 146.0
              },
              {
                "x": 149.0,
                "y": 152.0
              },
              {
                "x": 125.0,
                "y": 184.0
              },
              {
                "x": 96.0,
                "y": 153.0
              },
              {
                "x": 100.0,
                "y": 195.0
              },
              {
                "x": 113.0,
                "y": 221.0
              },
              {
                "x": 72.0,
                "y": 180.0
              },
              {
                "x": 46.0,
                "y": 158.0
              },
              {
                "x": 24.0,
                "y": 129.0
              },
              {
                "x": 58.0,
                "y": 107.0
              },
              {
                "x": 105.0,
                "y": 114.0
              },
              {
                "x": 142.0,
                "y": 122.0
              },
              {
                "x": 173.0,
                "y": 99.0
              },
              {
                "x": 133.0,
                "y": 65.0
              },
              {
                "x": 180.0,
                "y": 44.0
              },
              {
                "x": 228.0,
                "y": 84.0
              },
              {
                "x": 215.0,
                "y": 106.0
              },
              {
                "x": 126.0,
                "y": 35.0
              },
              {
                "x": 105.0,
                "y": 76.0
              },
              {
                "x": 46.0,
                "y": 78.0
              },
              {
                "x": 79.0,
                "y": 48.0
              },
              {
                "x": 138.0,
                "y": 313.0
              },
              {
                "x": 150.0,
                "y": 313.0
              }
            ],
            "TableIndexVertex": [
              0,
              1,
              2,
              0,
              2,
              3,
              4,
              0,
              3,
              5,
              0,
              4,
              6,
              5,
              4,
              7,
              4,
              3,
              7,
              3,
              8,
              8,
              9,
              7,
              9,
              10,
              7,
              8,
              3,
              11,
              12,
              8,
              11,
              12,
              11,
              13,
              13,
              14,
              12,
              14,
              13,
              15,
              15,
              13,
              16,
              15,
              16,
              17,
              18,
              15,
              17,
              18,
              19,
              15,
              17,
              20,
              18,
              20,
              17,
              21,
              22,
              21,
              17,
              23,
              21,
              22,
              17,
              24,
              22,
              17,
              16,
              24,
              24,
              16,
              25,
              24,
              25,
              26,
              24,
              26,
              27,
              26,
              28,
              27,
              25,
              28,
              26,
              25,
              29,
              28,
              30,
              29,
              25,
              30,
              31,
              29,
              30,
              32,
              31,
              33,
              32,
              30,
              33,
              2,
              32,
              33,
              3,
              2,
              3,
              33,
              11,
              11,
              33,
              25,
              16,
              11,
              25,
              13,
              11,
              16,
              33,
              30,
              25,
              32,
              2,
              34,
              32,
              34,
              31,
              34,
              35,
              31,
              1,
              35,
              34,
              1,
              36,
              35,
              35,
              36,
              37,
              35,
              37,
              31,
              31,
              37,
              38,
              31,
              38,
              39,
              31,
              39,
              29,
              29,
              39,
              28,
              39,
              40,
              28,
              40,
              39,
              41,
              40,
              41,
              42,
              40,
              42,
              43,
              44,
              40,
              43,
              28,
              40,
              44,
              28,
              44,
              27,
              44,
              43,
              27,
              41,
              45,
              42,
              41,
              46,
              45,
              41,
              39,
              46,
              39,
              38,
              46,
              37,
              46,
              38,
              46,
              37,
              47,
              46,
              47,
              48,
              46,
              48,
              45,
              36,
              47,
              37,
              2,
              1,
              34,
              49,
              12,
              14,
              50,
              49,
              14
            ]
          }
        },
        {
          "Name": "hear_back",
          "Rectangle": {
            "x": 1540.0,
            "y": 864.0,
            "width": 260.0,
            "height": 520.0
          },
          "Pivot": {
            "x": 139.0,
            "y": 65.0
          },
          "Mesh": {
            "TableCoordinate": [
              {
                "x": 45.0,
                "y": 209.0
              },
              {
                "x": 21.0,
                "y": 189.0
              },
              {
                "x": 64.0,
                "y": 177.0
              },
              {
                "x": 65.0,
                "y": 208.0
              },
              {
                "x": 101.0,
                "y": 181.0
              },
              {
                "x": 65.0,
                "y": 144.0
              },
              {
                "x": 26.0,
                "y": 144.0
              },
              {
                "x": 68.0,
                "y": 109.0
              },
              {
                "x": 104.0,
                "y": 131.0
              },
              {
                "x": 145.0,
                "y": 103.0
              },
              {
                "x": 112.0,
                "y": 77.0
              },
              {
                "x": 149.0,
                "y": 80.0
              },
              {
                "x": 112.0,
                "y": 10.0
              },
              {
                "x": 173.0,
                "y": 57.0
              },
              {
                "x": 144.0,
                "y": -2.0
              },
              {
                "x": 173.0,
                "y": 9.0
              },
              {
                "x": 162.0,
                "y": -2.0
              }
            ],
            "TableIndexVertex": [
              0,
              1,
              2,
              3,
              0,
              2,
              3,
              2,
              4,
              2,
              5,
              4,
              2,
              6,
              5,
              1,
              6,
              2,
              5,
              6,
              7,
              5,
              7,
              8,
              4,
              5,
              8,
              4,
              8,
              9,
              8,
              10,
              9,
              8,
              7,
              10,
              9,
              10,
              11,
              12,
              11,
              10,
              13,
              11,
              12,
              13,
              12,
              14,
              13,
              14,
              15,
              14,
              16,
              15
            ]
          }
        },
        {
          "Name": "hear_back_rev",
          "Rectangle": {
            "x": 1280.0,
            "y": 834.0,
            "width": 260.0,
            "height": 520.0
          },
          "Pivot": {
            "x": 139.0,
            "y": 65.0
          },
          "Mesh": {
            "TableCoordinate": [
              {
                "x": 45.0,
                "y": 209.0
              },
              {
                "x": 21.0,
                "y": 189.0
              },
              {
                "x": 64.0,
                "y": 177.0
              },
              {
                "x": 65.0,
                "y": 208.0
              },
              {
                "x": 101.0,
                "y": 181.0
              },
              {
                "x": 65.0,
                "y": 144.0
              },
              {
                "x": 26.0,
                "y": 144.0
              },
              {
                "x": 68.0,
                "y": 109.0
              },
              {
                "x": 104.0,
                "y": 131.0
              },
              {
                "x": 145.0,
                "y": 103.0
              },
              {
                "x": 112.0,
                "y": 77.0
              },
              {
                "x": 149.0,
                "y": 80.0
              },
              {
                "x": 112.0,
                "y": 10.0
              },
              {
                "x": 173.0,
                "y": 57.0
              },
              {
                "x": 144.0,
                "y": -2.0
              },
              {
                "x": 173.0,
                "y": 9.0
              },
              {
                "x": 162.0,
                "y": -2.0
              }
            ],
            "TableIndexVertex": [
              0,
              1,
              2,
              3,
              0,
              2,
              3,
              2,
              4,
              2,
              5,
              4,
              2,
              6,
              5,
              1,
              6,
              2,
              5,
              6,
              7,
              5,
              7,
              8,
              4,
              5,
              8,
              4,
              8,
              9,
              8,
              10,
              9,
              8,
              7,
              10,
              9,
              10,
              11,
              12,
              11,
              10,
              13,
              11,
              12,
              13,
              12,
              14,
              13,
              14,
              15,
              14,
              16,
              15
            ]
          }
        },
        {
          "Name": "weapon_r",
          "Rectangle": {
            "x": 1794.0,
            "y": 1384.0,
            "width": 250.0,
            "height": 400.0
          },
          "Pivot": {
            "x": 131.0,
            "y": 338.0
          },
          "Mesh": {
            "TableCoordinate": [],
            "TableIndexVertex": []
          }
        },
        {
          "Name": "weapon_l",
          "Rectangle": {
            "x": 1544.0,
            "y": 1384.0,
            "width": 250.0,
            "height": 400.0
          },
          "Pivot": {
            "x": 131.0,
            "y": 338.0
          },
          "Mesh": {
            "TableCoordinate": [],
            "TableIndexVertex": []
          }
        },
        {
          "Name": "EF_1",
          "Rectangle": {
            "x": 707.0,
            "y": 1354.0,
            "width": 515.0,
            "height": 542.0
          },
          "Pivot": {
            "x": 268.0,
            "y": 239.0
          },
          "Mesh": {
            "TableCoordinate": [],
            "TableIndexVertex": []
          }
        },
        {
          "Name": "EF_2",
          "Rectangle": {
            "x": 4.0,
            "y": 1224.0,
            "width": 703.0,
            "height": 651.0
          },
          "Pivot": {
            "x": 359.0,
            "y": 343.0
          },
          "Mesh": {
            "TableCoordinate": [],
            "TableIndexVertex": []
          }
        },
        {
          "Name": "acce_head_rear_c",
          "Rectangle": {
            "x": 1364.0,
            "y": 284.0,
            "width": 300.0,
            "height": 300.0
          },
          "Pivot": {
            "x": 69.0,
            "y": 50.9999962
          },
          "Mesh": {
            "TableCoordinate": [],
            "TableIndexVertex": []
          }
        },
        {
          "Name": "acce_body_rear",
          "Rectangle": {
            "x": 254.0,
            "y": 4.0,
            "width": 580.0,
            "height": 400.0
          },
          "Pivot": {
            "x": 285.0,
            "y": 189.0
          },
          "Mesh": {
            "TableCoordinate": [],
            "TableIndexVertex": []
          }
        },
        {
          "Name": "acce_hip_rear",
          "Rectangle": {
            "x": 834.0,
            "y": 364.0,
            "width": 330.0,
            "height": 330.0
          },
          "Pivot": {
            "x": 154.0,
            "y": 99.0
          },
          "Mesh": {
            "TableCoordinate": [
              {
                "x": 112.0,
                "y": 220.0
              },
              {
                "x": 110.0,
                "y": 198.0
              },
              {
                "x": 119.0,
                "y": 192.0
              },
              {
                "x": 149.0,
                "y": 195.0
              },
              {
                "x": 148.0,
                "y": 230.0
              },
              {
                "x": 188.0,
                "y": 214.0
              },
              {
                "x": 183.0,
                "y": 155.0
              },
              {
                "x": 155.0,
                "y": 148.0
              },
              {
                "x": 120.0,
                "y": 148.0
              },
              {
                "x": 159.0,
                "y": 110.0
              },
              {
                "x": 186.0,
                "y": 94.0
              },
              {
                "x": 173.0,
                "y": 81.0
              },
              {
                "x": 149.0,
                "y": 79.0
              },
              {
                "x": 121.0,
                "y": 105.0
              }
            ],
            "TableIndexVertex": [
              0,
              1,
              2,
              0,
              2,
              3,
              4,
              0,
              3,
              4,
              3,
              5,
              3,
              6,
              5,
              3,
              7,
              6,
              7,
              3,
              8,
              7,
              8,
              9,
              7,
              9,
              6,
              6,
              9,
              10,
              9,
              11,
              10,
              9,
              12,
              11,
              13,
              12,
              9,
              8,
              13,
              9,
              3,
              2,
              8
            ]
          }
        }
      ]
    }
  ]
}