{
  "m_GameObject": {
    "m_FileID": 0,
    "m_PathID": 0
  },
  "m_Enabled": 1,
  "m_Script": {
    "m_FileID": 0,
    "m_PathID": 8527011069456626154
  },
  "m_Name": "adv_101605_path",
  "advPathList": [
    {
      "assetName": "",
      "assetPath": "texture/character/stand/1010200_stand",
      "resourcePath": "Texture/Character/1010200_stand.asset"
    },
    {
      "assetName": "",
      "assetPath": "texture/character/stand/1021500_stand",
      "resourcePath": "Texture/Character/1021500_stand.asset"
    },
    {
      "assetName": "",
      "assetPath": "texture/character/stand/1020200_stand",
      "resourcePath": "Texture/Character/1020200_stand.asset"
    },
    {
      "assetName": "",
      "assetPath": "texture/character/stand/1131000_stand",
      "resourcePath": "Texture/Character/1131000_stand.asset"
    },
    {
      "assetName": "",
      "assetPath": "texture/character/stand/1040100_stand",
      "resourcePath": "Texture/Character/1040100_stand.asset"
    },
    {
      "assetName": "",
      "assetPath": "texture/character/stand/1030800_stand",
      "resourcePath": "Texture/Character/1030800_stand.asset"
    },
    {
      "assetName": "",
      "assetPath": "texture/character/stand/1040200_stand",
      "resourcePath": "Texture/Character/1040200_stand.asset"
    },
    {
      "assetName": "",
      "assetPath": "texture/character/stand/1120100_stand",
      "resourcePath": "Texture/Character/1120100_stand.asset"
    },
    {
      "assetName": "",
      "assetPath": "texture/character/stand/1160100_stand",
      "resourcePath": "Texture/Character/1160100_stand.asset"
    },
    {
      "assetName": "",
      "assetPath": "texture/character/stand/1000400_stand",
      "resourcePath": "Texture/Character/1000400_stand.asset"
    },
    {
      "assetName": "",
      "assetPath": "texture/character/stand/1030900_stand",
      "resourcePath": "Texture/Character/1030900_stand.asset"
    },
    {
      "assetName": "",
      "assetPath": "texture/character/stand/1000300_stand",
      "resourcePath": "Texture/Character/1000300_stand.asset"
    },
    {
      "assetName": "",
      "assetPath": "texture/character/stand/1000500_stand",
      "resourcePath": "Texture/Character/1000500_stand.asset"
    },
    {
      "assetName": "",
      "assetPath": "texture/character/stand/1170100_stand",
      "resourcePath": "Texture/Character/1170100_stand.asset"
    },
    {
      "assetName": "",
      "assetPath": "texture/background/bg_002_ll",
      "resourcePath": "Texture/BG/bg_002_LL.png"
    },
    {
      "assetName": "",
      "assetPath": "texture/background/bg_007_ll",
      "resourcePath": "Texture/BG/bg_007_LL.png"
    },
    {
      "assetName": "",
      "assetPath": "texture/adventure/sprite_kaisou_parts",
      "resourcePath": "Texture/Sprite/sprite_kaisou_parts.png"
    },
    {
      "assetName": "",
      "assetPath": "texture/background/bg_047_ll",
      "resourcePath": "Texture/BG/bg_047_LL.png"
    },
    {
      "assetName": "",
      "assetPath": "texture/background/bg_051_ll",
      "resourcePath": "Texture/BG/bg_051_LL.png"
    },
    {
      "assetName": "",
      "assetPath": "texture/background/bg_012_ll",
      "resourcePath": "Texture/BG/bg_012_LL.png"
    },
    {
      "assetName": "",
      "assetPath": "texture/background/bg_082_ll",
      "resourcePath": "Texture/BG/bg_082_LL.png"
    },
    {
      "assetName": "",
      "assetPath": "texture/background/bg_010_ll",
      "resourcePath": "Texture/BG/bg_010_LL.png"
    },
    {
      "assetName": "",
      "assetPath": "texture/adventure/sprite_blur",
      "resourcePath": "Texture/Sprite/sprite_blur.png"
    },
    {
      "assetName": "",
      "assetPath": "texture/background/bg_074_ll",
      "resourcePath": "Texture/BG/bg_074_LL.png"
    },
    {
      "assetName": "",
      "assetPath": "sound/bgm/adventure/bgm_bright",
      "resourcePath": "Sound/BGM/bgm_bright.wav"
    },
    {
      "assetName": "",
      "assetPath": "sound/se/adventure/se_depression",
      "resourcePath": "Sound/SE/se_depression.wav"
    },
    {
      "assetName": "",
      "assetPath": "sound/bgm/adventure/bgm_adv_general",
      "resourcePath": "Sound/BGM/bgm_adv_general.wav"
    },
    {
      "assetName": "",
      "assetPath": "sound/bgm/adventure/bgm_rastision_thema",
      "resourcePath": "Sound/BGM/bgm_rastision_thema.wav"
    },
    {
      "assetName": "",
      "assetPath": "sound/bgm/adventure/bgm_unrest",
      "resourcePath": "Sound/BGM/bgm_unrest.wav"
    },
    {
      "assetName": "",
      "assetPath": "sound/bgm/adventure/bgm_suspiction",
      "resourcePath": "Sound/BGM/bgm_suspiction.wav"
    },
    {
      "assetName": "",
      "assetPath": "sound/bgm/adventure/bgm_description",
      "resourcePath": "Sound/BGM/bgm_description.wav"
    },
    {
      "assetName": "",
      "assetPath": "data/adventure/main/story1016/adv_101605.scenarios",
      "resourcePath": "adv_101605.scenarios.asset"
    }
  ]
}