{
  "m_GameObject": {
    "m_FileID": 0,
    "m_PathID": 0
  },
  "m_Enabled": 1,
  "m_Script": {
    "m_FileID": 0,
    "m_PathID": 8527011069456626154
  },
  "m_Name": "adv_101603_path",
  "advPathList": [
    {
      "assetName": "",
      "assetPath": "texture/character/stand/1010200_stand",
      "resourcePath": "Texture/Character/1010200_stand.asset"
    },
    {
      "assetName": "",
      "assetPath": "texture/character/stand/2001300_stand",
      "resourcePath": "Texture/Character/2001300_stand.asset"
    },
    {
      "assetName": "",
      "assetPath": "texture/character/stand/1040100_stand",
      "resourcePath": "Texture/Character/1040100_stand.asset"
    },
    {
      "assetName": "",
      "assetPath": "texture/character/stand/1040200_stand",
      "resourcePath": "Texture/Character/1040200_stand.asset"
    },
    {
      "assetName": "",
      "assetPath": "texture/character/stand/1030800_stand",
      "resourcePath": "Texture/Character/1030800_stand.asset"
    },
    {
      "assetName": "",
      "assetPath": "texture/character/stand/3000900_stand",
      "resourcePath": "Texture/Character/3000900_stand.asset"
    },
    {
      "assetName": "",
      "assetPath": "texture/character/stand/1020200_stand",
      "resourcePath": "Texture/Character/1020200_stand.asset"
    },
    {
      "assetName": "",
      "assetPath": "texture/character/stand/1131000_stand",
      "resourcePath": "Texture/Character/1131000_stand.asset"
    },
    {
      "assetName": "",
      "assetPath": "texture/character/stand/1020600_stand",
      "resourcePath": "Texture/Character/1020600_stand.asset"
    },
    {
      "assetName": "",
      "assetPath": "texture/character/stand/1010600_stand",
      "resourcePath": "Texture/Character/1010600_stand.asset"
    },
    {
      "assetName": "",
      "assetPath": "texture/background/bg_047_ll",
      "resourcePath": "Texture/BG/bg_047_LL.png"
    },
    {
      "assetName": "",
      "assetPath": "texture/background/bg_007_ll",
      "resourcePath": "Texture/BG/bg_007_LL.png"
    },
    {
      "assetName": "",
      "assetPath": "texture/adventure/sprite_chaos_anima",
      "resourcePath": "Texture/Sprite/sprite_chaos_anima.png"
    },
    {
      "assetName": "",
      "assetPath": "prefabs/effect/adventure/eff_017/eff_017",
      "resourcePath": "Particle/eff_017.prefab"
    },
    {
      "assetName": "",
      "assetPath": "prefabs/effect/adventure/eff_020/eff_020",
      "resourcePath": "Particle/eff_020.prefab"
    },
    {
      "assetName": "",
      "assetPath": "prefabs/effect/adventure/eff_042/eff_042",
      "resourcePath": "Particle/eff_042.prefab"
    },
    {
      "assetName": "",
      "assetPath": "sound/bgm/adventure/bgm_magiquone_last_battle",
      "resourcePath": "Sound/BGM/bgm_magiquone_last_battle.wav"
    },
    {
      "assetName": "",
      "assetPath": "sound/se/adventure/se_sprint",
      "resourcePath": "Sound/SE/se_sprint.wav"
    },
    {
      "assetName": "",
      "assetPath": "sound/se/adventure/se_swing",
      "resourcePath": "Sound/SE/se_swing.wav"
    },
    {
      "assetName": "",
      "assetPath": "sound/se/adventure/se_slashing_sin",
      "resourcePath": "Sound/SE/se_slashing_sin.wav"
    },
    {
      "assetName": "",
      "assetPath": "sound/se/adventure/se_parry",
      "resourcePath": "Sound/SE/se_parry.wav"
    },
    {
      "assetName": "",
      "assetPath": "sound/se/adventure/se_knuckle",
      "resourcePath": "Sound/SE/se_knuckle.wav"
    },
    {
      "assetName": "",
      "assetPath": "sound/bgm/adventure/bgm_ultra_dimension",
      "resourcePath": "Sound/BGM/bgm_ultra_dimension.wav"
    },
    {
      "assetName": "",
      "assetPath": "sound/se/adventure/se_fusion",
      "resourcePath": "Sound/SE/se_fusion.wav"
    },
    {
      "assetName": "",
      "assetPath": "sound/se/adventure/se_single_bullet",
      "resourcePath": "Sound/SE/se_single_bullet.wav"
    },
    {
      "assetName": "",
      "assetPath": "sound/se/adventure/se_break_pot",
      "resourcePath": "Sound/SE/se_break_pot.wav"
    },
    {
      "assetName": "",
      "assetPath": "sound/se/adventure/se_blood_splash",
      "resourcePath": "Sound/SE/se_blood_splash.wav"
    },
    {
      "assetName": "",
      "assetPath": "sound/bgm/adventure/bgm_vow",
      "resourcePath": "Sound/BGM/bgm_vow.wav"
    },
    {
      "assetName": "",
      "assetPath": "sound/se/adventure/se_energy_vanishing",
      "resourcePath": "Sound/SE/se_energy_vanishing.wav"
    },
    {
      "assetName": "",
      "assetPath": "sound/se/adventure/se_transform",
      "resourcePath": "Sound/SE/se_transform.wav"
    },
    {
      "assetName": "",
      "assetPath": "data/adventure/main/story1016/adv_101603.scenarios",
      "resourcePath": "adv_101603.scenarios.asset"
    }
  ]
}