{
  "m_GameObject": {
    "m_FileID": 0,
    "m_PathID": 0
  },
  "m_Enabled": 1,
  "m_Script": {
    "m_FileID": 0,
    "m_PathID": 8527011069456626154
  },
  "m_Name": "adv_400801_path",
  "advPathList": [
    {
      "assetName": "",
      "assetPath": "texture/character/stand/1060600_stand",
      "resourcePath": "Texture/Character/1060600_stand.asset"
    },
    {
      "assetName": "",
      "assetPath": "texture/character/stand/adventure/1010401_stand",
      "resourcePath": "Texture/Character/1010401_stand.asset"
    },
    {
      "assetName": "",
      "assetPath": "texture/character/stand/1011400_stand",
      "resourcePath": "Texture/Character/1011400_stand.asset"
    },
    {
      "assetName": "",
      "assetPath": "texture/background/bg_045_ll",
      "resourcePath": "Texture/BG/bg_045_LL.png"
    },
    {
      "assetName": "",
      "assetPath": "texture/background/bg_055_ll",
      "resourcePath": "Texture/BG/bg_055_LL.png"
    },
    {
      "assetName": "",
      "assetPath": "texture/background/bg_007_ll",
      "resourcePath": "Texture/BG/bg_007_LL.png"
    },
    {
      "assetName": "",
      "assetPath": "sound/bgm/adventure/bgm_adv_general",
      "resourcePath": "Sound/BGM/bgm_adv_general.wav"
    },
    {
      "assetName": "",
      "assetPath": "sound/se/adventure/se_door_knock",
      "resourcePath": "Sound/SE/se_door_knock.wav"
    },
    {
      "assetName": "",
      "assetPath": "sound/se/adventure/se_open_door_church",
      "resourcePath": "Sound/SE/se_open_door_church.wav"
    },
    {
      "assetName": "",
      "assetPath": "sound/se/adventure/se_depression",
      "resourcePath": "Sound/SE/se_depression.wav"
    },
    {
      "assetName": "",
      "assetPath": "sound/se/adventure/se_payment",
      "resourcePath": "Sound/SE/se_payment.wav"
    },
    {
      "assetName": "",
      "assetPath": "data/adventure/scenequest/story4008/adv_400801.scenarios",
      "resourcePath": "adv_400801.scenarios.asset"
    }
  ]
}