{
  "m_GameObject": {
    "m_FileID": 0,
    "m_PathID": 0
  },
  "m_Enabled": 1,
  "m_Script": {
    "m_FileID": 0,
    "m_PathID": 8527011069456626154
  },
  "m_Name": "adv_101204_path",
  "advPathList": [
    {
      "assetName": "",
      "assetPath": "texture/character/stand/1040200_stand",
      "resourcePath": "Texture/Character/1040200_stand.asset"
    },
    {
      "assetName": "",
      "assetPath": "texture/character/stand/1030800_stand",
      "resourcePath": "Texture/Character/1030800_stand.asset"
    },
    {
      "assetName": "",
      "assetPath": "texture/character/stand/1040100_stand",
      "resourcePath": "Texture/Character/1040100_stand.asset"
    },
    {
      "assetName": "",
      "assetPath": "texture/character/stand/1011100_stand",
      "resourcePath": "Texture/Character/1011100_stand.asset"
    },
    {
      "assetName": "",
      "assetPath": "texture/character/stand/2000400_stand",
      "resourcePath": "Texture/Character/2000400_stand.asset"
    },
    {
      "assetName": "",
      "assetPath": "texture/character/stand/1020200_stand",
      "resourcePath": "Texture/Character/1020200_stand.asset"
    },
    {
      "assetName": "",
      "assetPath": "texture/character/stand/1010200_stand",
      "resourcePath": "Texture/Character/1010200_stand.asset"
    },
    {
      "assetName": "",
      "assetPath": "texture/background/bg_047_ll",
      "resourcePath": "Texture/BG/bg_047_LL.png"
    },
    {
      "assetName": "",
      "assetPath": "texture/background/bg_007_ll",
      "resourcePath": "Texture/BG/bg_007_LL.png"
    },
    {
      "assetName": "",
      "assetPath": "texture/background/bg_004_ll",
      "resourcePath": "Texture/BG/bg_004_LL.png"
    },
    {
      "assetName": "",
      "assetPath": "texture/background/bg_002_ll",
      "resourcePath": "Texture/BG/bg_002_LL.png"
    },
    {
      "assetName": "",
      "assetPath": "prefabs/effect/adventure/eff_004/eff_004",
      "resourcePath": "Particle/eff_004.prefab"
    },
    {
      "assetName": "",
      "assetPath": "sound/bgm/adventure/bgm_suspiction",
      "resourcePath": "Sound/BGM/bgm_suspiction.wav"
    },
    {
      "assetName": "",
      "assetPath": "sound/se/adventure/se_impact",
      "resourcePath": "Sound/SE/se_impact.wav"
    },
    {
      "assetName": "",
      "assetPath": "sound/se/adventure/se_sprint",
      "resourcePath": "Sound/SE/se_sprint.wav"
    },
    {
      "assetName": "",
      "assetPath": "sound/se/adventure/se_explosion",
      "resourcePath": "Sound/SE/se_explosion.wav"
    },
    {
      "assetName": "",
      "assetPath": "sound/se/adventure/se_depression",
      "resourcePath": "Sound/SE/se_depression.wav"
    },
    {
      "assetName": "",
      "assetPath": "sound/bgm/adventure/bgm_adv_general",
      "resourcePath": "Sound/BGM/bgm_adv_general.wav"
    },
    {
      "assetName": "",
      "assetPath": "sound/bgm/adventure/bgm_description",
      "resourcePath": "Sound/BGM/bgm_description.wav"
    },
    {
      "assetName": "",
      "assetPath": "data/adventure/main/story1012/adv_101204.scenarios",
      "resourcePath": "adv_101204.scenarios.asset"
    }
  ]
}