{
  "m_GameObject": {
    "m_FileID": 0,
    "m_PathID": 0
  },
  "m_Enabled": 1,
  "m_Script": {
    "m_FileID": 0,
    "m_PathID": 8527011069456626154
  },
  "m_Name": "adv_201006_path",
  "advPathList": [
    {
      "assetName": "",
      "assetPath": "texture/character/stand/1030800_stand",
      "resourcePath": "Texture/Character/1030800_stand.asset"
    },
    {
      "assetName": "",
      "assetPath": "texture/character/stand/1150200_stand",
      "resourcePath": "Texture/Character/1150200_stand.asset"
    },
    {
      "assetName": "",
      "assetPath": "texture/character/stand/1130100_stand",
      "resourcePath": "Texture/Character/1130100_stand.asset"
    },
    {
      "assetName": "",
      "assetPath": "texture/character/stand/1090300_stand",
      "resourcePath": "Texture/Character/1090300_stand.asset"
    },
    {
      "assetName": "",
      "assetPath": "texture/character/stand/1130800_stand",
      "resourcePath": "Texture/Character/1130800_stand.asset"
    },
    {
      "assetName": "",
      "assetPath": "texture/character/stand/2000900_stand",
      "resourcePath": "Texture/Character/2000900_stand.asset"
    },
    {
      "assetName": "",
      "assetPath": "texture/character/stand/1130200_stand",
      "resourcePath": "Texture/Character/1130200_stand.asset"
    },
    {
      "assetName": "",
      "assetPath": "texture/character/stand/1020100_stand",
      "resourcePath": "Texture/Character/1020100_stand.asset"
    },
    {
      "assetName": "",
      "assetPath": "texture/character/stand/1130700_stand",
      "resourcePath": "Texture/Character/1130700_stand.asset"
    },
    {
      "assetName": "",
      "assetPath": "texture/background/bg_007_ll",
      "resourcePath": "Texture/BG/bg_007_LL.png"
    },
    {
      "assetName": "",
      "assetPath": "texture/background/bg_022_ll",
      "resourcePath": "Texture/BG/bg_022_LL.png"
    },
    {
      "assetName": "",
      "assetPath": "texture/background/bg_021_ll",
      "resourcePath": "Texture/BG/bg_021_LL.png"
    },
    {
      "assetName": "",
      "assetPath": "sound/bgm/adventure/bgm_pinch",
      "resourcePath": "Sound/BGM/bgm_pinch.wav"
    },
    {
      "assetName": "",
      "assetPath": "sound/bgm/adventure/bgm_suspiction",
      "resourcePath": "Sound/BGM/bgm_suspiction.wav"
    },
    {
      "assetName": "",
      "assetPath": "sound/bgm/adventure/bgm_nepgia_thema",
      "resourcePath": "Sound/BGM/bgm_nepgia_thema.wav"
    },
    {
      "assetName": "",
      "assetPath": "sound/se/adventure/se_fusion",
      "resourcePath": "Sound/SE/se_fusion.wav"
    },
    {
      "assetName": "",
      "assetPath": "data/adventure/event/story2010/adv_201006.scenarios",
      "resourcePath": "adv_201006.scenarios.asset"
    }
  ]
}