{
  "m_GameObject": {
    "m_FileID": 0,
    "m_PathID": 0
  },
  "m_Enabled": 1,
  "m_Script": {
    "m_FileID": 0,
    "m_PathID": -2195584510539435343
  },
  "m_Name": "adv_100105.book",
  "importVersion": 0,
  "importGridList": [
    {
      "rows": [
        {
          "rowIndex": 0,
          "strings": [
            "Command",
            "Arg1",
            "Arg2",
            "Arg3",
            "Arg4",
            "Arg5",
            "Arg6",
            "WaitType",
            "Text",
            "PageCtrl",
            "Voice",
            "WindowType"
          ],
          "isEmpty": 0,
          "isCommentOut": 0
        },
        {
          "rowIndex": 1,
          "strings": [
            "Bgm",
            "超次元プラネテューヌのテーマ",
            "",
            "",
            "",
            "",
            "",
            "",
            "",
            "",
            "",
            ""
          ],
          "isEmpty": 0,
          "isCommentOut": 0
        },
        {
          "rowIndex": 2,
          "strings": [
            "FadeOut",
            "black",
            "",
            "",
            "",
            "",
            "0",
            "",
            "",
            "",
            "",
            ""
          ],
          "isEmpty": 0,
          "isCommentOut": 0
        },
        {
          "rowIndex": 3,
          "strings": [
            "Bg",
            "背景(教会内部)",
            "",
            "",
            "",
            "",
            "",
            "",
            "",
            "",
            "",
            ""
          ],
          "isEmpty": 0,
          "isCommentOut": 0
        },
        {
          "rowIndex": 4,
          "strings": [
            "Wait",
            "",
            "",
            "",
            "",
            "",
            ".3",
            "",
            "",
            "",
            "",
            ""
          ],
          "isEmpty": 0,
          "isCommentOut": 0
        },
        {
          "rowIndex": 5,
          "strings": [
            "FadeIn",
            "black",
            "",
            "",
            "",
            "",
            "1",
            "",
            "",
            "",
            "",
            ""
          ],
          "isEmpty": 0,
          "isCommentOut": 0
        },
        {
          "rowIndex": 6,
          "strings": [
            "",
            "イストワール",
            "目閉じ",
            "キャラ左",
            "",
            "",
            "",
            "",
            "",
            "",
            "",
            ""
          ],
          "isEmpty": 0,
          "isCommentOut": 0
        },
        {
          "rowIndex": 7,
          "strings": [
            "",
            "クロワール",
            "",
            "キャラ右",
            "",
            "",
            "",
            "",
            "",
            "",
            "",
            ""
          ],
          "isEmpty": 0,
          "isCommentOut": 0
        },
        {
          "rowIndex": 8,
          "strings": [
            "",
            "イストワール",
            "目閉じ",
            "キャラ左",
            "",
            "",
            "",
            "",
            "つまり……\r\nあなた方は別の次元から来た、と",
            "",
            "",
            ""
          ],
          "isEmpty": 0,
          "isCommentOut": 0
        },
        {
          "rowIndex": 9,
          "strings": [
            "",
            "イストワール",
            "通常",
            "キャラ左",
            "",
            "",
            ".2",
            "",
            "そして、<param=player_name>さんの、\n失われた記憶を求めて旅をなさっている",
            "",
            "",
            ""
          ],
          "isEmpty": 0,
          "isCommentOut": 0
        },
        {
          "rowIndex": 10,
          "strings": [
            "",
            "クロワール",
            "",
            "キャラ右",
            "",
            "",
            "",
            "",
            "そういうことになるな",
            "",
            "",
            ""
          ],
          "isEmpty": 0,
          "isCommentOut": 0
        },
        {
          "rowIndex": 11,
          "strings": [
            "",
            "イストワール",
            "目閉じ",
            "キャラ左",
            "",
            "",
            ".2",
            "",
            "なるほど、事情は分かりました",
            "",
            "",
            ""
          ],
          "isEmpty": 0,
          "isCommentOut": 0
        },
        {
          "rowIndex": 12,
          "strings": [
            "",
            "イストワール",
            "真剣",
            "キャラ左",
            "",
            "",
            ".2",
            "",
            "それにしても、まさか、わたしと同じような\r\n歴史を記録する方と出会えるなんて驚きです",
            "",
            "",
            ""
          ],
          "isEmpty": 0,
          "isCommentOut": 0
        },
        {
          "rowIndex": 13,
          "strings": [
            "",
            "クロワール",
            "悲しみ",
            "キャラ右",
            "",
            "",
            ".2",
            "",
            "ま、今はあいつらの子守役みたいになっちまったがな",
            "",
            "",
            ""
          ],
          "isEmpty": 0,
          "isCommentOut": 0
        },
        {
          "rowIndex": 14,
          "strings": [
            "CharacterOff",
            "",
            "",
            "",
            "",
            "",
            ".5",
            "",
            "",
            "",
            "",
            ""
          ],
          "isEmpty": 0,
          "isCommentOut": 0
        },
        {
          "rowIndex": 15,
          "strings": [
            "Se",
            "ピコピコ音",
            "",
            "",
            "",
            "",
            "",
            "",
            "",
            "",
            "",
            ""
          ],
          "isEmpty": 0,
          "isCommentOut": 0
        },
        {
          "rowIndex": 16,
          "strings": [
            "Wait",
            "",
            "",
            "",
            "",
            "",
            "1",
            "",
            "",
            "",
            "",
            ""
          ],
          "isEmpty": 0,
          "isCommentOut": 0
        },
        {
          "rowIndex": 17,
          "strings": [
            "",
            "ネプテューヌ",
            "",
            "キャラ左",
            "",
            "",
            "",
            "",
            "",
            "",
            "",
            ""
          ],
          "isEmpty": 0,
          "isCommentOut": 0
        },
        {
          "rowIndex": 18,
          "strings": [
            "",
            "大人ネプテューヌ",
            "",
            "キャラ右",
            "",
            "",
            "",
            "",
            "",
            "",
            "",
            ""
          ],
          "isEmpty": 0,
          "isCommentOut": 0
        },
        {
          "rowIndex": 19,
          "strings": [
            "",
            "ネプテューヌ",
            "悲しみ",
            "キャラ左",
            "",
            "",
            "",
            "",
            "わーっ、ここで赤甲羅！？\r\n１位取られたー！",
            "",
            "",
            ""
          ],
          "isEmpty": 0,
          "isCommentOut": 0
        },
        {
          "rowIndex": 20,
          "strings": [
            "",
            "ネプテューヌ(大)",
            "<Character=大人ネプテューヌ>笑い",
            "キャラ右",
            "",
            "",
            ".2",
            "",
            "ふふーんっ、この時のために温存しておいたんだー",
            "",
            "",
            ""
          ],
          "isEmpty": 0,
          "isCommentOut": 0
        },
        {
          "rowIndex": 21,
          "strings": [
            "",
            "ネプテューヌ",
            "真剣",
            "キャラ左",
            "",
            "",
            ".2",
            "",
            "ぐぬぬっ……！　こっちも反撃！\r",
            "Br",
            "",
            ""
          ],
          "isEmpty": 0,
          "isCommentOut": 0
        },
        {
          "rowIndex": 22,
          "strings": [
            "Wait",
            "",
            "",
            "",
            "",
            "",
            ".3",
            "",
            "",
            "",
            "",
            ""
          ],
          "isEmpty": 0,
          "isCommentOut": 0
        },
        {
          "rowIndex": 23,
          "strings": [
            "",
            "ネプテューヌ",
            "固有",
            "キャラ左",
            "",
            "",
            ".2",
            "",
            "……ちぇ、なんだバナナか",
            "",
            "",
            ""
          ],
          "isEmpty": 0,
          "isCommentOut": 0
        },
        {
          "rowIndex": 24,
          "strings": [
            "",
            "",
            "",
            "",
            "",
            "",
            "",
            "",
            "ぽいっ",
            "Input",
            "",
            ""
          ],
          "isEmpty": 0,
          "isCommentOut": 0
        },
        {
          "rowIndex": 25,
          "strings": [
            "HideMenuButton",
            "",
            "",
            "",
            "",
            "",
            "",
            "",
            "",
            "",
            "",
            ""
          ],
          "isEmpty": 0,
          "isCommentOut": 0
        },
        {
          "rowIndex": 26,
          "strings": [
            "Selection",
            "*case01-05-1",
            "",
            "",
            "",
            "0",
            "300",
            "",
            "「バナナがー！？」",
            "",
            "",
            ""
          ],
          "isEmpty": 0,
          "isCommentOut": 0
        },
        {
          "rowIndex": 27,
          "strings": [
            "*case01-05-1",
            "",
            "",
            "",
            "",
            "",
            "",
            "",
            "",
            "",
            "",
            ""
          ],
          "isEmpty": 0,
          "isCommentOut": 0
        },
        {
          "rowIndex": 28,
          "strings": [
            "ShowMenuButton",
            "",
            "",
            "",
            "",
            "",
            "",
            "",
            "",
            "",
            "",
            ""
          ],
          "isEmpty": 0,
          "isCommentOut": 0
        },
        {
          "rowIndex": 29,
          "strings": [
            "CharacterOff",
            "",
            "",
            "",
            "",
            "",
            ".5",
            "",
            "",
            "",
            "",
            ""
          ],
          "isEmpty": 0,
          "isCommentOut": 0
        },
        {
          "rowIndex": 30,
          "strings": [
            "",
            "ネプギア",
            "",
            "キャラ中央",
            "",
            "",
            "",
            "",
            "",
            "",
            "",
            ""
          ],
          "isEmpty": 0,
          "isCommentOut": 0
        },
        {
          "rowIndex": 31,
          "strings": [
            "",
            "クロワール",
            "",
            "キャラ右",
            "",
            "",
            "",
            "",
            "",
            "",
            "",
            ""
          ],
          "isEmpty": 0,
          "isCommentOut": 0
        },
        {
          "rowIndex": 32,
          "strings": [
            "",
            "イストワール",
            "",
            "キャラ左",
            "",
            "",
            "",
            "",
            "",
            "",
            "",
            ""
          ],
          "isEmpty": 0,
          "isCommentOut": 0
        },
        {
          "rowIndex": 33,
          "strings": [
            "",
            "ネプギア",
            "笑い",
            "キャラ中央",
            "",
            "",
            "",
            "",
            "お姉ちゃんたち、楽しそう",
            "",
            "",
            ""
          ],
          "isEmpty": 0,
          "isCommentOut": 0
        },
        {
          "rowIndex": 34,
          "strings": [
            "",
            "クロワール",
            "真剣",
            "キャラ右",
            "",
            "",
            "",
            "",
            "そういやネプギアは、なんで女神化しなかったんだ？",
            "",
            "",
            ""
          ],
          "isEmpty": 0,
          "isCommentOut": 0
        },
        {
          "rowIndex": 35,
          "strings": [
            "",
            "ネプギア",
            "通常",
            "キャラ中央",
            "",
            "",
            ".2",
            "",
            "え……？",
            "",
            "",
            ""
          ],
          "isEmpty": 0,
          "isCommentOut": 0
        },
        {
          "rowIndex": 36,
          "strings": [
            "",
            "イストワール",
            "固有",
            "キャラ左",
            "",
            "",
            "",
            "",
            "ネプテューヌさんはともかく、\r\nネプギアさんはまだ女神化の経験はありませんよ？",
            "",
            "",
            ""
          ],
          "isEmpty": 0,
          "isCommentOut": 0
        },
        {
          "rowIndex": 37,
          "strings": [
            "",
            "クロワール",
            "固有",
            "キャラ右",
            "",
            "",
            ".2",
            "",
            "わ、やべ",
            "",
            "",
            ""
          ],
          "isEmpty": 0,
          "isCommentOut": 0
        },
        {
          "rowIndex": 38,
          "strings": [
            "",
            "ネプギア",
            "固有",
            "キャラ中央",
            "",
            "",
            ".2",
            "",
            "わ、わたし、女神化できるんですか！？",
            "",
            "",
            ""
          ],
          "isEmpty": 0,
          "isCommentOut": 0
        },
        {
          "rowIndex": 39,
          "strings": [
            "",
            "クロワール",
            "悲しみ",
            "キャラ右",
            "",
            "",
            ".2",
            "",
            "や、えーと……さ、さて、どうだったかなー？",
            "",
            "",
            ""
          ],
          "isEmpty": 0,
          "isCommentOut": 0
        },
        {
          "rowIndex": 40,
          "strings": [
            "",
            "ネプギア",
            "悲しみ",
            "キャラ中央",
            "",
            "",
            ".2",
            "",
            "女神候補生なので、いつかきっと、\r\nとは信じてるんですが……",
            "",
            "",
            ""
          ],
          "isEmpty": 0,
          "isCommentOut": 0
        },
        {
          "rowIndex": 41,
          "strings": [
            "",
            "クロワール",
            "悲しみ",
            "キャラ右",
            "",
            "",
            "",
            "",
            "え、えーっと……まあ、そのなんだ、\r\n信じていれば、いつかはなれるんじゃねーの",
            "",
            "",
            ""
          ],
          "isEmpty": 0,
          "isCommentOut": 0
        },
        {
          "rowIndex": 42,
          "strings": [
            "",
            "ネプギア",
            "笑い",
            "キャラ中央",
            "",
            "",
            ".2",
            "",
            "本当ですか！　嬉しいですっ\r\nその日を信じて、これからも頑張ります！",
            "",
            "",
            ""
          ],
          "isEmpty": 0,
          "isCommentOut": 0
        },
        {
          "rowIndex": 43,
          "strings": [
            "",
            "クロワール",
            "悲しみ",
            "キャラ右",
            "",
            "",
            "",
            "",
            "あ、ああ……がんばれよー……",
            "",
            "",
            ""
          ],
          "isEmpty": 0,
          "isCommentOut": 0
        },
        {
          "rowIndex": 44,
          "strings": [
            "",
            "ネプテューヌ(大)",
            "<Character=大人ネプテューヌ>笑い",
            "キャラ中央",
            "",
            "",
            "",
            "",
            "あー、勝った勝った。今夜はトンカツだね！",
            "",
            "",
            ""
          ],
          "isEmpty": 0,
          "isCommentOut": 0
        },
        {
          "rowIndex": 45,
          "strings": [
            "",
            "ネプテューヌ(大)",
            "<Character=大人ネプテューヌ>通常",
            "キャラ中央",
            "",
            "",
            ".2",
            "",
            "そういえば、さっきマジェコン商人って言ってたけど、\r\nどうしてそんな人が教会にいたの？",
            "",
            "",
            ""
          ],
          "isEmpty": 0,
          "isCommentOut": 0
        },
        {
          "rowIndex": 46,
          "strings": [
            "Wait",
            "",
            "",
            "",
            "",
            "",
            ".5",
            "",
            "",
            "",
            "",
            ""
          ],
          "isEmpty": 0,
          "isCommentOut": 0
        },
        {
          "rowIndex": 47,
          "strings": [
            "Bgm",
            "状況説明",
            "",
            "",
            "",
            "",
            "",
            "",
            "",
            "",
            "",
            ""
          ],
          "isEmpty": 0,
          "isCommentOut": 0
        },
        {
          "rowIndex": 48,
          "strings": [
            "",
            "イストワール",
            "真剣",
            "キャラ左",
            "",
            "",
            "",
            "",
            "それが……実は最近、この国にマジェコンと呼ばれる\r\n機器が密かに販売されていることに関係しているんです",
            "",
            "",
            ""
          ],
          "isEmpty": 0,
          "isCommentOut": 0
        },
        {
          "rowIndex": 49,
          "strings": [
            "",
            "イストワール",
            "真剣",
            "キャラ左",
            "",
            "",
            "",
            "",
            "大人や子どもたちが、次々と違法なマジェコンに\r\n手を出していってしまって……",
            "",
            "",
            ""
          ],
          "isEmpty": 0,
          "isCommentOut": 0
        },
        {
          "rowIndex": 50,
          "strings": [
            "",
            "イストワール",
            "真剣",
            "キャラ左",
            "",
            "",
            "",
            "",
            "このプラネテューヌでは女神ではなく、そちらを\r\n信仰する方が増えてきて問題になっているんです",
            "",
            "",
            ""
          ],
          "isEmpty": 0,
          "isCommentOut": 0
        },
        {
          "rowIndex": 51,
          "strings": [
            "",
            "イストワール",
            "悲しみ",
            "キャラ左",
            "",
            "",
            ".2",
            "",
            "そのせいで、徐々にですがシェアが減ってきて、\r\nネプテューヌさんの力が少しずつ弱まっていまして",
            "",
            "",
            ""
          ],
          "isEmpty": 0,
          "isCommentOut": 0
        },
        {
          "rowIndex": 52,
          "strings": [
            "",
            "ネプテューヌ(大)",
            "<Character=大人ネプテューヌ>",
            "キャラ中央",
            "",
            "",
            "",
            "",
            "なんでそんなことするの？",
            "",
            "",
            ""
          ],
          "isEmpty": 0,
          "isCommentOut": 0
        },
        {
          "rowIndex": 53,
          "strings": [
            "",
            "イストワール",
            "悲しみ",
            "キャラ左",
            "",
            "",
            "",
            "",
            "正確には分かりませんが、マジェコン商人さんたちの\r\n言葉から察するに、ですけど……",
            "",
            "",
            ""
          ],
          "isEmpty": 0,
          "isCommentOut": 0
        },
        {
          "rowIndex": 54,
          "strings": [
            "",
            "イストワール",
            "真剣",
            "キャラ左",
            "",
            "",
            ".2",
            "",
            "ネプテューヌさんを弱体化させる事でわたしを\n捕獲する成功率を上げようとしているのでしょう",
            "",
            "",
            ""
          ],
          "isEmpty": 0,
          "isCommentOut": 0
        },
        {
          "rowIndex": 55,
          "strings": [
            "",
            "クロワール",
            "真剣",
            "キャラ右",
            "",
            "",
            ".2",
            "",
            "なるほどな",
            "",
            "",
            ""
          ],
          "isEmpty": 0,
          "isCommentOut": 0
        },
        {
          "rowIndex": 56,
          "strings": [
            "",
            "イストワール",
            "悲しみ",
            "キャラ左",
            "",
            "",
            ".2",
            "",
            "それにしても、困りましたね。\r\nこれからもっと活動が活発になると……",
            "",
            "",
            ""
          ],
          "isEmpty": 0,
          "isCommentOut": 0
        },
        {
          "rowIndex": 57,
          "strings": [
            "",
            "クロワール",
            "",
            "キャラ右",
            "",
            "",
            "",
            "",
            "なにか他に問題があるのか？",
            "",
            "",
            ""
          ],
          "isEmpty": 0,
          "isCommentOut": 0
        },
        {
          "rowIndex": 58,
          "strings": [
            "",
            "イストワール",
            "悲しみ",
            "キャラ左",
            "",
            "",
            ".2",
            "",
            "それは……",
            "",
            "",
            ""
          ],
          "isEmpty": 0,
          "isCommentOut": 0
        },
        {
          "rowIndex": 59,
          "strings": [
            "",
            "イストワール",
            "真剣",
            "キャラ左",
            "",
            "",
            ".2",
            "",
            "いえ、みなさんにはちゃんとお伝えしておいた方が\r\nよいかもしれませんね",
            "",
            "",
            ""
          ],
          "isEmpty": 0,
          "isCommentOut": 0
        },
        {
          "rowIndex": 60,
          "strings": [
            "Bgm",
            "疑惑",
            "",
            "",
            "",
            "",
            "",
            "",
            "",
            "",
            "",
            ""
          ],
          "isEmpty": 0,
          "isCommentOut": 0
        },
        {
          "rowIndex": 61,
          "strings": [
            "Wait",
            "",
            "",
            "",
            "",
            "",
            ".5",
            "",
            "",
            "",
            "",
            ""
          ],
          "isEmpty": 0,
          "isCommentOut": 0
        },
        {
          "rowIndex": 62,
          "strings": [
            "",
            "イストワール",
            "真剣",
            "キャラ左",
            "",
            "",
            "",
            "",
            "実は、ネプテューヌさんを含め、各国の守護女神は\r\n現在女神化することが出来ない状況にあるのです",
            "",
            "",
            ""
          ],
          "isEmpty": 0,
          "isCommentOut": 0
        },
        {
          "rowIndex": 63,
          "strings": [
            "FadeOut",
            "black",
            "",
            "",
            "",
            "",
            "1",
            "",
            "",
            "",
            "",
            ""
          ],
          "isEmpty": 0,
          "isCommentOut": 0
        },
        {
          "rowIndex": 64,
          "strings": [
            "Wait",
            "",
            "",
            "",
            "",
            "",
            ".3",
            "",
            "",
            "",
            "",
            ""
          ],
          "isEmpty": 0,
          "isCommentOut": 0
        },
        {
          "rowIndex": 65,
          "strings": [
            "EndScenario",
            "",
            "",
            "",
            "",
            "",
            "",
            "",
            "",
            "",
            "",
            ""
          ],
          "isEmpty": 0,
          "isCommentOut": 0
        },
        {
          "rowIndex": 66,
          "strings": [
            "FadeOut",
            "black",
            "",
            "",
            "",
            "",
            "1",
            "",
            ""
          ],
          "isEmpty": 0,
          "isCommentOut": 0
        },
        {
          "rowIndex": 67,
          "strings": [
            "Wait",
            "",
            "",
            "",
            "",
            "",
            ".3",
            "",
            ""
          ],
          "isEmpty": 0,
          "isCommentOut": 0
        },
        {
          "rowIndex": 68,
          "strings": [
            "EndScenario"
          ],
          "isEmpty": 0,
          "isCommentOut": 0
        }
      ],
      "name": "Assets/BundleResources/Data/Adventure/Main/Story1001/adv_100105.xls:100105",
      "type": 1,
      "textLength": 1920,
      "headerRow": 0,
      "entityIndexTbl": [],
      "entityDataList": []
    }
  ]
}