{
  "m_GameObject": {
    "m_FileID": 0,
    "m_PathID": 0
  },
  "m_Enabled": 1,
  "m_Script": {
    "m_FileID": 0,
    "m_PathID": 8527011069456626154
  },
  "m_Name": "adv_101402_path",
  "advPathList": [
    {
      "assetName": "",
      "assetPath": "texture/character/stand/1040100_stand",
      "resourcePath": "Texture/Character/1040100_stand.asset"
    },
    {
      "assetName": "",
      "assetPath": "texture/character/stand/1040200_stand",
      "resourcePath": "Texture/Character/1040200_stand.asset"
    },
    {
      "assetName": "",
      "assetPath": "texture/character/stand/1020200_stand",
      "resourcePath": "Texture/Character/1020200_stand.asset"
    },
    {
      "assetName": "",
      "assetPath": "texture/character/stand/1030800_stand",
      "resourcePath": "Texture/Character/1030800_stand.asset"
    },
    {
      "assetName": "",
      "assetPath": "texture/character/stand/1010200_stand",
      "resourcePath": "Texture/Character/1010200_stand.asset"
    },
    {
      "assetName": "",
      "assetPath": "texture/character/stand/1012200_stand",
      "resourcePath": "Texture/Character/1012200_stand.asset"
    },
    {
      "assetName": "",
      "assetPath": "texture/character/stand/1011100_stand",
      "resourcePath": "Texture/Character/1011100_stand.asset"
    },
    {
      "assetName": "",
      "assetPath": "texture/character/stand/2000400_stand",
      "resourcePath": "Texture/Character/2000400_stand.asset"
    },
    {
      "assetName": "",
      "assetPath": "texture/character/stand/3000800_stand",
      "resourcePath": "Texture/Character/3000800_stand.asset"
    },
    {
      "assetName": "",
      "assetPath": "texture/character/stand/3000900_stand",
      "resourcePath": "Texture/Character/3000900_stand.asset"
    },
    {
      "assetName": "",
      "assetPath": "texture/background/bg_089_ll",
      "resourcePath": "Texture/BG/bg_089_LL.png"
    },
    {
      "assetName": "",
      "assetPath": "texture/background/bg_007_ll",
      "resourcePath": "Texture/BG/bg_007_LL.png"
    },
    {
      "assetName": "",
      "assetPath": "prefabs/effect/adventure/eff_040/eff_040",
      "resourcePath": "Particle/eff_040.prefab"
    },
    {
      "assetName": "",
      "assetPath": "sound/bgm/adventure/bgm_bright",
      "resourcePath": "Sound/BGM/bgm_bright.wav"
    },
    {
      "assetName": "",
      "assetPath": "sound/se/adventure/se_depression",
      "resourcePath": "Sound/SE/se_depression.wav"
    },
    {
      "assetName": "",
      "assetPath": "sound/bgm/adventure/bgm_suspiction",
      "resourcePath": "Sound/BGM/bgm_suspiction.wav"
    },
    {
      "assetName": "",
      "assetPath": "sound/bgm/adventure/bgm_comical",
      "resourcePath": "Sound/BGM/bgm_comical.wav"
    },
    {
      "assetName": "",
      "assetPath": "sound/bgm/adventure/bgm_unrest",
      "resourcePath": "Sound/BGM/bgm_unrest.wav"
    },
    {
      "assetName": "",
      "assetPath": "sound/se/adventure/se_call_end",
      "resourcePath": "Sound/SE/se_call_end.wav"
    },
    {
      "assetName": "",
      "assetPath": "sound/se/adventure/se_spark",
      "resourcePath": "Sound/SE/se_spark.wav"
    },
    {
      "assetName": "",
      "assetPath": "sound/se/adventure/se_bug",
      "resourcePath": "Sound/SE/se_bug.wav"
    },
    {
      "assetName": "",
      "assetPath": "sound/se/adventure/se_noise_connect",
      "resourcePath": "Sound/SE/se_noise_connect.wav"
    },
    {
      "assetName": "",
      "assetPath": "sound/bgm/adventure/bgm_ultra_dimension",
      "resourcePath": "Sound/BGM/bgm_ultra_dimension.wav"
    },
    {
      "assetName": "",
      "assetPath": "sound/se/adventure/se_cheers",
      "resourcePath": "Sound/SE/se_cheers.wav"
    },
    {
      "assetName": "",
      "assetPath": "sound/se/adventure/se_footstep",
      "resourcePath": "Sound/SE/se_footstep.wav"
    },
    {
      "assetName": "",
      "assetPath": "sound/se/adventure/se_grab",
      "resourcePath": "Sound/SE/se_grab.wav"
    },
    {
      "assetName": "",
      "assetPath": "sound/bgm/adventure/bgm_description",
      "resourcePath": "Sound/BGM/bgm_description.wav"
    },
    {
      "assetName": "",
      "assetPath": "data/adventure/main/story1014/adv_101402.scenarios",
      "resourcePath": "adv_101402.scenarios.asset"
    }
  ]
}