{
  "m_GameObject": {
    "m_FileID": 0,
    "m_PathID": 0
  },
  "m_Enabled": 1,
  "m_Script": {
    "m_FileID": 0,
    "m_PathID": 8527011069456626154
  },
  "m_Name": "adv_101401_path",
  "advPathList": [
    {
      "assetName": "",
      "assetPath": "texture/character/stand/1021500_stand",
      "resourcePath": "Texture/Character/1021500_stand.asset"
    },
    {
      "assetName": "",
      "assetPath": "texture/character/stand/1010200_stand",
      "resourcePath": "Texture/Character/1010200_stand.asset"
    },
    {
      "assetName": "",
      "assetPath": "texture/character/stand/1012200_stand",
      "resourcePath": "Texture/Character/1012200_stand.asset"
    },
    {
      "assetName": "",
      "assetPath": "texture/character/stand/1040100_stand",
      "resourcePath": "Texture/Character/1040100_stand.asset"
    },
    {
      "assetName": "",
      "assetPath": "texture/character/stand/1040200_stand",
      "resourcePath": "Texture/Character/1040200_stand.asset"
    },
    {
      "assetName": "",
      "assetPath": "texture/character/stand/1030800_stand",
      "resourcePath": "Texture/Character/1030800_stand.asset"
    },
    {
      "assetName": "",
      "assetPath": "texture/background/bg_089_ll",
      "resourcePath": "Texture/BG/bg_089_LL.png"
    },
    {
      "assetName": "",
      "assetPath": "texture/background/bg_007_ll",
      "resourcePath": "Texture/BG/bg_007_LL.png"
    },
    {
      "assetName": "",
      "assetPath": "sound/bgm/adventure/bgm_adv_general",
      "resourcePath": "Sound/BGM/bgm_adv_general.wav"
    },
    {
      "assetName": "",
      "assetPath": "sound/se/adventure/se_depression",
      "resourcePath": "Sound/SE/se_depression.wav"
    },
    {
      "assetName": "",
      "assetPath": "sound/bgm/adventure/bgm_bright",
      "resourcePath": "Sound/BGM/bgm_bright.wav"
    },
    {
      "assetName": "",
      "assetPath": "sound/se/adventure/se_concert_buzz",
      "resourcePath": "Sound/SE/se_concert_buzz.wav"
    },
    {
      "assetName": "",
      "assetPath": "sound/bgm/adventure/bgm_nervous",
      "resourcePath": "Sound/BGM/bgm_nervous.wav"
    },
    {
      "assetName": "",
      "assetPath": "sound/bgm/adventure/bgm_comical",
      "resourcePath": "Sound/BGM/bgm_comical.wav"
    },
    {
      "assetName": "",
      "assetPath": "data/adventure/main/story1014/adv_101401.scenarios",
      "resourcePath": "adv_101401.scenarios.asset"
    }
  ]
}