{
  "m_GameObject": {
    "m_FileID": 0,
    "m_PathID": 443305769844554923
  },
  "m_Enabled": 1,
  "m_Script": {
    "m_FileID": 0,
    "m_PathID": -1247748226983267122
  },
  "m_Name": "",
  "TableMaterial": [
    {
      "m_FileID": 0,
      "m_PathID": 1788137415607391260
    },
    {
      "m_FileID": 0,
      "m_PathID": -7016134181843137963
    },
    {
      "m_FileID": 0,
      "m_PathID": -8398887718722904953
    },
    {
      "m_FileID": 0,
      "m_PathID": 3400535340148247024
    },
    {
      "m_FileID": 0,
      "m_PathID": 1414349828544543503
    },
    {
      "m_FileID": 0,
      "m_PathID": -4477541458627731292
    },
    {
      "m_FileID": 0,
      "m_PathID": -3738112047357671552
    },
    {
      "m_FileID": 0,
      "m_PathID": 3129859684843212745
    },
    {
      "m_FileID": 0,
      "m_PathID": 8686445880568586911
    },
    {
      "m_FileID": 0,
      "m_PathID": 1814445751755659683
    },
    {
      "m_FileID": 0,
      "m_PathID": -242991722227833448
    },
    {
      "m_FileID": 0,
      "m_PathID": 1520553144447155074
    },
    {
      "m_FileID": 0,
      "m_PathID": 1900578865358132916
    },
    {
      "m_FileID": 0,
      "m_PathID": -4526233374117531224
    },
    {
      "m_FileID": 0,
      "m_PathID": 3416531551759921286
    },
    {
      "m_FileID": 0,
      "m_PathID": -2385109975332998282
    },
    {
      "m_FileID": 0,
      "m_PathID": 5107510238569181043
    },
    {
      "m_FileID": 0,
      "m_PathID": -5072978347330837865
    },
    {
      "m_FileID": 0,
      "m_PathID": 8983484664237502809
    },
    {
      "m_FileID": 0,
      "m_PathID": 8876618240196930868
    }
  ],
  "DataCellMap": {
    "m_FileID": 0,
    "m_PathID": -1859682751392826693
  },
  "InstanceRootParent": {
    "m_FileID": 0,
    "m_PathID": 0
  },
  "InstanceGameObjectControl": {
    "m_FileID": 0,
    "m_PathID": 0
  },
  "FlagHideForce": 0,
  "DataAnimation": {
    "m_FileID": 0,
    "m_PathID": 482193341277378117
  },
  "LimitTrack": 0,
  "TableInformationPlay": [
    {
      "DataAnimation": {
        "m_FileID": 0,
        "m_PathID": 0
      },
      "FlagSetInitial": 1,
      "FlagStopInitial": 0,
      "NameAnimation": "atk_blade_1",
      "FlagPingPong": 0,
      "LabelStart": "",
      "FrameOffsetStart": 0,
      "LabelEnd": "",
      "FrameOffsetEnd": 0,
      "Frame": 0,
      "TimesPlay": 0,
      "RateTime": 1.0
    }
  ],
  "TableControlParts": [
    {
      "InstanceGameObject": {
        "m_FileID": 0,
        "m_PathID": 443305769844554923
      },
      "PrefabUnderControl": {
        "m_FileID": 0,
        "m_PathID": 0
      },
      "InstanceGameObjectUnderControl": {
        "m_FileID": 0,
        "m_PathID": 0
      },
      "InstanceScriptCollider": {
        "m_FileID": 0,
        "m_PathID": 0
      }
    },
    {
      "InstanceGameObject": {
        "m_FileID": 0,
        "m_PathID": 6276081735813348877
      },
      "PrefabUnderControl": {
        "m_FileID": 0,
        "m_PathID": 0
      },
      "InstanceGameObjectUnderControl": {
        "m_FileID": 0,
        "m_PathID": 0
      },
      "InstanceScriptCollider": {
        "m_FileID": 0,
        "m_PathID": 0
      }
    },
    {
      "InstanceGameObject": {
        "m_FileID": 0,
        "m_PathID": -4125996376125033998
      },
      "PrefabUnderControl": {
        "m_FileID": 0,
        "m_PathID": 0
      },
      "InstanceGameObjectUnderControl": {
        "m_FileID": 0,
        "m_PathID": 0
      },
      "InstanceScriptCollider": {
        "m_FileID": 0,
        "m_PathID": 0
      }
    },
    {
      "InstanceGameObject": {
        "m_FileID": 0,
        "m_PathID": 7910061646951344433
      },
      "PrefabUnderControl": {
        "m_FileID": 0,
        "m_PathID": 0
      },
      "InstanceGameObjectUnderControl": {
        "m_FileID": 0,
        "m_PathID": 0
      },
      "InstanceScriptCollider": {
        "m_FileID": 0,
        "m_PathID": 0
      }
    },
    {
      "InstanceGameObject": {
        "m_FileID": 0,
        "m_PathID": -4172370738092983762
      },
      "PrefabUnderControl": {
        "m_FileID": 0,
        "m_PathID": 0
      },
      "InstanceGameObjectUnderControl": {
        "m_FileID": 0,
        "m_PathID": 0
      },
      "InstanceScriptCollider": {
        "m_FileID": 0,
        "m_PathID": 0
      }
    },
    {
      "InstanceGameObject": {
        "m_FileID": 0,
        "m_PathID": -5322613647082070938
      },
      "PrefabUnderControl": {
        "m_FileID": 0,
        "m_PathID": 0
      },
      "InstanceGameObjectUnderControl": {
        "m_FileID": 0,
        "m_PathID": 0
      },
      "InstanceScriptCollider": {
        "m_FileID": 0,
        "m_PathID": 0
      }
    },
    {
      "InstanceGameObject": {
        "m_FileID": 0,
        "m_PathID": -113537965851909835
      },
      "PrefabUnderControl": {
        "m_FileID": 0,
        "m_PathID": 0
      },
      "InstanceGameObjectUnderControl": {
        "m_FileID": 0,
        "m_PathID": 0
      },
      "InstanceScriptCollider": {
        "m_FileID": 0,
        "m_PathID": 0
      }
    },
    {
      "InstanceGameObject": {
        "m_FileID": 0,
        "m_PathID": -3375039117836862552
      },
      "PrefabUnderControl": {
        "m_FileID": 0,
        "m_PathID": 0
      },
      "InstanceGameObjectUnderControl": {
        "m_FileID": 0,
        "m_PathID": 0
      },
      "InstanceScriptCollider": {
        "m_FileID": 0,
        "m_PathID": 0
      }
    },
    {
      "InstanceGameObject": {
        "m_FileID": 0,
        "m_PathID": 4663758312067260810
      },
      "PrefabUnderControl": {
        "m_FileID": 0,
        "m_PathID": 0
      },
      "InstanceGameObjectUnderControl": {
        "m_FileID": 0,
        "m_PathID": 0
      },
      "InstanceScriptCollider": {
        "m_FileID": 0,
        "m_PathID": 0
      }
    },
    {
      "InstanceGameObject": {
        "m_FileID": 0,
        "m_PathID": 721136760892648740
      },
      "PrefabUnderControl": {
        "m_FileID": 0,
        "m_PathID": 0
      },
      "InstanceGameObjectUnderControl": {
        "m_FileID": 0,
        "m_PathID": 0
      },
      "InstanceScriptCollider": {
        "m_FileID": 0,
        "m_PathID": 0
      }
    },
    {
      "InstanceGameObject": {
        "m_FileID": 0,
        "m_PathID": 5769580678037857494
      },
      "PrefabUnderControl": {
        "m_FileID": 0,
        "m_PathID": 0
      },
      "InstanceGameObjectUnderControl": {
        "m_FileID": 0,
        "m_PathID": 0
      },
      "InstanceScriptCollider": {
        "m_FileID": 0,
        "m_PathID": 0
      }
    },
    {
      "InstanceGameObject": {
        "m_FileID": 0,
        "m_PathID": 876430897617060011
      },
      "PrefabUnderControl": {
        "m_FileID": 0,
        "m_PathID": 0
      },
      "InstanceGameObjectUnderControl": {
        "m_FileID": 0,
        "m_PathID": 0
      },
      "InstanceScriptCollider": {
        "m_FileID": 0,
        "m_PathID": 0
      }
    },
    {
      "InstanceGameObject": {
        "m_FileID": 0,
        "m_PathID": -6257510249518012809
      },
      "PrefabUnderControl": {
        "m_FileID": 0,
        "m_PathID": 0
      },
      "InstanceGameObjectUnderControl": {
        "m_FileID": 0,
        "m_PathID": 0
      },
      "InstanceScriptCollider": {
        "m_FileID": 0,
        "m_PathID": 0
      }
    },
    {
      "InstanceGameObject": {
        "m_FileID": 0,
        "m_PathID": -6169777172840169321
      },
      "PrefabUnderControl": {
        "m_FileID": 0,
        "m_PathID": 0
      },
      "InstanceGameObjectUnderControl": {
        "m_FileID": 0,
        "m_PathID": 0
      },
      "InstanceScriptCollider": {
        "m_FileID": 0,
        "m_PathID": 0
      }
    },
    {
      "InstanceGameObject": {
        "m_FileID": 0,
        "m_PathID": -4893769889233907536
      },
      "PrefabUnderControl": {
        "m_FileID": 0,
        "m_PathID": 0
      },
      "InstanceGameObjectUnderControl": {
        "m_FileID": 0,
        "m_PathID": 0
      },
      "InstanceScriptCollider": {
        "m_FileID": 0,
        "m_PathID": 0
      }
    },
    {
      "InstanceGameObject": {
        "m_FileID": 0,
        "m_PathID": 1268574967254759846
      },
      "PrefabUnderControl": {
        "m_FileID": 0,
        "m_PathID": 0
      },
      "InstanceGameObjectUnderControl": {
        "m_FileID": 0,
        "m_PathID": 0
      },
      "InstanceScriptCollider": {
        "m_FileID": 0,
        "m_PathID": 0
      }
    },
    {
      "InstanceGameObject": {
        "m_FileID": 0,
        "m_PathID": 7127975645700680421
      },
      "PrefabUnderControl": {
        "m_FileID": 0,
        "m_PathID": 0
      },
      "InstanceGameObjectUnderControl": {
        "m_FileID": 0,
        "m_PathID": 0
      },
      "InstanceScriptCollider": {
        "m_FileID": 0,
        "m_PathID": 0
      }
    },
    {
      "InstanceGameObject": {
        "m_FileID": 0,
        "m_PathID": -8099734742382045074
      },
      "PrefabUnderControl": {
        "m_FileID": 0,
        "m_PathID": 0
      },
      "InstanceGameObjectUnderControl": {
        "m_FileID": 0,
        "m_PathID": 0
      },
      "InstanceScriptCollider": {
        "m_FileID": 0,
        "m_PathID": 0
      }
    },
    {
      "InstanceGameObject": {
        "m_FileID": 0,
        "m_PathID": -7647418106866511138
      },
      "PrefabUnderControl": {
        "m_FileID": 0,
        "m_PathID": 0
      },
      "InstanceGameObjectUnderControl": {
        "m_FileID": 0,
        "m_PathID": 0
      },
      "InstanceScriptCollider": {
        "m_FileID": 0,
        "m_PathID": 0
      }
    },
    {
      "InstanceGameObject": {
        "m_FileID": 0,
        "m_PathID": -5589690258082940744
      },
      "PrefabUnderControl": {
        "m_FileID": 0,
        "m_PathID": 0
      },
      "InstanceGameObjectUnderControl": {
        "m_FileID": 0,
        "m_PathID": 0
      },
      "InstanceScriptCollider": {
        "m_FileID": 0,
        "m_PathID": 0
      }
    },
    {
      "InstanceGameObject": {
        "m_FileID": 0,
        "m_PathID": 695836932912610506
      },
      "PrefabUnderControl": {
        "m_FileID": 0,
        "m_PathID": 0
      },
      "InstanceGameObjectUnderControl": {
        "m_FileID": 0,
        "m_PathID": 0
      },
      "InstanceScriptCollider": {
        "m_FileID": 0,
        "m_PathID": 0
      }
    },
    {
      "InstanceGameObject": {
        "m_FileID": 0,
        "m_PathID": -6199524779995439917
      },
      "PrefabUnderControl": {
        "m_FileID": 0,
        "m_PathID": 0
      },
      "InstanceGameObjectUnderControl": {
        "m_FileID": 0,
        "m_PathID": 0
      },
      "InstanceScriptCollider": {
        "m_FileID": 0,
        "m_PathID": 0
      }
    },
    {
      "InstanceGameObject": {
        "m_FileID": 0,
        "m_PathID": -4659443528084335499
      },
      "PrefabUnderControl": {
        "m_FileID": 0,
        "m_PathID": 0
      },
      "InstanceGameObjectUnderControl": {
        "m_FileID": 0,
        "m_PathID": 0
      },
      "InstanceScriptCollider": {
        "m_FileID": 0,
        "m_PathID": 0
      }
    },
    {
      "InstanceGameObject": {
        "m_FileID": 0,
        "m_PathID": 4736798741752756380
      },
      "PrefabUnderControl": {
        "m_FileID": 0,
        "m_PathID": 0
      },
      "InstanceGameObjectUnderControl": {
        "m_FileID": 0,
        "m_PathID": 0
      },
      "InstanceScriptCollider": {
        "m_FileID": 0,
        "m_PathID": 0
      }
    },
    {
      "InstanceGameObject": {
        "m_FileID": 0,
        "m_PathID": -6638778458513508260
      },
      "PrefabUnderControl": {
        "m_FileID": 0,
        "m_PathID": 0
      },
      "InstanceGameObjectUnderControl": {
        "m_FileID": 0,
        "m_PathID": 0
      },
      "InstanceScriptCollider": {
        "m_FileID": 0,
        "m_PathID": 0
      }
    },
    {
      "InstanceGameObject": {
        "m_FileID": 0,
        "m_PathID": -4560859046426121217
      },
      "PrefabUnderControl": {
        "m_FileID": 0,
        "m_PathID": 0
      },
      "InstanceGameObjectUnderControl": {
        "m_FileID": 0,
        "m_PathID": 0
      },
      "InstanceScriptCollider": {
        "m_FileID": 0,
        "m_PathID": 0
      }
    },
    {
      "InstanceGameObject": {
        "m_FileID": 0,
        "m_PathID": -9145144140123683801
      },
      "PrefabUnderControl": {
        "m_FileID": 0,
        "m_PathID": 0
      },
      "InstanceGameObjectUnderControl": {
        "m_FileID": 0,
        "m_PathID": 0
      },
      "InstanceScriptCollider": {
        "m_FileID": 0,
        "m_PathID": 0
      }
    },
    {
      "InstanceGameObject": {
        "m_FileID": 0,
        "m_PathID": 7231562496759159189
      },
      "PrefabUnderControl": {
        "m_FileID": 0,
        "m_PathID": 0
      },
      "InstanceGameObjectUnderControl": {
        "m_FileID": 0,
        "m_PathID": 0
      },
      "InstanceScriptCollider": {
        "m_FileID": 0,
        "m_PathID": 0
      }
    },
    {
      "InstanceGameObject": {
        "m_FileID": 0,
        "m_PathID": -4213303110852302137
      },
      "PrefabUnderControl": {
        "m_FileID": 0,
        "m_PathID": 0
      },
      "InstanceGameObjectUnderControl": {
        "m_FileID": 0,
        "m_PathID": 0
      },
      "InstanceScriptCollider": {
        "m_FileID": 0,
        "m_PathID": 0
      }
    },
    {
      "InstanceGameObject": {
        "m_FileID": 0,
        "m_PathID": -5361916089344429342
      },
      "PrefabUnderControl": {
        "m_FileID": 0,
        "m_PathID": 0
      },
      "InstanceGameObjectUnderControl": {
        "m_FileID": 0,
        "m_PathID": 0
      },
      "InstanceScriptCollider": {
        "m_FileID": 0,
        "m_PathID": 0
      }
    },
    {
      "InstanceGameObject": {
        "m_FileID": 0,
        "m_PathID": -541984122280566174
      },
      "PrefabUnderControl": {
        "m_FileID": 0,
        "m_PathID": 0
      },
      "InstanceGameObjectUnderControl": {
        "m_FileID": 0,
        "m_PathID": 0
      },
      "InstanceScriptCollider": {
        "m_FileID": 0,
        "m_PathID": 0
      }
    },
    {
      "InstanceGameObject": {
        "m_FileID": 0,
        "m_PathID": 5127739518338908299
      },
      "PrefabUnderControl": {
        "m_FileID": 0,
        "m_PathID": 0
      },
      "InstanceGameObjectUnderControl": {
        "m_FileID": 0,
        "m_PathID": 0
      },
      "InstanceScriptCollider": {
        "m_FileID": 0,
        "m_PathID": 0
      }
    },
    {
      "InstanceGameObject": {
        "m_FileID": 0,
        "m_PathID": 1631674768044479508
      },
      "PrefabUnderControl": {
        "m_FileID": 0,
        "m_PathID": 0
      },
      "InstanceGameObjectUnderControl": {
        "m_FileID": 0,
        "m_PathID": 0
      },
      "InstanceScriptCollider": {
        "m_FileID": 0,
        "m_PathID": 0
      }
    },
    {
      "InstanceGameObject": {
        "m_FileID": 0,
        "m_PathID": -4628216397865571273
      },
      "PrefabUnderControl": {
        "m_FileID": 0,
        "m_PathID": 0
      },
      "InstanceGameObjectUnderControl": {
        "m_FileID": 0,
        "m_PathID": 0
      },
      "InstanceScriptCollider": {
        "m_FileID": 0,
        "m_PathID": 0
      }
    },
    {
      "InstanceGameObject": {
        "m_FileID": 0,
        "m_PathID": 363455465882378323
      },
      "PrefabUnderControl": {
        "m_FileID": 0,
        "m_PathID": 0
      },
      "InstanceGameObjectUnderControl": {
        "m_FileID": 0,
        "m_PathID": 0
      },
      "InstanceScriptCollider": {
        "m_FileID": 0,
        "m_PathID": 0
      }
    },
    {
      "InstanceGameObject": {
        "m_FileID": 0,
        "m_PathID": -134354540245403033
      },
      "PrefabUnderControl": {
        "m_FileID": 0,
        "m_PathID": 0
      },
      "InstanceGameObjectUnderControl": {
        "m_FileID": 0,
        "m_PathID": 0
      },
      "InstanceScriptCollider": {
        "m_FileID": 0,
        "m_PathID": 0
      }
    },
    {
      "InstanceGameObject": {
        "m_FileID": 0,
        "m_PathID": 8859409998754587746
      },
      "PrefabUnderControl": {
        "m_FileID": 0,
        "m_PathID": 0
      },
      "InstanceGameObjectUnderControl": {
        "m_FileID": 0,
        "m_PathID": 0
      },
      "InstanceScriptCollider": {
        "m_FileID": 0,
        "m_PathID": 0
      }
    },
    {
      "InstanceGameObject": {
        "m_FileID": 0,
        "m_PathID": -8801833193505594938
      },
      "PrefabUnderControl": {
        "m_FileID": 0,
        "m_PathID": 0
      },
      "InstanceGameObjectUnderControl": {
        "m_FileID": 0,
        "m_PathID": 0
      },
      "InstanceScriptCollider": {
        "m_FileID": 0,
        "m_PathID": 0
      }
    },
    {
      "InstanceGameObject": {
        "m_FileID": 0,
        "m_PathID": 367449928517084211
      },
      "PrefabUnderControl": {
        "m_FileID": 0,
        "m_PathID": 0
      },
      "InstanceGameObjectUnderControl": {
        "m_FileID": 0,
        "m_PathID": 0
      },
      "InstanceScriptCollider": {
        "m_FileID": 0,
        "m_PathID": 0
      }
    },
    {
      "InstanceGameObject": {
        "m_FileID": 0,
        "m_PathID": 3537038226472758163
      },
      "PrefabUnderControl": {
        "m_FileID": 0,
        "m_PathID": 0
      },
      "InstanceGameObjectUnderControl": {
        "m_FileID": 0,
        "m_PathID": 0
      },
      "InstanceScriptCollider": {
        "m_FileID": 0,
        "m_PathID": 0
      }
    },
    {
      "InstanceGameObject": {
        "m_FileID": 0,
        "m_PathID": -2244885907856927374
      },
      "PrefabUnderControl": {
        "m_FileID": 0,
        "m_PathID": 0
      },
      "InstanceGameObjectUnderControl": {
        "m_FileID": 0,
        "m_PathID": 0
      },
      "InstanceScriptCollider": {
        "m_FileID": 0,
        "m_PathID": 0
      }
    },
    {
      "InstanceGameObject": {
        "m_FileID": 0,
        "m_PathID": 5380694203915675259
      },
      "PrefabUnderControl": {
        "m_FileID": 0,
        "m_PathID": 0
      },
      "InstanceGameObjectUnderControl": {
        "m_FileID": 0,
        "m_PathID": 0
      },
      "InstanceScriptCollider": {
        "m_FileID": 0,
        "m_PathID": 0
      }
    },
    {
      "InstanceGameObject": {
        "m_FileID": 0,
        "m_PathID": 543753612862637110
      },
      "PrefabUnderControl": {
        "m_FileID": 0,
        "m_PathID": 0
      },
      "InstanceGameObjectUnderControl": {
        "m_FileID": 0,
        "m_PathID": 0
      },
      "InstanceScriptCollider": {
        "m_FileID": 0,
        "m_PathID": 0
      }
    },
    {
      "InstanceGameObject": {
        "m_FileID": 0,
        "m_PathID": 8985518698283769822
      },
      "PrefabUnderControl": {
        "m_FileID": 0,
        "m_PathID": 0
      },
      "InstanceGameObjectUnderControl": {
        "m_FileID": 0,
        "m_PathID": 0
      },
      "InstanceScriptCollider": {
        "m_FileID": 0,
        "m_PathID": 0
      }
    },
    {
      "InstanceGameObject": {
        "m_FileID": 0,
        "m_PathID": -4230732730983374981
      },
      "PrefabUnderControl": {
        "m_FileID": 0,
        "m_PathID": 0
      },
      "InstanceGameObjectUnderControl": {
        "m_FileID": 0,
        "m_PathID": 0
      },
      "InstanceScriptCollider": {
        "m_FileID": 0,
        "m_PathID": 0
      }
    },
    {
      "InstanceGameObject": {
        "m_FileID": 0,
        "m_PathID": 2254734462997098006
      },
      "PrefabUnderControl": {
        "m_FileID": 0,
        "m_PathID": 0
      },
      "InstanceGameObjectUnderControl": {
        "m_FileID": 0,
        "m_PathID": 0
      },
      "InstanceScriptCollider": {
        "m_FileID": 0,
        "m_PathID": 0
      }
    },
    {
      "InstanceGameObject": {
        "m_FileID": 0,
        "m_PathID": 2309988083771464117
      },
      "PrefabUnderControl": {
        "m_FileID": 0,
        "m_PathID": 0
      },
      "InstanceGameObjectUnderControl": {
        "m_FileID": 0,
        "m_PathID": 0
      },
      "InstanceScriptCollider": {
        "m_FileID": 0,
        "m_PathID": 0
      }
    },
    {
      "InstanceGameObject": {
        "m_FileID": 0,
        "m_PathID": 4990248109049079985
      },
      "PrefabUnderControl": {
        "m_FileID": 0,
        "m_PathID": 0
      },
      "InstanceGameObjectUnderControl": {
        "m_FileID": 0,
        "m_PathID": 0
      },
      "InstanceScriptCollider": {
        "m_FileID": 0,
        "m_PathID": 0
      }
    },
    {
      "InstanceGameObject": {
        "m_FileID": 0,
        "m_PathID": -3440509855737271717
      },
      "PrefabUnderControl": {
        "m_FileID": 0,
        "m_PathID": 0
      },
      "InstanceGameObjectUnderControl": {
        "m_FileID": 0,
        "m_PathID": 0
      },
      "InstanceScriptCollider": {
        "m_FileID": 0,
        "m_PathID": 0
      }
    },
    {
      "InstanceGameObject": {
        "m_FileID": 0,
        "m_PathID": -4207980918738597637
      },
      "PrefabUnderControl": {
        "m_FileID": 0,
        "m_PathID": 0
      },
      "InstanceGameObjectUnderControl": {
        "m_FileID": 0,
        "m_PathID": 0
      },
      "InstanceScriptCollider": {
        "m_FileID": 0,
        "m_PathID": 0
      }
    }
  ]
}