{
  "m_GameObject": {
    "m_FileID": 0,
    "m_PathID": 6517380762257224254
  },
  "m_Enabled": 1,
  "m_Script": {
    "m_FileID": 0,
    "m_PathID": -1247748226983267122
  },
  "m_Name": "",
  "TableMaterial": [
    {
      "m_FileID": 0,
      "m_PathID": 2254487121814252846
    },
    {
      "m_FileID": 0,
      "m_PathID": 3133097209385514704
    },
    {
      "m_FileID": 0,
      "m_PathID": 2335371117468478927
    },
    {
      "m_FileID": 0,
      "m_PathID": 7830142680594489264
    },
    {
      "m_FileID": 0,
      "m_PathID": -7107858777423359750
    },
    {
      "m_FileID": 0,
      "m_PathID": -1719814044592707072
    },
    {
      "m_FileID": 0,
      "m_PathID": -1731290816238381829
    },
    {
      "m_FileID": 0,
      "m_PathID": -2355791253515553514
    },
    {
      "m_FileID": 0,
      "m_PathID": -3851053013011079977
    },
    {
      "m_FileID": 0,
      "m_PathID": 2866973183986238767
    },
    {
      "m_FileID": 0,
      "m_PathID": 4698147307174228918
    },
    {
      "m_FileID": 0,
      "m_PathID": 3084619253583993795
    },
    {
      "m_FileID": 0,
      "m_PathID": 4027762275936942254
    },
    {
      "m_FileID": 0,
      "m_PathID": -6303697166651597287
    },
    {
      "m_FileID": 0,
      "m_PathID": -3380025244067459581
    },
    {
      "m_FileID": 0,
      "m_PathID": 2792819374476720827
    },
    {
      "m_FileID": 0,
      "m_PathID": 9124904729267969439
    },
    {
      "m_FileID": 0,
      "m_PathID": 5333521455013029964
    },
    {
      "m_FileID": 0,
      "m_PathID": -4374414780210173050
    },
    {
      "m_FileID": 0,
      "m_PathID": 3313316235703276703
    }
  ],
  "DataCellMap": {
    "m_FileID": 0,
    "m_PathID": -1717727665444459717
  },
  "InstanceRootParent": {
    "m_FileID": 0,
    "m_PathID": 0
  },
  "InstanceGameObjectControl": {
    "m_FileID": 0,
    "m_PathID": 0
  },
  "FlagHideForce": 0,
  "DataAnimation": {
    "m_FileID": 0,
    "m_PathID": -9135986904609948546
  },
  "LimitTrack": 0,
  "TableInformationPlay": [
    {
      "DataAnimation": {
        "m_FileID": 0,
        "m_PathID": 0
      },
      "FlagSetInitial": 1,
      "FlagStopInitial": 0,
      "NameAnimation": "atk_1",
      "FlagPingPong": 0,
      "LabelStart": "",
      "FrameOffsetStart": 0,
      "LabelEnd": "",
      "FrameOffsetEnd": 0,
      "Frame": 0,
      "TimesPlay": 0,
      "RateTime": 1.0
    }
  ],
  "TableControlParts": [
    {
      "InstanceGameObject": {
        "m_FileID": 0,
        "m_PathID": 6517380762257224254
      },
      "PrefabUnderControl": {
        "m_FileID": 0,
        "m_PathID": 0
      },
      "InstanceGameObjectUnderControl": {
        "m_FileID": 0,
        "m_PathID": 0
      },
      "InstanceScriptCollider": {
        "m_FileID": 0,
        "m_PathID": 0
      }
    },
    {
      "InstanceGameObject": {
        "m_FileID": 0,
        "m_PathID": -6531355106117311361
      },
      "PrefabUnderControl": {
        "m_FileID": 0,
        "m_PathID": 0
      },
      "InstanceGameObjectUnderControl": {
        "m_FileID": 0,
        "m_PathID": 0
      },
      "InstanceScriptCollider": {
        "m_FileID": 0,
        "m_PathID": 0
      }
    },
    {
      "InstanceGameObject": {
        "m_FileID": 0,
        "m_PathID": 5146037093211986553
      },
      "PrefabUnderControl": {
        "m_FileID": 0,
        "m_PathID": 0
      },
      "InstanceGameObjectUnderControl": {
        "m_FileID": 0,
        "m_PathID": 0
      },
      "InstanceScriptCollider": {
        "m_FileID": 0,
        "m_PathID": 0
      }
    },
    {
      "InstanceGameObject": {
        "m_FileID": 0,
        "m_PathID": 8239442606155190218
      },
      "PrefabUnderControl": {
        "m_FileID": 0,
        "m_PathID": 0
      },
      "InstanceGameObjectUnderControl": {
        "m_FileID": 0,
        "m_PathID": 0
      },
      "InstanceScriptCollider": {
        "m_FileID": 0,
        "m_PathID": 0
      }
    },
    {
      "InstanceGameObject": {
        "m_FileID": 0,
        "m_PathID": -2372997771958016679
      },
      "PrefabUnderControl": {
        "m_FileID": 0,
        "m_PathID": 0
      },
      "InstanceGameObjectUnderControl": {
        "m_FileID": 0,
        "m_PathID": 0
      },
      "InstanceScriptCollider": {
        "m_FileID": 0,
        "m_PathID": 0
      }
    },
    {
      "InstanceGameObject": {
        "m_FileID": 0,
        "m_PathID": -3726254996802969079
      },
      "PrefabUnderControl": {
        "m_FileID": 0,
        "m_PathID": 0
      },
      "InstanceGameObjectUnderControl": {
        "m_FileID": 0,
        "m_PathID": 0
      },
      "InstanceScriptCollider": {
        "m_FileID": 0,
        "m_PathID": 0
      }
    },
    {
      "InstanceGameObject": {
        "m_FileID": 0,
        "m_PathID": 1550823555347188516
      },
      "PrefabUnderControl": {
        "m_FileID": 0,
        "m_PathID": 0
      },
      "InstanceGameObjectUnderControl": {
        "m_FileID": 0,
        "m_PathID": 0
      },
      "InstanceScriptCollider": {
        "m_FileID": 0,
        "m_PathID": 0
      }
    },
    {
      "InstanceGameObject": {
        "m_FileID": 0,
        "m_PathID": -4116893125586128320
      },
      "PrefabUnderControl": {
        "m_FileID": 0,
        "m_PathID": 0
      },
      "InstanceGameObjectUnderControl": {
        "m_FileID": 0,
        "m_PathID": 0
      },
      "InstanceScriptCollider": {
        "m_FileID": 0,
        "m_PathID": 0
      }
    },
    {
      "InstanceGameObject": {
        "m_FileID": 0,
        "m_PathID": 7373740926580471537
      },
      "PrefabUnderControl": {
        "m_FileID": 0,
        "m_PathID": 0
      },
      "InstanceGameObjectUnderControl": {
        "m_FileID": 0,
        "m_PathID": 0
      },
      "InstanceScriptCollider": {
        "m_FileID": 0,
        "m_PathID": 0
      }
    },
    {
      "InstanceGameObject": {
        "m_FileID": 0,
        "m_PathID": 1317522096218774260
      },
      "PrefabUnderControl": {
        "m_FileID": 0,
        "m_PathID": 0
      },
      "InstanceGameObjectUnderControl": {
        "m_FileID": 0,
        "m_PathID": 0
      },
      "InstanceScriptCollider": {
        "m_FileID": 0,
        "m_PathID": 0
      }
    },
    {
      "InstanceGameObject": {
        "m_FileID": 0,
        "m_PathID": -7368325169255187863
      },
      "PrefabUnderControl": {
        "m_FileID": 0,
        "m_PathID": 0
      },
      "InstanceGameObjectUnderControl": {
        "m_FileID": 0,
        "m_PathID": 0
      },
      "InstanceScriptCollider": {
        "m_FileID": 0,
        "m_PathID": 0
      }
    },
    {
      "InstanceGameObject": {
        "m_FileID": 0,
        "m_PathID": -4940484343583613486
      },
      "PrefabUnderControl": {
        "m_FileID": 0,
        "m_PathID": 0
      },
      "InstanceGameObjectUnderControl": {
        "m_FileID": 0,
        "m_PathID": 0
      },
      "InstanceScriptCollider": {
        "m_FileID": 0,
        "m_PathID": 0
      }
    },
    {
      "InstanceGameObject": {
        "m_FileID": 0,
        "m_PathID": 8213579185873247542
      },
      "PrefabUnderControl": {
        "m_FileID": 0,
        "m_PathID": 0
      },
      "InstanceGameObjectUnderControl": {
        "m_FileID": 0,
        "m_PathID": 0
      },
      "InstanceScriptCollider": {
        "m_FileID": 0,
        "m_PathID": 0
      }
    },
    {
      "InstanceGameObject": {
        "m_FileID": 0,
        "m_PathID": -5292966585237246660
      },
      "PrefabUnderControl": {
        "m_FileID": 0,
        "m_PathID": 0
      },
      "InstanceGameObjectUnderControl": {
        "m_FileID": 0,
        "m_PathID": 0
      },
      "InstanceScriptCollider": {
        "m_FileID": 0,
        "m_PathID": 0
      }
    },
    {
      "InstanceGameObject": {
        "m_FileID": 0,
        "m_PathID": 3989859933926836567
      },
      "PrefabUnderControl": {
        "m_FileID": 0,
        "m_PathID": 0
      },
      "InstanceGameObjectUnderControl": {
        "m_FileID": 0,
        "m_PathID": 0
      },
      "InstanceScriptCollider": {
        "m_FileID": 0,
        "m_PathID": 0
      }
    },
    {
      "InstanceGameObject": {
        "m_FileID": 0,
        "m_PathID": -7951916896885779396
      },
      "PrefabUnderControl": {
        "m_FileID": 0,
        "m_PathID": 0
      },
      "InstanceGameObjectUnderControl": {
        "m_FileID": 0,
        "m_PathID": 0
      },
      "InstanceScriptCollider": {
        "m_FileID": 0,
        "m_PathID": 0
      }
    },
    {
      "InstanceGameObject": {
        "m_FileID": 0,
        "m_PathID": 7472100023711012640
      },
      "PrefabUnderControl": {
        "m_FileID": 0,
        "m_PathID": 0
      },
      "InstanceGameObjectUnderControl": {
        "m_FileID": 0,
        "m_PathID": 0
      },
      "InstanceScriptCollider": {
        "m_FileID": 0,
        "m_PathID": 0
      }
    },
    {
      "InstanceGameObject": {
        "m_FileID": 0,
        "m_PathID": 7548906262145028482
      },
      "PrefabUnderControl": {
        "m_FileID": 0,
        "m_PathID": 0
      },
      "InstanceGameObjectUnderControl": {
        "m_FileID": 0,
        "m_PathID": 0
      },
      "InstanceScriptCollider": {
        "m_FileID": 0,
        "m_PathID": 0
      }
    },
    {
      "InstanceGameObject": {
        "m_FileID": 0,
        "m_PathID": 4294097537027253955
      },
      "PrefabUnderControl": {
        "m_FileID": 0,
        "m_PathID": 0
      },
      "InstanceGameObjectUnderControl": {
        "m_FileID": 0,
        "m_PathID": 0
      },
      "InstanceScriptCollider": {
        "m_FileID": 0,
        "m_PathID": 0
      }
    },
    {
      "InstanceGameObject": {
        "m_FileID": 0,
        "m_PathID": -734654735100885181
      },
      "PrefabUnderControl": {
        "m_FileID": 0,
        "m_PathID": 0
      },
      "InstanceGameObjectUnderControl": {
        "m_FileID": 0,
        "m_PathID": 0
      },
      "InstanceScriptCollider": {
        "m_FileID": 0,
        "m_PathID": 0
      }
    },
    {
      "InstanceGameObject": {
        "m_FileID": 0,
        "m_PathID": -6625313434469516592
      },
      "PrefabUnderControl": {
        "m_FileID": 0,
        "m_PathID": 0
      },
      "InstanceGameObjectUnderControl": {
        "m_FileID": 0,
        "m_PathID": 0
      },
      "InstanceScriptCollider": {
        "m_FileID": 0,
        "m_PathID": 0
      }
    },
    {
      "InstanceGameObject": {
        "m_FileID": 0,
        "m_PathID": 6249431641964961474
      },
      "PrefabUnderControl": {
        "m_FileID": 0,
        "m_PathID": 0
      },
      "InstanceGameObjectUnderControl": {
        "m_FileID": 0,
        "m_PathID": 0
      },
      "InstanceScriptCollider": {
        "m_FileID": 0,
        "m_PathID": 0
      }
    },
    {
      "InstanceGameObject": {
        "m_FileID": 0,
        "m_PathID": -3628778659371111144
      },
      "PrefabUnderControl": {
        "m_FileID": 0,
        "m_PathID": 0
      },
      "InstanceGameObjectUnderControl": {
        "m_FileID": 0,
        "m_PathID": 0
      },
      "InstanceScriptCollider": {
        "m_FileID": 0,
        "m_PathID": 0
      }
    },
    {
      "InstanceGameObject": {
        "m_FileID": 0,
        "m_PathID": -2357181878750132907
      },
      "PrefabUnderControl": {
        "m_FileID": 0,
        "m_PathID": 0
      },
      "InstanceGameObjectUnderControl": {
        "m_FileID": 0,
        "m_PathID": 0
      },
      "InstanceScriptCollider": {
        "m_FileID": 0,
        "m_PathID": 0
      }
    },
    {
      "InstanceGameObject": {
        "m_FileID": 0,
        "m_PathID": 8382288826566753543
      },
      "PrefabUnderControl": {
        "m_FileID": 0,
        "m_PathID": 0
      },
      "InstanceGameObjectUnderControl": {
        "m_FileID": 0,
        "m_PathID": 0
      },
      "InstanceScriptCollider": {
        "m_FileID": 0,
        "m_PathID": 0
      }
    },
    {
      "InstanceGameObject": {
        "m_FileID": 0,
        "m_PathID": -3071031998452198587
      },
      "PrefabUnderControl": {
        "m_FileID": 0,
        "m_PathID": 0
      },
      "InstanceGameObjectUnderControl": {
        "m_FileID": 0,
        "m_PathID": 0
      },
      "InstanceScriptCollider": {
        "m_FileID": 0,
        "m_PathID": 0
      }
    },
    {
      "InstanceGameObject": {
        "m_FileID": 0,
        "m_PathID": -4181319685970175767
      },
      "PrefabUnderControl": {
        "m_FileID": 0,
        "m_PathID": 0
      },
      "InstanceGameObjectUnderControl": {
        "m_FileID": 0,
        "m_PathID": 0
      },
      "InstanceScriptCollider": {
        "m_FileID": 0,
        "m_PathID": 0
      }
    },
    {
      "InstanceGameObject": {
        "m_FileID": 0,
        "m_PathID": -6329708594145151303
      },
      "PrefabUnderControl": {
        "m_FileID": 0,
        "m_PathID": 0
      },
      "InstanceGameObjectUnderControl": {
        "m_FileID": 0,
        "m_PathID": 0
      },
      "InstanceScriptCollider": {
        "m_FileID": 0,
        "m_PathID": 0
      }
    },
    {
      "InstanceGameObject": {
        "m_FileID": 0,
        "m_PathID": -3121230544653398466
      },
      "PrefabUnderControl": {
        "m_FileID": 0,
        "m_PathID": 0
      },
      "InstanceGameObjectUnderControl": {
        "m_FileID": 0,
        "m_PathID": 0
      },
      "InstanceScriptCollider": {
        "m_FileID": 0,
        "m_PathID": 0
      }
    },
    {
      "InstanceGameObject": {
        "m_FileID": 0,
        "m_PathID": 421218475189184359
      },
      "PrefabUnderControl": {
        "m_FileID": 0,
        "m_PathID": 0
      },
      "InstanceGameObjectUnderControl": {
        "m_FileID": 0,
        "m_PathID": 0
      },
      "InstanceScriptCollider": {
        "m_FileID": 0,
        "m_PathID": 0
      }
    },
    {
      "InstanceGameObject": {
        "m_FileID": 0,
        "m_PathID": 6327895023576375128
      },
      "PrefabUnderControl": {
        "m_FileID": 0,
        "m_PathID": 0
      },
      "InstanceGameObjectUnderControl": {
        "m_FileID": 0,
        "m_PathID": 0
      },
      "InstanceScriptCollider": {
        "m_FileID": 0,
        "m_PathID": 0
      }
    },
    {
      "InstanceGameObject": {
        "m_FileID": 0,
        "m_PathID": -6845923615309099460
      },
      "PrefabUnderControl": {
        "m_FileID": 0,
        "m_PathID": 0
      },
      "InstanceGameObjectUnderControl": {
        "m_FileID": 0,
        "m_PathID": 0
      },
      "InstanceScriptCollider": {
        "m_FileID": 0,
        "m_PathID": 0
      }
    },
    {
      "InstanceGameObject": {
        "m_FileID": 0,
        "m_PathID": 1724655100898947160
      },
      "PrefabUnderControl": {
        "m_FileID": 0,
        "m_PathID": 0
      },
      "InstanceGameObjectUnderControl": {
        "m_FileID": 0,
        "m_PathID": 0
      },
      "InstanceScriptCollider": {
        "m_FileID": 0,
        "m_PathID": 0
      }
    },
    {
      "InstanceGameObject": {
        "m_FileID": 0,
        "m_PathID": -6913023919800467612
      },
      "PrefabUnderControl": {
        "m_FileID": 0,
        "m_PathID": 0
      },
      "InstanceGameObjectUnderControl": {
        "m_FileID": 0,
        "m_PathID": 0
      },
      "InstanceScriptCollider": {
        "m_FileID": 0,
        "m_PathID": 0
      }
    },
    {
      "InstanceGameObject": {
        "m_FileID": 0,
        "m_PathID": -5236335336999904163
      },
      "PrefabUnderControl": {
        "m_FileID": 0,
        "m_PathID": 0
      },
      "InstanceGameObjectUnderControl": {
        "m_FileID": 0,
        "m_PathID": 0
      },
      "InstanceScriptCollider": {
        "m_FileID": 0,
        "m_PathID": 0
      }
    },
    {
      "InstanceGameObject": {
        "m_FileID": 0,
        "m_PathID": -3129546414925186091
      },
      "PrefabUnderControl": {
        "m_FileID": 0,
        "m_PathID": 0
      },
      "InstanceGameObjectUnderControl": {
        "m_FileID": 0,
        "m_PathID": 0
      },
      "InstanceScriptCollider": {
        "m_FileID": 0,
        "m_PathID": 0
      }
    },
    {
      "InstanceGameObject": {
        "m_FileID": 0,
        "m_PathID": -8851190355956474288
      },
      "PrefabUnderControl": {
        "m_FileID": 0,
        "m_PathID": 0
      },
      "InstanceGameObjectUnderControl": {
        "m_FileID": 0,
        "m_PathID": 0
      },
      "InstanceScriptCollider": {
        "m_FileID": 0,
        "m_PathID": 0
      }
    },
    {
      "InstanceGameObject": {
        "m_FileID": 0,
        "m_PathID": 370181586315861662
      },
      "PrefabUnderControl": {
        "m_FileID": 0,
        "m_PathID": 0
      },
      "InstanceGameObjectUnderControl": {
        "m_FileID": 0,
        "m_PathID": 0
      },
      "InstanceScriptCollider": {
        "m_FileID": 0,
        "m_PathID": 0
      }
    },
    {
      "InstanceGameObject": {
        "m_FileID": 0,
        "m_PathID": 3771690402876655173
      },
      "PrefabUnderControl": {
        "m_FileID": 0,
        "m_PathID": 0
      },
      "InstanceGameObjectUnderControl": {
        "m_FileID": 0,
        "m_PathID": 0
      },
      "InstanceScriptCollider": {
        "m_FileID": 0,
        "m_PathID": 0
      }
    },
    {
      "InstanceGameObject": {
        "m_FileID": 0,
        "m_PathID": 1490601137982071880
      },
      "PrefabUnderControl": {
        "m_FileID": 0,
        "m_PathID": 0
      },
      "InstanceGameObjectUnderControl": {
        "m_FileID": 0,
        "m_PathID": 0
      },
      "InstanceScriptCollider": {
        "m_FileID": 0,
        "m_PathID": 0
      }
    },
    {
      "InstanceGameObject": {
        "m_FileID": 0,
        "m_PathID": 5042090538283160864
      },
      "PrefabUnderControl": {
        "m_FileID": 0,
        "m_PathID": 0
      },
      "InstanceGameObjectUnderControl": {
        "m_FileID": 0,
        "m_PathID": 0
      },
      "InstanceScriptCollider": {
        "m_FileID": 0,
        "m_PathID": 0
      }
    },
    {
      "InstanceGameObject": {
        "m_FileID": 0,
        "m_PathID": 6415239258914965700
      },
      "PrefabUnderControl": {
        "m_FileID": 0,
        "m_PathID": 0
      },
      "InstanceGameObjectUnderControl": {
        "m_FileID": 0,
        "m_PathID": 0
      },
      "InstanceScriptCollider": {
        "m_FileID": 0,
        "m_PathID": 0
      }
    },
    {
      "InstanceGameObject": {
        "m_FileID": 0,
        "m_PathID": 6786289077530522582
      },
      "PrefabUnderControl": {
        "m_FileID": 0,
        "m_PathID": 0
      },
      "InstanceGameObjectUnderControl": {
        "m_FileID": 0,
        "m_PathID": 0
      },
      "InstanceScriptCollider": {
        "m_FileID": 0,
        "m_PathID": 0
      }
    },
    {
      "InstanceGameObject": {
        "m_FileID": 0,
        "m_PathID": 9109601804961228296
      },
      "PrefabUnderControl": {
        "m_FileID": 0,
        "m_PathID": 0
      },
      "InstanceGameObjectUnderControl": {
        "m_FileID": 0,
        "m_PathID": 0
      },
      "InstanceScriptCollider": {
        "m_FileID": 0,
        "m_PathID": 0
      }
    },
    {
      "InstanceGameObject": {
        "m_FileID": 0,
        "m_PathID": 253169382449214328
      },
      "PrefabUnderControl": {
        "m_FileID": 0,
        "m_PathID": 0
      },
      "InstanceGameObjectUnderControl": {
        "m_FileID": 0,
        "m_PathID": 0
      },
      "InstanceScriptCollider": {
        "m_FileID": 0,
        "m_PathID": 0
      }
    },
    {
      "InstanceGameObject": {
        "m_FileID": 0,
        "m_PathID": 7171513561560926091
      },
      "PrefabUnderControl": {
        "m_FileID": 0,
        "m_PathID": 0
      },
      "InstanceGameObjectUnderControl": {
        "m_FileID": 0,
        "m_PathID": 0
      },
      "InstanceScriptCollider": {
        "m_FileID": 0,
        "m_PathID": 0
      }
    },
    {
      "InstanceGameObject": {
        "m_FileID": 0,
        "m_PathID": 3156413711290461486
      },
      "PrefabUnderControl": {
        "m_FileID": 0,
        "m_PathID": 0
      },
      "InstanceGameObjectUnderControl": {
        "m_FileID": 0,
        "m_PathID": 0
      },
      "InstanceScriptCollider": {
        "m_FileID": 0,
        "m_PathID": 0
      }
    },
    {
      "InstanceGameObject": {
        "m_FileID": 0,
        "m_PathID": 4959801955595485261
      },
      "PrefabUnderControl": {
        "m_FileID": 0,
        "m_PathID": 0
      },
      "InstanceGameObjectUnderControl": {
        "m_FileID": 0,
        "m_PathID": 0
      },
      "InstanceScriptCollider": {
        "m_FileID": 0,
        "m_PathID": 0
      }
    },
    {
      "InstanceGameObject": {
        "m_FileID": 0,
        "m_PathID": -280657188240122851
      },
      "PrefabUnderControl": {
        "m_FileID": 0,
        "m_PathID": 0
      },
      "InstanceGameObjectUnderControl": {
        "m_FileID": 0,
        "m_PathID": 0
      },
      "InstanceScriptCollider": {
        "m_FileID": 0,
        "m_PathID": 0
      }
    },
    {
      "InstanceGameObject": {
        "m_FileID": 0,
        "m_PathID": -5527929934680922331
      },
      "PrefabUnderControl": {
        "m_FileID": 0,
        "m_PathID": 0
      },
      "InstanceGameObjectUnderControl": {
        "m_FileID": 0,
        "m_PathID": 0
      },
      "InstanceScriptCollider": {
        "m_FileID": 0,
        "m_PathID": 0
      }
    },
    {
      "InstanceGameObject": {
        "m_FileID": 0,
        "m_PathID": -7546676319861504137
      },
      "PrefabUnderControl": {
        "m_FileID": 0,
        "m_PathID": 0
      },
      "InstanceGameObjectUnderControl": {
        "m_FileID": 0,
        "m_PathID": 0
      },
      "InstanceScriptCollider": {
        "m_FileID": 0,
        "m_PathID": 0
      }
    },
    {
      "InstanceGameObject": {
        "m_FileID": 0,
        "m_PathID": 6246203799797435081
      },
      "PrefabUnderControl": {
        "m_FileID": 0,
        "m_PathID": 0
      },
      "InstanceGameObjectUnderControl": {
        "m_FileID": 0,
        "m_PathID": 0
      },
      "InstanceScriptCollider": {
        "m_FileID": 0,
        "m_PathID": 0
      }
    },
    {
      "InstanceGameObject": {
        "m_FileID": 0,
        "m_PathID": -360461895137952434
      },
      "PrefabUnderControl": {
        "m_FileID": 0,
        "m_PathID": 0
      },
      "InstanceGameObjectUnderControl": {
        "m_FileID": 0,
        "m_PathID": 0
      },
      "InstanceScriptCollider": {
        "m_FileID": 0,
        "m_PathID": 0
      }
    },
    {
      "InstanceGameObject": {
        "m_FileID": 0,
        "m_PathID": 6676450132084484529
      },
      "PrefabUnderControl": {
        "m_FileID": 0,
        "m_PathID": 0
      },
      "InstanceGameObjectUnderControl": {
        "m_FileID": 0,
        "m_PathID": 0
      },
      "InstanceScriptCollider": {
        "m_FileID": 0,
        "m_PathID": 0
      }
    },
    {
      "InstanceGameObject": {
        "m_FileID": 0,
        "m_PathID": -8282183039665688216
      },
      "PrefabUnderControl": {
        "m_FileID": 0,
        "m_PathID": 0
      },
      "InstanceGameObjectUnderControl": {
        "m_FileID": 0,
        "m_PathID": 0
      },
      "InstanceScriptCollider": {
        "m_FileID": 0,
        "m_PathID": 0
      }
    },
    {
      "InstanceGameObject": {
        "m_FileID": 0,
        "m_PathID": -2310683131871793322
      },
      "PrefabUnderControl": {
        "m_FileID": 0,
        "m_PathID": 0
      },
      "InstanceGameObjectUnderControl": {
        "m_FileID": 0,
        "m_PathID": 0
      },
      "InstanceScriptCollider": {
        "m_FileID": 0,
        "m_PathID": 0
      }
    },
    {
      "InstanceGameObject": {
        "m_FileID": 0,
        "m_PathID": -1208976401790139364
      },
      "PrefabUnderControl": {
        "m_FileID": 0,
        "m_PathID": 0
      },
      "InstanceGameObjectUnderControl": {
        "m_FileID": 0,
        "m_PathID": 0
      },
      "InstanceScriptCollider": {
        "m_FileID": 0,
        "m_PathID": 0
      }
    },
    {
      "InstanceGameObject": {
        "m_FileID": 0,
        "m_PathID": 6051178940328209801
      },
      "PrefabUnderControl": {
        "m_FileID": 0,
        "m_PathID": 0
      },
      "InstanceGameObjectUnderControl": {
        "m_FileID": 0,
        "m_PathID": 0
      },
      "InstanceScriptCollider": {
        "m_FileID": 0,
        "m_PathID": 0
      }
    },
    {
      "InstanceGameObject": {
        "m_FileID": 0,
        "m_PathID": 7520534006572241212
      },
      "PrefabUnderControl": {
        "m_FileID": 0,
        "m_PathID": 0
      },
      "InstanceGameObjectUnderControl": {
        "m_FileID": 0,
        "m_PathID": 0
      },
      "InstanceScriptCollider": {
        "m_FileID": 0,
        "m_PathID": 0
      }
    },
    {
      "InstanceGameObject": {
        "m_FileID": 0,
        "m_PathID": 291029219297380207
      },
      "PrefabUnderControl": {
        "m_FileID": 0,
        "m_PathID": 0
      },
      "InstanceGameObjectUnderControl": {
        "m_FileID": 0,
        "m_PathID": 0
      },
      "InstanceScriptCollider": {
        "m_FileID": 0,
        "m_PathID": 0
      }
    },
    {
      "InstanceGameObject": {
        "m_FileID": 0,
        "m_PathID": 1813925612053650775
      },
      "PrefabUnderControl": {
        "m_FileID": 0,
        "m_PathID": 0
      },
      "InstanceGameObjectUnderControl": {
        "m_FileID": 0,
        "m_PathID": 0
      },
      "InstanceScriptCollider": {
        "m_FileID": 0,
        "m_PathID": 0
      }
    },
    {
      "InstanceGameObject": {
        "m_FileID": 0,
        "m_PathID": -6411355980344647647
      },
      "PrefabUnderControl": {
        "m_FileID": 0,
        "m_PathID": 0
      },
      "InstanceGameObjectUnderControl": {
        "m_FileID": 0,
        "m_PathID": 0
      },
      "InstanceScriptCollider": {
        "m_FileID": 0,
        "m_PathID": 0
      }
    },
    {
      "InstanceGameObject": {
        "m_FileID": 0,
        "m_PathID": 6761003257331917358
      },
      "PrefabUnderControl": {
        "m_FileID": 0,
        "m_PathID": 0
      },
      "InstanceGameObjectUnderControl": {
        "m_FileID": 0,
        "m_PathID": 0
      },
      "InstanceScriptCollider": {
        "m_FileID": 0,
        "m_PathID": 0
      }
    },
    {
      "InstanceGameObject": {
        "m_FileID": 0,
        "m_PathID": 1747427658508856531
      },
      "PrefabUnderControl": {
        "m_FileID": 0,
        "m_PathID": 0
      },
      "InstanceGameObjectUnderControl": {
        "m_FileID": 0,
        "m_PathID": 0
      },
      "InstanceScriptCollider": {
        "m_FileID": 0,
        "m_PathID": 0
      }
    },
    {
      "InstanceGameObject": {
        "m_FileID": 0,
        "m_PathID": 6116274815512597584
      },
      "PrefabUnderControl": {
        "m_FileID": 0,
        "m_PathID": 0
      },
      "InstanceGameObjectUnderControl": {
        "m_FileID": 0,
        "m_PathID": 0
      },
      "InstanceScriptCollider": {
        "m_FileID": 0,
        "m_PathID": 0
      }
    },
    {
      "InstanceGameObject": {
        "m_FileID": 0,
        "m_PathID": -2073922927913069652
      },
      "PrefabUnderControl": {
        "m_FileID": 0,
        "m_PathID": 0
      },
      "InstanceGameObjectUnderControl": {
        "m_FileID": 0,
        "m_PathID": 0
      },
      "InstanceScriptCollider": {
        "m_FileID": 0,
        "m_PathID": 0
      }
    },
    {
      "InstanceGameObject": {
        "m_FileID": 0,
        "m_PathID": -2597138176982477192
      },
      "PrefabUnderControl": {
        "m_FileID": 0,
        "m_PathID": 0
      },
      "InstanceGameObjectUnderControl": {
        "m_FileID": 0,
        "m_PathID": 0
      },
      "InstanceScriptCollider": {
        "m_FileID": 0,
        "m_PathID": 0
      }
    }
  ]
}