{
  "m_GameObject": {
    "m_FileID": 0,
    "m_PathID": 0
  },
  "m_Enabled": 1,
  "m_Script": {
    "m_FileID": 0,
    "m_PathID": -8016775561480030637
  },
  "m_Name": "adv_201503.chapter",
  "chapterName": "",
  "dataList": [
    {
      "m_FileID": 0,
      "m_PathID": 3498615030893642678
    }
  ],
  "settingList": [
    {
      "rows": [
        {
          "rowIndex": 0,
          "strings": [
            "CharacterName",
            "NameText",
            "Pattern",
            "X",
            "Y",
            "Z",
            "Pivot",
            "Scale",
            "Conditional",
            "BundlePath",
            "FileName",
            "SubFileName",
            "FileType",
            "Animation",
            "RenderTexture",
            "RenderRect",
            "EyeBlink",
            "LipSynch",
            "Icon",
            "IconSubFileName",
            "IconRect"
          ],
          "isEmpty": 0,
          "isCommentOut": 0
        },
        {
          "rowIndex": 1,
          "strings": [
            "エニグマ君",
            "",
            "通常",
            "",
            "0",
            "",
            "",
            "",
            "",
            "texture/character/stand/1151200_stand",
            "1151200_stand.asset",
            "1151200_stand_01",
            "Dicing",
            "",
            "",
            "",
            "",
            "",
            "",
            "",
            ""
          ],
          "isEmpty": 0,
          "isCommentOut": 0
        },
        {
          "rowIndex": 2,
          "strings": [
            "",
            "",
            "目閉じ",
            "",
            "0",
            "",
            "",
            "",
            "",
            "texture/character/stand/1151200_stand",
            "1151200_stand.asset",
            "1151200_stand_02",
            "Dicing",
            "",
            "",
            "",
            "",
            "",
            "",
            "",
            ""
          ],
          "isEmpty": 0,
          "isCommentOut": 0
        },
        {
          "rowIndex": 3,
          "strings": [
            "",
            "",
            "真剣",
            "",
            "0",
            "",
            "",
            "",
            "",
            "texture/character/stand/1151200_stand",
            "1151200_stand.asset",
            "1151200_stand_03",
            "Dicing",
            "",
            "",
            "",
            "",
            "",
            "",
            "",
            ""
          ],
          "isEmpty": 0,
          "isCommentOut": 0
        },
        {
          "rowIndex": 4,
          "strings": [
            "",
            "",
            "笑い",
            "",
            "0",
            "",
            "",
            "",
            "",
            "texture/character/stand/1151200_stand",
            "1151200_stand.asset",
            "1151200_stand_04",
            "Dicing",
            "",
            "",
            "",
            "",
            "",
            "",
            "",
            ""
          ],
          "isEmpty": 0,
          "isCommentOut": 0
        },
        {
          "rowIndex": 5,
          "strings": [
            "",
            "",
            "悲しみ",
            "",
            "0",
            "",
            "",
            "",
            "",
            "texture/character/stand/1151200_stand",
            "1151200_stand.asset",
            "1151200_stand_05",
            "Dicing",
            "",
            "",
            "",
            "",
            "",
            "",
            "",
            ""
          ],
          "isEmpty": 0,
          "isCommentOut": 0
        },
        {
          "rowIndex": 6,
          "strings": [
            "",
            "",
            "照れ",
            "",
            "0",
            "",
            "",
            "",
            "",
            "texture/character/stand/1151200_stand",
            "1151200_stand.asset",
            "1151200_stand_06",
            "Dicing",
            "",
            "",
            "",
            "",
            "",
            "",
            "",
            ""
          ],
          "isEmpty": 0,
          "isCommentOut": 0
        },
        {
          "rowIndex": 7,
          "strings": [
            "",
            "",
            "固有",
            "",
            "0",
            "",
            "",
            "",
            "",
            "texture/character/stand/1151200_stand",
            "1151200_stand.asset",
            "1151200_stand_07",
            "Dicing",
            "",
            "",
            "",
            "",
            "",
            "",
            "",
            ""
          ],
          "isEmpty": 0,
          "isCommentOut": 0
        },
        {
          "rowIndex": 8,
          "strings": [
            "",
            "",
            "呆れ",
            "",
            "0",
            "",
            "",
            "",
            "",
            "texture/character/stand/1151200_stand",
            "1151200_stand.asset",
            "1151200_stand_08",
            "Dicing",
            "",
            "",
            "",
            "",
            "",
            "",
            "",
            ""
          ],
          "isEmpty": 0,
          "isCommentOut": 0
        },
        {
          "rowIndex": 9,
          "strings": [],
          "isEmpty": 1,
          "isCommentOut": 0
        },
        {
          "rowIndex": 10,
          "strings": [
            "リディア・ノーラン魔法少女",
            "魔法少女リディア",
            "通常",
            "",
            "-75",
            "",
            "",
            "",
            "",
            "texture/character/stand/1210200_stand",
            "1210200_stand.asset",
            "1210200_stand_01",
            "Dicing",
            "",
            "",
            "",
            "",
            "",
            "",
            "",
            ""
          ],
          "isEmpty": 0,
          "isCommentOut": 0
        },
        {
          "rowIndex": 11,
          "strings": [
            "",
            "",
            "目閉じ",
            "",
            "-75",
            "",
            "",
            "",
            "",
            "texture/character/stand/1210200_stand",
            "1210200_stand.asset",
            "1210200_stand_02",
            "Dicing",
            "",
            "",
            "",
            "",
            "",
            "",
            "",
            ""
          ],
          "isEmpty": 0,
          "isCommentOut": 0
        },
        {
          "rowIndex": 12,
          "strings": [
            "",
            "",
            "真剣",
            "",
            "-75",
            "",
            "",
            "",
            "",
            "texture/character/stand/1210200_stand",
            "1210200_stand.asset",
            "1210200_stand_03",
            "Dicing",
            "",
            "",
            "",
            "",
            "",
            "",
            "",
            ""
          ],
          "isEmpty": 0,
          "isCommentOut": 0
        },
        {
          "rowIndex": 13,
          "strings": [
            "",
            "",
            "笑い",
            "",
            "-75",
            "",
            "",
            "",
            "",
            "texture/character/stand/1210200_stand",
            "1210200_stand.asset",
            "1210200_stand_04",
            "Dicing",
            "",
            "",
            "",
            "",
            "",
            "",
            "",
            ""
          ],
          "isEmpty": 0,
          "isCommentOut": 0
        },
        {
          "rowIndex": 14,
          "strings": [
            "",
            "",
            "悲しみ",
            "",
            "-75",
            "",
            "",
            "",
            "",
            "texture/character/stand/1210200_stand",
            "1210200_stand.asset",
            "1210200_stand_05",
            "Dicing",
            "",
            "",
            "",
            "",
            "",
            "",
            "",
            ""
          ],
          "isEmpty": 0,
          "isCommentOut": 0
        },
        {
          "rowIndex": 15,
          "strings": [
            "",
            "",
            "照れ",
            "",
            "-75",
            "",
            "",
            "",
            "",
            "texture/character/stand/1210200_stand",
            "1210200_stand.asset",
            "1210200_stand_06",
            "Dicing",
            "",
            "",
            "",
            "",
            "",
            "",
            "",
            ""
          ],
          "isEmpty": 0,
          "isCommentOut": 0
        },
        {
          "rowIndex": 16,
          "strings": [
            "",
            "",
            "固有",
            "",
            "-75",
            "",
            "",
            "",
            "",
            "texture/character/stand/1210200_stand",
            "1210200_stand.asset",
            "1210200_stand_07",
            "Dicing",
            "",
            "",
            "",
            "",
            "",
            "",
            "",
            ""
          ],
          "isEmpty": 0,
          "isCommentOut": 0
        },
        {
          "rowIndex": 17,
          "strings": [
            "",
            "",
            "エニグマ君なし通常",
            "",
            "-75",
            "",
            "",
            "",
            "",
            "texture/character/stand/1210200_stand",
            "1210200_stand.asset",
            "1210200_stand_08",
            "Dicing",
            "",
            "",
            "",
            "",
            "",
            "",
            "",
            ""
          ],
          "isEmpty": 0,
          "isCommentOut": 0
        },
        {
          "rowIndex": 18,
          "strings": [
            "",
            "",
            "エニグマ君なし目閉じ",
            "",
            "-75",
            "",
            "",
            "",
            "",
            "texture/character/stand/1210200_stand",
            "1210200_stand.asset",
            "1210200_stand_09",
            "Dicing",
            "",
            "",
            "",
            "",
            "",
            "",
            "",
            ""
          ],
          "isEmpty": 0,
          "isCommentOut": 0
        },
        {
          "rowIndex": 19,
          "strings": [
            "",
            "",
            "エニグマ君なし真剣",
            "",
            "-75",
            "",
            "",
            "",
            "",
            "texture/character/stand/1210200_stand",
            "1210200_stand.asset",
            "1210200_stand_10",
            "Dicing",
            "",
            "",
            "",
            "",
            "",
            "",
            "",
            ""
          ],
          "isEmpty": 0,
          "isCommentOut": 0
        },
        {
          "rowIndex": 20,
          "strings": [
            "",
            "",
            "エニグマ君なし笑い",
            "",
            "-75",
            "",
            "",
            "",
            "",
            "texture/character/stand/1210200_stand",
            "1210200_stand.asset",
            "1210200_stand_11",
            "Dicing",
            "",
            "",
            "",
            "",
            "",
            "",
            "",
            ""
          ],
          "isEmpty": 0,
          "isCommentOut": 0
        },
        {
          "rowIndex": 21,
          "strings": [
            "",
            "",
            "エニグマ君なし悲しみ",
            "",
            "-75",
            "",
            "",
            "",
            "",
            "texture/character/stand/1210200_stand",
            "1210200_stand.asset",
            "1210200_stand_12",
            "Dicing",
            "",
            "",
            "",
            "",
            "",
            "",
            "",
            ""
          ],
          "isEmpty": 0,
          "isCommentOut": 0
        },
        {
          "rowIndex": 22,
          "strings": [
            "",
            "",
            "エニグマ君なし照れ",
            "",
            "-75",
            "",
            "",
            "",
            "",
            "texture/character/stand/1210200_stand",
            "1210200_stand.asset",
            "1210200_stand_13",
            "Dicing",
            "",
            "",
            "",
            "",
            "",
            "",
            "",
            ""
          ],
          "isEmpty": 0,
          "isCommentOut": 0
        },
        {
          "rowIndex": 23,
          "strings": [
            "",
            "",
            "エニグマ君なし固有",
            "",
            "-75",
            "",
            "",
            "",
            "",
            "texture/character/stand/1210200_stand",
            "1210200_stand.asset",
            "1210200_stand_14",
            "Dicing",
            "",
            "",
            "",
            "",
            "",
            "",
            "",
            ""
          ],
          "isEmpty": 0,
          "isCommentOut": 0
        },
        {
          "rowIndex": 24,
          "strings": [],
          "isEmpty": 1,
          "isCommentOut": 0
        },
        {
          "rowIndex": 25,
          "strings": [
            "樋泉楓",
            "",
            "通常",
            "",
            "-25",
            "",
            "",
            "",
            "",
            "texture/character/stand/1151400_stand",
            "1151400_stand.asset",
            "1151400_stand_01",
            "Dicing",
            "",
            "",
            "",
            "",
            "",
            "",
            "",
            ""
          ],
          "isEmpty": 0,
          "isCommentOut": 0
        },
        {
          "rowIndex": 26,
          "strings": [
            "",
            "",
            "目閉じ",
            "",
            "-25",
            "",
            "",
            "",
            "",
            "texture/character/stand/1151400_stand",
            "1151400_stand.asset",
            "1151400_stand_02",
            "Dicing",
            "",
            "",
            "",
            "",
            "",
            "",
            "",
            ""
          ],
          "isEmpty": 0,
          "isCommentOut": 0
        },
        {
          "rowIndex": 27,
          "strings": [
            "",
            "",
            "真剣",
            "",
            "-25",
            "",
            "",
            "",
            "",
            "texture/character/stand/1151400_stand",
            "1151400_stand.asset",
            "1151400_stand_03",
            "Dicing",
            "",
            "",
            "",
            "",
            "",
            "",
            "",
            ""
          ],
          "isEmpty": 0,
          "isCommentOut": 0
        },
        {
          "rowIndex": 28,
          "strings": [
            "",
            "",
            "笑い",
            "",
            "-25",
            "",
            "",
            "",
            "",
            "texture/character/stand/1151400_stand",
            "1151400_stand.asset",
            "1151400_stand_04",
            "Dicing",
            "",
            "",
            "",
            "",
            "",
            "",
            "",
            ""
          ],
          "isEmpty": 0,
          "isCommentOut": 0
        },
        {
          "rowIndex": 29,
          "strings": [
            "",
            "",
            "悲しみ",
            "",
            "-25",
            "",
            "",
            "",
            "",
            "texture/character/stand/1151400_stand",
            "1151400_stand.asset",
            "1151400_stand_05",
            "Dicing",
            "",
            "",
            "",
            "",
            "",
            "",
            "",
            ""
          ],
          "isEmpty": 0,
          "isCommentOut": 0
        },
        {
          "rowIndex": 30,
          "strings": [
            "",
            "",
            "照れ",
            "",
            "-25",
            "",
            "",
            "",
            "",
            "texture/character/stand/1151400_stand",
            "1151400_stand.asset",
            "1151400_stand_06",
            "Dicing",
            "",
            "",
            "",
            "",
            "",
            "",
            "",
            ""
          ],
          "isEmpty": 0,
          "isCommentOut": 0
        },
        {
          "rowIndex": 31,
          "strings": [
            "",
            "",
            "固有",
            "",
            "-25",
            "",
            "",
            "",
            "",
            "texture/character/stand/1151400_stand",
            "1151400_stand.asset",
            "1151400_stand_07",
            "Dicing",
            "",
            "",
            "",
            "",
            "",
            "",
            "",
            ""
          ],
          "isEmpty": 0,
          "isCommentOut": 0
        },
        {
          "rowIndex": 32,
          "strings": [],
          "isEmpty": 1,
          "isCommentOut": 0
        },
        {
          "rowIndex": 33,
          "strings": [
            "クレア・グレイブ",
            "",
            "通常",
            "",
            "0",
            "",
            "",
            "",
            "",
            "texture/character/stand/1151000_stand",
            "1151000_stand.asset",
            "1151000_stand_01",
            "Dicing",
            "",
            "",
            "",
            "",
            "",
            "",
            "",
            ""
          ],
          "isEmpty": 0,
          "isCommentOut": 0
        },
        {
          "rowIndex": 34,
          "strings": [
            "",
            "",
            "微笑",
            "",
            "0",
            "",
            "",
            "",
            "",
            "texture/character/stand/1151000_stand",
            "1151000_stand.asset",
            "1151000_stand_02",
            "Dicing",
            "",
            "",
            "",
            "",
            "",
            "",
            "",
            ""
          ],
          "isEmpty": 0,
          "isCommentOut": 0
        },
        {
          "rowIndex": 35,
          "strings": [
            "",
            "",
            "真剣",
            "",
            "0",
            "",
            "",
            "",
            "",
            "texture/character/stand/1151000_stand",
            "1151000_stand.asset",
            "1151000_stand_03",
            "Dicing",
            "",
            "",
            "",
            "",
            "",
            "",
            "",
            ""
          ],
          "isEmpty": 0,
          "isCommentOut": 0
        },
        {
          "rowIndex": 36,
          "strings": [
            "",
            "",
            "笑い",
            "",
            "0",
            "",
            "",
            "",
            "",
            "texture/character/stand/1151000_stand",
            "1151000_stand.asset",
            "1151000_stand_04",
            "Dicing",
            "",
            "",
            "",
            "",
            "",
            "",
            "",
            ""
          ],
          "isEmpty": 0,
          "isCommentOut": 0
        },
        {
          "rowIndex": 37,
          "strings": [
            "",
            "",
            "悲しみ",
            "",
            "0",
            "",
            "",
            "",
            "",
            "texture/character/stand/1151000_stand",
            "1151000_stand.asset",
            "1151000_stand_05",
            "Dicing",
            "",
            "",
            "",
            "",
            "",
            "",
            "",
            ""
          ],
          "isEmpty": 0,
          "isCommentOut": 0
        },
        {
          "rowIndex": 38,
          "strings": [
            "",
            "",
            "照れ",
            "",
            "0",
            "",
            "",
            "",
            "",
            "texture/character/stand/1151000_stand",
            "1151000_stand.asset",
            "1151000_stand_06",
            "Dicing",
            "",
            "",
            "",
            "",
            "",
            "",
            "",
            ""
          ],
          "isEmpty": 0,
          "isCommentOut": 0
        },
        {
          "rowIndex": 39,
          "strings": [
            "",
            "",
            "固有",
            "",
            "0",
            "",
            "",
            "",
            "",
            "texture/character/stand/1151000_stand",
            "1151000_stand.asset",
            "1151000_stand_07",
            "Dicing",
            "",
            "",
            "",
            "",
            "",
            "",
            "",
            ""
          ],
          "isEmpty": 0,
          "isCommentOut": 0
        },
        {
          "rowIndex": 40,
          "strings": [
            "",
            "",
            "焦り",
            "",
            "0",
            "",
            "",
            "",
            "",
            "texture/character/stand/1151000_stand",
            "1151000_stand.asset",
            "1151000_stand_08",
            "Dicing",
            "",
            "",
            "",
            "",
            "",
            "",
            "",
            ""
          ],
          "isEmpty": 0,
          "isCommentOut": 0
        },
        {
          "rowIndex": 41,
          "strings": [
            "",
            "",
            "思案",
            "",
            "0",
            "",
            "",
            "",
            "",
            "texture/character/stand/1151000_stand",
            "1151000_stand.asset",
            "1151000_stand_09",
            "Dicing",
            "",
            "",
            "",
            "",
            "",
            "",
            "",
            ""
          ],
          "isEmpty": 0,
          "isCommentOut": 0
        },
        {
          "rowIndex": 42,
          "strings": [
            "",
            "",
            "戦闘",
            "",
            "0",
            "",
            "",
            "",
            "",
            "texture/character/stand/1151000_stand",
            "1151000_stand.asset",
            "1151000_stand_10",
            "Dicing",
            "",
            "",
            "",
            "",
            "",
            "",
            "",
            ""
          ],
          "isEmpty": 0,
          "isCommentOut": 0
        },
        {
          "rowIndex": 43,
          "strings": [],
          "isEmpty": 1,
          "isCommentOut": 0
        }
      ],
      "name": "Assets/Story/Story2015/adv_201503.xls:Character",
      "type": 1,
      "textLength": 3460,
      "headerRow": 0
    },
    {
      "rows": [
        {
          "rowIndex": 0,
          "strings": [
            "Label",
            "Type",
            "X",
            "Y",
            "Z",
            "Pivot",
            "Scale",
            "Conditional",
            "BundlePath",
            "FileName",
            "FileType",
            "SubFileName",
            "Animation",
            "RenderTexture",
            "RenderRect",
            "Thumbnail",
            "CgCategolly",
            "元画像名"
          ],
          "isEmpty": 0,
          "isCommentOut": 0
        },
        {
          "rowIndex": 1,
          "strings": [
            "背景(街中：夜)",
            "Bg",
            "",
            "",
            "",
            "",
            "x=1.25 y=0.9375",
            "",
            "texture/background/bg_087_ll",
            "bg_087_LL.png",
            "",
            "",
            "",
            "",
            "",
            ""
          ],
          "isEmpty": 0,
          "isCommentOut": 0
        },
        {
          "rowIndex": 2,
          "strings": [
            "背景(黒)",
            "Bg",
            "",
            "",
            "",
            "",
            "x=1.25 y=0.9375",
            "",
            "texture/background/bg_007_ll",
            "bg_007_LL.png",
            "",
            "",
            "",
            "",
            "",
            ""
          ],
          "isEmpty": 0,
          "isCommentOut": 0
        }
      ],
      "name": "Assets/Story/Story2015/adv_201503.xls:Texture",
      "type": 1,
      "textLength": 255,
      "headerRow": 0
    },
    {
      "rows": [
        {
          "rowIndex": 0,
          "strings": [
            "Label",
            "BundlePath",
            "FileName",
            ""
          ],
          "isEmpty": 0,
          "isCommentOut": 0
        },
        {
          "rowIndex": 1,
          "strings": [
            "集中線",
            "prefabs/effect/adventure/eff_040/eff_040",
            "eff_040"
          ],
          "isEmpty": 0,
          "isCommentOut": 0
        },
        {
          "rowIndex": 2,
          "strings": [
            "黒いモヤ",
            "prefabs/effect/adventure/eff_036/eff_036",
            "eff_036"
          ],
          "isEmpty": 0,
          "isCommentOut": 0
        },
        {
          "rowIndex": 3,
          "strings": [
            "ウィンクエフェクト",
            "prefabs/effect/adventure/eff_044/eff_044",
            "eff_044"
          ],
          "isEmpty": 0,
          "isCommentOut": 0
        },
        {
          "rowIndex": 4,
          "strings": [
            "収束",
            "prefabs/effect/adventure/eff_025/eff_025",
            "eff_025"
          ],
          "isEmpty": 0,
          "isCommentOut": 0
        },
        {
          "rowIndex": 5,
          "strings": [
            "白オーラ",
            "prefabs/effect/adventure/eff_026/eff_026",
            "eff_026"
          ],
          "isEmpty": 0,
          "isCommentOut": 0
        },
        {
          "rowIndex": 6,
          "strings": [
            "白チャージ",
            "prefabs/effect/adventure/eff_027/eff_027",
            "eff_027"
          ],
          "isEmpty": 0,
          "isCommentOut": 0
        },
        {
          "rowIndex": 7,
          "strings": [
            "叩きつけ",
            "prefabs/effect/adventure/eff_043/eff_043",
            "eff_043"
          ],
          "isEmpty": 0,
          "isCommentOut": 0
        },
        {
          "rowIndex": 8,
          "strings": [
            "スタン叩き",
            "prefabs/effect/adventure/eff_045/eff_045",
            "eff_045"
          ],
          "isEmpty": 0,
          "isCommentOut": 0
        }
      ],
      "name": "Assets/Story/Story2015/adv_201503.xls:Particle",
      "type": 1,
      "textLength": 435,
      "headerRow": 0
    },
    {
      "rows": [
        {
          "rowIndex": 0,
          "strings": [
            "Label",
            "Title",
            "Type",
            "BundlePath",
            "FileName",
            "IntroTime",
            "Volume",
            "Comment"
          ],
          "isEmpty": 0,
          "isCommentOut": 0
        },
        {
          "rowIndex": 1,
          "strings": [
            "ADV通常",
            "",
            "Bgm",
            "sound/bgm/adventure/bgm_adv_general",
            "bgm_adv_general.wav",
            ""
          ],
          "isEmpty": 0,
          "isCommentOut": 0
        },
        {
          "rowIndex": 2,
          "strings": [
            "疑惑",
            "",
            "Bgm",
            "sound/bgm/adventure/bgm_suspiction",
            "bgm_suspiction.wav",
            ""
          ],
          "isEmpty": 0,
          "isCommentOut": 0
        },
        {
          "rowIndex": 3,
          "strings": [
            "コミカル",
            "",
            "Bgm",
            "sound/bgm/adventure/bgm_comical",
            "bgm_comical.wav",
            ""
          ],
          "isEmpty": 0,
          "isCommentOut": 0
        },
        {
          "rowIndex": 4,
          "strings": [
            "踏み込み音",
            "",
            "Se",
            "sound/se/adventure/se_depression",
            "se_depression.wav",
            ""
          ],
          "isEmpty": 0,
          "isCommentOut": 0
        },
        {
          "rowIndex": 5,
          "strings": [
            "緊張感",
            "",
            "Bgm",
            "sound/bgm/adventure/bgm_nervous",
            "bgm_nervous.wav",
            ""
          ],
          "isEmpty": 0,
          "isCommentOut": 0
        },
        {
          "rowIndex": 6,
          "strings": [
            "増殖音",
            "",
            "Se",
            "sound/se/adventure/se_proliferation",
            "se_proliferation.wav",
            ""
          ],
          "isEmpty": 0,
          "isCommentOut": 0
        },
        {
          "rowIndex": 7,
          "strings": [
            "ウィンク音",
            "",
            "Se",
            "sound/se/adventure/se_wink",
            "se_wink.wav",
            ""
          ],
          "isEmpty": 0,
          "isCommentOut": 0
        },
        {
          "rowIndex": 8,
          "strings": [
            "魔法チャージ音",
            "",
            "Se",
            "sound/se/adventure/se_magic_charge",
            "se_magic_charge.wav",
            ""
          ],
          "isEmpty": 0,
          "isCommentOut": 0
        },
        {
          "rowIndex": 9,
          "strings": [
            "鼓動音",
            "",
            "Se",
            "sound/se/adventure/se_heart_sound",
            "se_heart_sound.wav",
            ""
          ],
          "isEmpty": 0,
          "isCommentOut": 0
        },
        {
          "rowIndex": 10,
          "strings": [
            "次元転移音",
            "",
            "Se",
            "sound/se/adventure/se_metastasis",
            "se_metastasis.wav",
            ""
          ],
          "isEmpty": 0,
          "isCommentOut": 0
        },
        {
          "rowIndex": 11,
          "strings": [
            "魔法陣展開",
            "",
            "Se",
            "sound/se/adventure/se_magic_circle",
            "se_magic_circle.wav",
            ""
          ],
          "isEmpty": 0,
          "isCommentOut": 0
        },
        {
          "rowIndex": 12,
          "strings": [
            "物が折れる音",
            "",
            "Se",
            "sound/se/adventure/se_breaking",
            "se_breaking.wav",
            ""
          ],
          "isEmpty": 0,
          "isCommentOut": 0
        },
        {
          "rowIndex": 13,
          "strings": [
            "掴む音",
            "",
            "Se",
            "sound/se/adventure/se_grab",
            "se_grab.wav",
            ""
          ],
          "isEmpty": 0,
          "isCommentOut": 0
        },
        {
          "rowIndex": 14,
          "strings": [
            "銃声",
            "",
            "Se",
            "sound/se/adventure/se_single_bullet",
            "se_single_bullet.wav",
            ""
          ],
          "isEmpty": 0,
          "isCommentOut": 0
        },
        {
          "rowIndex": 15,
          "strings": [
            "疾走音",
            "",
            "Se",
            "sound/se/adventure/se_sprint",
            "se_sprint.wav",
            ""
          ],
          "isEmpty": 0,
          "isCommentOut": 0
        },
        {
          "rowIndex": 16,
          "strings": [
            "打撃音",
            "",
            "Se",
            "sound/se/adventure/se_knuckle",
            "se_knuckle.wav",
            ""
          ],
          "isEmpty": 0,
          "isCommentOut": 0
        },
        {
          "rowIndex": 17,
          "strings": [
            "血しぶき音",
            "",
            "Se",
            "sound/se/adventure/se_blood_splash",
            "se_blood_splash.wav",
            ""
          ],
          "isEmpty": 0,
          "isCommentOut": 0
        },
        {
          "rowIndex": 18,
          "strings": [
            "エナジー霧散",
            "",
            "Se",
            "sound/se/adventure/se_energy_vanishing",
            "se_energy_vanishing.wav",
            ""
          ],
          "isEmpty": 0,
          "isCommentOut": 0
        },
        {
          "rowIndex": 19,
          "strings": [
            "足音",
            "",
            "Se",
            "sound/se/adventure/se_footstep",
            "se_footstep.wav",
            ""
          ],
          "isEmpty": 0,
          "isCommentOut": 0
        }
      ],
      "name": "Assets/Story/Story2015/adv_201503.xls:Sound",
      "type": 1,
      "textLength": 1098,
      "headerRow": 0
    },
    {
      "rows": [
        {
          "rowIndex": 0,
          "strings": [
            "LayerName",
            "Type",
            "X",
            "Y",
            "Order",
            "LayerMask",
            "ScaleX",
            "ScaleY",
            "FlipX",
            "FlipY",
            "Width",
            "Height",
            "BorderLeft",
            "BorderRight",
            "BorderTop",
            "BorderBottom",
            "Align"
          ],
          "isEmpty": 0,
          "isCommentOut": 0
        },
        {
          "rowIndex": 1,
          "strings": [
            "キャラ中央",
            "Character",
            "0",
            "0",
            "2",
            "",
            "",
            "",
            "",
            "",
            "",
            "",
            "",
            "",
            "",
            "0"
          ],
          "isEmpty": 0,
          "isCommentOut": 0
        },
        {
          "rowIndex": 2,
          "strings": [
            "キャラ左",
            "Character",
            "-350",
            "0",
            "3",
            "",
            "",
            "",
            "",
            "",
            "",
            "",
            "",
            "",
            "",
            "0"
          ],
          "isEmpty": 0,
          "isCommentOut": 0
        },
        {
          "rowIndex": 3,
          "strings": [
            "キャラ右",
            "Character",
            "350",
            "0",
            "4",
            "",
            "",
            "",
            "",
            "",
            "",
            "",
            "",
            "",
            "",
            "0"
          ],
          "isEmpty": 0,
          "isCommentOut": 0
        },
        {
          "rowIndex": 4,
          "strings": [
            "背景",
            "Bg",
            "0",
            "0",
            "0"
          ],
          "isEmpty": 0,
          "isCommentOut": 0
        },
        {
          "rowIndex": 5,
          "strings": [],
          "isEmpty": 1,
          "isCommentOut": 0
        },
        {
          "rowIndex": 6,
          "strings": [
            "キャラ背面",
            "Sprite",
            "0",
            "0",
            "1"
          ],
          "isEmpty": 0,
          "isCommentOut": 0
        },
        {
          "rowIndex": 7,
          "strings": [
            "フェードレイヤー",
            "Sprite",
            "0",
            "0",
            "150"
          ],
          "isEmpty": 0,
          "isCommentOut": 0
        },
        {
          "rowIndex": 8,
          "strings": [
            "スプライトレイヤー",
            "Sprite",
            "0",
            "0",
            "151"
          ],
          "isEmpty": 0,
          "isCommentOut": 0
        },
        {
          "rowIndex": 9,
          "strings": [
            "キャプチャ画像レイヤー",
            "Sprite",
            "0",
            "0",
            "500"
          ],
          "isEmpty": 0,
          "isCommentOut": 0
        },
        {
          "rowIndex": 10,
          "strings": [],
          "isEmpty": 1,
          "isCommentOut": 0
        },
        {
          "rowIndex": 11,
          "strings": [
            "キャラ中央左",
            "Character",
            "-225",
            "0",
            "5"
          ],
          "isEmpty": 0,
          "isCommentOut": 0
        },
        {
          "rowIndex": 12,
          "strings": [
            "キャラ中央右",
            "Character",
            "225",
            "0",
            "6"
          ],
          "isEmpty": 0,
          "isCommentOut": 0
        }
      ],
      "name": "Assets/Story/Story2015/adv_201503.xls:Layer",
      "type": 1,
      "textLength": 289,
      "headerRow": 0
    },
    {
      "rows": [
        {
          "rowIndex": 0,
          "strings": [
            "Label",
            "Type",
            "Value",
            "FileType"
          ],
          "isEmpty": 0,
          "isCommentOut": 0
        },
        {
          "rowIndex": 1,
          "strings": [
            "player_name",
            "String",
            "アルト"
          ],
          "isEmpty": 0,
          "isCommentOut": 0
        },
        {
          "rowIndex": 2,
          "strings": [
            "is_heroine",
            "Bool",
            "FALSE"
          ],
          "isEmpty": 0,
          "isCommentOut": 0
        }
      ],
      "name": "Assets/Story/Story2015/adv_201503.xls:Param",
      "type": 1,
      "textLength": 61,
      "headerRow": 0
    }
  ]
}