{
  "m_GameObject": {
    "m_FileID": 0,
    "m_PathID": 0
  },
  "m_Enabled": 1,
  "m_Script": {
    "m_FileID": 0,
    "m_PathID": 8527011069456626154
  },
  "m_Name": "adv_201505_path",
  "advPathList": [
    {
      "assetName": "",
      "assetPath": "texture/character/stand/1151200_stand",
      "resourcePath": "Texture/Character/1151200_stand.asset"
    },
    {
      "assetName": "",
      "assetPath": "texture/character/stand/1151500_stand",
      "resourcePath": "Texture/Character/1151500_stand.asset"
    },
    {
      "assetName": "",
      "assetPath": "texture/character/stand/1210200_stand",
      "resourcePath": "Texture/Character/1210200_stand.asset"
    },
    {
      "assetName": "",
      "assetPath": "texture/character/stand/1150500_stand",
      "resourcePath": "Texture/Character/1150500_stand.asset"
    },
    {
      "assetName": "",
      "assetPath": "texture/background/bg_089_ll",
      "resourcePath": "Texture/BG/bg_089_LL.png"
    },
    {
      "assetName": "",
      "assetPath": "texture/background/bg_007_ll",
      "resourcePath": "Texture/BG/bg_007_LL.png"
    },
    {
      "assetName": "",
      "assetPath": "prefabs/effect/adventure/eff_044/eff_044",
      "resourcePath": "Particle/eff_044.prefab"
    },
    {
      "assetName": "",
      "assetPath": "prefabs/effect/adventure/eff_025/eff_025",
      "resourcePath": "Particle/eff_025.prefab"
    },
    {
      "assetName": "",
      "assetPath": "prefabs/effect/adventure/eff_026/eff_026",
      "resourcePath": "Particle/eff_026.prefab"
    },
    {
      "assetName": "",
      "assetPath": "prefabs/effect/adventure/eff_027/eff_027",
      "resourcePath": "Particle/eff_027.prefab"
    },
    {
      "assetName": "",
      "assetPath": "prefabs/effect/adventure/eff_017/eff_017",
      "resourcePath": "Particle/eff_017.prefab"
    },
    {
      "assetName": "",
      "assetPath": "sound/bgm/adventure/bgm_bright",
      "resourcePath": "Sound/BGM/bgm_bright.wav"
    },
    {
      "assetName": "",
      "assetPath": "sound/se/adventure/se_depression",
      "resourcePath": "Sound/SE/se_depression.wav"
    },
    {
      "assetName": "",
      "assetPath": "sound/bgm/adventure/bgm_nervous",
      "resourcePath": "Sound/BGM/bgm_nervous.wav"
    },
    {
      "assetName": "",
      "assetPath": "sound/se/adventure/se_wink",
      "resourcePath": "Sound/SE/se_wink.wav"
    },
    {
      "assetName": "",
      "assetPath": "sound/se/adventure/se_magic_charge",
      "resourcePath": "Sound/SE/se_magic_charge.wav"
    },
    {
      "assetName": "",
      "assetPath": "sound/se/adventure/se_heart_sound",
      "resourcePath": "Sound/SE/se_heart_sound.wav"
    },
    {
      "assetName": "",
      "assetPath": "sound/se/adventure/se_metastasis",
      "resourcePath": "Sound/SE/se_metastasis.wav"
    },
    {
      "assetName": "",
      "assetPath": "sound/se/adventure/se_magic_circle",
      "resourcePath": "Sound/SE/se_magic_circle.wav"
    },
    {
      "assetName": "",
      "assetPath": "sound/se/adventure/se_breaking",
      "resourcePath": "Sound/SE/se_breaking.wav"
    },
    {
      "assetName": "",
      "assetPath": "sound/se/adventure/se_sprint",
      "resourcePath": "Sound/SE/se_sprint.wav"
    },
    {
      "assetName": "",
      "assetPath": "sound/se/adventure/se_slashing_sin",
      "resourcePath": "Sound/SE/se_slashing_sin.wav"
    },
    {
      "assetName": "",
      "assetPath": "sound/se/adventure/se_energy_vanishing",
      "resourcePath": "Sound/SE/se_energy_vanishing.wav"
    },
    {
      "assetName": "",
      "assetPath": "sound/bgm/adventure/bgm_adv_general",
      "resourcePath": "Sound/BGM/bgm_adv_general.wav"
    },
    {
      "assetName": "",
      "assetPath": "data/adventure/event/story2015/adv_201505.scenarios",
      "resourcePath": "adv_201505.scenarios.asset"
    }
  ]
}