{
  "m_GameObject": {
    "m_FileID": 0,
    "m_PathID": 0
  },
  "m_Enabled": 1,
  "m_Script": {
    "m_FileID": 0,
    "m_PathID": 8527011069456626154
  },
  "m_Name": "adv_201508_path",
  "advPathList": [
    {
      "assetName": "",
      "assetPath": "texture/character/stand/1210100_stand",
      "resourcePath": "Texture/Character/1210100_stand.asset"
    },
    {
      "assetName": "",
      "assetPath": "texture/character/stand/1210200_stand",
      "resourcePath": "Texture/Character/1210200_stand.asset"
    },
    {
      "assetName": "",
      "assetPath": "texture/character/stand/1151200_stand",
      "resourcePath": "Texture/Character/1151200_stand.asset"
    },
    {
      "assetName": "",
      "assetPath": "texture/character/stand/1150100_stand",
      "resourcePath": "Texture/Character/1150100_stand.asset"
    },
    {
      "assetName": "",
      "assetPath": "texture/background/bg_090_ll",
      "resourcePath": "Texture/BG/bg_090_LL.png"
    },
    {
      "assetName": "",
      "assetPath": "texture/background/bg_007_ll",
      "resourcePath": "Texture/BG/bg_007_LL.png"
    },
    {
      "assetName": "",
      "assetPath": "prefabs/effect/adventure/eff_040/eff_040",
      "resourcePath": "Particle/eff_040.prefab"
    },
    {
      "assetName": "",
      "assetPath": "sound/bgm/adventure/bgm_unrest",
      "resourcePath": "Sound/BGM/bgm_unrest.wav"
    },
    {
      "assetName": "",
      "assetPath": "sound/bgm/adventure/bgm_comical",
      "resourcePath": "Sound/BGM/bgm_comical.wav"
    },
    {
      "assetName": "",
      "assetPath": "sound/se/adventure/se_depression",
      "resourcePath": "Sound/SE/se_depression.wav"
    },
    {
      "assetName": "",
      "assetPath": "sound/bgm/adventure/bgm_description",
      "resourcePath": "Sound/BGM/bgm_description.wav"
    },
    {
      "assetName": "",
      "assetPath": "sound/bgm/adventure/bgm_suspiction",
      "resourcePath": "Sound/BGM/bgm_suspiction.wav"
    },
    {
      "assetName": "",
      "assetPath": "data/adventure/event/story2015/adv_201508.scenarios",
      "resourcePath": "adv_201508.scenarios.asset"
    }
  ]
}