{
  "m_GameObject": {
    "m_FileID": 0,
    "m_PathID": 0
  },
  "m_Enabled": 1,
  "m_Script": {
    "m_FileID": 0,
    "m_PathID": -2195584510539435343
  },
  "m_Name": "adv_101503.book",
  "importVersion": 0,
  "importGridList": [
    {
      "rows": [
        {
          "rowIndex": 0,
          "strings": [
            "Command",
            "Arg1",
            "Arg2",
            "Arg3",
            "Arg4",
            "Arg5",
            "Arg6",
            "WaitType",
            "Text",
            "PageCtrl",
            "Voice",
            "WindowType"
          ],
          "isEmpty": 0,
          "isCommentOut": 0
        },
        {
          "rowIndex": 1,
          "strings": [
            "FadeOut",
            "black",
            "",
            "",
            "",
            "",
            "0",
            "",
            "",
            "",
            "",
            ""
          ],
          "isEmpty": 0,
          "isCommentOut": 0
        },
        {
          "rowIndex": 2,
          "strings": [
            "Bg",
            "背景(マジェコン製造工場)",
            "",
            "",
            "",
            "",
            "",
            "",
            "",
            "",
            "",
            ""
          ],
          "isEmpty": 0,
          "isCommentOut": 0
        },
        {
          "rowIndex": 3,
          "strings": [
            "Wait",
            "",
            "",
            "",
            "",
            "",
            ".3",
            "",
            "",
            "",
            "",
            ""
          ],
          "isEmpty": 0,
          "isCommentOut": 0
        },
        {
          "rowIndex": 4,
          "strings": [
            "FadeIn",
            "black",
            "",
            "",
            "",
            "",
            "1",
            "",
            "",
            "",
            "",
            ""
          ],
          "isEmpty": 0,
          "isCommentOut": 0
        },
        {
          "rowIndex": 5,
          "strings": [
            "Bgm",
            "疑惑",
            "",
            "",
            "",
            "",
            "",
            "",
            "",
            "",
            "",
            "",
            ""
          ],
          "isEmpty": 0,
          "isCommentOut": 0
        },
        {
          "rowIndex": 6,
          "strings": [
            "",
            "ノワール",
            "通常",
            "キャラ左",
            "",
            "",
            "",
            "",
            "",
            "",
            "",
            "",
            ""
          ],
          "isEmpty": 0,
          "isCommentOut": 0
        },
        {
          "rowIndex": 7,
          "strings": [
            "",
            "偽ブラックハート",
            "通常",
            "キャラ右",
            "",
            "",
            "",
            "",
            "",
            "",
            "",
            "",
            ""
          ],
          "isEmpty": 0,
          "isCommentOut": 0
        },
        {
          "rowIndex": 8,
          "strings": [
            "",
            "ノワール",
            "真剣",
            "",
            "",
            "",
            ".2",
            "",
            "私が何者なのか、ここにいる皆に教えてあげる！",
            "",
            "",
            "",
            ""
          ],
          "isEmpty": 0,
          "isCommentOut": 0
        },
        {
          "rowIndex": 9,
          "strings": [
            "",
            "偽ブラックハート",
            "笑い",
            "",
            "",
            "",
            ".2",
            "",
            "ふっ、何を言い出すかと思えば……。\nそんなの教えてもらわなくても分かっているわ",
            "",
            "",
            "",
            ""
          ],
          "isEmpty": 0,
          "isCommentOut": 0
        },
        {
          "rowIndex": 10,
          "strings": [
            "",
            "偽ブラックハート",
            "通常",
            "",
            "",
            "",
            ".2",
            "",
            "あなたは、偽物の女神。そして私こそが、",
            "Br",
            "",
            "",
            ""
          ],
          "isEmpty": 0,
          "isCommentOut": 0
        },
        {
          "rowIndex": 11,
          "strings": [
            "Wait",
            "",
            "",
            "",
            "",
            "",
            ".3",
            "",
            "",
            "",
            "",
            "",
            ""
          ],
          "isEmpty": 0,
          "isCommentOut": 0
        },
        {
          "rowIndex": 12,
          "strings": [
            "",
            "偽ブラックハート",
            "笑い",
            "",
            "",
            "",
            ".2",
            "",
            "ラステイションを導く本物の守護女神なのよ",
            "",
            "",
            "",
            ""
          ],
          "isEmpty": 0,
          "isCommentOut": 0
        },
        {
          "rowIndex": 13,
          "strings": [
            "",
            "ノワール",
            "通常",
            "",
            "",
            "",
            ".2",
            "",
            "本物と偽物ね。そんなことに興味はないわ。\n例え姿が同じでも、あなたはあなた、私は私",
            "",
            "",
            "",
            ""
          ],
          "isEmpty": 0,
          "isCommentOut": 0
        },
        {
          "rowIndex": 14,
          "strings": [
            "",
            "ノワール",
            "目閉じ",
            "",
            "",
            "",
            ".2",
            "",
            "私もあなたも、この国の未来を真剣に考えている。\nそこには本物も偽物もないもの",
            "",
            "",
            "",
            ""
          ],
          "isEmpty": 0,
          "isCommentOut": 0
        },
        {
          "rowIndex": 15,
          "strings": [
            "StopBgm",
            "",
            "",
            "",
            "",
            "",
            "",
            "",
            "",
            "",
            "",
            "",
            ""
          ],
          "isEmpty": 0,
          "isCommentOut": 0
        },
        {
          "rowIndex": 16,
          "strings": [
            "Bgm",
            "決意",
            "",
            "",
            "",
            "",
            "",
            "",
            "",
            "",
            "",
            "",
            ""
          ],
          "isEmpty": 0,
          "isCommentOut": 0
        },
        {
          "rowIndex": 17,
          "strings": [
            "",
            "ノワール",
            "真剣",
            "",
            "",
            "",
            ".2",
            "",
            "私たちは、プリンとゼリーなんだから",
            "",
            "",
            "",
            ""
          ],
          "isEmpty": 0,
          "isCommentOut": 0
        },
        {
          "rowIndex": 18,
          "strings": [
            "CharacterOff",
            "",
            "",
            "",
            "",
            "",
            "",
            "",
            "",
            "",
            "",
            "",
            ""
          ],
          "isEmpty": 0,
          "isCommentOut": 0
        },
        {
          "rowIndex": 19,
          "strings": [
            "",
            "大人ネプテューヌ",
            "通常",
            "",
            "",
            "",
            "",
            "",
            "",
            "",
            "",
            "",
            ""
          ],
          "isEmpty": 0,
          "isCommentOut": 0
        },
        {
          "rowIndex": 20,
          "strings": [
            "Tween",
            "大人ネプテューヌ",
            "MoveTo",
            "x=0 y=40 islocal=true time=.1",
            "easeOutCirc",
            "pingPong=2",
            "",
            "Add",
            "",
            "",
            "",
            ""
          ],
          "isEmpty": 0,
          "isCommentOut": 0
        },
        {
          "rowIndex": 21,
          "strings": [
            "",
            "大人ネプテューヌ",
            "笑い",
            "",
            "",
            "",
            ".2",
            "",
            "だね！　",
            "Next",
            "",
            "",
            ""
          ],
          "isEmpty": 0,
          "isCommentOut": 0
        },
        {
          "rowIndex": 22,
          "strings": [
            "Wait",
            "",
            "",
            "",
            "",
            "",
            ".5",
            "",
            "",
            "",
            "",
            "",
            ""
          ],
          "isEmpty": 0,
          "isCommentOut": 0
        },
        {
          "rowIndex": 23,
          "strings": [
            "",
            "大人ネプテューヌ",
            "真剣",
            "",
            "",
            "",
            ".2",
            "",
            "プリンもゼリーもどっちも美味しい！",
            "Input",
            "",
            "",
            ""
          ],
          "isEmpty": 0,
          "isCommentOut": 0
        },
        {
          "rowIndex": 24,
          "strings": [
            "Selection",
            "*101503-01",
            "",
            "",
            "",
            "0",
            "300",
            "",
            "「今の言葉、響いたよ！」",
            "",
            "",
            "",
            ""
          ],
          "isEmpty": 0,
          "isCommentOut": 0
        },
        {
          "rowIndex": 25,
          "strings": [
            "*101503-01",
            "",
            "",
            "",
            "",
            "",
            "",
            "",
            "",
            "",
            "",
            "",
            ""
          ],
          "isEmpty": 0,
          "isCommentOut": 0
        },
        {
          "rowIndex": 26,
          "strings": [
            "CharacterOff",
            "",
            "",
            "",
            "",
            "",
            "",
            "",
            "",
            "",
            "",
            "",
            ""
          ],
          "isEmpty": 0,
          "isCommentOut": 0
        },
        {
          "rowIndex": 27,
          "strings": [
            "",
            "ノワール",
            "通常",
            "キャラ左",
            "",
            "",
            "",
            "",
            "",
            "",
            "",
            "",
            ""
          ],
          "isEmpty": 0,
          "isCommentOut": 0
        },
        {
          "rowIndex": 28,
          "strings": [
            "",
            "偽ブラックハート",
            "通常",
            "キャラ右",
            "",
            "",
            "",
            "",
            "",
            "",
            "",
            "",
            ""
          ],
          "isEmpty": 0,
          "isCommentOut": 0
        },
        {
          "rowIndex": 29,
          "strings": [
            "Tween",
            "偽ブラックハート",
            "ShakePosition",
            "x=10 islocal=true time=.3",
            "",
            "",
            "",
            "Add",
            "",
            "",
            "",
            ""
          ],
          "isEmpty": 0,
          "isCommentOut": 0
        },
        {
          "rowIndex": 30,
          "strings": [
            "",
            "偽ブラックハート",
            "真剣",
            "",
            "",
            "",
            ".2",
            "",
            "くっ……！　そんな考え認めないわっ。\n偽物は偽物、本物は本物。どちらか必ず劣る！",
            "",
            "",
            "",
            ""
          ],
          "isEmpty": 0,
          "isCommentOut": 0
        },
        {
          "rowIndex": 31,
          "strings": [
            "",
            "偽ブラックハート",
            "真剣",
            "",
            "",
            "",
            ".2",
            "",
            "そして偽物に劣る本物に、この国は任せられない。\n女神化できないあなたは、指導者として相応しくない！",
            "",
            "",
            "",
            ""
          ],
          "isEmpty": 0,
          "isCommentOut": 0
        },
        {
          "rowIndex": 32,
          "strings": [
            "",
            "ノワール",
            "真剣",
            "",
            "",
            "",
            ".2",
            "",
            "女神化できなくても、この国を想う気持ちは負けない。\nどんな困難があっても乗り越えてみせる！",
            "",
            "",
            "",
            ""
          ],
          "isEmpty": 0,
          "isCommentOut": 0
        },
        {
          "rowIndex": 33,
          "strings": [
            "",
            "偽ブラックハート",
            "真剣",
            "",
            "",
            "",
            ".2",
            "",
            "そこまでいうなら、打ち破ってみせなさい。\n私という『困難』を！",
            "",
            "",
            "",
            ""
          ],
          "isEmpty": 0,
          "isCommentOut": 0
        },
        {
          "rowIndex": 34,
          "strings": [
            "",
            "ノワール",
            "真剣",
            "",
            "",
            "",
            ".2",
            "",
            "いいわ。",
            "Br",
            "",
            "",
            ""
          ],
          "isEmpty": 0,
          "isCommentOut": 0
        },
        {
          "rowIndex": 35,
          "strings": [
            "Wait",
            "",
            "",
            "",
            "",
            "",
            ".5",
            "",
            "",
            "",
            "",
            "",
            ""
          ],
          "isEmpty": 0,
          "isCommentOut": 0
        },
        {
          "rowIndex": 36,
          "strings": [
            "Tween",
            "ノワール",
            "ShakePosition",
            "x=10 islocal=true time=.3",
            "",
            "",
            "",
            "Add",
            "",
            "",
            "",
            ""
          ],
          "isEmpty": 0,
          "isCommentOut": 0
        },
        {
          "rowIndex": 37,
          "strings": [
            "",
            "ノワール",
            "真剣",
            "",
            "",
            "",
            ".2",
            "",
            "そっちがそのつもりなら、全力でやってやる",
            "",
            "",
            "",
            ""
          ],
          "isEmpty": 0,
          "isCommentOut": 0
        },
        {
          "rowIndex": 38,
          "strings": [
            "CharacterOff",
            "",
            "",
            "",
            "",
            "",
            "",
            "",
            "",
            "",
            "",
            "",
            ""
          ],
          "isEmpty": 0,
          "isCommentOut": 0
        },
        {
          "rowIndex": 39,
          "strings": [
            "",
            "ユニ",
            "悲しみ",
            "",
            "",
            "",
            ".2",
            "",
            "お、お姉ちゃん……",
            "",
            "",
            "",
            ""
          ],
          "isEmpty": 0,
          "isCommentOut": 0
        },
        {
          "rowIndex": 40,
          "strings": [
            "",
            "ノワール",
            "真剣",
            "",
            "",
            "",
            ".2",
            "",
            "心配しないで。必ず勝つわ。",
            "Next",
            "",
            "",
            ""
          ],
          "isEmpty": 0,
          "isCommentOut": 0
        },
        {
          "rowIndex": 41,
          "strings": [
            "Wait",
            "",
            "",
            "",
            "",
            "",
            ".3",
            "",
            "",
            "",
            "",
            "",
            ""
          ],
          "isEmpty": 0,
          "isCommentOut": 0
        },
        {
          "rowIndex": 42,
          "strings": [
            "",
            "ノワール",
            "笑い",
            "",
            "",
            "",
            ".2",
            "",
            "だって妹の前で、\nかっこ悪い所なんか見せられないもの……！",
            "",
            "",
            "",
            ""
          ],
          "isEmpty": 0,
          "isCommentOut": 0
        },
        {
          "rowIndex": 43,
          "strings": [
            "FadeOut",
            "black",
            "",
            "",
            "",
            "",
            "1",
            "",
            "",
            "",
            "",
            ""
          ],
          "isEmpty": 0,
          "isCommentOut": 0
        },
        {
          "rowIndex": 44,
          "strings": [
            "Wait",
            "",
            "",
            "",
            "",
            "",
            ".3",
            "",
            "",
            "",
            "",
            ""
          ],
          "isEmpty": 0,
          "isCommentOut": 0
        },
        {
          "rowIndex": 45,
          "strings": [
            "EndScenario",
            "",
            "",
            "",
            "",
            "",
            "",
            "",
            "",
            "",
            "",
            ""
          ],
          "isEmpty": 0,
          "isCommentOut": 0
        }
      ],
      "name": "Assets/Story/adv_101503.xls:101503",
      "type": 1,
      "textLength": 1148,
      "headerRow": 0,
      "entityIndexTbl": [],
      "entityDataList": []
    }
  ]
}