{
  "m_GameObject": {
    "m_FileID": 0,
    "m_PathID": 0
  },
  "m_Enabled": 1,
  "m_Script": {
    "m_FileID": 0,
    "m_PathID": 8527011069456626154
  },
  "m_Name": "adv_101503_path",
  "advPathList": [
    {
      "assetName": "",
      "assetPath": "texture/character/stand/1010200_stand",
      "resourcePath": "Texture/Character/1010200_stand.asset"
    },
    {
      "assetName": "",
      "assetPath": "texture/character/stand/3000900_stand",
      "resourcePath": "Texture/Character/3000900_stand.asset"
    },
    {
      "assetName": "",
      "assetPath": "texture/character/stand/1040100_stand",
      "resourcePath": "Texture/Character/1040100_stand.asset"
    },
    {
      "assetName": "",
      "assetPath": "texture/character/stand/1020200_stand",
      "resourcePath": "Texture/Character/1020200_stand.asset"
    },
    {
      "assetName": "",
      "assetPath": "texture/background/bg_047_ll",
      "resourcePath": "Texture/BG/bg_047_LL.png"
    },
    {
      "assetName": "",
      "assetPath": "sound/bgm/adventure/bgm_suspiction",
      "resourcePath": "Sound/BGM/bgm_suspiction.wav"
    },
    {
      "assetName": "",
      "assetPath": "sound/bgm/adventure/bgm_vow",
      "resourcePath": "Sound/BGM/bgm_vow.wav"
    },
    {
      "assetName": "",
      "assetPath": "data/adventure/main/story1015/adv_101503.scenarios",
      "resourcePath": "adv_101503.scenarios.asset"
    }
  ]
}