{
  "m_GameObject": {
    "m_FileID": 0,
    "m_PathID": 0
  },
  "m_Enabled": 1,
  "m_Script": {
    "m_FileID": 0,
    "m_PathID": -2767099076474933927
  },
  "m_Name": "dc_1180400_sd",
  "Version": 65537,
  "TableCellMap": [
    {
      "Name": "1180400_sd",
      "SizeOriginal": {
        "x": 2048.0,
        "y": 2048.0
      },
      "TableCell": [
        {
          "Name": "face_normal",
          "Rectangle": {
            "x": 4.0,
            "y": 654.0,
            "width": 250.0,
            "height": 250.0
          },
          "Pivot": {
            "x": 125.0,
            "y": 135.0
          },
          "Mesh": {
            "TableCoordinate": [],
            "TableIndexVertex": []
          }
        },
        {
          "Name": "face_eye_close_normal",
          "Rectangle": {
            "x": 1164.0,
            "y": 584.0,
            "width": 250.0,
            "height": 250.0
          },
          "Pivot": {
            "x": 125.0,
            "y": 135.0
          },
          "Mesh": {
            "TableCoordinate": [],
            "TableIndexVertex": []
          }
        },
        {
          "Name": "face_mouth_open_happy",
          "Rectangle": {
            "x": 1664.0,
            "y": 614.0,
            "width": 250.0,
            "height": 250.0
          },
          "Pivot": {
            "x": 125.0,
            "y": 135.0
          },
          "Mesh": {
            "TableCoordinate": [],
            "TableIndexVertex": []
          }
        },
        {
          "Name": "face_happy",
          "Rectangle": {
            "x": 1414.0,
            "y": 584.0,
            "width": 250.0,
            "height": 250.0
          },
          "Pivot": {
            "x": 125.0,
            "y": 135.0
          },
          "Mesh": {
            "TableCoordinate": [],
            "TableIndexVertex": []
          }
        },
        {
          "Name": "face_attack",
          "Rectangle": {
            "x": 134.0,
            "y": 404.0,
            "width": 250.0,
            "height": 250.0
          },
          "Pivot": {
            "x": 125.0,
            "y": 135.0
          },
          "Mesh": {
            "TableCoordinate": [],
            "TableIndexVertex": []
          }
        },
        {
          "Name": "face_damage",
          "Rectangle": {
            "x": 384.0,
            "y": 404.0,
            "width": 250.0,
            "height": 250.0
          },
          "Pivot": {
            "x": 125.0,
            "y": 135.0
          },
          "Mesh": {
            "TableCoordinate": [],
            "TableIndexVertex": []
          }
        },
        {
          "Name": "face_unique",
          "Rectangle": {
            "x": 254.0,
            "y": 654.0,
            "width": 250.0,
            "height": 250.0
          },
          "Pivot": {
            "x": 125.0,
            "y": 135.0
          },
          "Mesh": {
            "TableCoordinate": [],
            "TableIndexVertex": []
          }
        },
        {
          "Name": "acce_head_front_c",
          "Rectangle": {
            "x": 834.0,
            "y": 4.0,
            "width": 530.0,
            "height": 360.0
          },
          "Pivot": {
            "x": 265.0,
            "y": 180.0
          },
          "Mesh": {
            "TableCoordinate": [],
            "TableIndexVertex": []
          }
        },
        {
          "Name": "acce_head_front_l",
          "Rectangle": {
            "x": 1364.0,
            "y": 4.0,
            "width": 250.0,
            "height": 280.0
          },
          "Pivot": {
            "x": 132.0,
            "y": 119.999878
          },
          "Mesh": {
            "TableCoordinate": [],
            "TableIndexVertex": []
          }
        },
        {
          "Name": "acce_head_front_r",
          "Rectangle": {
            "x": 1614.0,
            "y": 4.0,
            "width": 250.0,
            "height": 280.0
          },
          "Pivot": {
            "x": 123.0,
            "y": 133.999878
          },
          "Mesh": {
            "TableCoordinate": [],
            "TableIndexVertex": []
          }
        },
        {
          "Name": "hear_front_c",
          "Rectangle": {
            "x": 4.0,
            "y": 904.0,
            "width": 430.0,
            "height": 320.0
          },
          "Pivot": {
            "x": 216.0,
            "y": 71.00001
          },
          "Mesh": {
            "TableCoordinate": [
              {
                "x": 76.0,
                "y": 229.0
              },
              {
                "x": 76.0,
                "y": 216.0
              },
              {
                "x": 103.0,
                "y": 225.0
              },
              {
                "x": 100.0,
                "y": 190.0
              },
              {
                "x": 140.0,
                "y": 194.0
              },
              {
                "x": 128.0,
                "y": 130.0
              },
              {
                "x": 190.0,
                "y": 175.0
              },
              {
                "x": 169.0,
                "y": 240.0
              },
              {
                "x": 205.0,
                "y": 234.0
              },
              {
                "x": 150.0,
                "y": 98.0
              },
              {
                "x": 217.0,
                "y": 125.0
              },
              {
                "x": 187.0,
                "y": 75.0
              },
              {
                "x": 158.0,
                "y": 34.0
              },
              {
                "x": 189.0,
                "y": 18.0
              },
              {
                "x": 223.0,
                "y": 74.0
              },
              {
                "x": 250.0,
                "y": 129.0
              },
              {
                "x": 215.0,
                "y": 173.0
              },
              {
                "x": 200.0,
                "y": 196.0
              },
              {
                "x": 214.0,
                "y": 196.0
              },
              {
                "x": 270.0,
                "y": 184.0
              },
              {
                "x": 222.0,
                "y": 194.0
              },
              {
                "x": 237.0,
                "y": 204.0
              },
              {
                "x": 262.0,
                "y": 200.0
              },
              {
                "x": 292.0,
                "y": 182.0
              },
              {
                "x": 285.0,
                "y": 194.0
              },
              {
                "x": 271.0,
                "y": 194.0
              },
              {
                "x": 291.0,
                "y": 108.0
              },
              {
                "x": 265.0,
                "y": 32.0
              },
              {
                "x": 262.0,
                "y": 17.0
              },
              {
                "x": 202.0,
                "y": -2.0
              },
              {
                "x": 305.0,
                "y": 35.0
              },
              {
                "x": 324.0,
                "y": 58.0
              },
              {
                "x": 340.0,
                "y": 108.0
              },
              {
                "x": 354.0,
                "y": 157.0
              },
              {
                "x": 336.0,
                "y": 203.0
              },
              {
                "x": 314.0,
                "y": 229.0
              },
              {
                "x": 333.0,
                "y": 236.0
              },
              {
                "x": 293.0,
                "y": 240.0
              },
              {
                "x": 390.0,
                "y": 188.0
              },
              {
                "x": 390.0,
                "y": 201.0
              },
              {
                "x": 159.0,
                "y": 22.0
              },
              {
                "x": 103.0,
                "y": 87.0
              },
              {
                "x": 92.0,
                "y": 130.0
              }
            ],
            "TableIndexVertex": [
              0,
              1,
              2,
              1,
              3,
              2,
              2,
              3,
              4,
              4,
              3,
              5,
              6,
              4,
              5,
              7,
              4,
              6,
              7,
              6,
              8,
              9,
              6,
              5,
              9,
              10,
              6,
              9,
              11,
              10,
              11,
              9,
              12,
              11,
              12,
              13,
              11,
              13,
              14,
              10,
              11,
              14,
              15,
              10,
              14,
              16,
              10,
              15,
              16,
              6,
              10,
              17,
              6,
              16,
              18,
              17,
              16,
              19,
              16,
              15,
              20,
              16,
              19,
              19,
              21,
              20,
              22,
              21,
              19,
              23,
              19,
              15,
              23,
              24,
              19,
              24,
              25,
              19,
              15,
              26,
              23,
              26,
              15,
              14,
              14,
              27,
              26,
              14,
              13,
              27,
              13,
              28,
              27,
              28,
              13,
              29,
              26,
              27,
              30,
              26,
              30,
              31,
              26,
              31,
              32,
              33,
              26,
              32,
              33,
              23,
              26,
              34,
              23,
              33,
              34,
              35,
              23,
              36,
              35,
              34,
              37,
              23,
              35,
              34,
              33,
              38,
              39,
              34,
              38,
              13,
              12,
              40,
              9,
              41,
              12,
              9,
              5,
              41,
              5,
              42,
              41,
              3,
              42,
              5
            ]
          }
        },
        {
          "Name": "hear_front_r",
          "Rectangle": {
            "x": 1800.0,
            "y": 864.0,
            "width": 200.0,
            "height": 380.0
          },
          "Pivot": {
            "x": 111.0,
            "y": 87.0
          },
          "Mesh": {
            "TableCoordinate": [
              {
                "x": 64.0,
                "y": 168.0
              },
              {
                "x": 63.0,
                "y": 129.0
              },
              {
                "x": 95.0,
                "y": 146.0
              },
              {
                "x": 89.0,
                "y": 181.0
              },
              {
                "x": 80.0,
                "y": 202.0
              },
              {
                "x": 89.0,
                "y": 202.0
              },
              {
                "x": 104.0,
                "y": 187.0
              },
              {
                "x": 128.0,
                "y": 162.0
              },
              {
                "x": 116.0,
                "y": 206.0
              },
              {
                "x": 146.0,
                "y": 170.0
              },
              {
                "x": 144.0,
                "y": 216.0
              },
              {
                "x": 128.0,
                "y": 217.0
              },
              {
                "x": 116.0,
                "y": 222.0
              },
              {
                "x": 139.0,
                "y": 225.0
              },
              {
                "x": 129.0,
                "y": 225.0
              },
              {
                "x": 135.0,
                "y": 130.0
              },
              {
                "x": 106.0,
                "y": 116.0
              },
              {
                "x": 86.0,
                "y": 99.0
              },
              {
                "x": 74.0,
                "y": 79.0
              },
              {
                "x": 99.0,
                "y": 53.0
              },
              {
                "x": 121.0,
                "y": 89.0
              },
              {
                "x": 123.0,
                "y": 55.0
              },
              {
                "x": 84.0,
                "y": 56.0
              }
            ],
            "TableIndexVertex": [
              0,
              1,
              2,
              3,
              0,
              2,
              4,
              0,
              3,
              4,
              3,
              5,
              6,
              3,
              2,
              7,
              6,
              2,
              8,
              6,
              7,
              8,
              7,
              9,
              10,
              8,
              9,
              11,
              8,
              10,
              12,
              8,
              11,
              10,
              13,
              11,
              13,
              14,
              11,
              7,
              15,
              9,
              7,
              2,
              15,
              2,
              16,
              15,
              2,
              1,
              16,
              1,
              17,
              16,
              1,
              18,
              17,
              19,
              17,
              18,
              20,
              17,
              19,
              16,
              17,
              20,
              16,
              20,
              15,
              20,
              19,
              21,
              18,
              22,
              19
            ]
          }
        },
        {
          "Name": "head",
          "Rectangle": {
            "x": 730.0,
            "y": 694.0,
            "width": 290.0,
            "height": 250.0
          },
          "Pivot": {
            "x": 163.000015,
            "y": 225.0
          },
          "Mesh": {
            "TableCoordinate": [],
            "TableIndexVertex": []
          }
        },
        {
          "Name": "hear_front_l",
          "Rectangle": {
            "x": 504.0,
            "y": 840.0,
            "width": 200.0,
            "height": 380.0
          },
          "Pivot": {
            "x": 81.0,
            "y": 93.00006
          },
          "Mesh": {
            "TableCoordinate": [
              {
                "x": 74.0,
                "y": 207.0
              },
              {
                "x": 59.0,
                "y": 205.0
              },
              {
                "x": 58.0,
                "y": 195.0
              },
              {
                "x": 72.0,
                "y": 187.0
              },
              {
                "x": 100.0,
                "y": 211.0
              },
              {
                "x": 77.0,
                "y": 227.0
              },
              {
                "x": 67.0,
                "y": 227.0
              },
              {
                "x": 115.0,
                "y": 196.0
              },
              {
                "x": 79.0,
                "y": 167.0
              },
              {
                "x": 96.0,
                "y": 150.0
              },
              {
                "x": 78.0,
                "y": 124.0
              },
              {
                "x": 116.0,
                "y": 138.0
              },
              {
                "x": 133.0,
                "y": 161.0
              },
              {
                "x": 138.0,
                "y": 131.0
              },
              {
                "x": 117.0,
                "y": 118.0
              },
              {
                "x": 96.0,
                "y": 101.0
              },
              {
                "x": 74.0,
                "y": 81.0
              },
              {
                "x": 108.0,
                "y": 81.0
              },
              {
                "x": 137.0,
                "y": 100.0
              },
              {
                "x": 124.0,
                "y": 64.0
              },
              {
                "x": 113.0,
                "y": 64.0
              }
            ],
            "TableIndexVertex": [
              0,
              1,
              2,
              0,
              2,
              3,
              4,
              0,
              3,
              5,
              0,
              4,
              6,
              0,
              5,
              7,
              4,
              3,
              3,
              8,
              7,
              8,
              9,
              7,
              8,
              10,
              9,
              9,
              10,
              11,
              12,
              9,
              11,
              12,
              7,
              9,
              12,
              11,
              13,
              11,
              14,
              13,
              11,
              10,
              14,
              10,
              15,
              14,
              10,
              16,
              15,
              15,
              16,
              17,
              14,
              15,
              17,
              18,
              14,
              17,
              14,
              18,
              13,
              18,
              17,
              19,
              17,
              20,
              19,
              17,
              16,
              20
            ]
          }
        },
        {
          "Name": "acce_body_front",
          "Rectangle": {
            "x": 4.0,
            "y": 4.0,
            "width": 250.0,
            "height": 275.0
          },
          "Pivot": {
            "x": 125.0,
            "y": 101.999977
          },
          "Mesh": {
            "TableCoordinate": [],
            "TableIndexVertex": []
          }
        },
        {
          "Name": "hand_r",
          "Rectangle": {
            "x": 504.0,
            "y": 660.0,
            "width": 225.0,
            "height": 180.0
          },
          "Pivot": {
            "x": 81.9999,
            "y": 61.00002
          },
          "Mesh": {
            "TableCoordinate": [],
            "TableIndexVertex": []
          }
        },
        {
          "Name": "arm_r",
          "Rectangle": {
            "x": 4.0,
            "y": 280.0,
            "width": 130.0,
            "height": 180.0
          },
          "Pivot": {
            "x": 78.99996,
            "y": 64.00008
          },
          "Mesh": {
            "TableCoordinate": [],
            "TableIndexVertex": []
          }
        },
        {
          "Name": "body",
          "Rectangle": {
            "x": 1164.0,
            "y": 364.0,
            "width": 180.0,
            "height": 220.0
          },
          "Pivot": {
            "x": 93.99996,
            "y": 151.000076
          },
          "Mesh": {
            "TableCoordinate": [],
            "TableIndexVertex": []
          }
        },
        {
          "Name": "acce_hip_front",
          "Rectangle": {
            "x": 1664.0,
            "y": 284.0,
            "width": 330.0,
            "height": 330.0
          },
          "Pivot": {
            "x": 167.000137,
            "y": 141.000092
          },
          "Mesh": {
            "TableCoordinate": [],
            "TableIndexVertex": []
          }
        },
        {
          "Name": "thigh_r",
          "Rectangle": {
            "x": 864.0,
            "y": 1124.0,
            "width": 130.0,
            "height": 180.0
          },
          "Pivot": {
            "x": 61.00003,
            "y": 68.00004
          },
          "Mesh": {
            "TableCoordinate": [],
            "TableIndexVertex": []
          }
        },
        {
          "Name": "leg_r",
          "Rectangle": {
            "x": 1914.0,
            "y": 614.0,
            "width": 130.0,
            "height": 180.0
          },
          "Pivot": {
            "x": 78.0,
            "y": 54.0
          },
          "Mesh": {
            "TableCoordinate": [],
            "TableIndexVertex": []
          }
        },
        {
          "Name": "hip",
          "Rectangle": {
            "x": 704.0,
            "y": 944.0,
            "width": 180.0,
            "height": 180.0
          },
          "Pivot": {
            "x": 95.00004,
            "y": 109.000076
          },
          "Mesh": {
            "TableCoordinate": [],
            "TableIndexVertex": []
          }
        },
        {
          "Name": "thigh_l",
          "Rectangle": {
            "x": 884.0,
            "y": 944.0,
            "width": 130.0,
            "height": 180.0
          },
          "Pivot": {
            "x": 61.99999,
            "y": 68.00004
          },
          "Mesh": {
            "TableCoordinate": [],
            "TableIndexVertex": []
          }
        },
        {
          "Name": "leg_l",
          "Rectangle": {
            "x": 4.0,
            "y": 460.0,
            "width": 130.0,
            "height": 180.0
          },
          "Pivot": {
            "x": 71.99998,
            "y": 55.00008
          },
          "Mesh": {
            "TableCoordinate": [],
            "TableIndexVertex": []
          }
        },
        {
          "Name": "weapon_b",
          "Rectangle": {
            "x": 1294.0,
            "y": 1384.0,
            "width": 250.0,
            "height": 500.0
          },
          "Pivot": {
            "x": 128.0,
            "y": 368.0
          },
          "Mesh": {
            "TableCoordinate": [],
            "TableIndexVertex": []
          }
        },
        {
          "Name": "weapon_b_1",
          "Rectangle": {
            "x": 1294.0,
            "y": 1384.0,
            "width": 250.0,
            "height": 500.0
          },
          "Pivot": {
            "x": 128.0,
            "y": 368.0
          },
          "Mesh": {
            "TableCoordinate": [],
            "TableIndexVertex": []
          }
        },
        {
          "Name": "hand_l",
          "Rectangle": {
            "x": 634.0,
            "y": 404.0,
            "width": 180.0,
            "height": 255.0
          },
          "Pivot": {
            "x": 99.0,
            "y": 59.00012
          },
          "Mesh": {
            "TableCoordinate": [],
            "TableIndexVertex": []
          }
        },
        {
          "Name": "arm_l",
          "Rectangle": {
            "x": 1864.0,
            "y": 4.0,
            "width": 130.0,
            "height": 180.0
          },
          "Pivot": {
            "x": 49.99995,
            "y": 63.0
          },
          "Mesh": {
            "TableCoordinate": [],
            "TableIndexVertex": []
          }
        },
        {
          "Name": "hear_back_c",
          "Rectangle": {
            "x": 1020.0,
            "y": 834.0,
            "width": 260.0,
            "height": 520.0
          },
          "Pivot": {
            "x": 119.999878,
            "y": 80.99988
          },
          "Mesh": {
            "TableCoordinate": [
              {
                "x": 41.0,
                "y": 455.0
              },
              {
                "x": 17.0,
                "y": 416.0
              },
              {
                "x": 102.0,
                "y": 410.0
              },
              {
                "x": 102.0,
                "y": 458.0
              },
              {
                "x": 156.0,
                "y": 456.0
              },
              {
                "x": 195.0,
                "y": 395.0
              },
              {
                "x": 185.0,
                "y": 442.0
              },
              {
                "x": 106.0,
                "y": 328.0
              },
              {
                "x": 19.0,
                "y": 380.0
              },
              {
                "x": 28.0,
                "y": 330.0
              },
              {
                "x": 40.0,
                "y": 275.0
              },
              {
                "x": 117.0,
                "y": 278.0
              },
              {
                "x": 193.0,
                "y": 288.0
              },
              {
                "x": 196.0,
                "y": 338.0
              },
              {
                "x": 192.0,
                "y": 238.0
              },
              {
                "x": 114.0,
                "y": 220.0
              },
              {
                "x": 50.0,
                "y": 225.0
              },
              {
                "x": 46.0,
                "y": 175.0
              },
              {
                "x": 115.0,
                "y": 174.0
              },
              {
                "x": 199.0,
                "y": 188.0
              },
              {
                "x": 199.0,
                "y": 128.0
              },
              {
                "x": 124.0,
                "y": 114.0
              },
              {
                "x": 200.0,
                "y": 91.0
              },
              {
                "x": 132.0,
                "y": 63.0
              },
              {
                "x": 183.0,
                "y": 58.0
              },
              {
                "x": 141.0,
                "y": 41.0
              },
              {
                "x": 96.0,
                "y": 45.0
              },
              {
                "x": 69.0,
                "y": 73.0
              },
              {
                "x": 52.0,
                "y": 111.0
              }
            ],
            "TableIndexVertex": [
              0,
              1,
              2,
              0,
              2,
              3,
              3,
              2,
              4,
              5,
              4,
              2,
              6,
              4,
              5,
              2,
              7,
              5,
              2,
              8,
              7,
              1,
              8,
              2,
              7,
              8,
              9,
              9,
              10,
              7,
              7,
              10,
              11,
              7,
              11,
              12,
              13,
              7,
              12,
              5,
              7,
              13,
              11,
              14,
              12,
              11,
              15,
              14,
              16,
              15,
              11,
              16,
              17,
              15,
              15,
              17,
              18,
              15,
              18,
              19,
              14,
              15,
              19,
              19,
              18,
              20,
              20,
              18,
              21,
              20,
              21,
              22,
              22,
              21,
              23,
              22,
              23,
              24,
              23,
              25,
              24,
              23,
              26,
              25,
              23,
              27,
              26,
              21,
              27,
              23,
              28,
              27,
              21,
              18,
              28,
              21,
              17,
              28,
              18,
              10,
              16,
              11
            ]
          }
        },
        {
          "Name": "hear_back_r",
          "Rectangle": {
            "x": 1540.0,
            "y": 864.0,
            "width": 260.0,
            "height": 520.0
          },
          "Pivot": {
            "x": 164.999908,
            "y": 81.99983
          },
          "Mesh": {
            "TableCoordinate": [
              {
                "x": 29.0,
                "y": 81.0
              },
              {
                "x": 4.0,
                "y": 108.0
              },
              {
                "x": -1.0,
                "y": 60.0
              },
              {
                "x": 19.0,
                "y": 121.0
              },
              {
                "x": 39.0,
                "y": 124.0
              },
              {
                "x": 46.0,
                "y": 80.0
              },
              {
                "x": 86.0,
                "y": 113.0
              },
              {
                "x": 66.0,
                "y": 163.0
              },
              {
                "x": 19.0,
                "y": 174.0
              },
              {
                "x": 60.0,
                "y": 198.0
              },
              {
                "x": 23.0,
                "y": 228.0
              },
              {
                "x": 76.0,
                "y": 250.0
              },
              {
                "x": 65.0,
                "y": 292.0
              },
              {
                "x": 49.0,
                "y": 301.0
              },
              {
                "x": 62.0,
                "y": 300.0
              },
              {
                "x": 122.0,
                "y": 276.0
              },
              {
                "x": 69.0,
                "y": 299.0
              },
              {
                "x": 108.0,
                "y": 325.0
              },
              {
                "x": 58.0,
                "y": 336.0
              },
              {
                "x": 99.0,
                "y": 378.0
              },
              {
                "x": 45.0,
                "y": 379.0
              },
              {
                "x": 41.0,
                "y": 393.0
              },
              {
                "x": 39.0,
                "y": 345.0
              },
              {
                "x": 23.0,
                "y": 373.0
              },
              {
                "x": 4.0,
                "y": 350.0
              },
              {
                "x": 5.0,
                "y": 337.0
              },
              {
                "x": 146.0,
                "y": 345.0
              },
              {
                "x": 154.0,
                "y": 395.0
              },
              {
                "x": 101.0,
                "y": 396.0
              },
              {
                "x": 140.0,
                "y": 438.0
              },
              {
                "x": 91.0,
                "y": 415.0
              },
              {
                "x": 103.0,
                "y": 444.0
              },
              {
                "x": 70.0,
                "y": 448.0
              },
              {
                "x": 72.0,
                "y": 479.0
              },
              {
                "x": 38.0,
                "y": 468.0
              },
              {
                "x": 34.0,
                "y": 453.0
              },
              {
                "x": 150.0,
                "y": 471.0
              },
              {
                "x": 180.0,
                "y": 430.0
              },
              {
                "x": 183.0,
                "y": 360.0
              },
              {
                "x": 156.0,
                "y": 299.0
              },
              {
                "x": 171.0,
                "y": 287.0
              },
              {
                "x": 171.0,
                "y": 300.0
              },
              {
                "x": 142.0,
                "y": 231.0
              },
              {
                "x": 101.0,
                "y": 217.0
              },
              {
                "x": 109.0,
                "y": 154.0
              },
              {
                "x": 140.0,
                "y": 193.0
              },
              {
                "x": 150.0,
                "y": 147.0
              },
              {
                "x": 132.0,
                "y": 104.0
              },
              {
                "x": 127.0,
                "y": 59.0
              },
              {
                "x": 171.0,
                "y": 59.0
              },
              {
                "x": 177.0,
                "y": 99.0
              },
              {
                "x": 205.0,
                "y": 70.0
              },
              {
                "x": 214.0,
                "y": 3.0
              },
              {
                "x": 245.0,
                "y": 62.0
              },
              {
                "x": 258.0,
                "y": 45.0
              },
              {
                "x": 259.0,
                "y": 23.0
              },
              {
                "x": 174.0,
                "y": 4.0
              },
              {
                "x": 133.0,
                "y": 10.0
              },
              {
                "x": 71.0,
                "y": 68.0
              },
              {
                "x": 56.0,
                "y": 430.0
              },
              {
                "x": 57.0,
                "y": 443.0
              },
              {
                "x": 11.0,
                "y": 60.0
              }
            ],
            "TableIndexVertex": [
              0,
              1,
              2,
              3,
              1,
              0,
              4,
              3,
              0,
              5,
              4,
              0,
              6,
              4,
              5,
              7,
              4,
              6,
              8,
              4,
              7,
              9,
              8,
              7,
              10,
              8,
              9,
              10,
              9,
              11,
              12,
              10,
              11,
              12,
              13,
              10,
              14,
              13,
              12,
              12,
              11,
              15,
              16,
              12,
              15,
              17,
              16,
              15,
              18,
              16,
              17,
              19,
              18,
              17,
              19,
              20,
              18,
              21,
              20,
              19,
              20,
              22,
              18,
              23,
              22,
              20,
              23,
              24,
              22,
              24,
              25,
              22,
              19,
              17,
              26,
              19,
              26,
              27,
              28,
              19,
              27,
              29,
              28,
              27,
              30,
              28,
              29,
              31,
              30,
              29,
              31,
              32,
              30,
              33,
              32,
              31,
              34,
              32,
              33,
              34,
              35,
              32,
              36,
              33,
              31,
              36,
              31,
              29,
              36,
              29,
              37,
              29,
              27,
              37,
              37,
              27,
              38,
              27,
              26,
              38,
              38,
              26,
              39,
              26,
              17,
              39,
              17,
              15,
              39,
              39,
              15,
              40,
              39,
              40,
              41,
              15,
              42,
              40,
              15,
              43,
              42,
              11,
              43,
              15,
              11,
              9,
              43,
              43,
              9,
              7,
              44,
              43,
              7,
              45,
              43,
              44,
              43,
              45,
              42,
              45,
              44,
              46,
              44,
              47,
              46,
              44,
              6,
              47,
              7,
              6,
              44,
              47,
              6,
              48,
              47,
              48,
              49,
              47,
              49,
              50,
              46,
              47,
              50,
              50,
              49,
              51,
              52,
              51,
              49,
              53,
              51,
              52,
              54,
              53,
              52,
              54,
              52,
              55,
              49,
              56,
              52,
              49,
              57,
              56,
              48,
              57,
              49,
              48,
              58,
              57,
              6,
              58,
              48,
              5,
              58,
              6,
              30,
              32,
              59,
              32,
              60,
              59,
              0,
              2,
              61
            ]
          }
        },
        {
          "Name": "hear_back_l",
          "Rectangle": {
            "x": 1280.0,
            "y": 834.0,
            "width": 260.0,
            "height": 520.0
          },
          "Pivot": {
            "x": 71.99998,
            "y": 77.0000458
          },
          "Mesh": {
            "TableCoordinate": [
              {
                "x": 138.0,
                "y": 110.0
              },
              {
                "x": 50.0,
                "y": 133.0
              },
              {
                "x": 49.0,
                "y": 104.0
              },
              {
                "x": 147.0,
                "y": 152.0
              },
              {
                "x": 51.0,
                "y": 162.0
              },
              {
                "x": 54.0,
                "y": 195.0
              },
              {
                "x": 152.0,
                "y": 200.0
              },
              {
                "x": 64.0,
                "y": 224.0
              },
              {
                "x": 157.0,
                "y": 240.0
              },
              {
                "x": 82.0,
                "y": 287.0
              },
              {
                "x": 168.0,
                "y": 281.0
              },
              {
                "x": 86.0,
                "y": 333.0
              },
              {
                "x": 183.0,
                "y": 307.0
              },
              {
                "x": 202.0,
                "y": 337.0
              },
              {
                "x": 79.0,
                "y": 410.0
              },
              {
                "x": 219.0,
                "y": 387.0
              },
              {
                "x": 179.0,
                "y": 474.0
              },
              {
                "x": 222.0,
                "y": 429.0
              },
              {
                "x": 205.0,
                "y": 468.0
              },
              {
                "x": 145.0,
                "y": 481.0
              },
              {
                "x": 122.0,
                "y": 476.0
              },
              {
                "x": 93.0,
                "y": 455.0
              },
              {
                "x": 127.0,
                "y": 83.0
              },
              {
                "x": 108.0,
                "y": 63.0
              },
              {
                "x": 94.0,
                "y": 50.0
              },
              {
                "x": 50.0,
                "y": 75.0
              },
              {
                "x": 78.0,
                "y": 45.0
              },
              {
                "x": 52.0,
                "y": 45.0
              }
            ],
            "TableIndexVertex": [
              0,
              1,
              2,
              1,
              0,
              3,
              4,
              1,
              3,
              5,
              4,
              3,
              5,
              3,
              6,
              7,
              5,
              6,
              7,
              6,
              8,
              9,
              7,
              8,
              9,
              8,
              10,
              11,
              9,
              10,
              11,
              10,
              12,
              13,
              11,
              12,
              13,
              14,
              11,
              15,
              14,
              13,
              15,
              16,
              14,
              15,
              17,
              16,
              18,
              16,
              17,
              16,
              19,
              14,
              14,
              19,
              20,
              14,
              20,
              21,
              0,
              2,
              22,
              22,
              2,
              23,
              23,
              2,
              24,
              25,
              24,
              2,
              26,
              24,
              25,
              25,
              27,
              26
            ]
          }
        },
        {
          "Name": "weapon_r",
          "Rectangle": {
            "x": 1794.0,
            "y": 1384.0,
            "width": 250.0,
            "height": 400.0
          },
          "Pivot": {
            "x": 131.0,
            "y": 338.0
          },
          "Mesh": {
            "TableCoordinate": [],
            "TableIndexVertex": []
          }
        },
        {
          "Name": "weapon_l",
          "Rectangle": {
            "x": 1544.0,
            "y": 1384.0,
            "width": 250.0,
            "height": 400.0
          },
          "Pivot": {
            "x": 131.0,
            "y": 338.0
          },
          "Mesh": {
            "TableCoordinate": [],
            "TableIndexVertex": []
          }
        },
        {
          "Name": "rear_c",
          "Rectangle": {
            "x": 434.0,
            "y": 1220.0,
            "width": 430.0,
            "height": 430.0
          },
          "Pivot": {
            "x": 215.0,
            "y": 215.0
          },
          "Mesh": {
            "TableCoordinate": [],
            "TableIndexVertex": []
          }
        },
        {
          "Name": "rear_r",
          "Rectangle": {
            "x": 864.0,
            "y": 1354.0,
            "width": 430.0,
            "height": 430.0
          },
          "Pivot": {
            "x": 290.0,
            "y": 258.0
          },
          "Mesh": {
            "TableCoordinate": [],
            "TableIndexVertex": []
          }
        },
        {
          "Name": "rear_l",
          "Rectangle": {
            "x": 4.0,
            "y": 1224.0,
            "width": 430.0,
            "height": 430.0
          },
          "Pivot": {
            "x": 50.0,
            "y": 261.0
          },
          "Mesh": {
            "TableCoordinate": [],
            "TableIndexVertex": []
          }
        },
        {
          "Name": "acce_body_rear",
          "Rectangle": {
            "x": 254.0,
            "y": 4.0,
            "width": 580.0,
            "height": 400.0
          },
          "Pivot": {
            "x": 290.0,
            "y": 200.0
          },
          "Mesh": {
            "TableCoordinate": [],
            "TableIndexVertex": []
          }
        },
        {
          "Name": "acce_hip_rear",
          "Rectangle": {
            "x": 834.0,
            "y": 364.0,
            "width": 330.0,
            "height": 330.0
          },
          "Pivot": {
            "x": 165.0,
            "y": 165.0
          },
          "Mesh": {
            "TableCoordinate": [],
            "TableIndexVertex": []
          }
        },
        {
          "Name": "acce_head_rear_c",
          "Rectangle": {
            "x": 1364.0,
            "y": 284.0,
            "width": 300.0,
            "height": 300.0
          },
          "Pivot": {
            "x": 150.0,
            "y": 150.0
          },
          "Mesh": {
            "TableCoordinate": [],
            "TableIndexVertex": []
          }
        }
      ]
    }
  ]
}