{
  "m_GameObject": {
    "m_FileID": 0,
    "m_PathID": 0
  },
  "m_Enabled": 1,
  "m_Script": {
    "m_FileID": 0,
    "m_PathID": 8527011069456626154
  },
  "m_Name": "adv_500403_path",
  "advPathList": [
    {
      "assetName": "",
      "assetPath": "texture/character/stand/1040200_stand",
      "resourcePath": "Texture/Character/1040200_stand.asset"
    },
    {
      "assetName": "",
      "assetPath": "texture/character/stand/1040100_stand",
      "resourcePath": "Texture/Character/1040100_stand.asset"
    },
    {
      "assetName": "",
      "assetPath": "texture/character/stand/1030800_stand",
      "resourcePath": "Texture/Character/1030800_stand.asset"
    },
    {
      "assetName": "",
      "assetPath": "texture/character/stand/1000900_stand",
      "resourcePath": "Texture/Character/1000900_stand.asset"
    },
    {
      "assetName": "",
      "assetPath": "texture/character/stand/1110300_stand",
      "resourcePath": "Texture/Character/1110300_stand.asset"
    },
    {
      "assetName": "",
      "assetPath": "texture/character/stand/1100400_stand",
      "resourcePath": "Texture/Character/1100400_stand.asset"
    },
    {
      "assetName": "",
      "assetPath": "texture/character/stand/1040400_stand",
      "resourcePath": "Texture/Character/1040400_stand.asset"
    },
    {
      "assetName": "",
      "assetPath": "texture/character/stand/1040500_stand",
      "resourcePath": "Texture/Character/1040500_stand.asset"
    },
    {
      "assetName": "",
      "assetPath": "texture/character/stand/1060200_stand",
      "resourcePath": "Texture/Character/1060200_stand.asset"
    },
    {
      "assetName": "",
      "assetPath": "texture/character/stand/1160400_stand",
      "resourcePath": "Texture/Character/1160400_stand.asset"
    },
    {
      "assetName": "",
      "assetPath": "texture/background/bg_083_ll",
      "resourcePath": "Texture/BG/bg_083_LL.png"
    },
    {
      "assetName": "",
      "assetPath": "texture/background/bg_007_ll",
      "resourcePath": "Texture/BG/bg_007_LL.png"
    },
    {
      "assetName": "",
      "assetPath": "texture/background/bg_065_ll",
      "resourcePath": "Texture/BG/bg_065_LL.png"
    },
    {
      "assetName": "",
      "assetPath": "sound/bgm/adventure/bgm_bright",
      "resourcePath": "Sound/BGM/bgm_bright.wav"
    },
    {
      "assetName": "",
      "assetPath": "sound/se/adventure/se_swing",
      "resourcePath": "Sound/SE/se_swing.wav"
    },
    {
      "assetName": "",
      "assetPath": "sound/se/adventure/se_depression",
      "resourcePath": "Sound/SE/se_depression.wav"
    },
    {
      "assetName": "",
      "assetPath": "sound/bgm/adventure/bgm_vow",
      "resourcePath": "Sound/BGM/bgm_vow.wav"
    },
    {
      "assetName": "",
      "assetPath": "data/adventure/arena/story5004/adv_500403.scenarios",
      "resourcePath": "adv_500403.scenarios.asset"
    }
  ]
}