{
  "m_GameObject": {
    "m_FileID": 0,
    "m_PathID": 0
  },
  "m_Enabled": 1,
  "m_Script": {
    "m_FileID": 0,
    "m_PathID": 8527011069456626154
  },
  "m_Name": "adv_500401_path",
  "advPathList": [
    {
      "assetName": "",
      "assetPath": "texture/character/stand/1040100_stand",
      "resourcePath": "Texture/Character/1040100_stand.asset"
    },
    {
      "assetName": "",
      "assetPath": "texture/character/stand/1040200_stand",
      "resourcePath": "Texture/Character/1040200_stand.asset"
    },
    {
      "assetName": "",
      "assetPath": "texture/character/stand/1030800_stand",
      "resourcePath": "Texture/Character/1030800_stand.asset"
    },
    {
      "assetName": "",
      "assetPath": "texture/character/stand/1060200_stand",
      "resourcePath": "Texture/Character/1060200_stand.asset"
    },
    {
      "assetName": "",
      "assetPath": "texture/character/stand/1060900_stand",
      "resourcePath": "Texture/Character/1060900_stand.asset"
    },
    {
      "assetName": "",
      "assetPath": "texture/character/stand/1000900_stand",
      "resourcePath": "Texture/Character/1000900_stand.asset"
    },
    {
      "assetName": "",
      "assetPath": "texture/character/stand/1160400_stand",
      "resourcePath": "Texture/Character/1160400_stand.asset"
    },
    {
      "assetName": "",
      "assetPath": "texture/background/bg_042_ll",
      "resourcePath": "Texture/BG/bg_042_LL.png"
    },
    {
      "assetName": "",
      "assetPath": "texture/background/bg_007_ll",
      "resourcePath": "Texture/BG/bg_007_LL.png"
    },
    {
      "assetName": "",
      "assetPath": "texture/background/bg_041_ll",
      "resourcePath": "Texture/BG/bg_041_LL.png"
    },
    {
      "assetName": "",
      "assetPath": "prefabs/effect/adventure/eff_040/eff_040",
      "resourcePath": "Particle/eff_040.prefab"
    },
    {
      "assetName": "",
      "assetPath": "sound/bgm/adventure/bgm_serious",
      "resourcePath": "Sound/BGM/bgm_serious.wav"
    },
    {
      "assetName": "",
      "assetPath": "sound/se/adventure/se_cheers",
      "resourcePath": "Sound/SE/se_cheers.wav"
    },
    {
      "assetName": "",
      "assetPath": "sound/se/adventure/se_depression",
      "resourcePath": "Sound/SE/se_depression.wav"
    },
    {
      "assetName": "",
      "assetPath": "sound/bgm/adventure/bgm_unrest",
      "resourcePath": "Sound/BGM/bgm_unrest.wav"
    },
    {
      "assetName": "",
      "assetPath": "data/adventure/arena/story5004/adv_500401.scenarios",
      "resourcePath": "adv_500401.scenarios.asset"
    }
  ]
}