{
  "m_GameObject": {
    "m_FileID": 0,
    "m_PathID": 0
  },
  "m_Enabled": 1,
  "m_Script": {
    "m_FileID": 0,
    "m_PathID": -2767099076474933927
  },
  "m_Name": "dc_1120700_sd",
  "Version": 65537,
  "TableCellMap": [
    {
      "Name": "1120700_sd",
      "SizeOriginal": {
        "x": 2048.0,
        "y": 2048.0
      },
      "TableCell": [
        {
          "Name": "face_normal",
          "Rectangle": {
            "x": 4.0,
            "y": 654.0,
            "width": 250.0,
            "height": 250.0
          },
          "Pivot": {
            "x": 125.0,
            "y": 135.0
          },
          "Mesh": {
            "TableCoordinate": [],
            "TableIndexVertex": []
          }
        },
        {
          "Name": "face_eye_close_normal",
          "Rectangle": {
            "x": 1164.0,
            "y": 584.0,
            "width": 250.0,
            "height": 250.0
          },
          "Pivot": {
            "x": 125.0,
            "y": 135.0
          },
          "Mesh": {
            "TableCoordinate": [],
            "TableIndexVertex": []
          }
        },
        {
          "Name": "face_mouth_open_happy",
          "Rectangle": {
            "x": 1664.0,
            "y": 614.0,
            "width": 250.0,
            "height": 250.0
          },
          "Pivot": {
            "x": 125.0,
            "y": 135.0
          },
          "Mesh": {
            "TableCoordinate": [],
            "TableIndexVertex": []
          }
        },
        {
          "Name": "face_happy",
          "Rectangle": {
            "x": 1414.0,
            "y": 584.0,
            "width": 250.0,
            "height": 250.0
          },
          "Pivot": {
            "x": 125.0,
            "y": 135.0
          },
          "Mesh": {
            "TableCoordinate": [],
            "TableIndexVertex": []
          }
        },
        {
          "Name": "face_attack",
          "Rectangle": {
            "x": 134.0,
            "y": 404.0,
            "width": 250.0,
            "height": 250.0
          },
          "Pivot": {
            "x": 125.0,
            "y": 135.0
          },
          "Mesh": {
            "TableCoordinate": [],
            "TableIndexVertex": []
          }
        },
        {
          "Name": "face_damage",
          "Rectangle": {
            "x": 384.0,
            "y": 404.0,
            "width": 250.0,
            "height": 250.0
          },
          "Pivot": {
            "x": 125.0,
            "y": 135.0
          },
          "Mesh": {
            "TableCoordinate": [],
            "TableIndexVertex": []
          }
        },
        {
          "Name": "face_unique",
          "Rectangle": {
            "x": 254.0,
            "y": 654.0,
            "width": 250.0,
            "height": 250.0
          },
          "Pivot": {
            "x": 125.0,
            "y": 135.0
          },
          "Mesh": {
            "TableCoordinate": [],
            "TableIndexVertex": []
          }
        },
        {
          "Name": "acce_head_front_c",
          "Rectangle": {
            "x": 834.0,
            "y": 4.0,
            "width": 530.0,
            "height": 360.0
          },
          "Pivot": {
            "x": 265.0,
            "y": 180.0
          },
          "Mesh": {
            "TableCoordinate": [],
            "TableIndexVertex": []
          }
        },
        {
          "Name": "acce_head_front_l",
          "Rectangle": {
            "x": 1364.0,
            "y": 4.0,
            "width": 250.0,
            "height": 280.0
          },
          "Pivot": {
            "x": 132.0,
            "y": 119.999878
          },
          "Mesh": {
            "TableCoordinate": [],
            "TableIndexVertex": []
          }
        },
        {
          "Name": "acce_head_front_r",
          "Rectangle": {
            "x": 1614.0,
            "y": 4.0,
            "width": 250.0,
            "height": 280.0
          },
          "Pivot": {
            "x": 123.0,
            "y": 133.999878
          },
          "Mesh": {
            "TableCoordinate": [],
            "TableIndexVertex": []
          }
        },
        {
          "Name": "hear_front_c",
          "Rectangle": {
            "x": 4.0,
            "y": 904.0,
            "width": 430.0,
            "height": 320.0
          },
          "Pivot": {
            "x": 213.0,
            "y": 63.0
          },
          "Mesh": {
            "TableCoordinate": [
              {
                "x": 81.0,
                "y": 236.0
              },
              {
                "x": 76.0,
                "y": 168.0
              },
              {
                "x": 104.0,
                "y": 197.0
              },
              {
                "x": 95.0,
                "y": 236.0
              },
              {
                "x": 147.0,
                "y": 154.0
              },
              {
                "x": 197.0,
                "y": 189.0
              },
              {
                "x": 124.0,
                "y": 250.0
              },
              {
                "x": 195.0,
                "y": 252.0
              },
              {
                "x": 175.0,
                "y": 305.0
              },
              {
                "x": 189.0,
                "y": 305.0
              },
              {
                "x": 237.0,
                "y": 220.0
              },
              {
                "x": 225.0,
                "y": 278.0
              },
              {
                "x": 241.0,
                "y": 278.0
              },
              {
                "x": 255.0,
                "y": 188.0
              },
              {
                "x": 260.0,
                "y": 233.0
              },
              {
                "x": 281.0,
                "y": 218.0
              },
              {
                "x": 281.0,
                "y": 231.0
              },
              {
                "x": 252.0,
                "y": 151.0
              },
              {
                "x": 212.0,
                "y": 125.0
              },
              {
                "x": 176.0,
                "y": 89.0
              },
              {
                "x": 110.0,
                "y": 73.0
              },
              {
                "x": 87.0,
                "y": 116.0
              },
              {
                "x": 144.0,
                "y": 44.0
              },
              {
                "x": 188.0,
                "y": 26.0
              },
              {
                "x": 236.0,
                "y": 69.0
              },
              {
                "x": 318.0,
                "y": 63.0
              },
              {
                "x": 351.0,
                "y": 122.0
              },
              {
                "x": 301.0,
                "y": 186.0
              },
              {
                "x": 356.0,
                "y": 195.0
              },
              {
                "x": 329.0,
                "y": 245.0
              },
              {
                "x": 275.0,
                "y": 261.0
              },
              {
                "x": 290.0,
                "y": 299.0
              },
              {
                "x": 272.0,
                "y": 300.0
              },
              {
                "x": 346.0,
                "y": 245.0
              },
              {
                "x": 269.0,
                "y": 31.0
              }
            ],
            "TableIndexVertex": [
              0,
              1,
              2,
              3,
              0,
              2,
              2,
              1,
              4,
              5,
              2,
              4,
              5,
              6,
              2,
              7,
              6,
              5,
              8,
              6,
              7,
              9,
              8,
              7,
              7,
              5,
              10,
              11,
              7,
              10,
              12,
              11,
              10,
              10,
              5,
              13,
              14,
              10,
              13,
              15,
              14,
              13,
              16,
              14,
              15,
              5,
              17,
              13,
              5,
              18,
              17,
              5,
              4,
              18,
              4,
              19,
              18,
              4,
              20,
              19,
              21,
              20,
              4,
              1,
              21,
              4,
              20,
              22,
              19,
              19,
              22,
              23,
              19,
              23,
              24,
              18,
              19,
              24,
              18,
              24,
              17,
              25,
              17,
              24,
              17,
              25,
              26,
              27,
              17,
              26,
              27,
              26,
              28,
              29,
              27,
              28,
              29,
              30,
              27,
              31,
              30,
              29,
              31,
              32,
              30,
              33,
              29,
              28,
              25,
              24,
              34,
              24,
              23,
              34
            ]
          }
        },
        {
          "Name": "hear_front_r",
          "Rectangle": {
            "x": 1800.0,
            "y": 864.0,
            "width": 200.0,
            "height": 380.0
          },
          "Pivot": {
            "x": 98.0,
            "y": 157.0
          },
          "Mesh": {
            "TableCoordinate": [],
            "TableIndexVertex": []
          }
        },
        {
          "Name": "head",
          "Rectangle": {
            "x": 730.0,
            "y": 694.0,
            "width": 290.0,
            "height": 250.0
          },
          "Pivot": {
            "x": 163.000015,
            "y": 225.0
          },
          "Mesh": {
            "TableCoordinate": [],
            "TableIndexVertex": []
          }
        },
        {
          "Name": "hear_front_l",
          "Rectangle": {
            "x": 504.0,
            "y": 840.0,
            "width": 200.0,
            "height": 380.0
          },
          "Pivot": {
            "x": 94.0,
            "y": 156.0
          },
          "Mesh": {
            "TableCoordinate": [],
            "TableIndexVertex": []
          }
        },
        {
          "Name": "acce_body_front",
          "Rectangle": {
            "x": 4.0,
            "y": 4.0,
            "width": 250.0,
            "height": 275.0
          },
          "Pivot": {
            "x": 125.0,
            "y": 101.999977
          },
          "Mesh": {
            "TableCoordinate": [],
            "TableIndexVertex": []
          }
        },
        {
          "Name": "hand_r",
          "Rectangle": {
            "x": 504.0,
            "y": 660.0,
            "width": 225.0,
            "height": 180.0
          },
          "Pivot": {
            "x": 81.9999,
            "y": 61.00002
          },
          "Mesh": {
            "TableCoordinate": [],
            "TableIndexVertex": []
          }
        },
        {
          "Name": "arm_r",
          "Rectangle": {
            "x": 4.0,
            "y": 280.0,
            "width": 130.0,
            "height": 180.0
          },
          "Pivot": {
            "x": 78.99996,
            "y": 64.00008
          },
          "Mesh": {
            "TableCoordinate": [],
            "TableIndexVertex": []
          }
        },
        {
          "Name": "body",
          "Rectangle": {
            "x": 1164.0,
            "y": 364.0,
            "width": 180.0,
            "height": 220.0
          },
          "Pivot": {
            "x": 93.99996,
            "y": 151.000076
          },
          "Mesh": {
            "TableCoordinate": [],
            "TableIndexVertex": []
          }
        },
        {
          "Name": "acce_hip_front",
          "Rectangle": {
            "x": 1664.0,
            "y": 284.0,
            "width": 330.0,
            "height": 330.0
          },
          "Pivot": {
            "x": 171.0,
            "y": 97.0
          },
          "Mesh": {
            "TableCoordinate": [],
            "TableIndexVertex": []
          }
        },
        {
          "Name": "thigh_r",
          "Rectangle": {
            "x": 864.0,
            "y": 1124.0,
            "width": 130.0,
            "height": 180.0
          },
          "Pivot": {
            "x": 61.00003,
            "y": 68.00004
          },
          "Mesh": {
            "TableCoordinate": [],
            "TableIndexVertex": []
          }
        },
        {
          "Name": "leg_r",
          "Rectangle": {
            "x": 1914.0,
            "y": 614.0,
            "width": 130.0,
            "height": 180.0
          },
          "Pivot": {
            "x": 78.0,
            "y": 54.0
          },
          "Mesh": {
            "TableCoordinate": [],
            "TableIndexVertex": []
          }
        },
        {
          "Name": "hip",
          "Rectangle": {
            "x": 704.0,
            "y": 944.0,
            "width": 180.0,
            "height": 180.0
          },
          "Pivot": {
            "x": 95.00004,
            "y": 109.000076
          },
          "Mesh": {
            "TableCoordinate": [],
            "TableIndexVertex": []
          }
        },
        {
          "Name": "thigh_l",
          "Rectangle": {
            "x": 884.0,
            "y": 944.0,
            "width": 130.0,
            "height": 180.0
          },
          "Pivot": {
            "x": 61.99999,
            "y": 68.00004
          },
          "Mesh": {
            "TableCoordinate": [],
            "TableIndexVertex": []
          }
        },
        {
          "Name": "leg_l",
          "Rectangle": {
            "x": 4.0,
            "y": 460.0,
            "width": 130.0,
            "height": 180.0
          },
          "Pivot": {
            "x": 71.99998,
            "y": 55.00008
          },
          "Mesh": {
            "TableCoordinate": [],
            "TableIndexVertex": []
          }
        },
        {
          "Name": "weapon_b",
          "Rectangle": {
            "x": 1294.0,
            "y": 1384.0,
            "width": 250.0,
            "height": 500.0
          },
          "Pivot": {
            "x": 130.0,
            "y": 368.0
          },
          "Mesh": {
            "TableCoordinate": [],
            "TableIndexVertex": []
          }
        },
        {
          "Name": "hand_l",
          "Rectangle": {
            "x": 634.0,
            "y": 404.0,
            "width": 180.0,
            "height": 255.0
          },
          "Pivot": {
            "x": 99.0,
            "y": 59.00012
          },
          "Mesh": {
            "TableCoordinate": [],
            "TableIndexVertex": []
          }
        },
        {
          "Name": "arm_l",
          "Rectangle": {
            "x": 1864.0,
            "y": 4.0,
            "width": 130.0,
            "height": 180.0
          },
          "Pivot": {
            "x": 49.99995,
            "y": 63.0
          },
          "Mesh": {
            "TableCoordinate": [],
            "TableIndexVertex": []
          }
        },
        {
          "Name": "hear_back_c",
          "Rectangle": {
            "x": 1020.0,
            "y": 834.0,
            "width": 260.0,
            "height": 520.0
          },
          "Pivot": {
            "x": 119.999878,
            "y": 80.99988
          },
          "Mesh": {
            "TableCoordinate": [
              {
                "x": 43.0,
                "y": 364.0
              },
              {
                "x": 32.0,
                "y": 313.0
              },
              {
                "x": 59.0,
                "y": 332.0
              },
              {
                "x": 71.0,
                "y": 362.0
              },
              {
                "x": 68.0,
                "y": 401.0
              },
              {
                "x": 100.0,
                "y": 376.0
              },
              {
                "x": 129.0,
                "y": 408.0
              },
              {
                "x": 128.0,
                "y": 360.0
              },
              {
                "x": 104.0,
                "y": 321.0
              },
              {
                "x": 152.0,
                "y": 352.0
              },
              {
                "x": 177.0,
                "y": 405.0
              },
              {
                "x": 215.0,
                "y": 379.0
              },
              {
                "x": 208.0,
                "y": 327.0
              },
              {
                "x": 187.0,
                "y": 292.0
              },
              {
                "x": 142.0,
                "y": 292.0
              },
              {
                "x": 101.0,
                "y": 287.0
              },
              {
                "x": 56.0,
                "y": 287.0
              },
              {
                "x": 66.0,
                "y": 237.0
              },
              {
                "x": 109.0,
                "y": 250.0
              },
              {
                "x": 141.0,
                "y": 259.0
              },
              {
                "x": 172.0,
                "y": 237.0
              },
              {
                "x": 211.0,
                "y": 249.0
              },
              {
                "x": 238.0,
                "y": 288.0
              },
              {
                "x": 234.0,
                "y": 342.0
              },
              {
                "x": 224.0,
                "y": 222.0
              },
              {
                "x": 195.0,
                "y": 207.0
              },
              {
                "x": 165.0,
                "y": 193.0
              },
              {
                "x": 138.0,
                "y": 222.0
              },
              {
                "x": 135.0,
                "y": 179.0
              },
              {
                "x": 99.0,
                "y": 210.0
              },
              {
                "x": 91.0,
                "y": 177.0
              },
              {
                "x": 55.0,
                "y": 201.0
              },
              {
                "x": 83.0,
                "y": 152.0
              },
              {
                "x": 69.0,
                "y": 140.0
              },
              {
                "x": 88.0,
                "y": 124.0
              },
              {
                "x": 114.0,
                "y": 149.0
              },
              {
                "x": 149.0,
                "y": 140.0
              },
              {
                "x": 189.0,
                "y": 164.0
              },
              {
                "x": 217.0,
                "y": 156.0
              },
              {
                "x": 187.0,
                "y": 125.0
              },
              {
                "x": 126.0,
                "y": 116.0
              },
              {
                "x": 35.0,
                "y": 262.0
              }
            ],
            "TableIndexVertex": [
              0,
              1,
              2,
              0,
              2,
              3,
              4,
              0,
              3,
              4,
              3,
              5,
              4,
              5,
              6,
              5,
              7,
              6,
              7,
              5,
              8,
              7,
              8,
              9,
              6,
              7,
              9,
              6,
              9,
              10,
              10,
              9,
              11,
              9,
              12,
              11,
              9,
              13,
              12,
              9,
              14,
              13,
              8,
              14,
              9,
              8,
              15,
              14,
              16,
              15,
              8,
              15,
              16,
              17,
              18,
              15,
              17,
              15,
              18,
              19,
              15,
              19,
              14,
              13,
              14,
              19,
              20,
              13,
              19,
              21,
              13,
              20,
              13,
              21,
              22,
              12,
              13,
              22,
              23,
              12,
              22,
              11,
              12,
              23,
              21,
              24,
              22,
              21,
              25,
              24,
              20,
              25,
              21,
              20,
              26,
              25,
              27,
              26,
              20,
              27,
              28,
              26,
              29,
              28,
              27,
              29,
              30,
              28,
              31,
              30,
              29,
              31,
              32,
              30,
              31,
              33,
              32,
              32,
              33,
              34,
              32,
              34,
              35,
              30,
              32,
              35,
              30,
              35,
              28,
              28,
              35,
              36,
              26,
              28,
              36,
              37,
              26,
              36,
              26,
              37,
              25,
              25,
              37,
              38,
              25,
              38,
              24,
              37,
              39,
              38,
              36,
              39,
              37,
              36,
              40,
              39,
              35,
              40,
              36,
              35,
              34,
              40,
              17,
              31,
              29,
              41,
              31,
              17,
              16,
              41,
              17,
              1,
              41,
              16,
              1,
              16,
              2,
              2,
              16,
              8,
              3,
              2,
              8,
              5,
              3,
              8,
              17,
              29,
              18,
              18,
              29,
              27,
              18,
              27,
              19,
              19,
              27,
              20
            ]
          }
        },
        {
          "Name": "hear_back_r",
          "Rectangle": {
            "x": 1540.0,
            "y": 864.0,
            "width": 260.0,
            "height": 520.0
          },
          "Pivot": {
            "x": 164.999908,
            "y": 81.99983
          },
          "Mesh": {
            "TableCoordinate": [
              {
                "x": 65.0,
                "y": 395.0
              },
              {
                "x": 56.0,
                "y": 365.0
              },
              {
                "x": 78.0,
                "y": 385.0
              },
              {
                "x": 77.0,
                "y": 395.0
              },
              {
                "x": 80.0,
                "y": 348.0
              },
              {
                "x": 126.0,
                "y": 362.0
              },
              {
                "x": 90.0,
                "y": 398.0
              },
              {
                "x": 125.0,
                "y": 411.0
              },
              {
                "x": 139.0,
                "y": 411.0
              },
              {
                "x": 132.0,
                "y": 336.0
              },
              {
                "x": 84.0,
                "y": 309.0
              },
              {
                "x": 58.0,
                "y": 319.0
              },
              {
                "x": 62.0,
                "y": 274.0
              },
              {
                "x": 117.0,
                "y": 295.0
              },
              {
                "x": 159.0,
                "y": 276.0
              },
              {
                "x": 103.0,
                "y": 252.0
              },
              {
                "x": 89.0,
                "y": 208.0
              },
              {
                "x": 145.0,
                "y": 233.0
              },
              {
                "x": 188.0,
                "y": 216.0
              },
              {
                "x": 127.0,
                "y": 187.0
              },
              {
                "x": 105.0,
                "y": 138.0
              },
              {
                "x": 116.0,
                "y": 133.0
              },
              {
                "x": 152.0,
                "y": 166.0
              },
              {
                "x": 192.0,
                "y": 187.0
              },
              {
                "x": 163.0,
                "y": 144.0
              }
            ],
            "TableIndexVertex": [
              0,
              1,
              2,
              3,
              0,
              2,
              2,
              1,
              4,
              2,
              4,
              5,
              6,
              2,
              5,
              7,
              6,
              5,
              7,
              5,
              8,
              5,
              4,
              9,
              4,
              10,
              9,
              4,
              11,
              10,
              1,
              11,
              4,
              11,
              12,
              10,
              10,
              12,
              13,
              10,
              13,
              9,
              9,
              13,
              14,
              13,
              15,
              14,
              12,
              15,
              13,
              12,
              16,
              15,
              15,
              16,
              17,
              15,
              17,
              14,
              14,
              17,
              18,
              17,
              19,
              18,
              16,
              19,
              17,
              16,
              20,
              19,
              20,
              21,
              19,
              19,
              21,
              22,
              19,
              22,
              18,
              18,
              22,
              23,
              22,
              24,
              23,
              22,
              21,
              24
            ]
          }
        },
        {
          "Name": "hear_back_l",
          "Rectangle": {
            "x": 1280.0,
            "y": 834.0,
            "width": 260.0,
            "height": 520.0
          },
          "Pivot": {
            "x": 71.99998,
            "y": 77.0000458
          },
          "Mesh": {
            "TableCoordinate": [
              {
                "x": 95.0,
                "y": 260.0
              },
              {
                "x": 93.0,
                "y": 193.0
              },
              {
                "x": 117.0,
                "y": 226.0
              },
              {
                "x": 147.0,
                "y": 259.0
              },
              {
                "x": 127.0,
                "y": 284.0
              },
              {
                "x": 102.0,
                "y": 300.0
              },
              {
                "x": 133.0,
                "y": 311.0
              },
              {
                "x": 112.0,
                "y": 341.0
              },
              {
                "x": 162.0,
                "y": 325.0
              },
              {
                "x": 163.0,
                "y": 378.0
              },
              {
                "x": 115.0,
                "y": 392.0
              },
              {
                "x": 98.0,
                "y": 394.0
              },
              {
                "x": 138.0,
                "y": 406.0
              },
              {
                "x": 114.0,
                "y": 411.0
              },
              {
                "x": 189.0,
                "y": 343.0
              },
              {
                "x": 177.0,
                "y": 379.0
              },
              {
                "x": 185.0,
                "y": 293.0
              },
              {
                "x": 163.0,
                "y": 226.0
              },
              {
                "x": 133.0,
                "y": 192.0
              },
              {
                "x": 99.0,
                "y": 169.0
              },
              {
                "x": 119.0,
                "y": 153.0
              },
              {
                "x": 145.0,
                "y": 158.0
              }
            ],
            "TableIndexVertex": [
              0,
              1,
              2,
              0,
              2,
              3,
              4,
              0,
              3,
              5,
              0,
              4,
              5,
              4,
              6,
              7,
              5,
              6,
              7,
              6,
              8,
              9,
              7,
              8,
              10,
              7,
              9,
              11,
              7,
              10,
              12,
              10,
              9,
              13,
              10,
              12,
              9,
              8,
              14,
              15,
              9,
              14,
              8,
              16,
              14,
              8,
              6,
              16,
              6,
              4,
              16,
              4,
              3,
              16,
              3,
              17,
              16,
              3,
              2,
              17,
              2,
              18,
              17,
              2,
              1,
              18,
              1,
              19,
              18,
              19,
              20,
              18,
              18,
              20,
              21,
              18,
              21,
              17
            ]
          }
        },
        {
          "Name": "weapon_r",
          "Rectangle": {
            "x": 1794.0,
            "y": 1384.0,
            "width": 250.0,
            "height": 400.0
          },
          "Pivot": {
            "x": 148.0,
            "y": 67.99999
          },
          "Mesh": {
            "TableCoordinate": [],
            "TableIndexVertex": []
          }
        },
        {
          "Name": "weapon_r_1",
          "Rectangle": {
            "x": 1794.0,
            "y": 1384.0,
            "width": 250.0,
            "height": 400.0
          },
          "Pivot": {
            "x": 196.0,
            "y": 389.0
          },
          "Mesh": {
            "TableCoordinate": [],
            "TableIndexVertex": []
          }
        },
        {
          "Name": "weapon_l",
          "Rectangle": {
            "x": 1544.0,
            "y": 1384.0,
            "width": 250.0,
            "height": 400.0
          },
          "Pivot": {
            "x": 121.0,
            "y": 70.00001
          },
          "Mesh": {
            "TableCoordinate": [],
            "TableIndexVertex": []
          }
        },
        {
          "Name": "weapon_l_1",
          "Rectangle": {
            "x": 1544.0,
            "y": 1384.0,
            "width": 250.0,
            "height": 400.0
          },
          "Pivot": {
            "x": 66.0,
            "y": 393.0
          },
          "Mesh": {
            "TableCoordinate": [],
            "TableIndexVertex": []
          }
        },
        {
          "Name": "rear_c",
          "Rectangle": {
            "x": 434.0,
            "y": 1220.0,
            "width": 430.0,
            "height": 430.0
          },
          "Pivot": {
            "x": 215.0,
            "y": 215.0
          },
          "Mesh": {
            "TableCoordinate": [],
            "TableIndexVertex": []
          }
        },
        {
          "Name": "rear_r",
          "Rectangle": {
            "x": 864.0,
            "y": 1354.0,
            "width": 430.0,
            "height": 430.0
          },
          "Pivot": {
            "x": 260.0,
            "y": 207.0
          },
          "Mesh": {
            "TableCoordinate": [
              {
                "x": 130.0,
                "y": 324.0
              },
              {
                "x": 106.0,
                "y": 309.0
              },
              {
                "x": 145.0,
                "y": 268.0
              },
              {
                "x": 162.0,
                "y": 340.0
              },
              {
                "x": 133.0,
                "y": 346.0
              },
              {
                "x": 107.0,
                "y": 257.0
              },
              {
                "x": 159.0,
                "y": 222.0
              },
              {
                "x": 210.0,
                "y": 235.0
              },
              {
                "x": 243.0,
                "y": 194.0
              },
              {
                "x": 275.0,
                "y": 218.0
              },
              {
                "x": 273.0,
                "y": 196.0
              }
            ],
            "TableIndexVertex": [
              0,
              1,
              2,
              0,
              2,
              3,
              4,
              0,
              3,
              1,
              5,
              2,
              2,
              5,
              6,
              2,
              6,
              7,
              7,
              6,
              8,
              9,
              7,
              8,
              9,
              8,
              10
            ]
          }
        },
        {
          "Name": "rear_l",
          "Rectangle": {
            "x": 4.0,
            "y": 1224.0,
            "width": 430.0,
            "height": 430.0
          },
          "Pivot": {
            "x": 76.0,
            "y": 345.0
          },
          "Mesh": {
            "TableCoordinate": [
              {
                "x": 86.0,
                "y": 229.0
              },
              {
                "x": -2.0,
                "y": 221.0
              },
              {
                "x": -2.0,
                "y": 194.0
              },
              {
                "x": 92.0,
                "y": 200.0
              },
              {
                "x": 174.0,
                "y": 251.0
              },
              {
                "x": 184.0,
                "y": 219.0
              },
              {
                "x": 245.0,
                "y": 247.0
              },
              {
                "x": 257.0,
                "y": 308.0
              },
              {
                "x": 286.0,
                "y": 286.0
              },
              {
                "x": 288.0,
                "y": 323.0
              },
              {
                "x": 212.0,
                "y": 366.0
              },
              {
                "x": 235.0,
                "y": 394.0
              },
              {
                "x": 185.0,
                "y": 431.0
              },
              {
                "x": 160.0,
                "y": 404.0
              },
              {
                "x": 133.0,
                "y": 431.0
              },
              {
                "x": 81.0,
                "y": 383.0
              },
              {
                "x": 93.0,
                "y": 333.0
              },
              {
                "x": 64.0,
                "y": 335.0
              }
            ],
            "TableIndexVertex": [
              0,
              1,
              2,
              3,
              0,
              2,
              0,
              3,
              4,
              4,
              3,
              5,
              4,
              5,
              6,
              4,
              6,
              7,
              7,
              6,
              8,
              7,
              8,
              9,
              9,
              10,
              7,
              9,
              11,
              10,
              12,
              10,
              11,
              12,
              13,
              10,
              14,
              13,
              12,
              14,
              15,
              13,
              13,
              15,
              16,
              15,
              17,
              16
            ]
          }
        },
        {
          "Name": "acce_head_rear_c",
          "Rectangle": {
            "x": 1364.0,
            "y": 284.0,
            "width": 300.0,
            "height": 300.0
          },
          "Pivot": {
            "x": 150.0,
            "y": 150.0
          },
          "Mesh": {
            "TableCoordinate": [],
            "TableIndexVertex": []
          }
        },
        {
          "Name": "acce_body_rear",
          "Rectangle": {
            "x": 254.0,
            "y": 4.0,
            "width": 580.0,
            "height": 400.0
          },
          "Pivot": {
            "x": 290.0,
            "y": 200.0
          },
          "Mesh": {
            "TableCoordinate": [],
            "TableIndexVertex": []
          }
        },
        {
          "Name": "acce_hip_rear",
          "Rectangle": {
            "x": 834.0,
            "y": 364.0,
            "width": 330.0,
            "height": 330.0
          },
          "Pivot": {
            "x": 165.0,
            "y": 88.0
          },
          "Mesh": {
            "TableCoordinate": [],
            "TableIndexVertex": []
          }
        }
      ]
    }
  ]
}