{
  "m_GameObject": {
    "m_FileID": 0,
    "m_PathID": 0
  },
  "m_Enabled": 1,
  "m_Script": {
    "m_FileID": 0,
    "m_PathID": 8527011069456626154
  },
  "m_Name": "adv_100402_path",
  "advPathList": [
    {
      "assetName": "",
      "assetPath": "texture/character/stand/1040100_stand",
      "resourcePath": "Texture/Character/1040100_stand.asset"
    },
    {
      "assetName": "",
      "assetPath": "texture/character/stand/1030800_stand",
      "resourcePath": "Texture/Character/1030800_stand.asset"
    },
    {
      "assetName": "",
      "assetPath": "texture/character/stand/1040200_stand",
      "resourcePath": "Texture/Character/1040200_stand.asset"
    },
    {
      "assetName": "",
      "assetPath": "texture/character/stand/1020900_stand",
      "resourcePath": "Texture/Character/1020900_stand.asset"
    },
    {
      "assetName": "",
      "assetPath": "texture/character/stand/1011300_stand",
      "resourcePath": "Texture/Character/1011300_stand.asset"
    },
    {
      "assetName": "",
      "assetPath": "texture/character/stand/1010300_stand",
      "resourcePath": "Texture/Character/1010300_stand.asset"
    },
    {
      "assetName": "",
      "assetPath": "texture/character/stand/1020300_stand",
      "resourcePath": "Texture/Character/1020300_stand.asset"
    },
    {
      "assetName": "",
      "assetPath": "texture/character/stand/1020400_stand",
      "resourcePath": "Texture/Character/1020400_stand.asset"
    },
    {
      "assetName": "",
      "assetPath": "sound/bgm/adventure/bgm_ruwi_thema",
      "resourcePath": "Sound/BGM/bgm_ruwi_thema.wav"
    },
    {
      "assetName": "",
      "assetPath": "texture/background/bg_007_ll",
      "resourcePath": "Texture/BG/bg_007_LL.png"
    },
    {
      "assetName": "",
      "assetPath": "texture/background/bg_015_ll",
      "resourcePath": "Texture/BG/bg_015_LL.png"
    },
    {
      "assetName": "",
      "assetPath": "texture/background/bg_016_ll",
      "resourcePath": "Texture/BG/bg_016_LL.png"
    },
    {
      "assetName": "",
      "assetPath": "texture/background/bg_017_ll",
      "resourcePath": "Texture/BG/bg_017_LL.png"
    },
    {
      "assetName": "",
      "assetPath": "data/adventure/main/story1004/adv_100402.scenarios",
      "resourcePath": "adv_100402.scenarios.asset"
    }
  ]
}