{
  "m_GameObject": {
    "m_FileID": 0,
    "m_PathID": 0
  },
  "m_Enabled": 1,
  "m_Script": {
    "m_FileID": 0,
    "m_PathID": -2767099076474933927
  },
  "m_Name": "dc_1021300_sd",
  "Version": 65537,
  "TableCellMap": [
    {
      "Name": "1021300_sd",
      "SizeOriginal": {
        "x": 2048.0,
        "y": 2048.0
      },
      "TableCell": [
        {
          "Name": "face_normal",
          "Rectangle": {
            "x": 4.0,
            "y": 654.0,
            "width": 250.0,
            "height": 250.0
          },
          "Pivot": {
            "x": 125.0,
            "y": 135.0
          },
          "Mesh": {
            "TableCoordinate": [],
            "TableIndexVertex": []
          }
        },
        {
          "Name": "face_eye_close_normal",
          "Rectangle": {
            "x": 1164.0,
            "y": 584.0,
            "width": 250.0,
            "height": 250.0
          },
          "Pivot": {
            "x": 125.0,
            "y": 135.0
          },
          "Mesh": {
            "TableCoordinate": [],
            "TableIndexVertex": []
          }
        },
        {
          "Name": "face_mouth_open_happy",
          "Rectangle": {
            "x": 1664.0,
            "y": 614.0,
            "width": 250.0,
            "height": 250.0
          },
          "Pivot": {
            "x": 125.0,
            "y": 135.0
          },
          "Mesh": {
            "TableCoordinate": [],
            "TableIndexVertex": []
          }
        },
        {
          "Name": "face_happy",
          "Rectangle": {
            "x": 1414.0,
            "y": 584.0,
            "width": 250.0,
            "height": 250.0
          },
          "Pivot": {
            "x": 125.0,
            "y": 135.0
          },
          "Mesh": {
            "TableCoordinate": [],
            "TableIndexVertex": []
          }
        },
        {
          "Name": "face_attack",
          "Rectangle": {
            "x": 134.0,
            "y": 404.0,
            "width": 250.0,
            "height": 250.0
          },
          "Pivot": {
            "x": 125.0,
            "y": 135.0
          },
          "Mesh": {
            "TableCoordinate": [],
            "TableIndexVertex": []
          }
        },
        {
          "Name": "face_damage",
          "Rectangle": {
            "x": 384.0,
            "y": 404.0,
            "width": 250.0,
            "height": 250.0
          },
          "Pivot": {
            "x": 125.0,
            "y": 135.0
          },
          "Mesh": {
            "TableCoordinate": [],
            "TableIndexVertex": []
          }
        },
        {
          "Name": "face_unique",
          "Rectangle": {
            "x": 254.0,
            "y": 654.0,
            "width": 250.0,
            "height": 250.0
          },
          "Pivot": {
            "x": 125.0,
            "y": 135.0
          },
          "Mesh": {
            "TableCoordinate": [],
            "TableIndexVertex": []
          }
        },
        {
          "Name": "acce_head_front_c",
          "Rectangle": {
            "x": 834.0,
            "y": 4.0,
            "width": 530.0,
            "height": 360.0
          },
          "Pivot": {
            "x": 265.0,
            "y": 180.0
          },
          "Mesh": {
            "TableCoordinate": [],
            "TableIndexVertex": []
          }
        },
        {
          "Name": "acce_head_front_l",
          "Rectangle": {
            "x": 1364.0,
            "y": 4.0,
            "width": 250.0,
            "height": 280.0
          },
          "Pivot": {
            "x": 106.0,
            "y": 139.0
          },
          "Mesh": {
            "TableCoordinate": [],
            "TableIndexVertex": []
          }
        },
        {
          "Name": "acce_head_front_r",
          "Rectangle": {
            "x": 1614.0,
            "y": 4.0,
            "width": 250.0,
            "height": 280.0
          },
          "Pivot": {
            "x": 123.0,
            "y": 133.999878
          },
          "Mesh": {
            "TableCoordinate": [],
            "TableIndexVertex": []
          }
        },
        {
          "Name": "hear_front_c",
          "Rectangle": {
            "x": 4.0,
            "y": 904.0,
            "width": 430.0,
            "height": 320.0
          },
          "Pivot": {
            "x": 213.0,
            "y": 63.0
          },
          "Mesh": {
            "TableCoordinate": [
              {
                "x": 94.0,
                "y": 121.0
              },
              {
                "x": 93.0,
                "y": 105.0
              },
              {
                "x": 114.0,
                "y": 105.0
              },
              {
                "x": 112.0,
                "y": 131.0
              },
              {
                "x": 164.0,
                "y": 95.0
              },
              {
                "x": 143.0,
                "y": 178.0
              },
              {
                "x": 123.0,
                "y": 219.0
              },
              {
                "x": 137.0,
                "y": 219.0
              },
              {
                "x": 180.0,
                "y": 186.0
              },
              {
                "x": 172.0,
                "y": 228.0
              },
              {
                "x": 162.0,
                "y": 253.0
              },
              {
                "x": 176.0,
                "y": 253.0
              },
              {
                "x": 183.0,
                "y": 227.0
              },
              {
                "x": 221.0,
                "y": 160.0
              },
              {
                "x": 211.0,
                "y": 197.0
              },
              {
                "x": 189.0,
                "y": 81.0
              },
              {
                "x": 149.0,
                "y": 49.0
              },
              {
                "x": 124.0,
                "y": 76.0
              },
              {
                "x": 199.0,
                "y": 34.0
              },
              {
                "x": 226.0,
                "y": 77.0
              },
              {
                "x": 266.0,
                "y": 132.0
              },
              {
                "x": 274.0,
                "y": 171.0
              },
              {
                "x": 257.0,
                "y": 195.0
              },
              {
                "x": 224.0,
                "y": 201.0
              },
              {
                "x": 329.0,
                "y": 107.0
              },
              {
                "x": 295.0,
                "y": 185.0
              },
              {
                "x": 275.0,
                "y": 193.0
              },
              {
                "x": 324.0,
                "y": 185.0
              },
              {
                "x": 334.0,
                "y": 181.0
              },
              {
                "x": 310.0,
                "y": 222.0
              },
              {
                "x": 296.0,
                "y": 222.0
              },
              {
                "x": 261.0,
                "y": 88.0
              },
              {
                "x": 305.0,
                "y": 67.0
              },
              {
                "x": 258.0,
                "y": 39.0
              }
            ],
            "TableIndexVertex": [
              0,
              1,
              2,
              3,
              0,
              2,
              4,
              3,
              2,
              5,
              3,
              4,
              6,
              3,
              5,
              7,
              6,
              5,
              7,
              5,
              8,
              9,
              7,
              8,
              10,
              7,
              9,
              10,
              9,
              11,
              12,
              9,
              8,
              8,
              5,
              4,
              13,
              8,
              4,
              14,
              8,
              13,
              4,
              15,
              13,
              4,
              16,
              15,
              17,
              16,
              4,
              2,
              17,
              4,
              15,
              16,
              18,
              15,
              18,
              19,
              13,
              15,
              19,
              20,
              13,
              19,
              13,
              20,
              21,
              22,
              13,
              21,
              22,
              23,
              13,
              21,
              20,
              24,
              25,
              21,
              24,
              26,
              21,
              25,
              24,
              27,
              25,
              28,
              27,
              24,
              27,
              29,
              25,
              29,
              30,
              25,
              24,
              20,
              31,
              24,
              31,
              32,
              31,
              33,
              32,
              19,
              33,
              31,
              19,
              18,
              33,
              20,
              19,
              31
            ]
          }
        },
        {
          "Name": "hear_front_r",
          "Rectangle": {
            "x": 1800.0,
            "y": 864.0,
            "width": 200.0,
            "height": 380.0
          },
          "Pivot": {
            "x": 139.0,
            "y": 100.000038
          },
          "Mesh": {
            "TableCoordinate": [
              {
                "x": 108.0,
                "y": 156.0
              },
              {
                "x": 104.0,
                "y": 117.0
              },
              {
                "x": 130.0,
                "y": 127.0
              },
              {
                "x": 141.0,
                "y": 171.0
              },
              {
                "x": 116.0,
                "y": 187.0
              },
              {
                "x": 154.0,
                "y": 206.0
              },
              {
                "x": 125.0,
                "y": 219.0
              },
              {
                "x": 144.0,
                "y": 244.0
              },
              {
                "x": 171.0,
                "y": 240.0
              },
              {
                "x": 162.0,
                "y": 250.0
              },
              {
                "x": 171.0,
                "y": 250.0
              },
              {
                "x": 120.0,
                "y": 83.0
              },
              {
                "x": 105.0,
                "y": 78.0
              },
              {
                "x": 118.0,
                "y": 78.0
              }
            ],
            "TableIndexVertex": [
              0,
              1,
              2,
              0,
              2,
              3,
              4,
              0,
              3,
              4,
              3,
              5,
              6,
              4,
              5,
              7,
              6,
              5,
              7,
              5,
              8,
              9,
              7,
              8,
              9,
              8,
              10,
              1,
              11,
              2,
              11,
              1,
              12,
              11,
              12,
              13
            ]
          }
        },
        {
          "Name": "head",
          "Rectangle": {
            "x": 730.0,
            "y": 694.0,
            "width": 290.0,
            "height": 250.0
          },
          "Pivot": {
            "x": 163.000015,
            "y": 225.0
          },
          "Mesh": {
            "TableCoordinate": [],
            "TableIndexVertex": []
          }
        },
        {
          "Name": "hear_front_l",
          "Rectangle": {
            "x": 504.0,
            "y": 840.0,
            "width": 200.0,
            "height": 380.0
          },
          "Pivot": {
            "x": 81.0,
            "y": 93.00006
          },
          "Mesh": {
            "TableCoordinate": [
              {
                "x": 62.0,
                "y": 236.0
              },
              {
                "x": 53.0,
                "y": 236.0
              },
              {
                "x": 49.0,
                "y": 215.0
              },
              {
                "x": 82.0,
                "y": 217.0
              },
              {
                "x": 76.0,
                "y": 170.0
              },
              {
                "x": 102.0,
                "y": 167.0
              },
              {
                "x": 86.0,
                "y": 117.0
              },
              {
                "x": 107.0,
                "y": 122.0
              },
              {
                "x": 109.0,
                "y": 77.0
              },
              {
                "x": 92.0,
                "y": 65.0
              },
              {
                "x": 104.0,
                "y": 65.0
              }
            ],
            "TableIndexVertex": [
              0,
              1,
              2,
              3,
              0,
              2,
              2,
              4,
              3,
              3,
              4,
              5,
              4,
              6,
              5,
              5,
              6,
              7,
              7,
              6,
              8,
              8,
              6,
              9,
              8,
              9,
              10
            ]
          }
        },
        {
          "Name": "acce_body_front",
          "Rectangle": {
            "x": 4.0,
            "y": 4.0,
            "width": 250.0,
            "height": 275.0
          },
          "Pivot": {
            "x": 125.0,
            "y": 101.999977
          },
          "Mesh": {
            "TableCoordinate": [],
            "TableIndexVertex": []
          }
        },
        {
          "Name": "hand_r",
          "Rectangle": {
            "x": 504.0,
            "y": 660.0,
            "width": 225.0,
            "height": 180.0
          },
          "Pivot": {
            "x": 81.9999,
            "y": 61.00002
          },
          "Mesh": {
            "TableCoordinate": [],
            "TableIndexVertex": []
          }
        },
        {
          "Name": "arm_r",
          "Rectangle": {
            "x": 4.0,
            "y": 280.0,
            "width": 130.0,
            "height": 180.0
          },
          "Pivot": {
            "x": 78.99996,
            "y": 64.00008
          },
          "Mesh": {
            "TableCoordinate": [],
            "TableIndexVertex": []
          }
        },
        {
          "Name": "body",
          "Rectangle": {
            "x": 1164.0,
            "y": 364.0,
            "width": 180.0,
            "height": 220.0
          },
          "Pivot": {
            "x": 93.99996,
            "y": 151.000076
          },
          "Mesh": {
            "TableCoordinate": [],
            "TableIndexVertex": []
          }
        },
        {
          "Name": "acce_hip_front",
          "Rectangle": {
            "x": 1664.0,
            "y": 284.0,
            "width": 330.0,
            "height": 330.0
          },
          "Pivot": {
            "x": 160.0,
            "y": 99.0
          },
          "Mesh": {
            "TableCoordinate": [],
            "TableIndexVertex": []
          }
        },
        {
          "Name": "thigh_r",
          "Rectangle": {
            "x": 864.0,
            "y": 1124.0,
            "width": 130.0,
            "height": 180.0
          },
          "Pivot": {
            "x": 61.00003,
            "y": 68.00004
          },
          "Mesh": {
            "TableCoordinate": [],
            "TableIndexVertex": []
          }
        },
        {
          "Name": "leg_r",
          "Rectangle": {
            "x": 1914.0,
            "y": 614.0,
            "width": 130.0,
            "height": 180.0
          },
          "Pivot": {
            "x": 78.0,
            "y": 54.0
          },
          "Mesh": {
            "TableCoordinate": [],
            "TableIndexVertex": []
          }
        },
        {
          "Name": "hip",
          "Rectangle": {
            "x": 704.0,
            "y": 944.0,
            "width": 180.0,
            "height": 180.0
          },
          "Pivot": {
            "x": 95.00004,
            "y": 109.000076
          },
          "Mesh": {
            "TableCoordinate": [],
            "TableIndexVertex": []
          }
        },
        {
          "Name": "thigh_l",
          "Rectangle": {
            "x": 884.0,
            "y": 944.0,
            "width": 130.0,
            "height": 180.0
          },
          "Pivot": {
            "x": 61.99999,
            "y": 68.00004
          },
          "Mesh": {
            "TableCoordinate": [],
            "TableIndexVertex": []
          }
        },
        {
          "Name": "leg_l",
          "Rectangle": {
            "x": 4.0,
            "y": 460.0,
            "width": 130.0,
            "height": 180.0
          },
          "Pivot": {
            "x": 63.0,
            "y": 57.0
          },
          "Mesh": {
            "TableCoordinate": [],
            "TableIndexVertex": []
          }
        },
        {
          "Name": "weapon_b",
          "Rectangle": {
            "x": 1294.0,
            "y": 1384.0,
            "width": 250.0,
            "height": 500.0
          },
          "Pivot": {
            "x": 130.0,
            "y": 368.0
          },
          "Mesh": {
            "TableCoordinate": [],
            "TableIndexVertex": []
          }
        },
        {
          "Name": "hand_l",
          "Rectangle": {
            "x": 634.0,
            "y": 404.0,
            "width": 180.0,
            "height": 255.0
          },
          "Pivot": {
            "x": 99.0,
            "y": 59.00012
          },
          "Mesh": {
            "TableCoordinate": [],
            "TableIndexVertex": []
          }
        },
        {
          "Name": "arm_l",
          "Rectangle": {
            "x": 1864.0,
            "y": 4.0,
            "width": 130.0,
            "height": 180.0
          },
          "Pivot": {
            "x": 49.99995,
            "y": 63.0
          },
          "Mesh": {
            "TableCoordinate": [],
            "TableIndexVertex": []
          }
        },
        {
          "Name": "hear_back_c",
          "Rectangle": {
            "x": 1020.0,
            "y": 834.0,
            "width": 260.0,
            "height": 520.0
          },
          "Pivot": {
            "x": 119.999878,
            "y": 80.99988
          },
          "Mesh": {
            "TableCoordinate": [
              {
                "x": 60.0,
                "y": 200.0
              },
              {
                "x": 56.0,
                "y": 138.0
              },
              {
                "x": 78.0,
                "y": 165.0
              },
              {
                "x": 118.0,
                "y": 193.0
              },
              {
                "x": 79.0,
                "y": 236.0
              },
              {
                "x": 63.0,
                "y": 262.0
              },
              {
                "x": 114.0,
                "y": 247.0
              },
              {
                "x": 86.0,
                "y": 293.0
              },
              {
                "x": 66.0,
                "y": 324.0
              },
              {
                "x": 117.0,
                "y": 343.0
              },
              {
                "x": 86.0,
                "y": 363.0
              },
              {
                "x": 102.0,
                "y": 376.0
              },
              {
                "x": 82.0,
                "y": 381.0
              },
              {
                "x": 122.0,
                "y": 384.0
              },
              {
                "x": 130.0,
                "y": 295.0
              },
              {
                "x": 151.0,
                "y": 351.0
              },
              {
                "x": 158.0,
                "y": 387.0
              },
              {
                "x": 170.0,
                "y": 387.0
              },
              {
                "x": 199.0,
                "y": 366.0
              },
              {
                "x": 180.0,
                "y": 324.0
              },
              {
                "x": 179.0,
                "y": 281.0
              },
              {
                "x": 162.0,
                "y": 232.0
              },
              {
                "x": 146.0,
                "y": 216.0
              },
              {
                "x": 194.0,
                "y": 181.0
              },
              {
                "x": 208.0,
                "y": 219.0
              },
              {
                "x": 214.0,
                "y": 283.0
              },
              {
                "x": 210.0,
                "y": 347.0
              },
              {
                "x": 217.0,
                "y": 369.0
              },
              {
                "x": 213.0,
                "y": 155.0
              },
              {
                "x": 162.0,
                "y": 169.0
              },
              {
                "x": 117.0,
                "y": 148.0
              },
              {
                "x": 75.0,
                "y": 124.0
              },
              {
                "x": 57.0,
                "y": 77.0
              },
              {
                "x": 74.0,
                "y": 83.0
              },
              {
                "x": 110.0,
                "y": 111.0
              },
              {
                "x": 141.0,
                "y": 119.0
              },
              {
                "x": 159.0,
                "y": 136.0
              },
              {
                "x": 194.0,
                "y": 127.0
              },
              {
                "x": 212.0,
                "y": 90.0
              },
              {
                "x": 180.0,
                "y": 86.0
              },
              {
                "x": 126.0,
                "y": 61.0
              },
              {
                "x": 157.0,
                "y": 37.0
              },
              {
                "x": 111.0,
                "y": 35.0
              },
              {
                "x": 66.0,
                "y": 51.0
              },
              {
                "x": 189.0,
                "y": 49.0
              },
              {
                "x": 203.0,
                "y": 58.0
              }
            ],
            "TableIndexVertex": [
              0,
              1,
              2,
              0,
              2,
              3,
              4,
              0,
              3,
              5,
              0,
              4,
              6,
              5,
              4,
              7,
              5,
              6,
              8,
              5,
              7,
              8,
              7,
              9,
              10,
              8,
              9,
              11,
              10,
              9,
              12,
              10,
              11,
              11,
              9,
              13,
              9,
              7,
              14,
              15,
              9,
              14,
              16,
              9,
              15,
              17,
              16,
              15,
              18,
              17,
              15,
              15,
              19,
              18,
              19,
              15,
              14,
              14,
              20,
              19,
              14,
              21,
              20,
              21,
              14,
              6,
              21,
              6,
              22,
              21,
              22,
              23,
              24,
              21,
              23,
              20,
              21,
              24,
              20,
              24,
              25,
              19,
              20,
              25,
              26,
              19,
              25,
              18,
              19,
              26,
              18,
              26,
              27,
              24,
              23,
              28,
              23,
              29,
              28,
              22,
              29,
              23,
              22,
              3,
              29,
              6,
              3,
              22,
              6,
              4,
              3,
              3,
              30,
              29,
              2,
              30,
              3,
              2,
              31,
              30,
              1,
              31,
              2,
              31,
              1,
              32,
              31,
              32,
              33,
              31,
              33,
              34,
              31,
              34,
              30,
              30,
              34,
              35,
              30,
              35,
              36,
              30,
              36,
              29,
              29,
              36,
              37,
              29,
              37,
              28,
              37,
              38,
              28,
              37,
              39,
              38,
              37,
              36,
              39,
              36,
              35,
              39,
              39,
              35,
              40,
              40,
              41,
              39,
              40,
              42,
              41,
              33,
              42,
              40,
              33,
              43,
              42,
              32,
              43,
              33,
              34,
              33,
              40,
              35,
              34,
              40,
              39,
              41,
              44,
              39,
              44,
              45,
              39,
              45,
              38,
              7,
              6,
              14
            ]
          }
        },
        {
          "Name": "hear_back_r",
          "Rectangle": {
            "x": 1540.0,
            "y": 864.0,
            "width": 260.0,
            "height": 520.0
          },
          "Pivot": {
            "x": 164.999908,
            "y": 81.99983
          },
          "Mesh": {
            "TableCoordinate": [
              {
                "x": 72.0,
                "y": 293.0
              },
              {
                "x": 33.0,
                "y": 290.0
              },
              {
                "x": 33.0,
                "y": 279.0
              },
              {
                "x": 75.0,
                "y": 263.0
              },
              {
                "x": 124.0,
                "y": 289.0
              },
              {
                "x": 111.0,
                "y": 327.0
              },
              {
                "x": 165.0,
                "y": 301.0
              },
              {
                "x": 159.0,
                "y": 342.0
              },
              {
                "x": 126.0,
                "y": 351.0
              },
              {
                "x": 175.0,
                "y": 386.0
              },
              {
                "x": 186.0,
                "y": 374.0
              },
              {
                "x": 186.0,
                "y": 386.0
              },
              {
                "x": 142.0,
                "y": 262.0
              },
              {
                "x": 96.0,
                "y": 241.0
              },
              {
                "x": 119.0,
                "y": 225.0
              },
              {
                "x": 96.0,
                "y": 190.0
              },
              {
                "x": 151.0,
                "y": 201.0
              },
              {
                "x": 166.0,
                "y": 246.0
              },
              {
                "x": 192.0,
                "y": 168.0
              },
              {
                "x": 132.0,
                "y": 168.0
              },
              {
                "x": 164.0,
                "y": 140.0
              },
              {
                "x": 192.0,
                "y": 104.0
              },
              {
                "x": 138.0,
                "y": 119.0
              },
              {
                "x": 108.0,
                "y": 148.0
              },
              {
                "x": 116.0,
                "y": 106.0
              },
              {
                "x": 133.0,
                "y": 70.0
              },
              {
                "x": 183.0,
                "y": 58.0
              },
              {
                "x": 158.0,
                "y": 48.0
              },
              {
                "x": 72.0,
                "y": 320.0
              },
              {
                "x": 81.0,
                "y": 333.0
              }
            ],
            "TableIndexVertex": [
              0,
              1,
              2,
              3,
              0,
              2,
              0,
              3,
              4,
              4,
              5,
              0,
              6,
              5,
              4,
              7,
              5,
              6,
              8,
              5,
              7,
              8,
              7,
              9,
              9,
              7,
              10,
              9,
              10,
              11,
              7,
              6,
              10,
              4,
              12,
              6,
              4,
              13,
              12,
              3,
              13,
              4,
              13,
              14,
              12,
              13,
              15,
              14,
              14,
              15,
              16,
              14,
              16,
              17,
              12,
              14,
              17,
              6,
              12,
              17,
              17,
              16,
              18,
              18,
              16,
              19,
              18,
              19,
              20,
              20,
              21,
              18,
              20,
              22,
              21,
              19,
              22,
              20,
              19,
              23,
              22,
              15,
              23,
              19,
              15,
              19,
              16,
              23,
              24,
              22,
              22,
              24,
              25,
              21,
              22,
              25,
              21,
              25,
              26,
              25,
              27,
              26,
              5,
              28,
              0,
              29,
              28,
              5
            ]
          }
        },
        {
          "Name": "hear_back_l",
          "Rectangle": {
            "x": 1280.0,
            "y": 834.0,
            "width": 260.0,
            "height": 520.0
          },
          "Pivot": {
            "x": 71.99998,
            "y": 77.0000458
          },
          "Mesh": {
            "TableCoordinate": [
              {
                "x": 67.0,
                "y": 207.0
              },
              {
                "x": 54.0,
                "y": 151.0
              },
              {
                "x": 91.0,
                "y": 168.0
              },
              {
                "x": 109.0,
                "y": 229.0
              },
              {
                "x": 82.0,
                "y": 263.0
              },
              {
                "x": 137.0,
                "y": 255.0
              },
              {
                "x": 114.0,
                "y": 292.0
              },
              {
                "x": 111.0,
                "y": 331.0
              },
              {
                "x": 135.0,
                "y": 333.0
              },
              {
                "x": 104.0,
                "y": 349.0
              },
              {
                "x": 122.0,
                "y": 369.0
              },
              {
                "x": 111.0,
                "y": 369.0
              },
              {
                "x": 151.0,
                "y": 283.0
              },
              {
                "x": 156.0,
                "y": 342.0
              },
              {
                "x": 178.0,
                "y": 265.0
              },
              {
                "x": 179.0,
                "y": 219.0
              },
              {
                "x": 133.0,
                "y": 191.0
              },
              {
                "x": 153.0,
                "y": 148.0
              },
              {
                "x": 111.0,
                "y": 125.0
              },
              {
                "x": 78.0,
                "y": 101.0
              },
              {
                "x": 56.0,
                "y": 75.0
              },
              {
                "x": 101.0,
                "y": 53.0
              },
              {
                "x": 126.0,
                "y": 77.0
              },
              {
                "x": 73.0,
                "y": 45.0
              }
            ],
            "TableIndexVertex": [
              0,
              1,
              2,
              0,
              2,
              3,
              4,
              0,
              3,
              4,
              3,
              5,
              6,
              4,
              5,
              7,
              4,
              6,
              7,
              6,
              8,
              8,
              9,
              7,
              8,
              10,
              9,
              10,
              11,
              9,
              8,
              6,
              12,
              8,
              12,
              13,
              6,
              5,
              12,
              12,
              5,
              14,
              14,
              5,
              15,
              5,
              16,
              15,
              3,
              16,
              5,
              3,
              2,
              16,
              16,
              2,
              17,
              16,
              17,
              15,
              2,
              18,
              17,
              2,
              1,
              18,
              1,
              19,
              18,
              1,
              20,
              19,
              19,
              20,
              21,
              19,
              21,
              22,
              18,
              19,
              22,
              18,
              22,
              17,
              21,
              20,
              23
            ]
          }
        },
        {
          "Name": "weapon_r",
          "Rectangle": {
            "x": 1794.0,
            "y": 1384.0,
            "width": 250.0,
            "height": 400.0
          },
          "Pivot": {
            "x": 109.0,
            "y": 324.0
          },
          "Mesh": {
            "TableCoordinate": [],
            "TableIndexVertex": []
          }
        },
        {
          "Name": "weapon_r_1",
          "Rectangle": {
            "x": 1794.0,
            "y": 1384.0,
            "width": 250.0,
            "height": 400.0
          },
          "Pivot": {
            "x": 128.0,
            "y": 182.0
          },
          "Mesh": {
            "TableCoordinate": [],
            "TableIndexVertex": []
          }
        },
        {
          "Name": "weapon_l",
          "Rectangle": {
            "x": 1772.0,
            "y": 1376.0,
            "width": 250.0,
            "height": 400.0
          },
          "Pivot": {
            "x": 131.0,
            "y": 338.0
          },
          "Mesh": {
            "TableCoordinate": [],
            "TableIndexVertex": []
          }
        },
        {
          "Name": "rear_c",
          "Rectangle": {
            "x": 434.0,
            "y": 1220.0,
            "width": 430.0,
            "height": 430.0
          },
          "Pivot": {
            "x": 215.0,
            "y": 215.0
          },
          "Mesh": {
            "TableCoordinate": [],
            "TableIndexVertex": []
          }
        },
        {
          "Name": "rear_r",
          "Rectangle": {
            "x": 864.0,
            "y": 1354.0,
            "width": 430.0,
            "height": 430.0
          },
          "Pivot": {
            "x": 215.0,
            "y": 215.0
          },
          "Mesh": {
            "TableCoordinate": [],
            "TableIndexVertex": []
          }
        },
        {
          "Name": "rear_l",
          "Rectangle": {
            "x": 4.0,
            "y": 1224.0,
            "width": 430.0,
            "height": 430.0
          },
          "Pivot": {
            "x": 215.0,
            "y": 215.0
          },
          "Mesh": {
            "TableCoordinate": [],
            "TableIndexVertex": []
          }
        },
        {
          "Name": "acce_head_rear_c",
          "Rectangle": {
            "x": 1364.0,
            "y": 284.0,
            "width": 300.0,
            "height": 300.0
          },
          "Pivot": {
            "x": 150.0,
            "y": 150.0
          },
          "Mesh": {
            "TableCoordinate": [],
            "TableIndexVertex": []
          }
        },
        {
          "Name": "acce_body_rear",
          "Rectangle": {
            "x": 254.0,
            "y": 4.0,
            "width": 580.0,
            "height": 400.0
          },
          "Pivot": {
            "x": 290.0,
            "y": 200.0
          },
          "Mesh": {
            "TableCoordinate": [],
            "TableIndexVertex": []
          }
        },
        {
          "Name": "acce_hip_rear",
          "Rectangle": {
            "x": 834.0,
            "y": 364.0,
            "width": 330.0,
            "height": 330.0
          },
          "Pivot": {
            "x": 165.0,
            "y": 165.0
          },
          "Mesh": {
            "TableCoordinate": [],
            "TableIndexVertex": []
          }
        }
      ]
    }
  ]
}