{
  "m_GameObject": {
    "m_FileID": 0,
    "m_PathID": 0
  },
  "m_Enabled": 1,
  "m_Script": {
    "m_FileID": 0,
    "m_PathID": -2767099076474933927
  },
  "m_Name": "dc_1020200_sd",
  "Version": 65537,
  "TableCellMap": [
    {
      "Name": "1020200_sd",
      "SizeOriginal": {
        "x": 2048.0,
        "y": 2048.0
      },
      "TableCell": [
        {
          "Name": "face_normal",
          "Rectangle": {
            "x": 4.0,
            "y": 654.0,
            "width": 250.0,
            "height": 250.0
          },
          "Pivot": {
            "x": 125.0,
            "y": 135.0
          },
          "Mesh": {
            "TableCoordinate": [],
            "TableIndexVertex": []
          }
        },
        {
          "Name": "face_eye_close_normal",
          "Rectangle": {
            "x": 1164.0,
            "y": 584.0,
            "width": 250.0,
            "height": 250.0
          },
          "Pivot": {
            "x": 125.0,
            "y": 135.0
          },
          "Mesh": {
            "TableCoordinate": [],
            "TableIndexVertex": []
          }
        },
        {
          "Name": "face_mouth_open_happy",
          "Rectangle": {
            "x": 1664.0,
            "y": 614.0,
            "width": 250.0,
            "height": 250.0
          },
          "Pivot": {
            "x": 125.0,
            "y": 135.0
          },
          "Mesh": {
            "TableCoordinate": [],
            "TableIndexVertex": []
          }
        },
        {
          "Name": "face_happy",
          "Rectangle": {
            "x": 1414.0,
            "y": 584.0,
            "width": 250.0,
            "height": 250.0
          },
          "Pivot": {
            "x": 125.0,
            "y": 135.0
          },
          "Mesh": {
            "TableCoordinate": [],
            "TableIndexVertex": []
          }
        },
        {
          "Name": "face_attack",
          "Rectangle": {
            "x": 134.0,
            "y": 404.0,
            "width": 250.0,
            "height": 250.0
          },
          "Pivot": {
            "x": 125.0,
            "y": 135.0
          },
          "Mesh": {
            "TableCoordinate": [],
            "TableIndexVertex": []
          }
        },
        {
          "Name": "face_damage",
          "Rectangle": {
            "x": 384.0,
            "y": 404.0,
            "width": 250.0,
            "height": 250.0
          },
          "Pivot": {
            "x": 125.0,
            "y": 135.0
          },
          "Mesh": {
            "TableCoordinate": [],
            "TableIndexVertex": []
          }
        },
        {
          "Name": "face_unique",
          "Rectangle": {
            "x": 254.0,
            "y": 654.0,
            "width": 250.0,
            "height": 250.0
          },
          "Pivot": {
            "x": 125.0,
            "y": 135.0
          },
          "Mesh": {
            "TableCoordinate": [],
            "TableIndexVertex": []
          }
        },
        {
          "Name": "acce_head_front_c",
          "Rectangle": {
            "x": 834.0,
            "y": 4.0,
            "width": 530.0,
            "height": 360.0
          },
          "Pivot": {
            "x": 265.0,
            "y": 180.0
          },
          "Mesh": {
            "TableCoordinate": [],
            "TableIndexVertex": []
          }
        },
        {
          "Name": "acce_head_front_l",
          "Rectangle": {
            "x": 1364.0,
            "y": 4.0,
            "width": 250.0,
            "height": 280.0
          },
          "Pivot": {
            "x": 132.0,
            "y": 119.999878
          },
          "Mesh": {
            "TableCoordinate": [],
            "TableIndexVertex": []
          }
        },
        {
          "Name": "acce_head_front_r",
          "Rectangle": {
            "x": 1614.0,
            "y": 4.0,
            "width": 250.0,
            "height": 280.0
          },
          "Pivot": {
            "x": 123.0,
            "y": 133.999878
          },
          "Mesh": {
            "TableCoordinate": [],
            "TableIndexVertex": []
          }
        },
        {
          "Name": "hear_front_c",
          "Rectangle": {
            "x": 4.0,
            "y": 904.0,
            "width": 430.0,
            "height": 320.0
          },
          "Pivot": {
            "x": 213.0,
            "y": 63.0
          },
          "Mesh": {
            "TableCoordinate": [
              {
                "x": 23.0,
                "y": 215.0
              },
              {
                "x": 13.0,
                "y": 199.0
              },
              {
                "x": 80.0,
                "y": 199.0
              },
              {
                "x": 66.0,
                "y": 230.0
              },
              {
                "x": 83.0,
                "y": 235.0
              },
              {
                "x": 127.0,
                "y": 207.0
              },
              {
                "x": 96.0,
                "y": 248.0
              },
              {
                "x": 133.0,
                "y": 239.0
              },
              {
                "x": 112.0,
                "y": 261.0
              },
              {
                "x": 120.0,
                "y": 264.0
              },
              {
                "x": 188.0,
                "y": 205.0
              },
              {
                "x": 164.0,
                "y": 251.0
              },
              {
                "x": 196.0,
                "y": 218.0
              },
              {
                "x": 202.0,
                "y": 245.0
              },
              {
                "x": 131.0,
                "y": 161.0
              },
              {
                "x": 74.0,
                "y": 158.0
              },
              {
                "x": 100.0,
                "y": 95.0
              },
              {
                "x": 160.0,
                "y": 103.0
              },
              {
                "x": 217.0,
                "y": 147.0
              },
              {
                "x": 214.0,
                "y": 173.0
              },
              {
                "x": 209.0,
                "y": 195.0
              },
              {
                "x": 200.0,
                "y": 75.0
              },
              {
                "x": 138.0,
                "y": 55.0
              },
              {
                "x": 204.0,
                "y": 24.0
              },
              {
                "x": 266.0,
                "y": 82.0
              },
              {
                "x": 298.0,
                "y": 130.0
              },
              {
                "x": 281.0,
                "y": 164.0
              },
              {
                "x": 220.0,
                "y": 172.0
              },
              {
                "x": 262.0,
                "y": 197.0
              },
              {
                "x": 222.0,
                "y": 202.0
              },
              {
                "x": 256.0,
                "y": 222.0
              },
              {
                "x": 223.0,
                "y": 215.0
              },
              {
                "x": 339.0,
                "y": 175.0
              },
              {
                "x": 309.0,
                "y": 209.0
              },
              {
                "x": 342.0,
                "y": 208.0
              },
              {
                "x": 335.0,
                "y": 225.0
              },
              {
                "x": 296.0,
                "y": 247.0
              },
              {
                "x": 282.0,
                "y": 231.0
              },
              {
                "x": 266.0,
                "y": 217.0
              },
              {
                "x": 282.0,
                "y": 197.0
              },
              {
                "x": 365.0,
                "y": 185.0
              },
              {
                "x": 371.0,
                "y": 226.0
              },
              {
                "x": 349.0,
                "y": 235.0
              },
              {
                "x": 354.0,
                "y": 245.0
              },
              {
                "x": 390.0,
                "y": 200.0
              },
              {
                "x": 398.0,
                "y": 223.0
              },
              {
                "x": 400.0,
                "y": 172.0
              },
              {
                "x": 429.0,
                "y": 180.0
              },
              {
                "x": 364.0,
                "y": 141.0
              },
              {
                "x": 346.0,
                "y": 125.0
              },
              {
                "x": 300.0,
                "y": 55.0
              }
            ],
            "TableIndexVertex": [
              0,
              1,
              2,
              3,
              0,
              2,
              3,
              2,
              4,
              4,
              2,
              5,
              6,
              4,
              5,
              7,
              6,
              5,
              8,
              6,
              7,
              9,
              8,
              7,
              7,
              5,
              10,
              11,
              7,
              10,
              12,
              11,
              10,
              13,
              11,
              12,
              5,
              14,
              10,
              5,
              2,
              14,
              2,
              15,
              14,
              1,
              15,
              2,
              14,
              15,
              16,
              17,
              14,
              16,
              14,
              17,
              18,
              19,
              14,
              18,
              19,
              10,
              14,
              20,
              10,
              19,
              17,
              21,
              18,
              17,
              22,
              21,
              16,
              22,
              17,
              21,
              22,
              23,
              24,
              21,
              23,
              18,
              21,
              24,
              18,
              24,
              25,
              26,
              18,
              25,
              27,
              18,
              26,
              28,
              27,
              26,
              28,
              29,
              27,
              28,
              30,
              29,
              30,
              31,
              29,
              26,
              25,
              32,
              32,
              33,
              26,
              34,
              33,
              32,
              35,
              33,
              34,
              36,
              33,
              35,
              36,
              37,
              33,
              38,
              37,
              36,
              38,
              39,
              37,
              37,
              39,
              33,
              33,
              39,
              26,
              34,
              32,
              40,
              34,
              40,
              41,
              41,
              42,
              34,
              43,
              42,
              41,
              41,
              40,
              44,
              41,
              44,
              45,
              44,
              40,
              46,
              44,
              46,
              47,
              46,
              40,
              48,
              40,
              32,
              48,
              32,
              49,
              48,
              32,
              25,
              49,
              49,
              25,
              50,
              25,
              24,
              50,
              50,
              24,
              23
            ]
          }
        },
        {
          "Name": "hear_front_r",
          "Rectangle": {
            "x": 1800.0,
            "y": 864.0,
            "width": 200.0,
            "height": 380.0
          },
          "Pivot": {
            "x": 139.0,
            "y": 100.000038
          },
          "Mesh": {
            "TableCoordinate": [
              {
                "x": 85.0,
                "y": 111.0
              },
              {
                "x": 84.0,
                "y": 47.0
              },
              {
                "x": 130.0,
                "y": 46.0
              },
              {
                "x": 142.0,
                "y": 113.0
              },
              {
                "x": 96.0,
                "y": 158.0
              },
              {
                "x": 141.0,
                "y": 156.0
              },
              {
                "x": 92.0,
                "y": 185.0
              },
              {
                "x": 153.0,
                "y": 186.0
              },
              {
                "x": 100.0,
                "y": 217.0
              },
              {
                "x": 167.0,
                "y": 204.0
              },
              {
                "x": 127.0,
                "y": 249.0
              },
              {
                "x": 144.0,
                "y": 254.0
              },
              {
                "x": 175.0,
                "y": 220.0
              },
              {
                "x": 180.0,
                "y": 260.0
              },
              {
                "x": 192.0,
                "y": 236.0
              },
              {
                "x": 198.0,
                "y": 244.0
              },
              {
                "x": 142.0,
                "y": 39.0
              }
            ],
            "TableIndexVertex": [
              0,
              1,
              2,
              0,
              2,
              3,
              3,
              4,
              0,
              5,
              4,
              3,
              6,
              4,
              5,
              7,
              6,
              5,
              8,
              6,
              7,
              9,
              8,
              7,
              9,
              10,
              8,
              11,
              10,
              9,
              12,
              11,
              9,
              13,
              11,
              12,
              14,
              13,
              12,
              13,
              14,
              15,
              2,
              16,
              3
            ]
          }
        },
        {
          "Name": "head",
          "Rectangle": {
            "x": 730.0,
            "y": 694.0,
            "width": 290.0,
            "height": 250.0
          },
          "Pivot": {
            "x": 163.000015,
            "y": 225.0
          },
          "Mesh": {
            "TableCoordinate": [],
            "TableIndexVertex": []
          }
        },
        {
          "Name": "hear_front_l",
          "Rectangle": {
            "x": 504.0,
            "y": 840.0,
            "width": 200.0,
            "height": 380.0
          },
          "Pivot": {
            "x": 81.0,
            "y": 93.00006
          },
          "Mesh": {
            "TableCoordinate": [
              {
                "x": 47.0,
                "y": 62.0
              },
              {
                "x": 42.0,
                "y": 26.0
              },
              {
                "x": 96.0,
                "y": 32.0
              },
              {
                "x": 105.0,
                "y": 73.0
              },
              {
                "x": 103.0,
                "y": 95.0
              },
              {
                "x": 48.0,
                "y": 110.0
              },
              {
                "x": 56.0,
                "y": 143.0
              },
              {
                "x": 113.0,
                "y": 149.0
              },
              {
                "x": 113.0,
                "y": 174.0
              },
              {
                "x": 60.0,
                "y": 196.0
              },
              {
                "x": 124.0,
                "y": 219.0
              },
              {
                "x": 65.0,
                "y": 226.0
              },
              {
                "x": 83.0,
                "y": 263.0
              },
              {
                "x": 60.0,
                "y": 255.0
              }
            ],
            "TableIndexVertex": [
              0,
              1,
              2,
              0,
              2,
              3,
              4,
              0,
              3,
              5,
              0,
              4,
              6,
              5,
              4,
              6,
              4,
              7,
              6,
              7,
              8,
              9,
              6,
              8,
              9,
              8,
              10,
              11,
              9,
              10,
              12,
              11,
              10,
              13,
              11,
              12
            ]
          }
        },
        {
          "Name": "acce_body_front",
          "Rectangle": {
            "x": 4.0,
            "y": 4.0,
            "width": 250.0,
            "height": 275.0
          },
          "Pivot": {
            "x": 125.0,
            "y": 101.999977
          },
          "Mesh": {
            "TableCoordinate": [],
            "TableIndexVertex": []
          }
        },
        {
          "Name": "hand_r",
          "Rectangle": {
            "x": 504.0,
            "y": 660.0,
            "width": 225.0,
            "height": 180.0
          },
          "Pivot": {
            "x": 75.0,
            "y": 71.0
          },
          "Mesh": {
            "TableCoordinate": [],
            "TableIndexVertex": []
          }
        },
        {
          "Name": "arm_r",
          "Rectangle": {
            "x": 4.0,
            "y": 280.0,
            "width": 130.0,
            "height": 180.0
          },
          "Pivot": {
            "x": 78.99996,
            "y": 64.00008
          },
          "Mesh": {
            "TableCoordinate": [],
            "TableIndexVertex": []
          }
        },
        {
          "Name": "body",
          "Rectangle": {
            "x": 1164.0,
            "y": 364.0,
            "width": 180.0,
            "height": 220.0
          },
          "Pivot": {
            "x": 93.99996,
            "y": 151.000076
          },
          "Mesh": {
            "TableCoordinate": [],
            "TableIndexVertex": []
          }
        },
        {
          "Name": "acce_hip_front",
          "Rectangle": {
            "x": 1664.0,
            "y": 284.0,
            "width": 330.0,
            "height": 330.0
          },
          "Pivot": {
            "x": 167.000137,
            "y": 141.000092
          },
          "Mesh": {
            "TableCoordinate": [],
            "TableIndexVertex": []
          }
        },
        {
          "Name": "thigh_r",
          "Rectangle": {
            "x": 864.0,
            "y": 1124.0,
            "width": 130.0,
            "height": 180.0
          },
          "Pivot": {
            "x": 61.00003,
            "y": 68.00004
          },
          "Mesh": {
            "TableCoordinate": [],
            "TableIndexVertex": []
          }
        },
        {
          "Name": "leg_r",
          "Rectangle": {
            "x": 1914.0,
            "y": 614.0,
            "width": 130.0,
            "height": 180.0
          },
          "Pivot": {
            "x": 78.0,
            "y": 54.0
          },
          "Mesh": {
            "TableCoordinate": [],
            "TableIndexVertex": []
          }
        },
        {
          "Name": "hip",
          "Rectangle": {
            "x": 704.0,
            "y": 944.0,
            "width": 180.0,
            "height": 180.0
          },
          "Pivot": {
            "x": 95.00004,
            "y": 109.000076
          },
          "Mesh": {
            "TableCoordinate": [],
            "TableIndexVertex": []
          }
        },
        {
          "Name": "thigh_l",
          "Rectangle": {
            "x": 884.0,
            "y": 944.0,
            "width": 130.0,
            "height": 180.0
          },
          "Pivot": {
            "x": 61.99999,
            "y": 68.00004
          },
          "Mesh": {
            "TableCoordinate": [],
            "TableIndexVertex": []
          }
        },
        {
          "Name": "leg_l",
          "Rectangle": {
            "x": 4.0,
            "y": 460.0,
            "width": 130.0,
            "height": 180.0
          },
          "Pivot": {
            "x": 71.99998,
            "y": 55.00008
          },
          "Mesh": {
            "TableCoordinate": [],
            "TableIndexVertex": []
          }
        },
        {
          "Name": "weapon_b",
          "Rectangle": {
            "x": 1294.0,
            "y": 1384.0,
            "width": 250.0,
            "height": 500.0
          },
          "Pivot": {
            "x": 130.0,
            "y": 368.0
          },
          "Mesh": {
            "TableCoordinate": [],
            "TableIndexVertex": []
          }
        },
        {
          "Name": "hand_l",
          "Rectangle": {
            "x": 634.0,
            "y": 404.0,
            "width": 180.0,
            "height": 255.0
          },
          "Pivot": {
            "x": 99.0,
            "y": 59.00012
          },
          "Mesh": {
            "TableCoordinate": [],
            "TableIndexVertex": []
          }
        },
        {
          "Name": "arm_l",
          "Rectangle": {
            "x": 1864.0,
            "y": 4.0,
            "width": 130.0,
            "height": 180.0
          },
          "Pivot": {
            "x": 49.99995,
            "y": 63.0
          },
          "Mesh": {
            "TableCoordinate": [],
            "TableIndexVertex": []
          }
        },
        {
          "Name": "hear_back_c",
          "Rectangle": {
            "x": 1020.0,
            "y": 834.0,
            "width": 260.0,
            "height": 520.0
          },
          "Pivot": {
            "x": 119.999878,
            "y": 80.99988
          },
          "Mesh": {
            "TableCoordinate": [
              {
                "x": 7.0,
                "y": 328.0
              },
              {
                "x": -2.0,
                "y": 281.0
              },
              {
                "x": 119.0,
                "y": 288.0
              },
              {
                "x": 119.0,
                "y": 328.0
              },
              {
                "x": 21.0,
                "y": 366.0
              },
              {
                "x": 114.0,
                "y": 369.0
              },
              {
                "x": 113.0,
                "y": 407.0
              },
              {
                "x": 16.0,
                "y": 407.0
              },
              {
                "x": 21.0,
                "y": 441.0
              },
              {
                "x": 109.0,
                "y": 466.0
              },
              {
                "x": 179.0,
                "y": 451.0
              },
              {
                "x": 199.0,
                "y": 407.0
              },
              {
                "x": 203.0,
                "y": 370.0
              },
              {
                "x": 204.0,
                "y": 328.0
              },
              {
                "x": 224.0,
                "y": 291.0
              },
              {
                "x": 120.0,
                "y": 244.0
              },
              {
                "x": 229.0,
                "y": 255.0
              },
              {
                "x": 227.0,
                "y": 209.0
              },
              {
                "x": 116.0,
                "y": 205.0
              },
              {
                "x": 119.0,
                "y": 167.0
              },
              {
                "x": 5.0,
                "y": 186.0
              },
              {
                "x": 2.0,
                "y": 223.0
              },
              {
                "x": 13.0,
                "y": 152.0
              },
              {
                "x": 21.0,
                "y": 119.0
              },
              {
                "x": 123.0,
                "y": 132.0
              },
              {
                "x": 226.0,
                "y": 134.0
              },
              {
                "x": 237.0,
                "y": 168.0
              },
              {
                "x": 129.0,
                "y": 92.0
              },
              {
                "x": 80.0,
                "y": 51.0
              },
              {
                "x": 29.0,
                "y": 75.0
              },
              {
                "x": 144.0,
                "y": 36.0
              },
              {
                "x": 197.0,
                "y": 64.0
              },
              {
                "x": 225.0,
                "y": 95.0
              }
            ],
            "TableIndexVertex": [
              0,
              1,
              2,
              0,
              2,
              3,
              4,
              0,
              3,
              5,
              4,
              3,
              6,
              4,
              5,
              7,
              4,
              6,
              8,
              7,
              6,
              9,
              8,
              6,
              9,
              6,
              10,
              10,
              6,
              11,
              6,
              5,
              11,
              11,
              5,
              12,
              5,
              3,
              12,
              12,
              3,
              13,
              13,
              3,
              2,
              14,
              13,
              2,
              15,
              14,
              2,
              16,
              14,
              15,
              16,
              15,
              17,
              17,
              15,
              18,
              18,
              19,
              17,
              18,
              20,
              19,
              21,
              20,
              18,
              21,
              18,
              15,
              1,
              21,
              15,
              2,
              1,
              15,
              19,
              20,
              22,
              22,
              23,
              19,
              19,
              23,
              24,
              25,
              19,
              24,
              26,
              19,
              25,
              19,
              26,
              17,
              24,
              27,
              25,
              24,
              28,
              27,
              29,
              28,
              24,
              23,
              29,
              24,
              27,
              28,
              30,
              27,
              30,
              31,
              27,
              31,
              32,
              27,
              32,
              25
            ]
          }
        },
        {
          "Name": "hear_back_r",
          "Rectangle": {
            "x": 1540.0,
            "y": 864.0,
            "width": 260.0,
            "height": 520.0
          },
          "Pivot": {
            "x": 164.999908,
            "y": 81.99983
          },
          "Mesh": {
            "TableCoordinate": [
              {
                "x": 7.0,
                "y": 489.0
              },
              {
                "x": 17.0,
                "y": 400.0
              },
              {
                "x": 103.0,
                "y": 499.0
              },
              {
                "x": 120.0,
                "y": 408.0
              },
              {
                "x": 132.0,
                "y": 347.0
              },
              {
                "x": 10.0,
                "y": 334.0
              },
              {
                "x": 130.0,
                "y": 271.0
              },
              {
                "x": 11.0,
                "y": 282.0
              },
              {
                "x": 22.0,
                "y": 228.0
              },
              {
                "x": 135.0,
                "y": 215.0
              },
              {
                "x": 57.0,
                "y": 168.0
              },
              {
                "x": 157.0,
                "y": 148.0
              },
              {
                "x": 73.0,
                "y": 121.0
              },
              {
                "x": 123.0,
                "y": 64.0
              },
              {
                "x": 184.0,
                "y": 103.0
              },
              {
                "x": 152.0,
                "y": 36.0
              },
              {
                "x": 216.0,
                "y": 55.0
              }
            ],
            "TableIndexVertex": [
              0,
              1,
              2,
              2,
              1,
              3,
              3,
              1,
              4,
              1,
              5,
              4,
              4,
              5,
              6,
              5,
              7,
              6,
              7,
              8,
              6,
              6,
              8,
              9,
              8,
              10,
              9,
              9,
              10,
              11,
              11,
              10,
              12,
              12,
              13,
              11,
              11,
              13,
              14,
              13,
              15,
              14,
              14,
              15,
              16
            ]
          }
        },
        {
          "Name": "hear_back_l",
          "Rectangle": {
            "x": 1280.0,
            "y": 834.0,
            "width": 260.0,
            "height": 520.0
          },
          "Pivot": {
            "x": 71.99998,
            "y": 77.0000458
          },
          "Mesh": {
            "TableCoordinate": [
              {
                "x": 184.0,
                "y": 120.0
              },
              {
                "x": 40.0,
                "y": 188.0
              },
              {
                "x": 37.0,
                "y": 156.0
              },
              {
                "x": 203.0,
                "y": 171.0
              },
              {
                "x": 46.0,
                "y": 225.0
              },
              {
                "x": 219.0,
                "y": 206.0
              },
              {
                "x": 53.0,
                "y": 263.0
              },
              {
                "x": 221.0,
                "y": 266.0
              },
              {
                "x": 65.0,
                "y": 309.0
              },
              {
                "x": 230.0,
                "y": 320.0
              },
              {
                "x": 72.0,
                "y": 348.0
              },
              {
                "x": 230.0,
                "y": 366.0
              },
              {
                "x": 86.0,
                "y": 403.0
              },
              {
                "x": 37.0,
                "y": 127.0
              },
              {
                "x": 173.0,
                "y": 90.0
              },
              {
                "x": 45.0,
                "y": 69.0
              },
              {
                "x": 160.0,
                "y": 42.0
              },
              {
                "x": 115.0,
                "y": 1.0
              },
              {
                "x": 56.0,
                "y": 2.0
              }
            ],
            "TableIndexVertex": [
              0,
              1,
              2,
              3,
              1,
              0,
              3,
              4,
              1,
              5,
              4,
              3,
              5,
              6,
              4,
              6,
              5,
              7,
              8,
              6,
              7,
              8,
              7,
              9,
              10,
              8,
              9,
              10,
              9,
              11,
              12,
              10,
              11,
              0,
              2,
              13,
              0,
              13,
              14,
              14,
              13,
              15,
              14,
              15,
              16,
              16,
              15,
              17,
              15,
              18,
              17
            ]
          }
        },
        {
          "Name": "weapon_r",
          "Rectangle": {
            "x": 1794.0,
            "y": 1384.0,
            "width": 250.0,
            "height": 400.0
          },
          "Pivot": {
            "x": 131.0,
            "y": 338.0
          },
          "Mesh": {
            "TableCoordinate": [],
            "TableIndexVertex": []
          }
        },
        {
          "Name": "weapon_r_1",
          "Rectangle": {
            "x": 1794.0,
            "y": 1384.0,
            "width": 250.0,
            "height": 400.0
          },
          "Pivot": {
            "x": 128.0,
            "y": 182.0
          },
          "Mesh": {
            "TableCoordinate": [],
            "TableIndexVertex": []
          }
        },
        {
          "Name": "weapon_l",
          "Rectangle": {
            "x": 1544.0,
            "y": 1384.0,
            "width": 250.0,
            "height": 400.0
          },
          "Pivot": {
            "x": 131.0,
            "y": 261.0
          },
          "Mesh": {
            "TableCoordinate": [],
            "TableIndexVertex": []
          }
        },
        {
          "Name": "weapon_l_1",
          "Rectangle": {
            "x": 1544.0,
            "y": 1384.0,
            "width": 250.0,
            "height": 400.0
          },
          "Pivot": {
            "x": 131.0,
            "y": 338.0
          },
          "Mesh": {
            "TableCoordinate": [],
            "TableIndexVertex": []
          }
        },
        {
          "Name": "rear_c",
          "Rectangle": {
            "x": 434.0,
            "y": 1220.0,
            "width": 430.0,
            "height": 430.0
          },
          "Pivot": {
            "x": 215.0,
            "y": 215.0
          },
          "Mesh": {
            "TableCoordinate": [],
            "TableIndexVertex": []
          }
        },
        {
          "Name": "rear_r",
          "Rectangle": {
            "x": 864.0,
            "y": 1354.0,
            "width": 430.0,
            "height": 430.0
          },
          "Pivot": {
            "x": 215.0,
            "y": 215.0
          },
          "Mesh": {
            "TableCoordinate": [],
            "TableIndexVertex": []
          }
        },
        {
          "Name": "rear_l",
          "Rectangle": {
            "x": 4.0,
            "y": 1224.0,
            "width": 430.0,
            "height": 430.0
          },
          "Pivot": {
            "x": 215.0,
            "y": 215.0
          },
          "Mesh": {
            "TableCoordinate": [],
            "TableIndexVertex": []
          }
        },
        {
          "Name": "acce_head_rear_c",
          "Rectangle": {
            "x": 1364.0,
            "y": 284.0,
            "width": 300.0,
            "height": 300.0
          },
          "Pivot": {
            "x": 150.0,
            "y": 150.0
          },
          "Mesh": {
            "TableCoordinate": [],
            "TableIndexVertex": []
          }
        },
        {
          "Name": "acce_body_rear",
          "Rectangle": {
            "x": 254.0,
            "y": 4.0,
            "width": 580.0,
            "height": 400.0
          },
          "Pivot": {
            "x": 290.0,
            "y": 200.0
          },
          "Mesh": {
            "TableCoordinate": [],
            "TableIndexVertex": []
          }
        },
        {
          "Name": "acce_hip_rear",
          "Rectangle": {
            "x": 834.0,
            "y": 364.0,
            "width": 330.0,
            "height": 330.0
          },
          "Pivot": {
            "x": 165.0,
            "y": 165.0
          },
          "Mesh": {
            "TableCoordinate": [],
            "TableIndexVertex": []
          }
        }
      ]
    }
  ]
}