{
  "m_GameObject": {
    "m_FileID": 0,
    "m_PathID": -8838655073732538763
  },
  "m_Enabled": 1,
  "m_Script": {
    "m_FileID": 0,
    "m_PathID": -1247748226983267122
  },
  "m_Name": "",
  "TableMaterial": [
    {
      "m_FileID": 0,
      "m_PathID": -2400083863442777475
    },
    {
      "m_FileID": 0,
      "m_PathID": -8437322546124982114
    },
    {
      "m_FileID": 0,
      "m_PathID": -5580651517886665944
    },
    {
      "m_FileID": 0,
      "m_PathID": 7895885334518977493
    },
    {
      "m_FileID": 0,
      "m_PathID": 2438689414757230599
    },
    {
      "m_FileID": 0,
      "m_PathID": -5630855605998410465
    },
    {
      "m_FileID": 0,
      "m_PathID": -3647954737570982463
    },
    {
      "m_FileID": 0,
      "m_PathID": 6119055273803765029
    },
    {
      "m_FileID": 0,
      "m_PathID": -4215989452442793423
    },
    {
      "m_FileID": 0,
      "m_PathID": 3095948928371531726
    },
    {
      "m_FileID": 0,
      "m_PathID": -3439074879028103414
    },
    {
      "m_FileID": 0,
      "m_PathID": 2504680014253354262
    },
    {
      "m_FileID": 0,
      "m_PathID": 3548239763374914742
    },
    {
      "m_FileID": 0,
      "m_PathID": 3313357408946001457
    },
    {
      "m_FileID": 0,
      "m_PathID": -3529435193656550082
    },
    {
      "m_FileID": 0,
      "m_PathID": -3232852576895553977
    },
    {
      "m_FileID": 0,
      "m_PathID": 7687582984939738786
    },
    {
      "m_FileID": 0,
      "m_PathID": -4852898370252090816
    },
    {
      "m_FileID": 0,
      "m_PathID": 2159643386766656053
    },
    {
      "m_FileID": 0,
      "m_PathID": 4535178422382679657
    }
  ],
  "DataCellMap": {
    "m_FileID": 0,
    "m_PathID": -3753205114007972766
  },
  "InstanceRootParent": {
    "m_FileID": 0,
    "m_PathID": 0
  },
  "InstanceGameObjectControl": {
    "m_FileID": 0,
    "m_PathID": 0
  },
  "FlagHideForce": 0,
  "DataAnimation": {
    "m_FileID": 0,
    "m_PathID": -7986735746806390007
  },
  "LimitTrack": 0,
  "TableInformationPlay": [
    {
      "DataAnimation": {
        "m_FileID": 0,
        "m_PathID": 0
      },
      "FlagSetInitial": 1,
      "FlagStopInitial": 0,
      "NameAnimation": "atk_spear_1",
      "FlagPingPong": 0,
      "LabelStart": "",
      "FrameOffsetStart": 0,
      "LabelEnd": "",
      "FrameOffsetEnd": 0,
      "Frame": 0,
      "TimesPlay": 0,
      "RateTime": 1.0
    }
  ],
  "TableControlParts": [
    {
      "InstanceGameObject": {
        "m_FileID": 0,
        "m_PathID": -8838655073732538763
      },
      "PrefabUnderControl": {
        "m_FileID": 0,
        "m_PathID": 0
      },
      "InstanceGameObjectUnderControl": {
        "m_FileID": 0,
        "m_PathID": 0
      },
      "InstanceScriptCollider": {
        "m_FileID": 0,
        "m_PathID": 0
      }
    },
    {
      "InstanceGameObject": {
        "m_FileID": 0,
        "m_PathID": 4064986320302145997
      },
      "PrefabUnderControl": {
        "m_FileID": 0,
        "m_PathID": 0
      },
      "InstanceGameObjectUnderControl": {
        "m_FileID": 0,
        "m_PathID": 0
      },
      "InstanceScriptCollider": {
        "m_FileID": 0,
        "m_PathID": 0
      }
    },
    {
      "InstanceGameObject": {
        "m_FileID": 0,
        "m_PathID": -3491108262436796787
      },
      "PrefabUnderControl": {
        "m_FileID": 0,
        "m_PathID": 0
      },
      "InstanceGameObjectUnderControl": {
        "m_FileID": 0,
        "m_PathID": 0
      },
      "InstanceScriptCollider": {
        "m_FileID": 0,
        "m_PathID": 0
      }
    },
    {
      "InstanceGameObject": {
        "m_FileID": 0,
        "m_PathID": -1807833670630401085
      },
      "PrefabUnderControl": {
        "m_FileID": 0,
        "m_PathID": 0
      },
      "InstanceGameObjectUnderControl": {
        "m_FileID": 0,
        "m_PathID": 0
      },
      "InstanceScriptCollider": {
        "m_FileID": 0,
        "m_PathID": 0
      }
    },
    {
      "InstanceGameObject": {
        "m_FileID": 0,
        "m_PathID": 6384056933048713399
      },
      "PrefabUnderControl": {
        "m_FileID": 0,
        "m_PathID": 0
      },
      "InstanceGameObjectUnderControl": {
        "m_FileID": 0,
        "m_PathID": 0
      },
      "InstanceScriptCollider": {
        "m_FileID": 0,
        "m_PathID": 0
      }
    },
    {
      "InstanceGameObject": {
        "m_FileID": 0,
        "m_PathID": -8889630870485412054
      },
      "PrefabUnderControl": {
        "m_FileID": 0,
        "m_PathID": 0
      },
      "InstanceGameObjectUnderControl": {
        "m_FileID": 0,
        "m_PathID": 0
      },
      "InstanceScriptCollider": {
        "m_FileID": 0,
        "m_PathID": 0
      }
    },
    {
      "InstanceGameObject": {
        "m_FileID": 0,
        "m_PathID": 8997614089832928689
      },
      "PrefabUnderControl": {
        "m_FileID": 0,
        "m_PathID": 0
      },
      "InstanceGameObjectUnderControl": {
        "m_FileID": 0,
        "m_PathID": 0
      },
      "InstanceScriptCollider": {
        "m_FileID": 0,
        "m_PathID": 0
      }
    },
    {
      "InstanceGameObject": {
        "m_FileID": 0,
        "m_PathID": 5609893791703982124
      },
      "PrefabUnderControl": {
        "m_FileID": 0,
        "m_PathID": 0
      },
      "InstanceGameObjectUnderControl": {
        "m_FileID": 0,
        "m_PathID": 0
      },
      "InstanceScriptCollider": {
        "m_FileID": 0,
        "m_PathID": 0
      }
    },
    {
      "InstanceGameObject": {
        "m_FileID": 0,
        "m_PathID": 7930791617586769034
      },
      "PrefabUnderControl": {
        "m_FileID": 0,
        "m_PathID": 0
      },
      "InstanceGameObjectUnderControl": {
        "m_FileID": 0,
        "m_PathID": 0
      },
      "InstanceScriptCollider": {
        "m_FileID": 0,
        "m_PathID": 0
      }
    },
    {
      "InstanceGameObject": {
        "m_FileID": 0,
        "m_PathID": 8753520992777121305
      },
      "PrefabUnderControl": {
        "m_FileID": 0,
        "m_PathID": 0
      },
      "InstanceGameObjectUnderControl": {
        "m_FileID": 0,
        "m_PathID": 0
      },
      "InstanceScriptCollider": {
        "m_FileID": 0,
        "m_PathID": 0
      }
    },
    {
      "InstanceGameObject": {
        "m_FileID": 0,
        "m_PathID": 2051575870893613786
      },
      "PrefabUnderControl": {
        "m_FileID": 0,
        "m_PathID": 0
      },
      "InstanceGameObjectUnderControl": {
        "m_FileID": 0,
        "m_PathID": 0
      },
      "InstanceScriptCollider": {
        "m_FileID": 0,
        "m_PathID": 0
      }
    },
    {
      "InstanceGameObject": {
        "m_FileID": 0,
        "m_PathID": -6523081019288368264
      },
      "PrefabUnderControl": {
        "m_FileID": 0,
        "m_PathID": 0
      },
      "InstanceGameObjectUnderControl": {
        "m_FileID": 0,
        "m_PathID": 0
      },
      "InstanceScriptCollider": {
        "m_FileID": 0,
        "m_PathID": 0
      }
    },
    {
      "InstanceGameObject": {
        "m_FileID": 0,
        "m_PathID": 1125903928613591875
      },
      "PrefabUnderControl": {
        "m_FileID": 0,
        "m_PathID": 0
      },
      "InstanceGameObjectUnderControl": {
        "m_FileID": 0,
        "m_PathID": 0
      },
      "InstanceScriptCollider": {
        "m_FileID": 0,
        "m_PathID": 0
      }
    },
    {
      "InstanceGameObject": {
        "m_FileID": 0,
        "m_PathID": 2619575518920971454
      },
      "PrefabUnderControl": {
        "m_FileID": 0,
        "m_PathID": 0
      },
      "InstanceGameObjectUnderControl": {
        "m_FileID": 0,
        "m_PathID": 0
      },
      "InstanceScriptCollider": {
        "m_FileID": 0,
        "m_PathID": 0
      }
    },
    {
      "InstanceGameObject": {
        "m_FileID": 0,
        "m_PathID": 900039001426704528
      },
      "PrefabUnderControl": {
        "m_FileID": 0,
        "m_PathID": 0
      },
      "InstanceGameObjectUnderControl": {
        "m_FileID": 0,
        "m_PathID": 0
      },
      "InstanceScriptCollider": {
        "m_FileID": 0,
        "m_PathID": 0
      }
    },
    {
      "InstanceGameObject": {
        "m_FileID": 0,
        "m_PathID": -3305033597806780452
      },
      "PrefabUnderControl": {
        "m_FileID": 0,
        "m_PathID": 0
      },
      "InstanceGameObjectUnderControl": {
        "m_FileID": 0,
        "m_PathID": 0
      },
      "InstanceScriptCollider": {
        "m_FileID": 0,
        "m_PathID": 0
      }
    },
    {
      "InstanceGameObject": {
        "m_FileID": 0,
        "m_PathID": -3045747959243708766
      },
      "PrefabUnderControl": {
        "m_FileID": 0,
        "m_PathID": 0
      },
      "InstanceGameObjectUnderControl": {
        "m_FileID": 0,
        "m_PathID": 0
      },
      "InstanceScriptCollider": {
        "m_FileID": 0,
        "m_PathID": 0
      }
    },
    {
      "InstanceGameObject": {
        "m_FileID": 0,
        "m_PathID": -72973309183321526
      },
      "PrefabUnderControl": {
        "m_FileID": 0,
        "m_PathID": 0
      },
      "InstanceGameObjectUnderControl": {
        "m_FileID": 0,
        "m_PathID": 0
      },
      "InstanceScriptCollider": {
        "m_FileID": 0,
        "m_PathID": 0
      }
    },
    {
      "InstanceGameObject": {
        "m_FileID": 0,
        "m_PathID": 502829919013786934
      },
      "PrefabUnderControl": {
        "m_FileID": 0,
        "m_PathID": 0
      },
      "InstanceGameObjectUnderControl": {
        "m_FileID": 0,
        "m_PathID": 0
      },
      "InstanceScriptCollider": {
        "m_FileID": 0,
        "m_PathID": 0
      }
    },
    {
      "InstanceGameObject": {
        "m_FileID": 0,
        "m_PathID": -4183119555539261606
      },
      "PrefabUnderControl": {
        "m_FileID": 0,
        "m_PathID": 0
      },
      "InstanceGameObjectUnderControl": {
        "m_FileID": 0,
        "m_PathID": 0
      },
      "InstanceScriptCollider": {
        "m_FileID": 0,
        "m_PathID": 0
      }
    },
    {
      "InstanceGameObject": {
        "m_FileID": 0,
        "m_PathID": -7826337460421967645
      },
      "PrefabUnderControl": {
        "m_FileID": 0,
        "m_PathID": 0
      },
      "InstanceGameObjectUnderControl": {
        "m_FileID": 0,
        "m_PathID": 0
      },
      "InstanceScriptCollider": {
        "m_FileID": 0,
        "m_PathID": 0
      }
    },
    {
      "InstanceGameObject": {
        "m_FileID": 0,
        "m_PathID": -2001670901853533070
      },
      "PrefabUnderControl": {
        "m_FileID": 0,
        "m_PathID": 0
      },
      "InstanceGameObjectUnderControl": {
        "m_FileID": 0,
        "m_PathID": 0
      },
      "InstanceScriptCollider": {
        "m_FileID": 0,
        "m_PathID": 0
      }
    },
    {
      "InstanceGameObject": {
        "m_FileID": 0,
        "m_PathID": -3183985678003448246
      },
      "PrefabUnderControl": {
        "m_FileID": 0,
        "m_PathID": 0
      },
      "InstanceGameObjectUnderControl": {
        "m_FileID": 0,
        "m_PathID": 0
      },
      "InstanceScriptCollider": {
        "m_FileID": 0,
        "m_PathID": 0
      }
    },
    {
      "InstanceGameObject": {
        "m_FileID": 0,
        "m_PathID": 5062160202301314624
      },
      "PrefabUnderControl": {
        "m_FileID": 0,
        "m_PathID": 0
      },
      "InstanceGameObjectUnderControl": {
        "m_FileID": 0,
        "m_PathID": 0
      },
      "InstanceScriptCollider": {
        "m_FileID": 0,
        "m_PathID": 0
      }
    },
    {
      "InstanceGameObject": {
        "m_FileID": 0,
        "m_PathID": -8362869499332366521
      },
      "PrefabUnderControl": {
        "m_FileID": 0,
        "m_PathID": 0
      },
      "InstanceGameObjectUnderControl": {
        "m_FileID": 0,
        "m_PathID": 0
      },
      "InstanceScriptCollider": {
        "m_FileID": 0,
        "m_PathID": 0
      }
    },
    {
      "InstanceGameObject": {
        "m_FileID": 0,
        "m_PathID": -5551229067540261733
      },
      "PrefabUnderControl": {
        "m_FileID": 0,
        "m_PathID": 0
      },
      "InstanceGameObjectUnderControl": {
        "m_FileID": 0,
        "m_PathID": 0
      },
      "InstanceScriptCollider": {
        "m_FileID": 0,
        "m_PathID": 0
      }
    },
    {
      "InstanceGameObject": {
        "m_FileID": 0,
        "m_PathID": -487493566823099389
      },
      "PrefabUnderControl": {
        "m_FileID": 0,
        "m_PathID": 0
      },
      "InstanceGameObjectUnderControl": {
        "m_FileID": 0,
        "m_PathID": 0
      },
      "InstanceScriptCollider": {
        "m_FileID": 0,
        "m_PathID": 0
      }
    },
    {
      "InstanceGameObject": {
        "m_FileID": 0,
        "m_PathID": 2499188491052543428
      },
      "PrefabUnderControl": {
        "m_FileID": 0,
        "m_PathID": 0
      },
      "InstanceGameObjectUnderControl": {
        "m_FileID": 0,
        "m_PathID": 0
      },
      "InstanceScriptCollider": {
        "m_FileID": 0,
        "m_PathID": 0
      }
    },
    {
      "InstanceGameObject": {
        "m_FileID": 0,
        "m_PathID": 4504949406253100500
      },
      "PrefabUnderControl": {
        "m_FileID": 0,
        "m_PathID": 0
      },
      "InstanceGameObjectUnderControl": {
        "m_FileID": 0,
        "m_PathID": 0
      },
      "InstanceScriptCollider": {
        "m_FileID": 0,
        "m_PathID": 0
      }
    },
    {
      "InstanceGameObject": {
        "m_FileID": 0,
        "m_PathID": -1712938450540340507
      },
      "PrefabUnderControl": {
        "m_FileID": 0,
        "m_PathID": 0
      },
      "InstanceGameObjectUnderControl": {
        "m_FileID": 0,
        "m_PathID": 0
      },
      "InstanceScriptCollider": {
        "m_FileID": 0,
        "m_PathID": 0
      }
    },
    {
      "InstanceGameObject": {
        "m_FileID": 0,
        "m_PathID": -6365313398654654748
      },
      "PrefabUnderControl": {
        "m_FileID": 0,
        "m_PathID": 0
      },
      "InstanceGameObjectUnderControl": {
        "m_FileID": 0,
        "m_PathID": 0
      },
      "InstanceScriptCollider": {
        "m_FileID": 0,
        "m_PathID": 0
      }
    },
    {
      "InstanceGameObject": {
        "m_FileID": 0,
        "m_PathID": 5564721025275649930
      },
      "PrefabUnderControl": {
        "m_FileID": 0,
        "m_PathID": 0
      },
      "InstanceGameObjectUnderControl": {
        "m_FileID": 0,
        "m_PathID": 0
      },
      "InstanceScriptCollider": {
        "m_FileID": 0,
        "m_PathID": 0
      }
    },
    {
      "InstanceGameObject": {
        "m_FileID": 0,
        "m_PathID": 356863538684532375
      },
      "PrefabUnderControl": {
        "m_FileID": 0,
        "m_PathID": 0
      },
      "InstanceGameObjectUnderControl": {
        "m_FileID": 0,
        "m_PathID": 0
      },
      "InstanceScriptCollider": {
        "m_FileID": 0,
        "m_PathID": 0
      }
    },
    {
      "InstanceGameObject": {
        "m_FileID": 0,
        "m_PathID": 8918318490336948025
      },
      "PrefabUnderControl": {
        "m_FileID": 0,
        "m_PathID": 0
      },
      "InstanceGameObjectUnderControl": {
        "m_FileID": 0,
        "m_PathID": 0
      },
      "InstanceScriptCollider": {
        "m_FileID": 0,
        "m_PathID": 0
      }
    },
    {
      "InstanceGameObject": {
        "m_FileID": 0,
        "m_PathID": 1956615318835406210
      },
      "PrefabUnderControl": {
        "m_FileID": 0,
        "m_PathID": 0
      },
      "InstanceGameObjectUnderControl": {
        "m_FileID": 0,
        "m_PathID": 0
      },
      "InstanceScriptCollider": {
        "m_FileID": 0,
        "m_PathID": 0
      }
    },
    {
      "InstanceGameObject": {
        "m_FileID": 0,
        "m_PathID": -4891195331690018653
      },
      "PrefabUnderControl": {
        "m_FileID": 0,
        "m_PathID": 0
      },
      "InstanceGameObjectUnderControl": {
        "m_FileID": 0,
        "m_PathID": 0
      },
      "InstanceScriptCollider": {
        "m_FileID": 0,
        "m_PathID": 0
      }
    },
    {
      "InstanceGameObject": {
        "m_FileID": 0,
        "m_PathID": 736018586907469315
      },
      "PrefabUnderControl": {
        "m_FileID": 0,
        "m_PathID": 0
      },
      "InstanceGameObjectUnderControl": {
        "m_FileID": 0,
        "m_PathID": 0
      },
      "InstanceScriptCollider": {
        "m_FileID": 0,
        "m_PathID": 0
      }
    },
    {
      "InstanceGameObject": {
        "m_FileID": 0,
        "m_PathID": -3431582637116735367
      },
      "PrefabUnderControl": {
        "m_FileID": 0,
        "m_PathID": 0
      },
      "InstanceGameObjectUnderControl": {
        "m_FileID": 0,
        "m_PathID": 0
      },
      "InstanceScriptCollider": {
        "m_FileID": 0,
        "m_PathID": 0
      }
    },
    {
      "InstanceGameObject": {
        "m_FileID": 0,
        "m_PathID": -782776394830149166
      },
      "PrefabUnderControl": {
        "m_FileID": 0,
        "m_PathID": 0
      },
      "InstanceGameObjectUnderControl": {
        "m_FileID": 0,
        "m_PathID": 0
      },
      "InstanceScriptCollider": {
        "m_FileID": 0,
        "m_PathID": 0
      }
    },
    {
      "InstanceGameObject": {
        "m_FileID": 0,
        "m_PathID": -487100251869574029
      },
      "PrefabUnderControl": {
        "m_FileID": 0,
        "m_PathID": 0
      },
      "InstanceGameObjectUnderControl": {
        "m_FileID": 0,
        "m_PathID": 0
      },
      "InstanceScriptCollider": {
        "m_FileID": 0,
        "m_PathID": 0
      }
    },
    {
      "InstanceGameObject": {
        "m_FileID": 0,
        "m_PathID": -8641358622696922119
      },
      "PrefabUnderControl": {
        "m_FileID": 0,
        "m_PathID": 0
      },
      "InstanceGameObjectUnderControl": {
        "m_FileID": 0,
        "m_PathID": 0
      },
      "InstanceScriptCollider": {
        "m_FileID": 0,
        "m_PathID": 0
      }
    },
    {
      "InstanceGameObject": {
        "m_FileID": 0,
        "m_PathID": -1495587009207997044
      },
      "PrefabUnderControl": {
        "m_FileID": 0,
        "m_PathID": 0
      },
      "InstanceGameObjectUnderControl": {
        "m_FileID": 0,
        "m_PathID": 0
      },
      "InstanceScriptCollider": {
        "m_FileID": 0,
        "m_PathID": 0
      }
    },
    {
      "InstanceGameObject": {
        "m_FileID": 0,
        "m_PathID": 7736781490100530455
      },
      "PrefabUnderControl": {
        "m_FileID": 0,
        "m_PathID": 0
      },
      "InstanceGameObjectUnderControl": {
        "m_FileID": 0,
        "m_PathID": 0
      },
      "InstanceScriptCollider": {
        "m_FileID": 0,
        "m_PathID": 0
      }
    },
    {
      "InstanceGameObject": {
        "m_FileID": 0,
        "m_PathID": -3729824428443962380
      },
      "PrefabUnderControl": {
        "m_FileID": 0,
        "m_PathID": 0
      },
      "InstanceGameObjectUnderControl": {
        "m_FileID": 0,
        "m_PathID": 0
      },
      "InstanceScriptCollider": {
        "m_FileID": 0,
        "m_PathID": 0
      }
    },
    {
      "InstanceGameObject": {
        "m_FileID": 0,
        "m_PathID": 5558940596078127903
      },
      "PrefabUnderControl": {
        "m_FileID": 0,
        "m_PathID": 0
      },
      "InstanceGameObjectUnderControl": {
        "m_FileID": 0,
        "m_PathID": 0
      },
      "InstanceScriptCollider": {
        "m_FileID": 0,
        "m_PathID": 0
      }
    },
    {
      "InstanceGameObject": {
        "m_FileID": 0,
        "m_PathID": 296019864384211451
      },
      "PrefabUnderControl": {
        "m_FileID": 0,
        "m_PathID": 0
      },
      "InstanceGameObjectUnderControl": {
        "m_FileID": 0,
        "m_PathID": 0
      },
      "InstanceScriptCollider": {
        "m_FileID": 0,
        "m_PathID": 0
      }
    },
    {
      "InstanceGameObject": {
        "m_FileID": 0,
        "m_PathID": 249638952605860604
      },
      "PrefabUnderControl": {
        "m_FileID": 0,
        "m_PathID": 0
      },
      "InstanceGameObjectUnderControl": {
        "m_FileID": 0,
        "m_PathID": 0
      },
      "InstanceScriptCollider": {
        "m_FileID": 0,
        "m_PathID": 0
      }
    },
    {
      "InstanceGameObject": {
        "m_FileID": 0,
        "m_PathID": 6955353002910155773
      },
      "PrefabUnderControl": {
        "m_FileID": 0,
        "m_PathID": 0
      },
      "InstanceGameObjectUnderControl": {
        "m_FileID": 0,
        "m_PathID": 0
      },
      "InstanceScriptCollider": {
        "m_FileID": 0,
        "m_PathID": 0
      }
    },
    {
      "InstanceGameObject": {
        "m_FileID": 0,
        "m_PathID": -6914770717903732909
      },
      "PrefabUnderControl": {
        "m_FileID": 0,
        "m_PathID": 0
      },
      "InstanceGameObjectUnderControl": {
        "m_FileID": 0,
        "m_PathID": 0
      },
      "InstanceScriptCollider": {
        "m_FileID": 0,
        "m_PathID": 0
      }
    },
    {
      "InstanceGameObject": {
        "m_FileID": 0,
        "m_PathID": -5144319960803634076
      },
      "PrefabUnderControl": {
        "m_FileID": 0,
        "m_PathID": 0
      },
      "InstanceGameObjectUnderControl": {
        "m_FileID": 0,
        "m_PathID": 0
      },
      "InstanceScriptCollider": {
        "m_FileID": 0,
        "m_PathID": 0
      }
    },
    {
      "InstanceGameObject": {
        "m_FileID": 0,
        "m_PathID": -8903117282928218728
      },
      "PrefabUnderControl": {
        "m_FileID": 0,
        "m_PathID": 0
      },
      "InstanceGameObjectUnderControl": {
        "m_FileID": 0,
        "m_PathID": 0
      },
      "InstanceScriptCollider": {
        "m_FileID": 0,
        "m_PathID": 0
      }
    },
    {
      "InstanceGameObject": {
        "m_FileID": 0,
        "m_PathID": 2905383435085384285
      },
      "PrefabUnderControl": {
        "m_FileID": 0,
        "m_PathID": 0
      },
      "InstanceGameObjectUnderControl": {
        "m_FileID": 0,
        "m_PathID": 0
      },
      "InstanceScriptCollider": {
        "m_FileID": 0,
        "m_PathID": 0
      }
    },
    {
      "InstanceGameObject": {
        "m_FileID": 0,
        "m_PathID": -1708655801992297378
      },
      "PrefabUnderControl": {
        "m_FileID": 0,
        "m_PathID": 0
      },
      "InstanceGameObjectUnderControl": {
        "m_FileID": 0,
        "m_PathID": 0
      },
      "InstanceScriptCollider": {
        "m_FileID": 0,
        "m_PathID": 0
      }
    },
    {
      "InstanceGameObject": {
        "m_FileID": 0,
        "m_PathID": -6645319303510582570
      },
      "PrefabUnderControl": {
        "m_FileID": 0,
        "m_PathID": 0
      },
      "InstanceGameObjectUnderControl": {
        "m_FileID": 0,
        "m_PathID": 0
      },
      "InstanceScriptCollider": {
        "m_FileID": 0,
        "m_PathID": 0
      }
    },
    {
      "InstanceGameObject": {
        "m_FileID": 0,
        "m_PathID": -5488382640272286502
      },
      "PrefabUnderControl": {
        "m_FileID": 0,
        "m_PathID": 0
      },
      "InstanceGameObjectUnderControl": {
        "m_FileID": 0,
        "m_PathID": 0
      },
      "InstanceScriptCollider": {
        "m_FileID": 0,
        "m_PathID": 0
      }
    },
    {
      "InstanceGameObject": {
        "m_FileID": 0,
        "m_PathID": -7146035541157202464
      },
      "PrefabUnderControl": {
        "m_FileID": 0,
        "m_PathID": 0
      },
      "InstanceGameObjectUnderControl": {
        "m_FileID": 0,
        "m_PathID": 0
      },
      "InstanceScriptCollider": {
        "m_FileID": 0,
        "m_PathID": 0
      }
    },
    {
      "InstanceGameObject": {
        "m_FileID": 0,
        "m_PathID": -6666755734690343229
      },
      "PrefabUnderControl": {
        "m_FileID": 0,
        "m_PathID": 0
      },
      "InstanceGameObjectUnderControl": {
        "m_FileID": 0,
        "m_PathID": 0
      },
      "InstanceScriptCollider": {
        "m_FileID": 0,
        "m_PathID": 0
      }
    },
    {
      "InstanceGameObject": {
        "m_FileID": 0,
        "m_PathID": 5144094339395317038
      },
      "PrefabUnderControl": {
        "m_FileID": 0,
        "m_PathID": 0
      },
      "InstanceGameObjectUnderControl": {
        "m_FileID": 0,
        "m_PathID": 0
      },
      "InstanceScriptCollider": {
        "m_FileID": 0,
        "m_PathID": 0
      }
    },
    {
      "InstanceGameObject": {
        "m_FileID": 0,
        "m_PathID": -948486558059885754
      },
      "PrefabUnderControl": {
        "m_FileID": 0,
        "m_PathID": 0
      },
      "InstanceGameObjectUnderControl": {
        "m_FileID": 0,
        "m_PathID": 0
      },
      "InstanceScriptCollider": {
        "m_FileID": 0,
        "m_PathID": 0
      }
    },
    {
      "InstanceGameObject": {
        "m_FileID": 0,
        "m_PathID": -94247950883432978
      },
      "PrefabUnderControl": {
        "m_FileID": 0,
        "m_PathID": 0
      },
      "InstanceGameObjectUnderControl": {
        "m_FileID": 0,
        "m_PathID": 0
      },
      "InstanceScriptCollider": {
        "m_FileID": 0,
        "m_PathID": 0
      }
    },
    {
      "InstanceGameObject": {
        "m_FileID": 0,
        "m_PathID": 4458408931450728787
      },
      "PrefabUnderControl": {
        "m_FileID": 0,
        "m_PathID": 0
      },
      "InstanceGameObjectUnderControl": {
        "m_FileID": 0,
        "m_PathID": 0
      },
      "InstanceScriptCollider": {
        "m_FileID": 0,
        "m_PathID": 0
      }
    },
    {
      "InstanceGameObject": {
        "m_FileID": 0,
        "m_PathID": -8846660924681468309
      },
      "PrefabUnderControl": {
        "m_FileID": 0,
        "m_PathID": 0
      },
      "InstanceGameObjectUnderControl": {
        "m_FileID": 0,
        "m_PathID": 0
      },
      "InstanceScriptCollider": {
        "m_FileID": 0,
        "m_PathID": 0
      }
    },
    {
      "InstanceGameObject": {
        "m_FileID": 0,
        "m_PathID": 8556617791155046082
      },
      "PrefabUnderControl": {
        "m_FileID": 0,
        "m_PathID": 0
      },
      "InstanceGameObjectUnderControl": {
        "m_FileID": 0,
        "m_PathID": 0
      },
      "InstanceScriptCollider": {
        "m_FileID": 0,
        "m_PathID": 0
      }
    },
    {
      "InstanceGameObject": {
        "m_FileID": 0,
        "m_PathID": 6031831201100532132
      },
      "PrefabUnderControl": {
        "m_FileID": 0,
        "m_PathID": 0
      },
      "InstanceGameObjectUnderControl": {
        "m_FileID": 0,
        "m_PathID": 0
      },
      "InstanceScriptCollider": {
        "m_FileID": 0,
        "m_PathID": 0
      }
    },
    {
      "InstanceGameObject": {
        "m_FileID": 0,
        "m_PathID": 3740913307751860413
      },
      "PrefabUnderControl": {
        "m_FileID": 0,
        "m_PathID": 0
      },
      "InstanceGameObjectUnderControl": {
        "m_FileID": 0,
        "m_PathID": 0
      },
      "InstanceScriptCollider": {
        "m_FileID": 0,
        "m_PathID": 0
      }
    },
    {
      "InstanceGameObject": {
        "m_FileID": 0,
        "m_PathID": 512160543145806830
      },
      "PrefabUnderControl": {
        "m_FileID": 0,
        "m_PathID": 0
      },
      "InstanceGameObjectUnderControl": {
        "m_FileID": 0,
        "m_PathID": 0
      },
      "InstanceScriptCollider": {
        "m_FileID": 0,
        "m_PathID": 0
      }
    },
    {
      "InstanceGameObject": {
        "m_FileID": 0,
        "m_PathID": 2556041494986816109
      },
      "PrefabUnderControl": {
        "m_FileID": 0,
        "m_PathID": 0
      },
      "InstanceGameObjectUnderControl": {
        "m_FileID": 0,
        "m_PathID": 0
      },
      "InstanceScriptCollider": {
        "m_FileID": 0,
        "m_PathID": 0
      }
    }
  ]
}