{
  "m_GameObject": {
    "m_FileID": 0,
    "m_PathID": 0
  },
  "m_Enabled": 1,
  "m_Script": {
    "m_FileID": 0,
    "m_PathID": -8016775561480030637
  },
  "m_Name": "adv_201804.chapter",
  "chapterName": "",
  "dataList": [
    {
      "m_FileID": 0,
      "m_PathID": -1968782625203102590
    }
  ],
  "settingList": [
    {
      "rows": [
        {
          "rowIndex": 0,
          "strings": [
            "CharacterName",
            "NameText",
            "Pattern",
            "X",
            "Y",
            "Z",
            "Pivot",
            "Scale",
            "Conditional",
            "BundlePath",
            "FileName",
            "SubFileName",
            "FileType",
            "Animation",
            "RenderTexture",
            "RenderRect",
            "EyeBlink",
            "LipSynch",
            "Icon",
            "IconSubFileName",
            "IconRect"
          ],
          "isEmpty": 0,
          "isCommentOut": 0
        },
        {
          "rowIndex": 1,
          "strings": [
            "時崎狂三",
            "",
            "通常",
            "",
            "-65",
            "",
            "",
            "",
            "",
            "texture/character/stand/1200800_stand",
            "1200800_stand.asset",
            "1200800_stand_01",
            "Dicing",
            "",
            "",
            "",
            "",
            "",
            "",
            "",
            ""
          ],
          "isEmpty": 0,
          "isCommentOut": 0
        },
        {
          "rowIndex": 2,
          "strings": [
            "",
            "",
            "目閉じ",
            "",
            "-65",
            "",
            "",
            "",
            "",
            "texture/character/stand/1200800_stand",
            "1200800_stand.asset",
            "1200800_stand_02",
            "Dicing",
            "",
            "",
            "",
            "",
            "",
            "",
            "",
            ""
          ],
          "isEmpty": 0,
          "isCommentOut": 0
        },
        {
          "rowIndex": 3,
          "strings": [
            "",
            "",
            "真剣",
            "",
            "-65",
            "",
            "",
            "",
            "",
            "texture/character/stand/1200800_stand",
            "1200800_stand.asset",
            "1200800_stand_03",
            "Dicing",
            "",
            "",
            "",
            "",
            "",
            "",
            "",
            ""
          ],
          "isEmpty": 0,
          "isCommentOut": 0
        },
        {
          "rowIndex": 4,
          "strings": [
            "",
            "",
            "笑い",
            "",
            "-65",
            "",
            "",
            "",
            "",
            "texture/character/stand/1200800_stand",
            "1200800_stand.asset",
            "1200800_stand_04",
            "Dicing",
            "",
            "",
            "",
            "",
            "",
            "",
            "",
            ""
          ],
          "isEmpty": 0,
          "isCommentOut": 0
        },
        {
          "rowIndex": 5,
          "strings": [
            "",
            "",
            "悲しみ",
            "",
            "-65",
            "",
            "",
            "",
            "",
            "texture/character/stand/1200800_stand",
            "1200800_stand.asset",
            "1200800_stand_05",
            "Dicing",
            "",
            "",
            "",
            "",
            "",
            "",
            "",
            ""
          ],
          "isEmpty": 0,
          "isCommentOut": 0
        },
        {
          "rowIndex": 6,
          "strings": [
            "",
            "",
            "照れ",
            "",
            "-65",
            "",
            "",
            "",
            "",
            "texture/character/stand/1200800_stand",
            "1200800_stand.asset",
            "1200800_stand_06",
            "Dicing",
            "",
            "",
            "",
            "",
            "",
            "",
            "",
            ""
          ],
          "isEmpty": 0,
          "isCommentOut": 0
        },
        {
          "rowIndex": 7,
          "strings": [
            "",
            "",
            "固有",
            "",
            "-65",
            "",
            "",
            "",
            "",
            "texture/character/stand/1200800_stand",
            "1200800_stand.asset",
            "1200800_stand_07",
            "Dicing",
            "",
            "",
            "",
            "",
            "",
            "",
            "",
            ""
          ],
          "isEmpty": 0,
          "isCommentOut": 0
        },
        {
          "rowIndex": 8,
          "strings": [
            "",
            "",
            "驚き",
            "",
            "-65",
            "",
            "",
            "",
            "",
            "texture/character/stand/1200800_stand",
            "1200800_stand.asset",
            "1200800_stand_08",
            "Dicing",
            "",
            "",
            "",
            "",
            "",
            "",
            "",
            ""
          ],
          "isEmpty": 0,
          "isCommentOut": 0
        },
        {
          "rowIndex": 9,
          "strings": [],
          "isEmpty": 1,
          "isCommentOut": 0
        },
        {
          "rowIndex": 10,
          "strings": [
            "時崎狂三分身A",
            "時崎狂三(分身)",
            "通常",
            "",
            "-65",
            "",
            "",
            "",
            "",
            "texture/character/stand/1200800_stand",
            "1200800_stand.asset",
            "1200800_stand_01",
            "Dicing",
            "",
            "",
            "",
            "",
            "",
            "",
            "",
            ""
          ],
          "isEmpty": 0,
          "isCommentOut": 0
        },
        {
          "rowIndex": 11,
          "strings": [
            "",
            "",
            "目閉じ",
            "",
            "-65",
            "",
            "",
            "",
            "",
            "texture/character/stand/1200800_stand",
            "1200800_stand.asset",
            "1200800_stand_02",
            "Dicing",
            "",
            "",
            "",
            "",
            "",
            "",
            "",
            ""
          ],
          "isEmpty": 0,
          "isCommentOut": 0
        },
        {
          "rowIndex": 12,
          "strings": [
            "",
            "",
            "真剣",
            "",
            "-65",
            "",
            "",
            "",
            "",
            "texture/character/stand/1200800_stand",
            "1200800_stand.asset",
            "1200800_stand_03",
            "Dicing",
            "",
            "",
            "",
            "",
            "",
            "",
            "",
            ""
          ],
          "isEmpty": 0,
          "isCommentOut": 0
        },
        {
          "rowIndex": 13,
          "strings": [
            "",
            "",
            "笑い",
            "",
            "-65",
            "",
            "",
            "",
            "",
            "texture/character/stand/1200800_stand",
            "1200800_stand.asset",
            "1200800_stand_04",
            "Dicing",
            "",
            "",
            "",
            "",
            "",
            "",
            "",
            ""
          ],
          "isEmpty": 0,
          "isCommentOut": 0
        },
        {
          "rowIndex": 14,
          "strings": [
            "",
            "",
            "悲しみ",
            "",
            "-65",
            "",
            "",
            "",
            "",
            "texture/character/stand/1200800_stand",
            "1200800_stand.asset",
            "1200800_stand_05",
            "Dicing",
            "",
            "",
            "",
            "",
            "",
            "",
            "",
            ""
          ],
          "isEmpty": 0,
          "isCommentOut": 0
        },
        {
          "rowIndex": 15,
          "strings": [
            "",
            "",
            "照れ",
            "",
            "-65",
            "",
            "",
            "",
            "",
            "texture/character/stand/1200800_stand",
            "1200800_stand.asset",
            "1200800_stand_06",
            "Dicing",
            "",
            "",
            "",
            "",
            "",
            "",
            "",
            ""
          ],
          "isEmpty": 0,
          "isCommentOut": 0
        },
        {
          "rowIndex": 16,
          "strings": [
            "",
            "",
            "固有",
            "",
            "-65",
            "",
            "",
            "",
            "",
            "texture/character/stand/1200800_stand",
            "1200800_stand.asset",
            "1200800_stand_07",
            "Dicing",
            "",
            "",
            "",
            "",
            "",
            "",
            "",
            ""
          ],
          "isEmpty": 0,
          "isCommentOut": 0
        },
        {
          "rowIndex": 17,
          "strings": [
            "",
            "",
            "驚き",
            "",
            "-65",
            "",
            "",
            "",
            "",
            "texture/character/stand/1200800_stand",
            "1200800_stand.asset",
            "1200800_stand_08",
            "Dicing",
            "",
            "",
            "",
            "",
            "",
            "",
            "",
            ""
          ],
          "isEmpty": 0,
          "isCommentOut": 0
        },
        {
          "rowIndex": 18,
          "strings": [],
          "isEmpty": 1,
          "isCommentOut": 0
        },
        {
          "rowIndex": 19,
          "strings": [
            "園神凜祢",
            "",
            "通常",
            "",
            "-55",
            "",
            "",
            "",
            "",
            "texture/character/stand/1201600_stand",
            "1201600_stand.asset",
            "1201600_stand_01",
            "Dicing",
            "",
            "",
            "",
            "",
            "",
            "",
            "",
            ""
          ],
          "isEmpty": 0,
          "isCommentOut": 0
        },
        {
          "rowIndex": 20,
          "strings": [
            "",
            "",
            "気づき",
            "",
            "-55",
            "",
            "",
            "",
            "",
            "texture/character/stand/1201600_stand",
            "1201600_stand.asset",
            "1201600_stand_02",
            "Dicing",
            "",
            "",
            "",
            "",
            "",
            "",
            "",
            ""
          ],
          "isEmpty": 0,
          "isCommentOut": 0
        },
        {
          "rowIndex": 21,
          "strings": [
            "",
            "",
            "悲しみ",
            "",
            "-55",
            "",
            "",
            "",
            "",
            "texture/character/stand/1201600_stand",
            "1201600_stand.asset",
            "1201600_stand_03",
            "Dicing",
            "",
            "",
            "",
            "",
            "",
            "",
            "",
            ""
          ],
          "isEmpty": 0,
          "isCommentOut": 0
        },
        {
          "rowIndex": 22,
          "strings": [
            "",
            "",
            "驚き",
            "",
            "-55",
            "",
            "",
            "",
            "",
            "texture/character/stand/1201600_stand",
            "1201600_stand.asset",
            "1201600_stand_04",
            "Dicing",
            "",
            "",
            "",
            "",
            "",
            "",
            "",
            ""
          ],
          "isEmpty": 0,
          "isCommentOut": 0
        },
        {
          "rowIndex": 23,
          "strings": [
            "",
            "",
            "微笑",
            "",
            "-55",
            "",
            "",
            "",
            "",
            "texture/character/stand/1201600_stand",
            "1201600_stand.asset",
            "1201600_stand_05",
            "Dicing",
            "",
            "",
            "",
            "",
            "",
            "",
            "",
            ""
          ],
          "isEmpty": 0,
          "isCommentOut": 0
        },
        {
          "rowIndex": 24,
          "strings": [
            "",
            "",
            "疑い",
            "",
            "-55",
            "",
            "",
            "",
            "",
            "texture/character/stand/1201600_stand",
            "1201600_stand.asset",
            "1201600_stand_06",
            "Dicing",
            "",
            "",
            "",
            "",
            "",
            "",
            "",
            ""
          ],
          "isEmpty": 0,
          "isCommentOut": 0
        },
        {
          "rowIndex": 25,
          "strings": [
            "",
            "",
            "目閉じ汗",
            "",
            "-55",
            "",
            "",
            "",
            "",
            "texture/character/stand/1201600_stand",
            "1201600_stand.asset",
            "1201600_stand_07",
            "Dicing",
            "",
            "",
            "",
            "",
            "",
            "",
            "",
            ""
          ],
          "isEmpty": 0,
          "isCommentOut": 0
        },
        {
          "rowIndex": 26,
          "strings": [
            "",
            "",
            "ベール",
            "",
            "-55",
            "",
            "",
            "",
            "",
            "texture/character/stand/1201600_stand",
            "1201600_stand.asset",
            "1201600_stand_08",
            "Dicing",
            "",
            "",
            "",
            "",
            "",
            "",
            "",
            ""
          ],
          "isEmpty": 0,
          "isCommentOut": 0
        },
        {
          "rowIndex": 27,
          "strings": [],
          "isEmpty": 1,
          "isCommentOut": 0
        },
        {
          "rowIndex": 28,
          "strings": [
            "時崎狂三&ザフキエル",
            "時崎狂三",
            "通常",
            "",
            "-45",
            "",
            "",
            "",
            "",
            "texture/character/stand_whole/1200300_stand_whole",
            "1200300_stand_whole.asset",
            "1200300_stand_whole_01",
            "Dicing",
            "",
            "",
            "",
            "",
            "",
            "",
            "",
            ""
          ],
          "isEmpty": 0,
          "isCommentOut": 0
        },
        {
          "rowIndex": 29,
          "strings": [
            "",
            "",
            "目閉じ",
            "",
            "-45",
            "",
            "",
            "",
            "",
            "texture/character/stand_whole/1200300_stand_whole",
            "1200300_stand_whole.asset",
            "1200300_stand_whole_02",
            "Dicing",
            "",
            "",
            "",
            "",
            "",
            "",
            "",
            ""
          ],
          "isEmpty": 0,
          "isCommentOut": 0
        },
        {
          "rowIndex": 30,
          "strings": [
            "",
            "",
            "真剣",
            "",
            "-45",
            "",
            "",
            "",
            "",
            "texture/character/stand_whole/1200300_stand_whole",
            "1200300_stand_whole.asset",
            "1200300_stand_whole_03",
            "Dicing",
            "",
            "",
            "",
            "",
            "",
            "",
            "",
            ""
          ],
          "isEmpty": 0,
          "isCommentOut": 0
        },
        {
          "rowIndex": 31,
          "strings": [
            "",
            "",
            "笑い",
            "",
            "-45",
            "",
            "",
            "",
            "",
            "texture/character/stand_whole/1200300_stand_whole",
            "1200300_stand_whole.asset",
            "1200300_stand_whole_04",
            "Dicing",
            "",
            "",
            "",
            "",
            "",
            "",
            "",
            ""
          ],
          "isEmpty": 0,
          "isCommentOut": 0
        },
        {
          "rowIndex": 32,
          "strings": [
            "",
            "",
            "悲しみ",
            "",
            "-45",
            "",
            "",
            "",
            "",
            "texture/character/stand_whole/1200300_stand_whole",
            "1200300_stand_whole.asset",
            "1200300_stand_whole_05",
            "Dicing",
            "",
            "",
            "",
            "",
            "",
            "",
            "",
            ""
          ],
          "isEmpty": 0,
          "isCommentOut": 0
        },
        {
          "rowIndex": 33,
          "strings": [
            "",
            "",
            "照れ",
            "",
            "-45",
            "",
            "",
            "",
            "",
            "texture/character/stand_whole/1200300_stand_whole",
            "1200300_stand_whole.asset",
            "1200300_stand_whole_06",
            "Dicing",
            "",
            "",
            "",
            "",
            "",
            "",
            "",
            ""
          ],
          "isEmpty": 0,
          "isCommentOut": 0
        },
        {
          "rowIndex": 34,
          "strings": [
            "",
            "",
            "固有",
            "",
            "-45",
            "",
            "",
            "",
            "",
            "texture/character/stand_whole/1200300_stand_whole",
            "1200300_stand_whole.asset",
            "1200300_stand_whole_07",
            "Dicing",
            "",
            "",
            "",
            "",
            "",
            "",
            "",
            ""
          ],
          "isEmpty": 0,
          "isCommentOut": 0
        },
        {
          "rowIndex": 35,
          "strings": [
            "",
            "",
            "驚き",
            "",
            "-45",
            "",
            "",
            "",
            "",
            "texture/character/stand_whole/1200300_stand_whole",
            "1200300_stand_whole.asset",
            "1200300_stand_whole_08",
            "Dicing",
            "",
            "",
            "",
            "",
            "",
            "",
            "",
            ""
          ],
          "isEmpty": 0,
          "isCommentOut": 0
        },
        {
          "rowIndex": 36,
          "strings": [
            "",
            "",
            "不敵",
            "",
            "-45",
            "",
            "",
            "",
            "",
            "texture/character/stand_whole/1200300_stand_whole",
            "1200300_stand_whole.asset",
            "1200300_stand_whole_09",
            "Dicing",
            "",
            "",
            "",
            "",
            "",
            "",
            "",
            ""
          ],
          "isEmpty": 0,
          "isCommentOut": 0
        },
        {
          "rowIndex": 37,
          "strings": [],
          "isEmpty": 1,
          "isCommentOut": 0
        },
        {
          "rowIndex": 38,
          "strings": [
            "時崎狂三分身B",
            "時崎狂三(分身)",
            "通常",
            "",
            "-65",
            "",
            "",
            "",
            "",
            "texture/character/stand/1200800_stand",
            "1200800_stand.asset",
            "1200800_stand_01",
            "Dicing",
            "",
            "",
            "",
            "",
            "",
            "",
            "",
            ""
          ],
          "isEmpty": 0,
          "isCommentOut": 0
        },
        {
          "rowIndex": 39,
          "strings": [
            "",
            "",
            "目閉じ",
            "",
            "-65",
            "",
            "",
            "",
            "",
            "texture/character/stand/1200800_stand",
            "1200800_stand.asset",
            "1200800_stand_02",
            "Dicing",
            "",
            "",
            "",
            "",
            "",
            "",
            "",
            ""
          ],
          "isEmpty": 0,
          "isCommentOut": 0
        },
        {
          "rowIndex": 40,
          "strings": [
            "",
            "",
            "真剣",
            "",
            "-65",
            "",
            "",
            "",
            "",
            "texture/character/stand/1200800_stand",
            "1200800_stand.asset",
            "1200800_stand_03",
            "Dicing",
            "",
            "",
            "",
            "",
            "",
            "",
            "",
            ""
          ],
          "isEmpty": 0,
          "isCommentOut": 0
        },
        {
          "rowIndex": 41,
          "strings": [
            "",
            "",
            "笑い",
            "",
            "-65",
            "",
            "",
            "",
            "",
            "texture/character/stand/1200800_stand",
            "1200800_stand.asset",
            "1200800_stand_04",
            "Dicing",
            "",
            "",
            "",
            "",
            "",
            "",
            "",
            ""
          ],
          "isEmpty": 0,
          "isCommentOut": 0
        },
        {
          "rowIndex": 42,
          "strings": [
            "",
            "",
            "悲しみ",
            "",
            "-65",
            "",
            "",
            "",
            "",
            "texture/character/stand/1200800_stand",
            "1200800_stand.asset",
            "1200800_stand_05",
            "Dicing",
            "",
            "",
            "",
            "",
            "",
            "",
            "",
            ""
          ],
          "isEmpty": 0,
          "isCommentOut": 0
        },
        {
          "rowIndex": 43,
          "strings": [
            "",
            "",
            "照れ",
            "",
            "-65",
            "",
            "",
            "",
            "",
            "texture/character/stand/1200800_stand",
            "1200800_stand.asset",
            "1200800_stand_06",
            "Dicing",
            "",
            "",
            "",
            "",
            "",
            "",
            "",
            ""
          ],
          "isEmpty": 0,
          "isCommentOut": 0
        },
        {
          "rowIndex": 44,
          "strings": [
            "",
            "",
            "固有",
            "",
            "-65",
            "",
            "",
            "",
            "",
            "texture/character/stand/1200800_stand",
            "1200800_stand.asset",
            "1200800_stand_07",
            "Dicing",
            "",
            "",
            "",
            "",
            "",
            "",
            "",
            ""
          ],
          "isEmpty": 0,
          "isCommentOut": 0
        },
        {
          "rowIndex": 45,
          "strings": [
            "",
            "",
            "驚き",
            "",
            "-65",
            "",
            "",
            "",
            "",
            "texture/character/stand/1200800_stand",
            "1200800_stand.asset",
            "1200800_stand_08",
            "Dicing",
            "",
            "",
            "",
            "",
            "",
            "",
            "",
            ""
          ],
          "isEmpty": 0,
          "isCommentOut": 0
        },
        {
          "rowIndex": 46,
          "strings": [],
          "isEmpty": 1,
          "isCommentOut": 0
        },
        {
          "rowIndex": 47,
          "strings": [
            "ファウスト",
            "",
            "通常",
            "",
            "-50",
            "",
            "",
            "",
            "",
            "texture/character/stand/1120100_stand",
            "1120100_stand.asset",
            "1120100_stand_01",
            "Dicing",
            "",
            "",
            "",
            "",
            "",
            "",
            "",
            ""
          ],
          "isEmpty": 0,
          "isCommentOut": 0
        },
        {
          "rowIndex": 48,
          "strings": [
            "//",
            "",
            "目閉じ",
            "",
            "-50",
            "",
            "",
            "",
            "",
            "texture/character/stand/1120100_stand",
            "1120100_stand.asset",
            "1120100_stand_02",
            "Dicing",
            "",
            "",
            "",
            "",
            "",
            "",
            "",
            ""
          ],
          "isEmpty": 0,
          "isCommentOut": 1
        },
        {
          "rowIndex": 49,
          "strings": [
            "",
            "",
            "真剣",
            "",
            "-50",
            "",
            "",
            "",
            "",
            "texture/character/stand/1120100_stand",
            "1120100_stand.asset",
            "1120100_stand_03",
            "Dicing",
            "",
            "",
            "",
            "",
            "",
            "",
            "",
            ""
          ],
          "isEmpty": 0,
          "isCommentOut": 0
        },
        {
          "rowIndex": 50,
          "strings": [
            "",
            "",
            "笑い",
            "",
            "-50",
            "",
            "",
            "",
            "",
            "texture/character/stand/1120100_stand",
            "1120100_stand.asset",
            "1120100_stand_04",
            "Dicing",
            "",
            "",
            "",
            "",
            "",
            "",
            "",
            ""
          ],
          "isEmpty": 0,
          "isCommentOut": 0
        },
        {
          "rowIndex": 51,
          "strings": [
            "",
            "",
            "悲しみ",
            "",
            "-50",
            "",
            "",
            "",
            "",
            "texture/character/stand/1120100_stand",
            "1120100_stand.asset",
            "1120100_stand_05",
            "Dicing",
            "",
            "",
            "",
            "",
            "",
            "",
            "",
            ""
          ],
          "isEmpty": 0,
          "isCommentOut": 0
        },
        {
          "rowIndex": 52,
          "strings": [
            "",
            "",
            "照れ",
            "",
            "-50",
            "",
            "",
            "",
            "",
            "texture/character/stand/1120100_stand",
            "1120100_stand.asset",
            "1120100_stand_06",
            "Dicing",
            "",
            "",
            "",
            "",
            "",
            "",
            "",
            ""
          ],
          "isEmpty": 0,
          "isCommentOut": 0
        },
        {
          "rowIndex": 53,
          "strings": [
            "",
            "",
            "固有",
            "",
            "-50",
            "",
            "",
            "",
            "",
            "texture/character/stand/1120100_stand",
            "1120100_stand.asset",
            "1120100_stand_07",
            "Dicing",
            "",
            "",
            "",
            "",
            "",
            "",
            "",
            ""
          ],
          "isEmpty": 0,
          "isCommentOut": 0
        },
        {
          "rowIndex": 54,
          "strings": [
            "",
            "",
            "思案",
            "",
            "-50",
            "",
            "",
            "",
            "",
            "texture/character/stand/1120100_stand",
            "1120100_stand.asset",
            "1120100_stand_08",
            "Dicing",
            "",
            "",
            "",
            "",
            "",
            "",
            "",
            ""
          ],
          "isEmpty": 0,
          "isCommentOut": 0
        },
        {
          "rowIndex": 55,
          "strings": [
            "",
            "",
            "虚ろ",
            "",
            "-50",
            "",
            "",
            "",
            "",
            "texture/character/stand/1120100_stand",
            "1120100_stand.asset",
            "1120100_stand_09",
            "Dicing",
            "",
            "",
            "",
            "",
            "",
            "",
            "",
            ""
          ],
          "isEmpty": 0,
          "isCommentOut": 0
        },
        {
          "rowIndex": 56,
          "strings": [],
          "isEmpty": 1,
          "isCommentOut": 0
        },
        {
          "rowIndex": 57,
          "strings": [
            "鳶一折紙",
            "",
            "通常",
            "",
            "-75",
            "",
            "",
            "",
            "",
            "texture/character/stand/1201500_stand",
            "1201500_stand.asset",
            "1201500_stand_01",
            "Dicing",
            "",
            "",
            "",
            "",
            "",
            "",
            "",
            ""
          ],
          "isEmpty": 0,
          "isCommentOut": 0
        },
        {
          "rowIndex": 58,
          "strings": [
            "",
            "",
            "目閉じ",
            "",
            "-75",
            "",
            "",
            "",
            "",
            "texture/character/stand/1201500_stand",
            "1201500_stand.asset",
            "1201500_stand_02",
            "Dicing",
            "",
            "",
            "",
            "",
            "",
            "",
            "",
            ""
          ],
          "isEmpty": 0,
          "isCommentOut": 0
        },
        {
          "rowIndex": 59,
          "strings": [
            "",
            "",
            "真剣",
            "",
            "-75",
            "",
            "",
            "",
            "",
            "texture/character/stand/1201500_stand",
            "1201500_stand.asset",
            "1201500_stand_03",
            "Dicing",
            "",
            "",
            "",
            "",
            "",
            "",
            "",
            ""
          ],
          "isEmpty": 0,
          "isCommentOut": 0
        },
        {
          "rowIndex": 60,
          "strings": [
            "",
            "",
            "笑い",
            "",
            "-75",
            "",
            "",
            "",
            "",
            "texture/character/stand/1201500_stand",
            "1201500_stand.asset",
            "1201500_stand_04",
            "Dicing",
            "",
            "",
            "",
            "",
            "",
            "",
            "",
            ""
          ],
          "isEmpty": 0,
          "isCommentOut": 0
        },
        {
          "rowIndex": 61,
          "strings": [
            "",
            "",
            "悲しみ",
            "",
            "-75",
            "",
            "",
            "",
            "",
            "texture/character/stand/1201500_stand",
            "1201500_stand.asset",
            "1201500_stand_05",
            "Dicing",
            "",
            "",
            "",
            "",
            "",
            "",
            "",
            ""
          ],
          "isEmpty": 0,
          "isCommentOut": 0
        },
        {
          "rowIndex": 62,
          "strings": [
            "",
            "",
            "照れ",
            "",
            "-75",
            "",
            "",
            "",
            "",
            "texture/character/stand/1201500_stand",
            "1201500_stand.asset",
            "1201500_stand_06",
            "Dicing",
            "",
            "",
            "",
            "",
            "",
            "",
            "",
            ""
          ],
          "isEmpty": 0,
          "isCommentOut": 0
        },
        {
          "rowIndex": 63,
          "strings": [
            "",
            "",
            "固有",
            "",
            "-75",
            "",
            "",
            "",
            "",
            "texture/character/stand/1201500_stand",
            "1201500_stand.asset",
            "1201500_stand_07",
            "Dicing",
            "",
            "",
            "",
            "",
            "",
            "",
            "",
            ""
          ],
          "isEmpty": 0,
          "isCommentOut": 0
        },
        {
          "rowIndex": 64,
          "strings": [],
          "isEmpty": 1,
          "isCommentOut": 0
        },
        {
          "rowIndex": 65,
          "strings": [
            "大人ネプテューヌ",
            "ネプテューヌ",
            "通常",
            "",
            "-50",
            "",
            "",
            "",
            "",
            "texture/character/stand/1040100_stand",
            "1040100_stand.asset",
            "1040100_stand_01",
            "Dicing",
            "",
            "",
            "",
            "",
            "",
            "",
            "",
            ""
          ],
          "isEmpty": 0,
          "isCommentOut": 0
        },
        {
          "rowIndex": 66,
          "strings": [
            "",
            "",
            "目閉じ",
            "",
            "-50",
            "",
            "",
            "",
            "",
            "texture/character/stand/1040100_stand",
            "1040100_stand.asset",
            "1040100_stand_02",
            "Dicing",
            "",
            "",
            "",
            "",
            "",
            "",
            "",
            ""
          ],
          "isEmpty": 0,
          "isCommentOut": 0
        },
        {
          "rowIndex": 67,
          "strings": [
            "",
            "",
            "真剣",
            "",
            "-50",
            "",
            "",
            "",
            "",
            "texture/character/stand/1040100_stand",
            "1040100_stand.asset",
            "1040100_stand_03",
            "Dicing",
            "",
            "",
            "",
            "",
            "",
            "",
            "",
            ""
          ],
          "isEmpty": 0,
          "isCommentOut": 0
        },
        {
          "rowIndex": 68,
          "strings": [
            "",
            "",
            "笑い",
            "",
            "-50",
            "",
            "",
            "",
            "",
            "texture/character/stand/1040100_stand",
            "1040100_stand.asset",
            "1040100_stand_04",
            "Dicing",
            "",
            "",
            "",
            "",
            "",
            "",
            "",
            ""
          ],
          "isEmpty": 0,
          "isCommentOut": 0
        },
        {
          "rowIndex": 69,
          "strings": [
            "",
            "",
            "悲しみ",
            "",
            "-50",
            "",
            "",
            "",
            "",
            "texture/character/stand/1040100_stand",
            "1040100_stand.asset",
            "1040100_stand_05",
            "Dicing",
            "",
            "",
            "",
            "",
            "",
            "",
            "",
            ""
          ],
          "isEmpty": 0,
          "isCommentOut": 0
        },
        {
          "rowIndex": 70,
          "strings": [
            "",
            "",
            "照れ",
            "",
            "-50",
            "",
            "",
            "",
            "",
            "texture/character/stand/1040100_stand",
            "1040100_stand.asset",
            "1040100_stand_06",
            "Dicing",
            "",
            "",
            "",
            "",
            "",
            "",
            "",
            ""
          ],
          "isEmpty": 0,
          "isCommentOut": 0
        },
        {
          "rowIndex": 71,
          "strings": [
            "",
            "",
            "固有",
            "",
            "-50",
            "",
            "",
            "",
            "",
            "texture/character/stand/1040100_stand",
            "1040100_stand.asset",
            "1040100_stand_07",
            "Dicing",
            "",
            "",
            "",
            "",
            "",
            "",
            "",
            ""
          ],
          "isEmpty": 0,
          "isCommentOut": 0
        },
        {
          "rowIndex": 72,
          "strings": [],
          "isEmpty": 1,
          "isCommentOut": 0
        },
        {
          "rowIndex": 73,
          "strings": [
            "四糸乃",
            "",
            "通常",
            "",
            "-130",
            "",
            "",
            "",
            "",
            "texture/character/stand/1200700_stand",
            "1200700_stand.asset",
            "1200700_stand_01",
            "Dicing",
            "",
            "",
            "",
            "",
            "",
            "",
            "",
            ""
          ],
          "isEmpty": 0,
          "isCommentOut": 0
        },
        {
          "rowIndex": 74,
          "strings": [
            "",
            "",
            "目閉じ",
            "",
            "-130",
            "",
            "",
            "",
            "",
            "texture/character/stand/1200700_stand",
            "1200700_stand.asset",
            "1200700_stand_02",
            "Dicing",
            "",
            "",
            "",
            "",
            "",
            "",
            "",
            ""
          ],
          "isEmpty": 0,
          "isCommentOut": 0
        },
        {
          "rowIndex": 75,
          "strings": [
            "",
            "",
            "真剣",
            "",
            "-130",
            "",
            "",
            "",
            "",
            "texture/character/stand/1200700_stand",
            "1200700_stand.asset",
            "1200700_stand_03",
            "Dicing",
            "",
            "",
            "",
            "",
            "",
            "",
            "",
            ""
          ],
          "isEmpty": 0,
          "isCommentOut": 0
        },
        {
          "rowIndex": 76,
          "strings": [
            "",
            "",
            "笑い",
            "",
            "-130",
            "",
            "",
            "",
            "",
            "texture/character/stand/1200700_stand",
            "1200700_stand.asset",
            "1200700_stand_04",
            "Dicing",
            "",
            "",
            "",
            "",
            "",
            "",
            "",
            ""
          ],
          "isEmpty": 0,
          "isCommentOut": 0
        },
        {
          "rowIndex": 77,
          "strings": [
            "",
            "",
            "悲しみ",
            "",
            "-130",
            "",
            "",
            "",
            "",
            "texture/character/stand/1200700_stand",
            "1200700_stand.asset",
            "1200700_stand_05",
            "Dicing",
            "",
            "",
            "",
            "",
            "",
            "",
            "",
            ""
          ],
          "isEmpty": 0,
          "isCommentOut": 0
        },
        {
          "rowIndex": 78,
          "strings": [
            "",
            "",
            "照れ",
            "",
            "-130",
            "",
            "",
            "",
            "",
            "texture/character/stand/1200700_stand",
            "1200700_stand.asset",
            "1200700_stand_06",
            "Dicing",
            "",
            "",
            "",
            "",
            "",
            "",
            "",
            ""
          ],
          "isEmpty": 0,
          "isCommentOut": 0
        },
        {
          "rowIndex": 79,
          "strings": [
            "",
            "",
            "固有",
            "",
            "-130",
            "",
            "",
            "",
            "",
            "texture/character/stand/1200700_stand",
            "1200700_stand.asset",
            "1200700_stand_07",
            "Dicing",
            "",
            "",
            "",
            "",
            "",
            "",
            "",
            ""
          ],
          "isEmpty": 0,
          "isCommentOut": 0
        },
        {
          "rowIndex": 80,
          "strings": [],
          "isEmpty": 1,
          "isCommentOut": 0
        },
        {
          "rowIndex": 81,
          "strings": [
            "クロワール",
            "",
            "通常",
            "",
            "-50",
            "",
            "",
            "",
            "",
            "texture/character/stand/1030800_stand",
            "1030800_stand.asset",
            "1030800_stand_01",
            "Dicing",
            "",
            "",
            "",
            "",
            "",
            "",
            "",
            ""
          ],
          "isEmpty": 0,
          "isCommentOut": 0
        },
        {
          "rowIndex": 82,
          "strings": [
            "//",
            "",
            "目閉じ",
            "",
            "-50",
            "",
            "",
            "",
            "",
            "texture/character/stand/1030800_stand",
            "1030800_stand.asset",
            "1030800_stand_02",
            "Dicing",
            "",
            "",
            "",
            "",
            "",
            "",
            "",
            ""
          ],
          "isEmpty": 0,
          "isCommentOut": 1
        },
        {
          "rowIndex": 83,
          "strings": [
            "",
            "",
            "真剣",
            "",
            "-50",
            "",
            "",
            "",
            "",
            "texture/character/stand/1030800_stand",
            "1030800_stand.asset",
            "1030800_stand_03",
            "Dicing",
            "",
            "",
            "",
            "",
            "",
            "",
            "",
            ""
          ],
          "isEmpty": 0,
          "isCommentOut": 0
        },
        {
          "rowIndex": 84,
          "strings": [
            "",
            "",
            "笑い",
            "",
            "-50",
            "",
            "",
            "",
            "",
            "texture/character/stand/1030800_stand",
            "1030800_stand.asset",
            "1030800_stand_04",
            "Dicing",
            "",
            "",
            "",
            "",
            "",
            "",
            "",
            ""
          ],
          "isEmpty": 0,
          "isCommentOut": 0
        },
        {
          "rowIndex": 85,
          "strings": [
            "",
            "",
            "悲しみ",
            "",
            "-50",
            "",
            "",
            "",
            "",
            "texture/character/stand/1030800_stand",
            "1030800_stand.asset",
            "1030800_stand_05",
            "Dicing",
            "",
            "",
            "",
            "",
            "",
            "",
            "",
            ""
          ],
          "isEmpty": 0,
          "isCommentOut": 0
        },
        {
          "rowIndex": 86,
          "strings": [
            "//",
            "",
            "照れ",
            "",
            "-50",
            "",
            "",
            "",
            "",
            "texture/character/stand/1030800_stand",
            "1030800_stand.asset",
            "1030800_stand_06",
            "Dicing",
            "",
            "",
            "",
            "",
            "",
            "",
            "",
            ""
          ],
          "isEmpty": 0,
          "isCommentOut": 1
        },
        {
          "rowIndex": 87,
          "strings": [
            "",
            "",
            "固有",
            "",
            "-50",
            "",
            "",
            "",
            "",
            "texture/character/stand/1030800_stand",
            "1030800_stand.asset",
            "1030800_stand_07",
            "Dicing",
            "",
            "",
            "",
            "",
            "",
            "",
            "",
            ""
          ],
          "isEmpty": 0,
          "isCommentOut": 0
        },
        {
          "rowIndex": 88,
          "strings": [],
          "isEmpty": 1,
          "isCommentOut": 0
        },
        {
          "rowIndex": 89,
          "strings": [
            "リトル・スノー",
            "",
            "通常",
            "",
            "-50",
            "",
            "",
            "",
            "",
            "texture/character/stand/1160300_stand",
            "1160300_stand.asset",
            "1160300_stand_01",
            "Dicing",
            "",
            "",
            "",
            "",
            "",
            "",
            "",
            ""
          ],
          "isEmpty": 0,
          "isCommentOut": 0
        },
        {
          "rowIndex": 90,
          "strings": [
            "",
            "",
            "目閉じ",
            "",
            "-50",
            "",
            "",
            "",
            "",
            "texture/character/stand/1160300_stand",
            "1160300_stand.asset",
            "1160300_stand_02",
            "Dicing",
            "",
            "",
            "",
            "",
            "",
            "",
            "",
            ""
          ],
          "isEmpty": 0,
          "isCommentOut": 0
        },
        {
          "rowIndex": 91,
          "strings": [
            "",
            "",
            "真剣",
            "",
            "-50",
            "",
            "",
            "",
            "",
            "texture/character/stand/1160300_stand",
            "1160300_stand.asset",
            "1160300_stand_03",
            "Dicing",
            "",
            "",
            "",
            "",
            "",
            "",
            "",
            ""
          ],
          "isEmpty": 0,
          "isCommentOut": 0
        },
        {
          "rowIndex": 92,
          "strings": [
            "",
            "",
            "笑い",
            "",
            "-50",
            "",
            "",
            "",
            "",
            "texture/character/stand/1160300_stand",
            "1160300_stand.asset",
            "1160300_stand_04",
            "Dicing",
            "",
            "",
            "",
            "",
            "",
            "",
            "",
            ""
          ],
          "isEmpty": 0,
          "isCommentOut": 0
        },
        {
          "rowIndex": 93,
          "strings": [
            "",
            "",
            "悲しみ",
            "",
            "-50",
            "",
            "",
            "",
            "",
            "texture/character/stand/1160300_stand",
            "1160300_stand.asset",
            "1160300_stand_05",
            "Dicing",
            "",
            "",
            "",
            "",
            "",
            "",
            "",
            ""
          ],
          "isEmpty": 0,
          "isCommentOut": 0
        },
        {
          "rowIndex": 94,
          "strings": [
            "",
            "",
            "照れ",
            "",
            "-50",
            "",
            "",
            "",
            "",
            "texture/character/stand/1160300_stand",
            "1160300_stand.asset",
            "1160300_stand_06",
            "Dicing",
            "",
            "",
            "",
            "",
            "",
            "",
            "",
            ""
          ],
          "isEmpty": 0,
          "isCommentOut": 0
        },
        {
          "rowIndex": 95,
          "strings": [
            "",
            "",
            "固有",
            "",
            "-50",
            "",
            "",
            "",
            "",
            "texture/character/stand/1160300_stand",
            "1160300_stand.asset",
            "1160300_stand_07",
            "Dicing",
            "",
            "",
            "",
            "",
            "",
            "",
            "",
            ""
          ],
          "isEmpty": 0,
          "isCommentOut": 0
        },
        {
          "rowIndex": 96,
          "strings": [
            "",
            "",
            "能力",
            "",
            "-50",
            "",
            "",
            "",
            "",
            "texture/character/stand/1160300_stand",
            "1160300_stand.asset",
            "1160300_stand_08",
            "Dicing",
            "",
            "",
            "",
            "",
            "",
            "",
            "",
            ""
          ],
          "isEmpty": 0,
          "isCommentOut": 0
        },
        {
          "rowIndex": 97,
          "strings": [],
          "isEmpty": 1,
          "isCommentOut": 0
        },
        {
          "rowIndex": 98,
          "strings": [
            "五河琴里",
            "",
            "通常",
            "",
            "-100",
            "",
            "",
            "",
            "",
            "texture/character/stand/1200500_stand",
            "1200500_stand.asset",
            "1200500_stand_01",
            "Dicing",
            "",
            "",
            "",
            "",
            "",
            "",
            "",
            ""
          ],
          "isEmpty": 0,
          "isCommentOut": 0
        },
        {
          "rowIndex": 99,
          "strings": [
            "",
            "",
            "目閉じ",
            "",
            "-100",
            "",
            "",
            "",
            "",
            "texture/character/stand/1200500_stand",
            "1200500_stand.asset",
            "1200500_stand_02",
            "Dicing",
            "",
            "",
            "",
            "",
            "",
            "",
            "",
            ""
          ],
          "isEmpty": 0,
          "isCommentOut": 0
        },
        {
          "rowIndex": 100,
          "strings": [
            "",
            "",
            "真剣",
            "",
            "-100",
            "",
            "",
            "",
            "",
            "texture/character/stand/1200500_stand",
            "1200500_stand.asset",
            "1200500_stand_03",
            "Dicing",
            "",
            "",
            "",
            "",
            "",
            "",
            "",
            ""
          ],
          "isEmpty": 0,
          "isCommentOut": 0
        },
        {
          "rowIndex": 101,
          "strings": [
            "",
            "",
            "笑い",
            "",
            "-100",
            "",
            "",
            "",
            "",
            "texture/character/stand/1200500_stand",
            "1200500_stand.asset",
            "1200500_stand_04",
            "Dicing",
            "",
            "",
            "",
            "",
            "",
            "",
            "",
            ""
          ],
          "isEmpty": 0,
          "isCommentOut": 0
        },
        {
          "rowIndex": 102,
          "strings": [
            "",
            "",
            "悲しみ",
            "",
            "-100",
            "",
            "",
            "",
            "",
            "texture/character/stand/1200500_stand",
            "1200500_stand.asset",
            "1200500_stand_05",
            "Dicing",
            "",
            "",
            "",
            "",
            "",
            "",
            "",
            ""
          ],
          "isEmpty": 0,
          "isCommentOut": 0
        },
        {
          "rowIndex": 103,
          "strings": [
            "",
            "",
            "照れ",
            "",
            "-100",
            "",
            "",
            "",
            "",
            "texture/character/stand/1200500_stand",
            "1200500_stand.asset",
            "1200500_stand_06",
            "Dicing",
            "",
            "",
            "",
            "",
            "",
            "",
            "",
            ""
          ],
          "isEmpty": 0,
          "isCommentOut": 0
        },
        {
          "rowIndex": 104,
          "strings": [
            "",
            "",
            "固有",
            "",
            "-100",
            "",
            "",
            "",
            "",
            "texture/character/stand/1200500_stand",
            "1200500_stand.asset",
            "1200500_stand_07",
            "Dicing",
            "",
            "",
            "",
            "",
            "",
            "",
            "",
            ""
          ],
          "isEmpty": 0,
          "isCommentOut": 0
        },
        {
          "rowIndex": 105,
          "strings": [
            "",
            "",
            "目閉じ笑顔",
            "",
            "-100",
            "",
            "",
            "",
            "",
            "texture/character/stand/1200500_stand",
            "1200500_stand.asset",
            "1200500_stand_08",
            "Dicing",
            "",
            "",
            "",
            "",
            "",
            "",
            "",
            ""
          ],
          "isEmpty": 0,
          "isCommentOut": 0
        },
        {
          "rowIndex": 106,
          "strings": [],
          "isEmpty": 1,
          "isCommentOut": 0
        },
        {
          "rowIndex": 107,
          "strings": [
            "天王星うずめ",
            "",
            "通常",
            "",
            "-50",
            "",
            "",
            "",
            "",
            "texture/character/stand/1040200_stand",
            "1040200_stand.asset",
            "1040200_stand_01",
            "Dicing",
            "",
            "",
            "",
            "",
            "",
            "",
            "",
            ""
          ],
          "isEmpty": 0,
          "isCommentOut": 0
        },
        {
          "rowIndex": 108,
          "strings": [
            "",
            "",
            "目閉じ",
            "",
            "-50",
            "",
            "",
            "",
            "",
            "texture/character/stand/1040200_stand",
            "1040200_stand.asset",
            "1040200_stand_02",
            "Dicing",
            "",
            "",
            "",
            "",
            "",
            "",
            "",
            ""
          ],
          "isEmpty": 0,
          "isCommentOut": 0
        },
        {
          "rowIndex": 109,
          "strings": [
            "",
            "",
            "真剣",
            "",
            "-50",
            "",
            "",
            "",
            "",
            "texture/character/stand/1040200_stand",
            "1040200_stand.asset",
            "1040200_stand_03",
            "Dicing",
            "",
            "",
            "",
            "",
            "",
            "",
            "",
            ""
          ],
          "isEmpty": 0,
          "isCommentOut": 0
        },
        {
          "rowIndex": 110,
          "strings": [
            "",
            "",
            "笑い",
            "",
            "-50",
            "",
            "",
            "",
            "",
            "texture/character/stand/1040200_stand",
            "1040200_stand.asset",
            "1040200_stand_04",
            "Dicing",
            "",
            "",
            "",
            "",
            "",
            "",
            "",
            ""
          ],
          "isEmpty": 0,
          "isCommentOut": 0
        },
        {
          "rowIndex": 111,
          "strings": [
            "",
            "",
            "悲しみ",
            "",
            "-50",
            "",
            "",
            "",
            "",
            "texture/character/stand/1040200_stand",
            "1040200_stand.asset",
            "1040200_stand_05",
            "Dicing",
            "",
            "",
            "",
            "",
            "",
            "",
            "",
            ""
          ],
          "isEmpty": 0,
          "isCommentOut": 0
        },
        {
          "rowIndex": 112,
          "strings": [
            "",
            "",
            "照れ",
            "",
            "-50",
            "",
            "",
            "",
            "",
            "texture/character/stand/1040200_stand",
            "1040200_stand.asset",
            "1040200_stand_06",
            "Dicing",
            "",
            "",
            "",
            "",
            "",
            "",
            "",
            ""
          ],
          "isEmpty": 0,
          "isCommentOut": 0
        },
        {
          "rowIndex": 113,
          "strings": [
            "",
            "",
            "固有",
            "",
            "-50",
            "",
            "",
            "",
            "",
            "texture/character/stand/1040200_stand",
            "1040200_stand.asset",
            "1040200_stand_07",
            "Dicing",
            "",
            "",
            "",
            "",
            "",
            "",
            "",
            ""
          ],
          "isEmpty": 0,
          "isCommentOut": 0
        },
        {
          "rowIndex": 114,
          "strings": [
            "",
            "",
            "妄想笑い",
            "",
            "-50",
            "",
            "",
            "",
            "",
            "texture/character/stand/1040200_stand",
            "1040200_stand.asset",
            "1040200_stand_08",
            "Dicing",
            "",
            "",
            "",
            "",
            "",
            "",
            "",
            ""
          ],
          "isEmpty": 0,
          "isCommentOut": 0
        },
        {
          "rowIndex": 115,
          "strings": [],
          "isEmpty": 1,
          "isCommentOut": 0
        }
      ],
      "name": "Assets/Story/adv_201804.xls:Character",
      "type": 1,
      "textLength": 9001,
      "headerRow": 0
    },
    {
      "rows": [
        {
          "rowIndex": 0,
          "strings": [
            "Label",
            "Type",
            "X",
            "Y",
            "Z",
            "Pivot",
            "Scale",
            "Conditional",
            "BundlePath",
            "FileName",
            "FileType",
            "SubFileName",
            "Animation",
            "RenderTexture",
            "RenderRect",
            "Thumbnail",
            "CgCategolly",
            "元画像名"
          ],
          "isEmpty": 0,
          "isCommentOut": 0
        },
        {
          "rowIndex": 1,
          "strings": [
            "背景(五河家前外観：夜)",
            "Bg",
            "",
            "",
            "",
            "",
            "x=1.25 y=0.9375",
            "",
            "texture/background/bg_068_ll",
            "bg_068_LL.png",
            "",
            "",
            "",
            "",
            "",
            ""
          ],
          "isEmpty": 0,
          "isCommentOut": 0
        },
        {
          "rowIndex": 2,
          "strings": [
            "背景(黒)",
            "Bg",
            "",
            "",
            "",
            "",
            "x=1.25 y=0.9375",
            "",
            "texture/background/bg_007_ll",
            "bg_007_LL.png",
            "",
            "",
            "",
            "",
            "",
            ""
          ],
          "isEmpty": 0,
          "isCommentOut": 0
        },
        {
          "rowIndex": 3,
          "strings": [
            "背景(森：昼)",
            "Bg",
            "",
            "",
            "",
            "",
            "x=1.25 y=0.9375",
            "",
            "texture/background/bg_004_ll",
            "bg_004_LL.png",
            "",
            "",
            "",
            "",
            "",
            ""
          ],
          "isEmpty": 0,
          "isCommentOut": 0
        }
      ],
      "name": "Assets/Story/adv_201804.xls:Texture",
      "type": 1,
      "textLength": 324,
      "headerRow": 0
    },
    {
      "rows": [
        {
          "rowIndex": 0,
          "strings": [
            "Label",
            "BundlePath",
            "FileName",
            ""
          ],
          "isEmpty": 0,
          "isCommentOut": 0
        },
        {
          "rowIndex": 1,
          "strings": [
            "白オーラ",
            "prefabs/effect/adventure/eff_026/eff_026",
            "eff_026"
          ],
          "isEmpty": 0,
          "isCommentOut": 0
        },
        {
          "rowIndex": 2,
          "strings": [
            "銃弾",
            "prefabs/effect/adventure/eff_035/eff_035",
            "eff_035"
          ],
          "isEmpty": 0,
          "isCommentOut": 0
        },
        {
          "rowIndex": 3,
          "strings": [
            "誤爆",
            "prefabs/effect/adventure/eff_004/eff_004",
            "eff_004"
          ],
          "isEmpty": 0,
          "isCommentOut": 0
        }
      ],
      "name": "Assets/Story/adv_201804.xls:Particle",
      "type": 1,
      "textLength": 172,
      "headerRow": 0
    },
    {
      "rows": [
        {
          "rowIndex": 0,
          "strings": [
            "Label",
            "Title",
            "Type",
            "BundlePath",
            "FileName",
            "IntroTime",
            "Volume",
            "Comment"
          ],
          "isEmpty": 0,
          "isCommentOut": 0
        },
        {
          "rowIndex": 1,
          "strings": [
            "不穏",
            "",
            "Bgm",
            "sound/bgm/adventure/bgm_unrest",
            "bgm_unrest.wav",
            ""
          ],
          "isEmpty": 0,
          "isCommentOut": 0
        },
        {
          "rowIndex": 2,
          "strings": [
            "踏み込み音",
            "",
            "Se",
            "sound/se/adventure/se_depression",
            "se_depression.wav",
            ""
          ],
          "isEmpty": 0,
          "isCommentOut": 0
        },
        {
          "rowIndex": 3,
          "strings": [
            "ピンチ",
            "",
            "Bgm",
            "sound/bgm/adventure/bgm_pinch",
            "bgm_pinch.wav",
            ""
          ],
          "isEmpty": 0,
          "isCommentOut": 0
        },
        {
          "rowIndex": 4,
          "strings": [
            "魔法チャージ音",
            "",
            "Se",
            "sound/se/adventure/se_magic_charge",
            "se_magic_charge.wav",
            ""
          ],
          "isEmpty": 0,
          "isCommentOut": 0
        },
        {
          "rowIndex": 5,
          "strings": [
            "衝撃音1",
            "",
            "Se",
            "sound/se/adventure/se_magic_burst",
            "se_magic_burst.wav",
            ""
          ],
          "isEmpty": 0,
          "isCommentOut": 0
        },
        {
          "rowIndex": 6,
          "strings": [
            "共鳴音",
            "",
            "Se",
            "sound/se/adventure/se_resonance",
            "se_resonance.wav",
            ""
          ],
          "isEmpty": 0,
          "isCommentOut": 0
        },
        {
          "rowIndex": 7,
          "strings": [
            "魔法陣展開",
            "",
            "Se",
            "sound/se/adventure/se_magic_circle",
            "se_magic_circle.wav",
            ""
          ],
          "isEmpty": 0,
          "isCommentOut": 0
        },
        {
          "rowIndex": 8,
          "strings": [
            "銃声",
            "",
            "Se",
            "sound/se/adventure/se_single_bullet",
            "se_single_bullet.wav",
            ""
          ],
          "isEmpty": 0,
          "isCommentOut": 0
        },
        {
          "rowIndex": 9,
          "strings": [
            "増殖音",
            "",
            "Se",
            "sound/se/adventure/se_proliferation",
            "se_proliferation.wav",
            ""
          ],
          "isEmpty": 0,
          "isCommentOut": 0
        },
        {
          "rowIndex": 10,
          "strings": [
            "重打撃音",
            "",
            "Se",
            "sound/se/adventure/se_heavy_blow",
            "se_heavy_blow.wav",
            ""
          ],
          "isEmpty": 0,
          "isCommentOut": 0
        },
        {
          "rowIndex": 11,
          "strings": [
            "倒れる音",
            "",
            "Se",
            "sound/se/adventure/se_down",
            "se_down.wav",
            ""
          ],
          "isEmpty": 0,
          "isCommentOut": 0
        },
        {
          "rowIndex": 12,
          "strings": [
            "ADV通常",
            "",
            "Bgm",
            "sound/bgm/adventure/bgm_adv_general",
            "bgm_adv_general.wav",
            ""
          ],
          "isEmpty": 0,
          "isCommentOut": 0
        }
      ],
      "name": "Assets/Story/adv_201804.xls:Sound",
      "type": 1,
      "textLength": 717,
      "headerRow": 0
    },
    {
      "rows": [
        {
          "rowIndex": 0,
          "strings": [
            "LayerName",
            "Type",
            "X",
            "Y",
            "Order",
            "LayerMask",
            "ScaleX",
            "ScaleY",
            "FlipX",
            "FlipY",
            "Width",
            "Height",
            "BorderLeft",
            "BorderRight",
            "BorderTop",
            "BorderBottom",
            "Align"
          ],
          "isEmpty": 0,
          "isCommentOut": 0
        },
        {
          "rowIndex": 1,
          "strings": [
            "キャラ中央",
            "Character",
            "0",
            "0",
            "2",
            "",
            "",
            "",
            "",
            "",
            "",
            "",
            "",
            "",
            "",
            "0"
          ],
          "isEmpty": 0,
          "isCommentOut": 0
        },
        {
          "rowIndex": 2,
          "strings": [
            "キャラ左",
            "Character",
            "-350",
            "0",
            "3",
            "",
            "",
            "",
            "",
            "",
            "",
            "",
            "",
            "",
            "",
            "0"
          ],
          "isEmpty": 0,
          "isCommentOut": 0
        },
        {
          "rowIndex": 3,
          "strings": [
            "キャラ右",
            "Character",
            "350",
            "0",
            "4",
            "",
            "",
            "",
            "",
            "",
            "",
            "",
            "",
            "",
            "",
            "0"
          ],
          "isEmpty": 0,
          "isCommentOut": 0
        },
        {
          "rowIndex": 4,
          "strings": [
            "背景",
            "Bg",
            "0",
            "0",
            "0"
          ],
          "isEmpty": 0,
          "isCommentOut": 0
        },
        {
          "rowIndex": 5,
          "strings": [],
          "isEmpty": 1,
          "isCommentOut": 0
        },
        {
          "rowIndex": 6,
          "strings": [
            "キャラ背面",
            "Sprite",
            "0",
            "0",
            "1"
          ],
          "isEmpty": 0,
          "isCommentOut": 0
        },
        {
          "rowIndex": 7,
          "strings": [
            "フェードレイヤー",
            "Sprite",
            "0",
            "0",
            "150"
          ],
          "isEmpty": 0,
          "isCommentOut": 0
        },
        {
          "rowIndex": 8,
          "strings": [
            "スプライトレイヤー",
            "Sprite",
            "0",
            "0",
            "151"
          ],
          "isEmpty": 0,
          "isCommentOut": 0
        },
        {
          "rowIndex": 9,
          "strings": [
            "キャプチャ画像レイヤー",
            "Sprite",
            "0",
            "0",
            "500"
          ],
          "isEmpty": 0,
          "isCommentOut": 0
        },
        {
          "rowIndex": 10,
          "strings": [],
          "isEmpty": 1,
          "isCommentOut": 0
        },
        {
          "rowIndex": 11,
          "strings": [
            "キャラ中央左",
            "Character",
            "-225",
            "0",
            "5"
          ],
          "isEmpty": 0,
          "isCommentOut": 0
        },
        {
          "rowIndex": 12,
          "strings": [
            "キャラ中央右",
            "Character",
            "225",
            "0",
            "6"
          ],
          "isEmpty": 0,
          "isCommentOut": 0
        }
      ],
      "name": "Assets/Story/adv_201804.xls:Layer",
      "type": 1,
      "textLength": 289,
      "headerRow": 0
    },
    {
      "rows": [
        {
          "rowIndex": 0,
          "strings": [
            "Label",
            "Type",
            "Value",
            "FileType"
          ],
          "isEmpty": 0,
          "isCommentOut": 0
        },
        {
          "rowIndex": 1,
          "strings": [
            "player_name",
            "String",
            "アルト"
          ],
          "isEmpty": 0,
          "isCommentOut": 0
        },
        {
          "rowIndex": 2,
          "strings": [
            "is_heroine",
            "Bool",
            "FALSE"
          ],
          "isEmpty": 0,
          "isCommentOut": 0
        }
      ],
      "name": "Assets/Story/adv_201804.xls:Param",
      "type": 1,
      "textLength": 61,
      "headerRow": 0
    }
  ]
}