{
  "m_GameObject": {
    "m_FileID": 0,
    "m_PathID": 0
  },
  "m_Enabled": 1,
  "m_Script": {
    "m_FileID": 0,
    "m_PathID": 8527011069456626154
  },
  "m_Name": "adv_201803_path",
  "advPathList": [
    {
      "assetName": "",
      "assetPath": "texture/character/stand/1040100_stand",
      "resourcePath": "Texture/Character/1040100_stand.asset"
    },
    {
      "assetName": "",
      "assetPath": "texture/character/stand/1040200_stand",
      "resourcePath": "Texture/Character/1040200_stand.asset"
    },
    {
      "assetName": "",
      "assetPath": "texture/character/stand/1030800_stand",
      "resourcePath": "Texture/Character/1030800_stand.asset"
    },
    {
      "assetName": "",
      "assetPath": "texture/character/stand/1200500_stand",
      "resourcePath": "Texture/Character/1200500_stand.asset"
    },
    {
      "assetName": "",
      "assetPath": "texture/character/stand/1200700_stand",
      "resourcePath": "Texture/Character/1200700_stand.asset"
    },
    {
      "assetName": "",
      "assetPath": "texture/character/stand/1160300_stand",
      "resourcePath": "Texture/Character/1160300_stand.asset"
    },
    {
      "assetName": "",
      "assetPath": "texture/character/stand/1120100_stand",
      "resourcePath": "Texture/Character/1120100_stand.asset"
    },
    {
      "assetName": "",
      "assetPath": "texture/character/stand/1201500_stand",
      "resourcePath": "Texture/Character/1201500_stand.asset"
    },
    {
      "assetName": "",
      "assetPath": "texture/background/bg_004_ll",
      "resourcePath": "Texture/BG/bg_004_LL.png"
    },
    {
      "assetName": "",
      "assetPath": "texture/background/bg_007_ll",
      "resourcePath": "Texture/BG/bg_007_LL.png"
    },
    {
      "assetName": "",
      "assetPath": "texture/background/bg_046_ll",
      "resourcePath": "Texture/BG/bg_046_LL.png"
    },
    {
      "assetName": "",
      "assetPath": "texture/background/bg_013_ll",
      "resourcePath": "Texture/BG/bg_013_LL.png"
    },
    {
      "assetName": "",
      "assetPath": "texture/background/bg_035_ll",
      "resourcePath": "Texture/BG/bg_035_LL.png"
    },
    {
      "assetName": "",
      "assetPath": "sound/bgm/adventure/bgm_adv_general",
      "resourcePath": "Sound/BGM/bgm_adv_general.wav"
    },
    {
      "assetName": "",
      "assetPath": "sound/se/adventure/se_depression",
      "resourcePath": "Sound/SE/se_depression.wav"
    },
    {
      "assetName": "",
      "assetPath": "sound/bgm/adventure/bgm_bright",
      "resourcePath": "Sound/BGM/bgm_bright.wav"
    },
    {
      "assetName": "",
      "assetPath": "sound/se/adventure/se_metastasis",
      "resourcePath": "Sound/SE/se_metastasis.wav"
    },
    {
      "assetName": "",
      "assetPath": "sound/se/adventure/se_falling",
      "resourcePath": "Sound/SE/se_falling.wav"
    },
    {
      "assetName": "",
      "assetPath": "sound/se/adventure/se_down",
      "resourcePath": "Sound/SE/se_down.wav"
    },
    {
      "assetName": "",
      "assetPath": "sound/bgm/adventure/bgm_nervous",
      "resourcePath": "Sound/BGM/bgm_nervous.wav"
    },
    {
      "assetName": "",
      "assetPath": "sound/se/adventure/se_landing",
      "resourcePath": "Sound/SE/se_landing.wav"
    },
    {
      "assetName": "",
      "assetPath": "sound/bgm/adventure/bgm_description",
      "resourcePath": "Sound/BGM/bgm_description.wav"
    },
    {
      "assetName": "",
      "assetPath": "data/adventure/event/story2018/adv_201803.scenarios",
      "resourcePath": "adv_201803.scenarios.asset"
    }
  ]
}