{
  "m_GameObject": {
    "m_FileID": 0,
    "m_PathID": 0
  },
  "m_Enabled": 1,
  "m_Script": {
    "m_FileID": 0,
    "m_PathID": -2767099076474933927
  },
  "m_Name": "dc_2000700_sd",
  "Version": 65537,
  "TableCellMap": [
    {
      "Name": "2000700_sd",
      "SizeOriginal": {
        "x": 2048.0,
        "y": 2048.0
      },
      "TableCell": [
        {
          "Name": "acce_body_front",
          "Rectangle": {
            "x": 4.0,
            "y": 4.0,
            "width": 250.0,
            "height": 275.0
          },
          "Pivot": {
            "x": 125.0,
            "y": 101.999977
          },
          "Mesh": {
            "TableCoordinate": [],
            "TableIndexVertex": []
          }
        },
        {
          "Name": "acce_head_front_l",
          "Rectangle": {
            "x": 1364.0,
            "y": 4.0,
            "width": 250.0,
            "height": 280.0
          },
          "Pivot": {
            "x": 98.0,
            "y": 125.0
          },
          "Mesh": {
            "TableCoordinate": [],
            "TableIndexVertex": []
          }
        },
        {
          "Name": "acce_head_front_r",
          "Rectangle": {
            "x": 1614.0,
            "y": 4.0,
            "width": 250.0,
            "height": 280.0
          },
          "Pivot": {
            "x": 123.0,
            "y": 133.999878
          },
          "Mesh": {
            "TableCoordinate": [],
            "TableIndexVertex": []
          }
        },
        {
          "Name": "arm_l",
          "Rectangle": {
            "x": 1864.0,
            "y": 4.0,
            "width": 130.0,
            "height": 180.0
          },
          "Pivot": {
            "x": 49.99995,
            "y": 63.0
          },
          "Mesh": {
            "TableCoordinate": [],
            "TableIndexVertex": []
          }
        },
        {
          "Name": "arm_r",
          "Rectangle": {
            "x": 4.0,
            "y": 280.0,
            "width": 130.0,
            "height": 180.0
          },
          "Pivot": {
            "x": 78.99996,
            "y": 64.00008
          },
          "Mesh": {
            "TableCoordinate": [],
            "TableIndexVertex": []
          }
        },
        {
          "Name": "body",
          "Rectangle": {
            "x": 1164.0,
            "y": 364.0,
            "width": 180.0,
            "height": 220.0
          },
          "Pivot": {
            "x": 93.99996,
            "y": 151.000076
          },
          "Mesh": {
            "TableCoordinate": [],
            "TableIndexVertex": []
          }
        },
        {
          "Name": "coat_back_l",
          "Rectangle": {
            "x": 540.0,
            "y": 1645.0,
            "width": 260.0,
            "height": 368.0
          },
          "Pivot": {
            "x": 19.0000019,
            "y": 34.0000038
          },
          "Mesh": {
            "TableCoordinate": [],
            "TableIndexVertex": []
          }
        },
        {
          "Name": "coat_back_r",
          "Rectangle": {
            "x": 45.0,
            "y": 1645.0,
            "width": 349.0,
            "height": 389.0
          },
          "Pivot": {
            "x": 332.0,
            "y": 39.9999962
          },
          "Mesh": {
            "TableCoordinate": [],
            "TableIndexVertex": []
          }
        },
        {
          "Name": "coat_l",
          "Rectangle": {
            "x": 527.0,
            "y": 1248.0,
            "width": 143.0,
            "height": 348.0
          },
          "Pivot": {
            "x": 5.999999,
            "y": 83.0
          },
          "Mesh": {
            "TableCoordinate": [],
            "TableIndexVertex": []
          }
        },
        {
          "Name": "coat_r",
          "Rectangle": {
            "x": 102.0,
            "y": 1244.0,
            "width": 277.0,
            "height": 355.0
          },
          "Pivot": {
            "x": 257.0,
            "y": 93.0
          },
          "Mesh": {
            "TableCoordinate": [],
            "TableIndexVertex": []
          }
        },
        {
          "Name": "coat_sode_l",
          "Rectangle": {
            "x": 1173.0,
            "y": 11.0,
            "width": 157.0,
            "height": 346.0
          },
          "Pivot": {
            "x": 41.0,
            "y": 323.0
          },
          "Mesh": {
            "TableCoordinate": [],
            "TableIndexVertex": []
          }
        },
        {
          "Name": "coat_sode_r",
          "Rectangle": {
            "x": 1014.0,
            "y": 10.0,
            "width": 139.0,
            "height": 195.0
          },
          "Pivot": {
            "x": 74.0,
            "y": 43.9999962
          },
          "Mesh": {
            "TableCoordinate": [],
            "TableIndexVertex": []
          }
        },
        {
          "Name": "face_attack",
          "Rectangle": {
            "x": 134.0,
            "y": 404.0,
            "width": 250.0,
            "height": 250.0
          },
          "Pivot": {
            "x": 125.0,
            "y": 135.0
          },
          "Mesh": {
            "TableCoordinate": [],
            "TableIndexVertex": []
          }
        },
        {
          "Name": "face_damage",
          "Rectangle": {
            "x": 384.0,
            "y": 404.0,
            "width": 250.0,
            "height": 250.0
          },
          "Pivot": {
            "x": 125.0,
            "y": 135.0
          },
          "Mesh": {
            "TableCoordinate": [],
            "TableIndexVertex": []
          }
        },
        {
          "Name": "face_eye_close_normal",
          "Rectangle": {
            "x": 1164.0,
            "y": 584.0,
            "width": 250.0,
            "height": 250.0
          },
          "Pivot": {
            "x": 125.0,
            "y": 135.0
          },
          "Mesh": {
            "TableCoordinate": [],
            "TableIndexVertex": []
          }
        },
        {
          "Name": "face_happy",
          "Rectangle": {
            "x": 1414.0,
            "y": 584.0,
            "width": 250.0,
            "height": 250.0
          },
          "Pivot": {
            "x": 125.0,
            "y": 135.0
          },
          "Mesh": {
            "TableCoordinate": [],
            "TableIndexVertex": []
          }
        },
        {
          "Name": "face_mouth_open_happy",
          "Rectangle": {
            "x": 1664.0,
            "y": 614.0,
            "width": 250.0,
            "height": 250.0
          },
          "Pivot": {
            "x": 125.0,
            "y": 135.0
          },
          "Mesh": {
            "TableCoordinate": [],
            "TableIndexVertex": []
          }
        },
        {
          "Name": "face_normal",
          "Rectangle": {
            "x": 4.0,
            "y": 654.0,
            "width": 250.0,
            "height": 250.0
          },
          "Pivot": {
            "x": 125.0,
            "y": 135.0
          },
          "Mesh": {
            "TableCoordinate": [],
            "TableIndexVertex": []
          }
        },
        {
          "Name": "face_unique",
          "Rectangle": {
            "x": 254.0,
            "y": 654.0,
            "width": 250.0,
            "height": 250.0
          },
          "Pivot": {
            "x": 125.0,
            "y": 135.0
          },
          "Mesh": {
            "TableCoordinate": [],
            "TableIndexVertex": []
          }
        },
        {
          "Name": "hand_l",
          "Rectangle": {
            "x": 634.0,
            "y": 404.0,
            "width": 180.0,
            "height": 255.0
          },
          "Pivot": {
            "x": 99.0,
            "y": 59.00012
          },
          "Mesh": {
            "TableCoordinate": [],
            "TableIndexVertex": []
          }
        },
        {
          "Name": "hand_r",
          "Rectangle": {
            "x": 504.0,
            "y": 660.0,
            "width": 225.0,
            "height": 180.0
          },
          "Pivot": {
            "x": 81.9999,
            "y": 61.00002
          },
          "Mesh": {
            "TableCoordinate": [],
            "TableIndexVertex": []
          }
        },
        {
          "Name": "head",
          "Rectangle": {
            "x": 730.0,
            "y": 694.0,
            "width": 290.0,
            "height": 250.0
          },
          "Pivot": {
            "x": 163.000015,
            "y": 225.0
          },
          "Mesh": {
            "TableCoordinate": [],
            "TableIndexVertex": []
          }
        },
        {
          "Name": "hear_back_c",
          "Rectangle": {
            "x": 1020.0,
            "y": 834.0,
            "width": 260.0,
            "height": 520.0
          },
          "Pivot": {
            "x": 119.999878,
            "y": 80.99988
          },
          "Mesh": {
            "TableCoordinate": [
              {
                "x": 20.0,
                "y": 451.0
              },
              {
                "x": 9.0,
                "y": 399.0
              },
              {
                "x": 40.0,
                "y": 431.0
              },
              {
                "x": 51.0,
                "y": 486.0
              },
              {
                "x": 39.0,
                "y": 486.0
              },
              {
                "x": 45.0,
                "y": 402.0
              },
              {
                "x": 78.0,
                "y": 417.0
              },
              {
                "x": 80.0,
                "y": 474.0
              },
              {
                "x": 107.0,
                "y": 445.0
              },
              {
                "x": 140.0,
                "y": 468.0
              },
              {
                "x": 138.0,
                "y": 500.0
              },
              {
                "x": 179.0,
                "y": 488.0
              },
              {
                "x": 164.0,
                "y": 436.0
              },
              {
                "x": 150.0,
                "y": 409.0
              },
              {
                "x": 115.0,
                "y": 410.0
              },
              {
                "x": 87.0,
                "y": 376.0
              },
              {
                "x": 37.0,
                "y": 369.0
              },
              {
                "x": 15.0,
                "y": 333.0
              },
              {
                "x": 63.0,
                "y": 335.0
              },
              {
                "x": 106.0,
                "y": 335.0
              },
              {
                "x": 127.0,
                "y": 372.0
              },
              {
                "x": 167.0,
                "y": 368.0
              },
              {
                "x": 186.0,
                "y": 401.0
              },
              {
                "x": 202.0,
                "y": 431.0
              },
              {
                "x": 208.0,
                "y": 365.0
              },
              {
                "x": 186.0,
                "y": 331.0
              },
              {
                "x": 143.0,
                "y": 332.0
              },
              {
                "x": 128.0,
                "y": 297.0
              },
              {
                "x": 88.0,
                "y": 297.0
              },
              {
                "x": 49.0,
                "y": 297.0
              },
              {
                "x": 44.0,
                "y": 262.0
              },
              {
                "x": 80.0,
                "y": 262.0
              },
              {
                "x": 116.0,
                "y": 263.0
              },
              {
                "x": 152.0,
                "y": 263.0
              },
              {
                "x": 167.0,
                "y": 297.0
              },
              {
                "x": 207.0,
                "y": 298.0
              },
              {
                "x": 188.0,
                "y": 264.0
              },
              {
                "x": 173.0,
                "y": 230.0
              },
              {
                "x": 140.0,
                "y": 229.0
              },
              {
                "x": 107.0,
                "y": 228.0
              },
              {
                "x": 74.0,
                "y": 227.0
              },
              {
                "x": 72.0,
                "y": 191.0
              },
              {
                "x": 129.0,
                "y": 195.0
              },
              {
                "x": 161.0,
                "y": 195.0
              },
              {
                "x": 206.0,
                "y": 231.0
              },
              {
                "x": 206.0,
                "y": 164.0
              },
              {
                "x": 162.0,
                "y": 132.0
              },
              {
                "x": 196.0,
                "y": 100.0
              },
              {
                "x": 157.0,
                "y": 78.0
              },
              {
                "x": 125.0,
                "y": 101.0
              },
              {
                "x": 108.0,
                "y": 46.0
              },
              {
                "x": 124.0,
                "y": 37.0
              },
              {
                "x": 153.0,
                "y": 39.0
              },
              {
                "x": 180.0,
                "y": 62.0
              },
              {
                "x": 95.0,
                "y": 73.0
              },
              {
                "x": 84.0,
                "y": 132.0
              },
              {
                "x": 120.0,
                "y": 162.0
              }
            ],
            "TableIndexVertex": [
              0,
              1,
              2,
              0,
              2,
              3,
              3,
              4,
              0,
              2,
              1,
              5,
              2,
              5,
              6,
              2,
              6,
              7,
              7,
              6,
              8,
              9,
              7,
              8,
              10,
              7,
              9,
              10,
              9,
              11,
              9,
              12,
              11,
              9,
              8,
              12,
              8,
              13,
              12,
              8,
              14,
              13,
              8,
              6,
              14,
              6,
              15,
              14,
              6,
              5,
              15,
              5,
              16,
              15,
              1,
              16,
              5,
              1,
              17,
              16,
              16,
              17,
              18,
              16,
              18,
              15,
              15,
              18,
              19,
              15,
              19,
              20,
              14,
              15,
              20,
              14,
              20,
              13,
              13,
              20,
              21,
              13,
              21,
              22,
              12,
              13,
              22,
              12,
              22,
              23,
              11,
              12,
              23,
              23,
              22,
              24,
              22,
              21,
              24,
              21,
              25,
              24,
              21,
              26,
              25,
              20,
              26,
              21,
              20,
              19,
              26,
              19,
              27,
              26,
              19,
              28,
              27,
              18,
              28,
              19,
              18,
              29,
              28,
              17,
              29,
              18,
              17,
              30,
              29,
              29,
              30,
              31,
              29,
              31,
              28,
              28,
              31,
              32,
              28,
              32,
              27,
              27,
              32,
              33,
              27,
              33,
              34,
              26,
              27,
              34,
              26,
              34,
              25,
              25,
              34,
              35,
              25,
              35,
              24,
              34,
              36,
              35,
              34,
              33,
              36,
              33,
              37,
              36,
              33,
              38,
              37,
              32,
              38,
              33,
              32,
              39,
              38,
              31,
              39,
              32,
              31,
              40,
              39,
              30,
              40,
              31,
              30,
              41,
              40,
              39,
              40,
              41,
              42,
              39,
              41,
              39,
              42,
              38,
              38,
              42,
              43,
              38,
              43,
              37,
              44,
              37,
              43,
              36,
              37,
              44,
              36,
              44,
              35,
              44,
              43,
              45,
              45,
              43,
              46,
              46,
              47,
              45,
              46,
              48,
              47,
              49,
              48,
              46,
              48,
              49,
              50,
              50,
              51,
              48,
              51,
              52,
              48,
              48,
              52,
              53,
              48,
              53,
              47,
              49,
              54,
              50,
              55,
              54,
              49,
              56,
              55,
              49,
              41,
              55,
              56,
              41,
              56,
              42,
              43,
              42,
              56,
              46,
              43,
              56,
              56,
              49,
              46
            ]
          }
        },
        {
          "Name": "hear_back_l",
          "Rectangle": {
            "x": 1280.0,
            "y": 834.0,
            "width": 260.0,
            "height": 520.0
          },
          "Pivot": {
            "x": 71.99998,
            "y": 77.0000458
          },
          "Mesh": {
            "TableCoordinate": [
              {
                "x": 42.0,
                "y": 93.0
              },
              {
                "x": 19.0,
                "y": 57.0
              },
              {
                "x": 84.0,
                "y": 67.0
              },
              {
                "x": 81.0,
                "y": 122.0
              },
              {
                "x": 59.0,
                "y": 161.0
              },
              {
                "x": 116.0,
                "y": 141.0
              },
              {
                "x": 119.0,
                "y": 168.0
              },
              {
                "x": 94.0,
                "y": 194.0
              },
              {
                "x": 71.0,
                "y": 229.0
              },
              {
                "x": 128.0,
                "y": 217.0
              },
              {
                "x": 108.0,
                "y": 252.0
              },
              {
                "x": 90.0,
                "y": 297.0
              },
              {
                "x": 148.0,
                "y": 270.0
              },
              {
                "x": 146.0,
                "y": 318.0
              },
              {
                "x": 118.0,
                "y": 346.0
              },
              {
                "x": 108.0,
                "y": 366.0
              },
              {
                "x": 158.0,
                "y": 377.0
              },
              {
                "x": 113.0,
                "y": 425.0
              },
              {
                "x": 154.0,
                "y": 420.0
              },
              {
                "x": 140.0,
                "y": 460.0
              },
              {
                "x": 121.0,
                "y": 483.0
              },
              {
                "x": 101.0,
                "y": 487.0
              },
              {
                "x": 184.0,
                "y": 339.0
              },
              {
                "x": 204.0,
                "y": 359.0
              },
              {
                "x": 188.0,
                "y": 388.0
              },
              {
                "x": 178.0,
                "y": 430.0
              },
              {
                "x": 204.0,
                "y": 429.0
              },
              {
                "x": 189.0,
                "y": 464.0
              },
              {
                "x": 175.0,
                "y": 466.0
              },
              {
                "x": 226.0,
                "y": 329.0
              },
              {
                "x": 247.0,
                "y": 382.0
              },
              {
                "x": 226.0,
                "y": 401.0
              },
              {
                "x": 245.0,
                "y": 428.0
              },
              {
                "x": 225.0,
                "y": 440.0
              },
              {
                "x": 236.0,
                "y": 440.0
              },
              {
                "x": 191.0,
                "y": 281.0
              },
              {
                "x": 163.0,
                "y": 232.0
              },
              {
                "x": 152.0,
                "y": 192.0
              },
              {
                "x": 148.0,
                "y": 152.0
              },
              {
                "x": 142.0,
                "y": 112.0
              },
              {
                "x": 104.0,
                "y": 92.0
              },
              {
                "x": 129.0,
                "y": 72.0
              },
              {
                "x": 83.0,
                "y": 38.0
              },
              {
                "x": 23.0,
                "y": 31.0
              }
            ],
            "TableIndexVertex": [
              0,
              1,
              2,
              3,
              0,
              2,
              4,
              0,
              3,
              4,
              3,
              5,
              6,
              4,
              5,
              7,
              4,
              6,
              8,
              4,
              7,
              8,
              7,
              9,
              10,
              8,
              9,
              11,
              8,
              10,
              11,
              10,
              12,
              13,
              11,
              12,
              14,
              11,
              13,
              15,
              11,
              14,
              15,
              14,
              16,
              16,
              17,
              15,
              18,
              17,
              16,
              19,
              17,
              18,
              20,
              17,
              19,
              21,
              17,
              20,
              14,
              13,
              16,
              16,
              13,
              22,
              16,
              22,
              23,
              24,
              16,
              23,
              24,
              25,
              16,
              26,
              25,
              24,
              27,
              25,
              26,
              27,
              28,
              25,
              26,
              24,
              23,
              23,
              22,
              29,
              23,
              29,
              30,
              31,
              23,
              30,
              32,
              31,
              30,
              32,
              33,
              31,
              34,
              33,
              32,
              29,
              22,
              35,
              22,
              13,
              35,
              13,
              12,
              35,
              12,
              36,
              35,
              12,
              9,
              36,
              10,
              9,
              12,
              9,
              37,
              36,
              9,
              6,
              37,
              7,
              6,
              9,
              6,
              38,
              37,
              6,
              5,
              38,
              5,
              39,
              38,
              5,
              40,
              39,
              3,
              40,
              5,
              3,
              2,
              40,
              40,
              2,
              41,
              40,
              41,
              39,
              41,
              2,
              42,
              2,
              1,
              42,
              1,
              43,
              42
            ]
          }
        },
        {
          "Name": "hear_back_r",
          "Rectangle": {
            "x": 1198.0,
            "y": 1354.0,
            "width": 342.0,
            "height": 520.0
          },
          "Pivot": {
            "x": 217.03833,
            "y": 81.99983
          },
          "Mesh": {
            "TableCoordinate": [
              {
                "x": 9.0,
                "y": 370.0
              },
              {
                "x": -2.0,
                "y": 370.0
              },
              {
                "x": -2.0,
                "y": 313.0
              },
              {
                "x": 26.0,
                "y": 319.0
              },
              {
                "x": 33.0,
                "y": 266.0
              },
              {
                "x": 71.0,
                "y": 285.0
              },
              {
                "x": 92.0,
                "y": 236.0
              },
              {
                "x": 123.0,
                "y": 248.0
              },
              {
                "x": 129.0,
                "y": 311.0
              },
              {
                "x": 43.0,
                "y": 321.0
              },
              {
                "x": 64.0,
                "y": 369.0
              },
              {
                "x": 26.0,
                "y": 370.0
              },
              {
                "x": 32.0,
                "y": 425.0
              },
              {
                "x": 52.0,
                "y": 434.0
              },
              {
                "x": 166.0,
                "y": 269.0
              },
              {
                "x": 176.0,
                "y": 325.0
              },
              {
                "x": 143.0,
                "y": 362.0
              },
              {
                "x": 121.0,
                "y": 410.0
              },
              {
                "x": 166.0,
                "y": 413.0
              },
              {
                "x": 159.0,
                "y": 480.0
              },
              {
                "x": 174.0,
                "y": 480.0
              },
              {
                "x": 179.0,
                "y": 367.0
              },
              {
                "x": 221.0,
                "y": 299.0
              },
              {
                "x": 212.0,
                "y": 242.0
              },
              {
                "x": 149.0,
                "y": 198.0
              },
              {
                "x": 198.0,
                "y": 187.0
              },
              {
                "x": 179.0,
                "y": 134.0
              },
              {
                "x": 246.0,
                "y": 175.0
              },
              {
                "x": 268.0,
                "y": 231.0
              },
              {
                "x": 293.0,
                "y": 161.0
              },
              {
                "x": 257.0,
                "y": 134.0
              },
              {
                "x": 227.0,
                "y": 104.0
              },
              {
                "x": 252.0,
                "y": 70.0
              },
              {
                "x": 300.0,
                "y": 107.0
              },
              {
                "x": 298.0,
                "y": 53.0
              },
              {
                "x": 285.0,
                "y": 34.0
              },
              {
                "x": 254.0,
                "y": 33.0
              },
              {
                "x": 204.0,
                "y": 71.0
              }
            ],
            "TableIndexVertex": [
              0,
              1,
              2,
              3,
              0,
              2,
              3,
              2,
              4,
              3,
              4,
              5,
              5,
              4,
              6,
              5,
              6,
              7,
              5,
              7,
              8,
              8,
              9,
              5,
              8,
              10,
              9,
              10,
              11,
              9,
              12,
              11,
              10,
              13,
              12,
              10,
              8,
              7,
              14,
              8,
              14,
              15,
              16,
              8,
              15,
              16,
              17,
              8,
              17,
              16,
              18,
              19,
              17,
              18,
              19,
              18,
              20,
              18,
              16,
              21,
              16,
              15,
              21,
              21,
              15,
              22,
              15,
              14,
              22,
              14,
              23,
              22,
              23,
              14,
              24,
              24,
              25,
              23,
              24,
              26,
              25,
              25,
              26,
              27,
              23,
              25,
              27,
              23,
              27,
              28,
              22,
              23,
              28,
              28,
              27,
              29,
              27,
              30,
              29,
              27,
              26,
              30,
              30,
              26,
              31,
              30,
              31,
              32,
              33,
              30,
              32,
              29,
              30,
              33,
              32,
              34,
              33,
              32,
              35,
              34,
              32,
              36,
              35,
              32,
              37,
              36,
              31,
              37,
              32,
              26,
              37,
              31,
              14,
              7,
              24,
              7,
              6,
              24
            ]
          }
        },
        {
          "Name": "hear_front_c",
          "Rectangle": {
            "x": 4.0,
            "y": 904.0,
            "width": 430.0,
            "height": 320.0
          },
          "Pivot": {
            "x": 213.0,
            "y": 63.0
          },
          "Mesh": {
            "TableCoordinate": [
              {
                "x": 43.0,
                "y": 176.0
              },
              {
                "x": 36.0,
                "y": 159.0
              },
              {
                "x": 86.0,
                "y": 139.0
              },
              {
                "x": 91.0,
                "y": 172.0
              },
              {
                "x": 134.0,
                "y": 132.0
              },
              {
                "x": 128.0,
                "y": 178.0
              },
              {
                "x": 104.0,
                "y": 223.0
              },
              {
                "x": 159.0,
                "y": 232.0
              },
              {
                "x": 143.0,
                "y": 246.0
              },
              {
                "x": 158.0,
                "y": 246.0
              },
              {
                "x": 192.0,
                "y": 206.0
              },
              {
                "x": 190.0,
                "y": 215.0
              },
              {
                "x": 200.0,
                "y": 240.0
              },
              {
                "x": 204.0,
                "y": 183.0
              },
              {
                "x": 206.0,
                "y": 206.0
              },
              {
                "x": 172.0,
                "y": 134.0
              },
              {
                "x": 213.0,
                "y": 135.0
              },
              {
                "x": 256.0,
                "y": 136.0
              },
              {
                "x": 224.0,
                "y": 204.0
              },
              {
                "x": 281.0,
                "y": 185.0
              },
              {
                "x": 301.0,
                "y": 109.0
              },
              {
                "x": 345.0,
                "y": 152.0
              },
              {
                "x": 305.0,
                "y": 204.0
              },
              {
                "x": 381.0,
                "y": 204.0
              },
              {
                "x": 398.0,
                "y": 179.0
              },
              {
                "x": 408.0,
                "y": 194.0
              },
              {
                "x": 408.0,
                "y": 180.0
              },
              {
                "x": 393.0,
                "y": 150.0
              },
              {
                "x": 422.0,
                "y": 153.0
              },
              {
                "x": 422.0,
                "y": 138.0
              },
              {
                "x": 339.0,
                "y": 102.0
              },
              {
                "x": 284.0,
                "y": 42.0
              },
              {
                "x": 244.0,
                "y": 84.0
              },
              {
                "x": 217.0,
                "y": 79.0
              },
              {
                "x": 179.0,
                "y": 87.0
              },
              {
                "x": 112.0,
                "y": 75.0
              },
              {
                "x": 132.0,
                "y": 52.0
              },
              {
                "x": 202.0,
                "y": 27.0
              },
              {
                "x": 246.0,
                "y": 28.0
              },
              {
                "x": 365.0,
                "y": 86.0
              },
              {
                "x": 411.0,
                "y": 123.0
              },
              {
                "x": 414.0,
                "y": 84.0
              },
              {
                "x": 394.0,
                "y": 59.0
              },
              {
                "x": 408.0,
                "y": 61.0
              },
              {
                "x": 369.0,
                "y": 42.0
              },
              {
                "x": 383.0,
                "y": 42.0
              },
              {
                "x": 273.0,
                "y": 200.0
              },
              {
                "x": 243.0,
                "y": 222.0
              },
              {
                "x": 224.0,
                "y": 227.0
              },
              {
                "x": 296.0,
                "y": 226.0
              },
              {
                "x": 296.0,
                "y": 240.0
              }
            ],
            "TableIndexVertex": [
              0,
              1,
              2,
              3,
              0,
              2,
              3,
              2,
              4,
              5,
              3,
              4,
              6,
              3,
              5,
              7,
              6,
              5,
              8,
              6,
              7,
              9,
              8,
              7,
              10,
              7,
              5,
              10,
              11,
              7,
              7,
              11,
              12,
              10,
              5,
              13,
              14,
              10,
              13,
              13,
              5,
              15,
              13,
              15,
              16,
              13,
              16,
              17,
              17,
              18,
              13,
              17,
              19,
              18,
              19,
              17,
              20,
              19,
              20,
              21,
              22,
              19,
              21,
              22,
              21,
              23,
              24,
              23,
              21,
              23,
              24,
              25,
              24,
              26,
              25,
              24,
              21,
              27,
              24,
              27,
              28,
              27,
              29,
              28,
              21,
              30,
              27,
              20,
              30,
              21,
              30,
              20,
              31,
              20,
              32,
              31,
              17,
              32,
              20,
              16,
              32,
              17,
              16,
              33,
              32,
              16,
              34,
              33,
              15,
              34,
              16,
              15,
              4,
              34,
              5,
              4,
              15,
              4,
              35,
              34,
              2,
              35,
              4,
              34,
              35,
              36,
              34,
              36,
              37,
              33,
              34,
              37,
              33,
              37,
              38,
              32,
              33,
              38,
              32,
              38,
              31,
              30,
              39,
              27,
              27,
              39,
              40,
              40,
              39,
              41,
              41,
              39,
              42,
              41,
              42,
              43,
              42,
              39,
              44,
              42,
              44,
              45,
              46,
              18,
              19,
              47,
              18,
              46,
              48,
              18,
              47,
              47,
              46,
              49,
              50,
              47,
              49
            ]
          }
        },
        {
          "Name": "hear_front_l",
          "Rectangle": {
            "x": 504.0,
            "y": 840.0,
            "width": 200.0,
            "height": 380.0
          },
          "Pivot": {
            "x": 81.0,
            "y": 93.00006
          },
          "Mesh": {
            "TableCoordinate": [
              {
                "x": 42.0,
                "y": 255.0
              },
              {
                "x": 42.0,
                "y": 245.0
              },
              {
                "x": 65.0,
                "y": 246.0
              },
              {
                "x": 64.0,
                "y": 213.0
              },
              {
                "x": 104.0,
                "y": 238.0
              },
              {
                "x": 97.0,
                "y": 270.0
              },
              {
                "x": 60.0,
                "y": 286.0
              },
              {
                "x": 95.0,
                "y": 319.0
              },
              {
                "x": 62.0,
                "y": 326.0
              },
              {
                "x": 92.0,
                "y": 355.0
              },
              {
                "x": 72.0,
                "y": 358.0
              },
              {
                "x": 87.0,
                "y": 377.0
              },
              {
                "x": 96.0,
                "y": 377.0
              },
              {
                "x": 111.0,
                "y": 359.0
              },
              {
                "x": 109.0,
                "y": 206.0
              },
              {
                "x": 73.0,
                "y": 179.0
              },
              {
                "x": 110.0,
                "y": 172.0
              },
              {
                "x": 74.0,
                "y": 148.0
              },
              {
                "x": 110.0,
                "y": 137.0
              },
              {
                "x": 95.0,
                "y": 110.0
              },
              {
                "x": 71.0,
                "y": 117.0
              },
              {
                "x": 69.0,
                "y": 86.0
              },
              {
                "x": 104.0,
                "y": 77.0
              },
              {
                "x": 89.0,
                "y": 58.0
              },
              {
                "x": 71.0,
                "y": 56.0
              }
            ],
            "TableIndexVertex": [
              0,
              1,
              2,
              1,
              3,
              2,
              2,
              3,
              4,
              5,
              2,
              4,
              6,
              2,
              5,
              7,
              6,
              5,
              8,
              6,
              7,
              9,
              8,
              7,
              10,
              8,
              9,
              11,
              10,
              9,
              11,
              9,
              12,
              9,
              7,
              13,
              4,
              3,
              14,
              3,
              15,
              14,
              14,
              15,
              16,
              15,
              17,
              16,
              17,
              18,
              16,
              17,
              19,
              18,
              17,
              20,
              19,
              20,
              21,
              19,
              19,
              21,
              22,
              19,
              22,
              18,
              21,
              23,
              22,
              21,
              24,
              23
            ]
          }
        },
        {
          "Name": "hear_front_r",
          "Rectangle": {
            "x": 1800.0,
            "y": 864.0,
            "width": 200.0,
            "height": 380.0
          },
          "Pivot": {
            "x": 139.0,
            "y": 100.000038
          },
          "Mesh": {
            "TableCoordinate": [
              {
                "x": 112.0,
                "y": 348.0
              },
              {
                "x": 98.0,
                "y": 306.0
              },
              {
                "x": 119.0,
                "y": 323.0
              },
              {
                "x": 142.0,
                "y": 345.0
              },
              {
                "x": 144.0,
                "y": 371.0
              },
              {
                "x": 154.0,
                "y": 359.0
              },
              {
                "x": 164.0,
                "y": 371.0
              },
              {
                "x": 164.0,
                "y": 361.0
              },
              {
                "x": 147.0,
                "y": 316.0
              },
              {
                "x": 164.0,
                "y": 337.0
              },
              {
                "x": 164.0,
                "y": 347.0
              },
              {
                "x": 137.0,
                "y": 287.0
              },
              {
                "x": 109.0,
                "y": 273.0
              },
              {
                "x": 98.0,
                "y": 251.0
              },
              {
                "x": 121.0,
                "y": 240.0
              },
              {
                "x": 133.0,
                "y": 263.0
              },
              {
                "x": 152.0,
                "y": 258.0
              },
              {
                "x": 152.0,
                "y": 268.0
              },
              {
                "x": 132.0,
                "y": 206.0
              },
              {
                "x": 101.0,
                "y": 197.0
              },
              {
                "x": 131.0,
                "y": 169.0
              },
              {
                "x": 103.0,
                "y": 143.0
              },
              {
                "x": 129.0,
                "y": 131.0
              },
              {
                "x": 114.0,
                "y": 90.0
              },
              {
                "x": 103.0,
                "y": 89.0
              }
            ],
            "TableIndexVertex": [
              0,
              1,
              2,
              0,
              2,
              3,
              0,
              3,
              4,
              4,
              3,
              5,
              4,
              5,
              6,
              5,
              7,
              6,
              3,
              2,
              8,
              3,
              8,
              9,
              3,
              9,
              10,
              8,
              2,
              11,
              2,
              1,
              11,
              1,
              12,
              11,
              1,
              13,
              12,
              12,
              13,
              14,
              12,
              14,
              15,
              12,
              15,
              11,
              15,
              14,
              16,
              15,
              16,
              17,
              14,
              18,
              16,
              14,
              19,
              18,
              13,
              19,
              14,
              19,
              20,
              18,
              19,
              21,
              20,
              21,
              22,
              20,
              21,
              23,
              22,
              21,
              24,
              23
            ]
          }
        },
        {
          "Name": "hip",
          "Rectangle": {
            "x": 704.0,
            "y": 944.0,
            "width": 180.0,
            "height": 180.0
          },
          "Pivot": {
            "x": 95.00004,
            "y": 109.000076
          },
          "Mesh": {
            "TableCoordinate": [],
            "TableIndexVertex": []
          }
        },
        {
          "Name": "leg_l",
          "Rectangle": {
            "x": 4.0,
            "y": 460.0,
            "width": 130.0,
            "height": 180.0
          },
          "Pivot": {
            "x": 71.99998,
            "y": 55.00008
          },
          "Mesh": {
            "TableCoordinate": [],
            "TableIndexVertex": []
          }
        },
        {
          "Name": "leg_r",
          "Rectangle": {
            "x": 1914.0,
            "y": 614.0,
            "width": 130.0,
            "height": 180.0
          },
          "Pivot": {
            "x": 78.0,
            "y": 54.0
          },
          "Mesh": {
            "TableCoordinate": [],
            "TableIndexVertex": []
          }
        },
        {
          "Name": "magic_circle",
          "Rectangle": {
            "x": 306.0,
            "y": 29.0,
            "width": 246.0,
            "height": 253.0
          },
          "Pivot": {
            "x": 123.0,
            "y": 122.5
          },
          "Mesh": {
            "TableCoordinate": [],
            "TableIndexVertex": []
          }
        },
        {
          "Name": "sode_eff_r",
          "Rectangle": {
            "x": 1560.0,
            "y": 1896.0,
            "width": 324.0,
            "height": 128.0
          },
          "Pivot": {
            "x": 15.000001,
            "y": 31.0
          },
          "Mesh": {
            "TableCoordinate": [
              {
                "x": 24.0,
                "y": 83.0
              },
              {
                "x": 7.0,
                "y": 104.0
              },
              {
                "x": -2.0,
                "y": 77.0
              },
              {
                "x": 27.0,
                "y": 99.0
              },
              {
                "x": 27.0,
                "y": 113.0
              },
              {
                "x": 44.0,
                "y": 93.0
              },
              {
                "x": 48.0,
                "y": 121.0
              },
              {
                "x": 56.0,
                "y": 109.0
              },
              {
                "x": 56.0,
                "y": 121.0
              },
              {
                "x": 64.0,
                "y": 92.0
              },
              {
                "x": 74.0,
                "y": 121.0
              },
              {
                "x": 87.0,
                "y": 96.0
              },
              {
                "x": 75.0,
                "y": 79.0
              },
              {
                "x": 49.0,
                "y": 73.0
              },
              {
                "x": 29.0,
                "y": 55.0
              },
              {
                "x": 15.0,
                "y": 68.0
              },
              {
                "x": -2.0,
                "y": 54.0
              },
              {
                "x": 14.0,
                "y": 41.0
              },
              {
                "x": 5.0,
                "y": 31.0
              },
              {
                "x": 24.0,
                "y": 24.0
              },
              {
                "x": 40.0,
                "y": 38.0
              },
              {
                "x": 59.0,
                "y": 60.0
              },
              {
                "x": 89.0,
                "y": 69.0
              },
              {
                "x": 105.0,
                "y": 77.0
              },
              {
                "x": 111.0,
                "y": 99.0
              },
              {
                "x": 90.0,
                "y": 116.0
              },
              {
                "x": 101.0,
                "y": 128.0
              },
              {
                "x": 110.0,
                "y": 128.0
              },
              {
                "x": 126.0,
                "y": 118.0
              },
              {
                "x": 128.0,
                "y": 85.0
              },
              {
                "x": 143.0,
                "y": 93.0
              },
              {
                "x": 143.0,
                "y": 111.0
              },
              {
                "x": 169.0,
                "y": 106.0
              },
              {
                "x": 160.0,
                "y": 129.0
              },
              {
                "x": 181.0,
                "y": 119.0
              },
              {
                "x": 197.0,
                "y": 128.0
              },
              {
                "x": 187.0,
                "y": 102.0
              },
              {
                "x": 211.0,
                "y": 101.0
              },
              {
                "x": 214.0,
                "y": 119.0
              },
              {
                "x": 234.0,
                "y": 100.0
              },
              {
                "x": 234.0,
                "y": 129.0
              },
              {
                "x": 250.0,
                "y": 117.0
              },
              {
                "x": 272.0,
                "y": 119.0
              },
              {
                "x": 256.0,
                "y": 97.0
              },
              {
                "x": 246.0,
                "y": 104.0
              },
              {
                "x": 284.0,
                "y": 91.0
              },
              {
                "x": 298.0,
                "y": 104.0
              },
              {
                "x": 306.0,
                "y": 80.0
              },
              {
                "x": 314.0,
                "y": 89.0
              },
              {
                "x": 325.0,
                "y": 71.0
              },
              {
                "x": 320.0,
                "y": 62.0
              },
              {
                "x": 325.0,
                "y": 62.0
              },
              {
                "x": 162.0,
                "y": 89.0
              },
              {
                "x": 141.0,
                "y": 74.0
              },
              {
                "x": 117.0,
                "y": 63.0
              },
              {
                "x": 100.0,
                "y": 55.0
              },
              {
                "x": 74.0,
                "y": 46.0
              },
              {
                "x": 55.0,
                "y": 41.0
              },
              {
                "x": 43.0,
                "y": 17.0
              },
              {
                "x": 65.0,
                "y": 27.0
              },
              {
                "x": 94.0,
                "y": 33.0
              },
              {
                "x": 96.0,
                "y": 35.0
              },
              {
                "x": 118.0,
                "y": 34.0
              },
              {
                "x": 123.0,
                "y": 57.0
              },
              {
                "x": 131.0,
                "y": 40.0
              },
              {
                "x": 135.0,
                "y": 56.0
              },
              {
                "x": 83.0,
                "y": 16.0
              },
              {
                "x": 101.0,
                "y": 19.0
              },
              {
                "x": 101.0,
                "y": 28.0
              },
              {
                "x": 95.0,
                "y": 6.0
              },
              {
                "x": 83.0,
                "y": -2.0
              },
              {
                "x": 62.0,
                "y": 11.0
              },
              {
                "x": 64.0,
                "y": -2.0
              },
              {
                "x": 28.0,
                "y": 4.0
              },
              {
                "x": 166.0,
                "y": 70.0
              },
              {
                "x": 142.0,
                "y": 126.0
              }
            ],
            "TableIndexVertex": [
              0,
              1,
              2,
              1,
              0,
              3,
              1,
              3,
              4,
              4,
              3,
              5,
              6,
              4,
              5,
              7,
              6,
              5,
              6,
              7,
              8,
              7,
              5,
              9,
              10,
              7,
              9,
              9,
              11,
              10,
              9,
              12,
              11,
              9,
              13,
              12,
              5,
              13,
              9,
              5,
              0,
              13,
              3,
              0,
              5,
              0,
              14,
              13,
              0,
              15,
              14,
              0,
              2,
              15,
              2,
              16,
              15,
              16,
              17,
              15,
              16,
              18,
              17,
              17,
              18,
              19,
              17,
              19,
              20,
              14,
              17,
              20,
              15,
              17,
              14,
              14,
              20,
              21,
              13,
              14,
              21,
              13,
              21,
              12,
              12,
              21,
              22,
              11,
              12,
              22,
              11,
              22,
              23,
              11,
              23,
              24,
              25,
              11,
              24,
              11,
              25,
              10,
              26,
              25,
              24,
              24,
              27,
              26,
              28,
              27,
              24,
              28,
              24,
              29,
              28,
              29,
              30,
              30,
              31,
              28,
              32,
              31,
              30,
              32,
              33,
              31,
              33,
              32,
              34,
              33,
              34,
              35,
              35,
              34,
              36,
              35,
              36,
              37,
              37,
              38,
              35,
              38,
              37,
              39,
              39,
              40,
              38,
              41,
              40,
              39,
              40,
              41,
              42,
              41,
              43,
              42,
              41,
              44,
              43,
              41,
              39,
              44,
              42,
              43,
              45,
              42,
              45,
              46,
              46,
              45,
              47,
              46,
              47,
              48,
              48,
              47,
              49,
              47,
              50,
              49,
              47,
              45,
              50,
              50,
              51,
              49,
              35,
              38,
              40,
              34,
              32,
              36,
              32,
              52,
              36,
              32,
              30,
              52,
              30,
              53,
              52,
              29,
              53,
              30,
              29,
              54,
              53,
              23,
              54,
              29,
              23,
              55,
              54,
              22,
              55,
              23,
              22,
              56,
              55,
              21,
              56,
              22,
              21,
              57,
              56,
              20,
              57,
              21,
              57,
              20,
              58,
              59,
              57,
              58,
              57,
              59,
              56,
              60,
              56,
              59,
              56,
              60,
              61,
              55,
              56,
              61,
              55,
              61,
              62,
              63,
              55,
              62,
              54,
              55,
              63,
              63,
              62,
              64,
              64,
              65,
              63,
              60,
              59,
              66,
              60,
              66,
              67,
              68,
              60,
              67,
              66,
              69,
              67,
              66,
              70,
              69,
              71,
              70,
              66,
              71,
              72,
              70,
              71,
              58,
              72,
              58,
              71,
              59,
              59,
              71,
              66,
              72,
              58,
              73,
              19,
              73,
              58,
              19,
              18,
              73,
              20,
              19,
              58,
              24,
              23,
              29,
              52,
              53,
              74,
              33,
              75,
              31,
              75,
              28,
              31
            ]
          }
        },
        {
          "Name": "sode_eff_l",
          "Rectangle": {
            "x": 1843.0,
            "y": 1789.0,
            "width": 202.0,
            "height": 129.0
          },
          "Pivot": {
            "x": 182.0,
            "y": 97.0
          },
          "Mesh": {
            "TableCoordinate": [],
            "TableIndexVertex": []
          }
        },
        {
          "Name": "thigh_l",
          "Rectangle": {
            "x": 884.0,
            "y": 944.0,
            "width": 130.0,
            "height": 180.0
          },
          "Pivot": {
            "x": 61.99999,
            "y": 68.00004
          },
          "Mesh": {
            "TableCoordinate": [],
            "TableIndexVertex": []
          }
        },
        {
          "Name": "thigh_r",
          "Rectangle": {
            "x": 864.0,
            "y": 1124.0,
            "width": 130.0,
            "height": 180.0
          },
          "Pivot": {
            "x": 61.00003,
            "y": 68.00004
          },
          "Mesh": {
            "TableCoordinate": [],
            "TableIndexVertex": []
          }
        },
        {
          "Name": "weapon_eff",
          "Rectangle": {
            "x": 590.0,
            "y": 15.0,
            "width": 390.0,
            "height": 322.0
          },
          "Pivot": {
            "x": 129.0,
            "y": 216.0
          },
          "Mesh": {
            "TableCoordinate": [],
            "TableIndexVertex": []
          }
        },
        {
          "Name": "weapon_l",
          "Rectangle": {
            "x": 1544.0,
            "y": 1384.0,
            "width": 250.0,
            "height": 400.0
          },
          "Pivot": {
            "x": 126.0,
            "y": 248.0
          },
          "Mesh": {
            "TableCoordinate": [],
            "TableIndexVertex": []
          }
        },
        {
          "Name": "weapon_r",
          "Rectangle": {
            "x": 1794.0,
            "y": 1384.0,
            "width": 250.0,
            "height": 400.0
          },
          "Pivot": {
            "x": 127.0,
            "y": 249.0
          },
          "Mesh": {
            "TableCoordinate": [],
            "TableIndexVertex": []
          }
        },
        {
          "Name": "weapon_r_1",
          "Rectangle": {
            "x": 1794.0,
            "y": 1384.0,
            "width": 250.0,
            "height": 400.0
          },
          "Pivot": {
            "x": 127.0,
            "y": 249.0
          },
          "Mesh": {
            "TableCoordinate": [],
            "TableIndexVertex": []
          }
        }
      ]
    }
  ]
}