{
  "m_GameObject": {
    "m_FileID": 0,
    "m_PathID": 0
  },
  "m_Enabled": 1,
  "m_Script": {
    "m_FileID": 0,
    "m_PathID": 8527011069456626154
  },
  "m_Name": "adv_100302_path",
  "advPathList": [
    {
      "assetName": "",
      "assetPath": "texture/character/stand/1040100_stand",
      "resourcePath": "Texture/Character/1040100_stand.asset"
    },
    {
      "assetName": "",
      "assetPath": "texture/character/stand/1030800_stand",
      "resourcePath": "Texture/Character/1030800_stand.asset"
    },
    {
      "assetName": "",
      "assetPath": "texture/character/stand/1040200_stand",
      "resourcePath": "Texture/Character/1040200_stand.asset"
    },
    {
      "assetName": "",
      "assetPath": "texture/character/stand/1150200_stand",
      "resourcePath": "Texture/Character/1150200_stand.asset"
    },
    {
      "assetName": "",
      "assetPath": "texture/character/stand/1150100_stand",
      "resourcePath": "Texture/Character/1150100_stand.asset"
    },
    {
      "assetName": "",
      "assetPath": "sound/bgm/adventure/bgm_adv_general",
      "resourcePath": "Sound/BGM/bgm_adv_general.wav"
    },
    {
      "assetName": "",
      "assetPath": "sound/bgm/adventure/bgm_suspiction",
      "resourcePath": "Sound/BGM/bgm_suspiction.wav"
    },
    {
      "assetName": "",
      "assetPath": "texture/background/bg_022_ll",
      "resourcePath": "Texture/BG/bg_022_LL.png"
    },
    {
      "assetName": "",
      "assetPath": "texture/background/bg_004_ll",
      "resourcePath": "Texture/BG/bg_004_LL.png"
    },
    {
      "assetName": "",
      "assetPath": "texture/background/bg_012_ll",
      "resourcePath": "Texture/BG/bg_012_LL.png"
    },
    {
      "assetName": "",
      "assetPath": "data/adventure/main/story1003/adv_100302.scenarios",
      "resourcePath": "adv_100302.scenarios.asset"
    }
  ]
}