{
  "m_GameObject": {
    "m_FileID": 0,
    "m_PathID": 0
  },
  "m_Enabled": 1,
  "m_Script": {
    "m_FileID": 0,
    "m_PathID": -2195584510539435343
  },
  "m_Name": "adv_201306.book",
  "importVersion": 0,
  "importGridList": [
    {
      "rows": [
        {
          "rowIndex": 0,
          "strings": [
            "Command",
            "Arg1",
            "Arg2",
            "Arg3",
            "Arg4",
            "Arg5",
            "Arg6",
            "WaitType",
            "Text",
            "PageCtrl",
            "Voice",
            "WindowType"
          ],
          "isEmpty": 0,
          "isCommentOut": 0
        },
        {
          "rowIndex": 1,
          "strings": [
            "FadeOut",
            "black",
            "",
            "",
            "",
            "",
            "0",
            "",
            "",
            "",
            "",
            ""
          ],
          "isEmpty": 0,
          "isCommentOut": 0
        },
        {
          "rowIndex": 2,
          "strings": [
            "Bg",
            "背景(ラステイションの街)",
            "",
            "",
            "",
            "",
            "",
            "",
            "",
            "",
            "",
            ""
          ],
          "isEmpty": 0,
          "isCommentOut": 0
        },
        {
          "rowIndex": 3,
          "strings": [
            "Wait",
            "",
            "",
            "",
            "",
            "",
            ".3",
            "",
            "",
            "",
            "",
            ""
          ],
          "isEmpty": 0,
          "isCommentOut": 0
        },
        {
          "rowIndex": 4,
          "strings": [
            "FadeIn",
            "black",
            "",
            "",
            "",
            "",
            "1",
            "",
            "",
            "",
            "",
            ""
          ],
          "isEmpty": 0,
          "isCommentOut": 0
        },
        {
          "rowIndex": 5,
          "strings": [
            "Bgm",
            "ADV通常",
            "",
            "",
            "",
            "",
            "",
            "",
            "",
            "",
            "",
            ""
          ],
          "isEmpty": 0,
          "isCommentOut": 0
        },
        {
          "rowIndex": 6,
          "strings": [
            "",
            "ティアラ新春",
            "笑い",
            "",
            "",
            "",
            "",
            "",
            "",
            "",
            "",
            ""
          ],
          "isEmpty": 0,
          "isCommentOut": 0
        },
        {
          "rowIndex": 7,
          "strings": [
            "Wait",
            "",
            "",
            "",
            "",
            "",
            ".5",
            "",
            "",
            "",
            "",
            ""
          ],
          "isEmpty": 0,
          "isCommentOut": 0
        },
        {
          "rowIndex": 8,
          "strings": [
            "Tween",
            "ティアラ新春",
            "ScaleTo",
            "time=0.2 x=1.2 y=1.2",
            "",
            "",
            "",
            "Add",
            "",
            "",
            "",
            ""
          ],
          "isEmpty": 0,
          "isCommentOut": 0
        },
        {
          "rowIndex": 9,
          "strings": [
            "Tween",
            "ティアラ新春",
            "MoveAdd",
            "x=50 y=-50 time=.2",
            "",
            "",
            "",
            "Add",
            "",
            "",
            "",
            ""
          ],
          "isEmpty": 0,
          "isCommentOut": 0
        },
        {
          "rowIndex": 10,
          "strings": [
            "Se",
            "ドアノック音",
            "",
            "",
            "",
            "",
            "",
            "Add",
            "",
            "",
            "",
            ""
          ],
          "isEmpty": 0,
          "isCommentOut": 0
        },
        {
          "rowIndex": 11,
          "strings": [
            "StopSe",
            "",
            "",
            "",
            "",
            "",
            "",
            "Add",
            "",
            "",
            "",
            ""
          ],
          "isEmpty": 0,
          "isCommentOut": 0
        },
        {
          "rowIndex": 12,
          "strings": [
            "",
            "ティアラ新春",
            "",
            "",
            "",
            "",
            "",
            "",
            "はいっ",
            "",
            "",
            ""
          ],
          "isEmpty": 0,
          "isCommentOut": 0
        },
        {
          "rowIndex": 13,
          "strings": [
            "Se",
            "ドアノック音",
            "",
            "",
            "",
            "",
            "",
            "Add",
            "",
            "",
            "",
            ""
          ],
          "isEmpty": 0,
          "isCommentOut": 0
        },
        {
          "rowIndex": 14,
          "strings": [
            "StopSe",
            "",
            "",
            "",
            "",
            "",
            "",
            "Add",
            "",
            "",
            "",
            ""
          ],
          "isEmpty": 0,
          "isCommentOut": 0
        },
        {
          "rowIndex": 15,
          "strings": [
            "",
            "ノワール",
            "",
            "",
            "",
            "",
            "",
            "",
            "えいっ",
            "",
            "",
            ""
          ],
          "isEmpty": 0,
          "isCommentOut": 0
        },
        {
          "rowIndex": 16,
          "strings": [
            "",
            "ティアラ新春",
            "真剣",
            "",
            "",
            "",
            "",
            "",
            "",
            "",
            "",
            ""
          ],
          "isEmpty": 0,
          "isCommentOut": 0
        },
        {
          "rowIndex": 17,
          "strings": [
            "Wait",
            "",
            "",
            "",
            "",
            "",
            ".5",
            "",
            "",
            "",
            "",
            ""
          ],
          "isEmpty": 0,
          "isCommentOut": 0
        },
        {
          "rowIndex": 18,
          "strings": [
            "Tween",
            "ティアラ新春",
            "ScaleTo",
            "time=0.2 x=1.1 y=1.1",
            "",
            "",
            "",
            "Add",
            "",
            "",
            "",
            ""
          ],
          "isEmpty": 0,
          "isCommentOut": 0
        },
        {
          "rowIndex": 19,
          "strings": [
            "Tween",
            "ティアラ新春",
            "MoveAdd",
            "x=-40 y=-50 time=.2",
            "",
            "",
            "",
            "Add",
            "",
            "",
            "",
            ""
          ],
          "isEmpty": 0,
          "isCommentOut": 0
        },
        {
          "rowIndex": 20,
          "strings": [
            "Se",
            "ドアノック音",
            "",
            "",
            "",
            "",
            "",
            "Add",
            "",
            "",
            "",
            ""
          ],
          "isEmpty": 0,
          "isCommentOut": 0
        },
        {
          "rowIndex": 21,
          "strings": [
            "StopSe",
            "",
            "",
            "",
            "",
            "",
            "",
            "Add",
            "",
            "",
            "",
            ""
          ],
          "isEmpty": 0,
          "isCommentOut": 0
        },
        {
          "rowIndex": 22,
          "strings": [
            "",
            "ティアラ新春",
            "真剣",
            "",
            "",
            "",
            "",
            "",
            "これでどうですの！",
            "",
            "",
            ""
          ],
          "isEmpty": 0,
          "isCommentOut": 0
        },
        {
          "rowIndex": 23,
          "strings": [
            "Se",
            "ドアノック音",
            "",
            "",
            "",
            "",
            "",
            "Add",
            "",
            "",
            "",
            ""
          ],
          "isEmpty": 0,
          "isCommentOut": 0
        },
        {
          "rowIndex": 24,
          "strings": [
            "StopSe",
            "",
            "",
            "",
            "",
            "",
            "",
            "Add",
            "",
            "",
            "",
            ""
          ],
          "isEmpty": 0,
          "isCommentOut": 0
        },
        {
          "rowIndex": 25,
          "strings": [
            "",
            "ノワール",
            "",
            "",
            "",
            "",
            "",
            "",
            "よっと",
            "",
            "",
            ""
          ],
          "isEmpty": 0,
          "isCommentOut": 0
        },
        {
          "rowIndex": 26,
          "strings": [
            "",
            "ティアラ新春",
            "真剣",
            "",
            "",
            "",
            "",
            "",
            "",
            "",
            "",
            ""
          ],
          "isEmpty": 0,
          "isCommentOut": 0
        },
        {
          "rowIndex": 27,
          "strings": [
            "Wait",
            "",
            "",
            "",
            "",
            "",
            ".5",
            "",
            "",
            "",
            "",
            ""
          ],
          "isEmpty": 0,
          "isCommentOut": 0
        },
        {
          "rowIndex": 28,
          "strings": [
            "Tween",
            "ティアラ新春",
            "ScaleTo",
            "time=0.2 x=1.3 y=1.3",
            "",
            "",
            "",
            "Add",
            "",
            "",
            "",
            ""
          ],
          "isEmpty": 0,
          "isCommentOut": 0
        },
        {
          "rowIndex": 29,
          "strings": [
            "Tween",
            "ティアラ新春",
            "MoveAdd",
            "x=10 y=-50 time=.2",
            "",
            "",
            "",
            "Add",
            "",
            "",
            "",
            ""
          ],
          "isEmpty": 0,
          "isCommentOut": 0
        },
        {
          "rowIndex": 30,
          "strings": [
            "Se",
            "ドアノック音",
            "",
            "",
            "",
            "",
            "",
            "Add",
            "",
            "",
            "",
            ""
          ],
          "isEmpty": 0,
          "isCommentOut": 0
        },
        {
          "rowIndex": 31,
          "strings": [
            "StopSe",
            "",
            "",
            "",
            "",
            "",
            "",
            "Add",
            "",
            "",
            "",
            ""
          ],
          "isEmpty": 0,
          "isCommentOut": 0
        },
        {
          "rowIndex": 32,
          "strings": [
            "",
            "ティアラ新春",
            "笑い",
            "",
            "",
            "",
            ".2",
            "",
            "なかなかやりますわね！",
            "",
            "",
            ""
          ],
          "isEmpty": 0,
          "isCommentOut": 0
        },
        {
          "rowIndex": 33,
          "strings": [
            "",
            "クロワール",
            "",
            "",
            "",
            "",
            "",
            "",
            "羽根つき、白熱してんなー",
            "Input",
            "",
            ""
          ],
          "isEmpty": 0,
          "isCommentOut": 0
        },
        {
          "rowIndex": 34,
          "strings": [
            "Selection",
            "*201306-01",
            "",
            "",
            "",
            "0",
            "300",
            "",
            "「おもに一人だけね……」",
            "",
            "",
            ""
          ],
          "isEmpty": 0,
          "isCommentOut": 0
        },
        {
          "rowIndex": 35,
          "strings": [
            "*201306-01",
            "",
            "",
            "",
            "",
            "",
            "",
            "",
            "",
            "",
            "",
            ""
          ],
          "isEmpty": 0,
          "isCommentOut": 0
        },
        {
          "rowIndex": 36,
          "strings": [
            "",
            "ユニ",
            "通常",
            "",
            "",
            "",
            "",
            "",
            "",
            "",
            "",
            ""
          ],
          "isEmpty": 0,
          "isCommentOut": 0
        },
        {
          "rowIndex": 37,
          "strings": [
            "Tween",
            "ユニ",
            "MoveTo",
            "x=0 y=-20 islocal=true time=0.2",
            "easeOutCirc",
            "pingPong=2",
            "",
            "Add",
            "",
            "",
            "",
            ""
          ],
          "isEmpty": 0,
          "isCommentOut": 0
        },
        {
          "rowIndex": 38,
          "strings": [
            "",
            "ユニ",
            "悲しみ",
            "",
            "",
            "",
            ".2",
            "",
            "はあ……",
            "",
            "",
            ""
          ],
          "isEmpty": 0,
          "isCommentOut": 0
        },
        {
          "rowIndex": 39,
          "strings": [
            "",
            "天王星うずめ",
            "通常",
            "",
            "",
            "",
            "",
            "",
            "こっちはずいぶん憂鬱そうだな",
            "",
            "",
            ""
          ],
          "isEmpty": 0,
          "isCommentOut": 0
        },
        {
          "rowIndex": 40,
          "strings": [
            "",
            "ユニ",
            "悲しみ",
            "",
            "",
            "",
            "",
            "",
            "別にー",
            "",
            "",
            ""
          ],
          "isEmpty": 0,
          "isCommentOut": 0
        },
        {
          "rowIndex": 41,
          "strings": [
            "",
            "クロワール",
            "通常",
            "",
            "",
            "",
            "",
            "",
            "姉がかまってくれなくて寂しいんだろ",
            "",
            "",
            ""
          ],
          "isEmpty": 0,
          "isCommentOut": 0
        },
        {
          "rowIndex": 42,
          "strings": [
            "",
            "ユニ",
            "悲しみ",
            "",
            "",
            "",
            "",
            "",
            "",
            "",
            "",
            ""
          ],
          "isEmpty": 0,
          "isCommentOut": 0
        },
        {
          "rowIndex": 43,
          "strings": [
            "Tween",
            "ユニ",
            "ShakePosition",
            "x=10 islocal=true time=.3",
            "",
            "",
            "",
            "Add",
            "",
            "",
            "",
            ""
          ],
          "isEmpty": 0,
          "isCommentOut": 0
        },
        {
          "rowIndex": 44,
          "strings": [
            "",
            "ユニ",
            "固有",
            "",
            "",
            "",
            ".2",
            "",
            "ち、違うもん！\nぜんぜんそんなんじゃないんだから！",
            "",
            "",
            ""
          ],
          "isEmpty": 0,
          "isCommentOut": 0
        },
        {
          "rowIndex": 45,
          "strings": [
            "",
            "大人ネプテューヌ",
            "悲しみ",
            "",
            "",
            "",
            "",
            "",
            "ノワールがティアラにとられちゃってるもんねー。",
            "Br",
            "",
            ""
          ],
          "isEmpty": 0,
          "isCommentOut": 0
        },
        {
          "rowIndex": 46,
          "strings": [
            "Wait",
            "",
            "",
            "",
            "",
            "",
            ".3",
            "",
            "",
            "",
            "",
            ""
          ],
          "isEmpty": 0,
          "isCommentOut": 0
        },
        {
          "rowIndex": 47,
          "strings": [
            "",
            "大人ネプテューヌ",
            "通常",
            "",
            "",
            "",
            ".2",
            "",
            "一緒に羽根つきしたかったんだ",
            "",
            "",
            ""
          ],
          "isEmpty": 0,
          "isCommentOut": 0
        },
        {
          "rowIndex": 48,
          "strings": [
            "",
            "ユニ",
            "固有",
            "",
            "",
            "",
            "",
            "",
            "",
            "",
            "",
            ""
          ],
          "isEmpty": 0,
          "isCommentOut": 0
        },
        {
          "rowIndex": 49,
          "strings": [
            "Tween",
            "ユニ",
            "MoveTo",
            "x=0 y=40 islocal=true time=.1",
            "easeOutCirc",
            "pingPong=2",
            "",
            "Add",
            "",
            "",
            "",
            ""
          ],
          "isEmpty": 0,
          "isCommentOut": 0
        },
        {
          "rowIndex": 50,
          "strings": [
            "",
            "ユニ",
            "真剣",
            "",
            "",
            "",
            ".2",
            "",
            "だから違うってば！",
            "",
            "",
            ""
          ],
          "isEmpty": 0,
          "isCommentOut": 0
        },
        {
          "rowIndex": 51,
          "strings": [
            "",
            "ティアラ新春",
            "笑い",
            "",
            "",
            "",
            "",
            "",
            "",
            "",
            "",
            ""
          ],
          "isEmpty": 0,
          "isCommentOut": 0
        },
        {
          "rowIndex": 52,
          "strings": [
            "Wait",
            "",
            "",
            "",
            "",
            "",
            ".5",
            "",
            "",
            "",
            "",
            ""
          ],
          "isEmpty": 0,
          "isCommentOut": 0
        },
        {
          "rowIndex": 53,
          "strings": [
            "Tween",
            "ティアラ新春",
            "ScaleTo",
            "time=0.2 x=1.3 y=1.3",
            "",
            "",
            "",
            "Add",
            "",
            "",
            "",
            ""
          ],
          "isEmpty": 0,
          "isCommentOut": 0
        },
        {
          "rowIndex": 54,
          "strings": [
            "Tween",
            "ティアラ新春",
            "MoveAdd",
            "x=10 y=-50 time=.2",
            "",
            "",
            "",
            "Add",
            "",
            "",
            "",
            ""
          ],
          "isEmpty": 0,
          "isCommentOut": 0
        },
        {
          "rowIndex": 55,
          "strings": [
            "Se",
            "ドアノック音",
            "",
            "",
            "",
            "",
            "",
            "Add",
            "",
            "",
            "",
            ""
          ],
          "isEmpty": 0,
          "isCommentOut": 0
        },
        {
          "rowIndex": 56,
          "strings": [
            "StopSe",
            "",
            "",
            "",
            "",
            "",
            "",
            "Add",
            "",
            "",
            "",
            ""
          ],
          "isEmpty": 0,
          "isCommentOut": 0
        },
        {
          "rowIndex": 57,
          "strings": [
            "",
            "ティアラ新春",
            "",
            "",
            "",
            "",
            "",
            "",
            "今度こそ……ですわ！",
            "",
            "",
            ""
          ],
          "isEmpty": 0,
          "isCommentOut": 0
        },
        {
          "rowIndex": 58,
          "strings": [
            "Se",
            "ドアノック音",
            "",
            "",
            "",
            "",
            "",
            "Add",
            "",
            "",
            "",
            ""
          ],
          "isEmpty": 0,
          "isCommentOut": 0
        },
        {
          "rowIndex": 59,
          "strings": [
            "StopSe",
            "",
            "",
            "",
            "",
            "",
            "",
            "Add",
            "",
            "",
            "",
            ""
          ],
          "isEmpty": 0,
          "isCommentOut": 0
        },
        {
          "rowIndex": 60,
          "strings": [
            "",
            "ノワール",
            "目閉じ",
            "",
            "",
            "",
            "",
            "",
            "はいはいっと",
            "",
            "",
            ""
          ],
          "isEmpty": 0,
          "isCommentOut": 0
        },
        {
          "rowIndex": 61,
          "strings": [
            "CharacterOff",
            "",
            "",
            "",
            "",
            "",
            "",
            "",
            "",
            "",
            "",
            ""
          ],
          "isEmpty": 0,
          "isCommentOut": 0
        },
        {
          "rowIndex": 62,
          "strings": [
            "",
            "ティアラ新春",
            "笑い",
            "キャラ左",
            "",
            "",
            "",
            "",
            "",
            "",
            "",
            ""
          ],
          "isEmpty": 0,
          "isCommentOut": 0
        },
        {
          "rowIndex": 63,
          "strings": [
            "",
            "ノワール",
            "目閉じ",
            "キャラ右",
            "",
            "",
            "",
            "",
            "",
            "",
            "",
            ""
          ],
          "isEmpty": 0,
          "isCommentOut": 0
        },
        {
          "rowIndex": 64,
          "strings": [
            "",
            "ティアラ新春",
            "真剣",
            "",
            "",
            "",
            ".2",
            "",
            "ちょっと、やる気が感じられませんわよ！",
            "",
            "",
            ""
          ],
          "isEmpty": 0,
          "isCommentOut": 0
        },
        {
          "rowIndex": 65,
          "strings": [
            "",
            "ノワール",
            "通常",
            "",
            "",
            "",
            ".2",
            "",
            "そんなこと言われたって、\nこっちはまだ仕事が残ってるのよ",
            "",
            "",
            ""
          ],
          "isEmpty": 0,
          "isCommentOut": 0
        },
        {
          "rowIndex": 66,
          "strings": [
            "CharacterOff",
            "",
            "",
            "",
            "",
            "",
            "",
            "",
            "",
            "",
            "",
            ""
          ],
          "isEmpty": 0,
          "isCommentOut": 0
        },
        {
          "rowIndex": 67,
          "strings": [
            "",
            "クロワール",
            "通常",
            "",
            "",
            "",
            "",
            "",
            "だったら、負けた方にペナルティをつけるのはどうだ？",
            "",
            "",
            ""
          ],
          "isEmpty": 0,
          "isCommentOut": 0
        },
        {
          "rowIndex": 68,
          "strings": [
            "",
            "ティアラ新春",
            "通常",
            "",
            "",
            "",
            "",
            "",
            "ペナルティというのは？",
            "",
            "",
            ""
          ],
          "isEmpty": 0,
          "isCommentOut": 0
        },
        {
          "rowIndex": 69,
          "strings": [
            "",
            "クロワール",
            "通常",
            "",
            "",
            "",
            "",
            "",
            "勝った方が負けた方の顔に墨で落書きできる。",
            "Br",
            "",
            ""
          ],
          "isEmpty": 0,
          "isCommentOut": 0
        },
        {
          "rowIndex": 70,
          "strings": [
            "Wait",
            "",
            "",
            "",
            "",
            "",
            ".3",
            "",
            "",
            "",
            "",
            ""
          ],
          "isEmpty": 0,
          "isCommentOut": 0
        },
        {
          "rowIndex": 71,
          "strings": [
            "",
            "クロワール",
            "笑い",
            "",
            "",
            "",
            ".2",
            "",
            "羽根つきはもともとそういう遊びだぜ",
            "",
            "",
            ""
          ],
          "isEmpty": 0,
          "isCommentOut": 0
        },
        {
          "rowIndex": 72,
          "strings": [
            "CharacterOff",
            "",
            "",
            "",
            "",
            "",
            "",
            "",
            "",
            "",
            "",
            ""
          ],
          "isEmpty": 0,
          "isCommentOut": 0
        },
        {
          "rowIndex": 73,
          "strings": [
            "",
            "ティアラ新春",
            "真剣",
            "キャラ左",
            "",
            "",
            "",
            "",
            "",
            "",
            "",
            ""
          ],
          "isEmpty": 0,
          "isCommentOut": 0
        },
        {
          "rowIndex": 74,
          "strings": [
            "",
            "ノワール",
            "通常",
            "キャラ右",
            "",
            "",
            "",
            "",
            "",
            "",
            "",
            ""
          ],
          "isEmpty": 0,
          "isCommentOut": 0
        },
        {
          "rowIndex": 75,
          "strings": [
            "Tween",
            "ティアラ新春",
            "MoveTo",
            "x=0 y=40 islocal=true time=.1",
            "easeOutCirc",
            "pingPong=2",
            "",
            "Add",
            "",
            "",
            "",
            ""
          ],
          "isEmpty": 0,
          "isCommentOut": 0
        },
        {
          "rowIndex": 76,
          "strings": [
            "",
            "ティアラ新春",
            "笑い",
            "",
            "",
            "",
            ".2",
            "",
            "まあ！　それは素晴らしい提案ですわ！",
            "",
            "",
            ""
          ],
          "isEmpty": 0,
          "isCommentOut": 0
        },
        {
          "rowIndex": 77,
          "strings": [
            "",
            "ノワール",
            "悲しみ",
            "",
            "",
            "",
            ".2",
            "",
            "え、ちょっと私は……",
            "",
            "",
            ""
          ],
          "isEmpty": 0,
          "isCommentOut": 0
        },
        {
          "rowIndex": 78,
          "strings": [
            "",
            "ティアラ新春",
            "真剣",
            "",
            "",
            "",
            ".2",
            "",
            "勝負ですわ、ノワールさん！",
            "",
            "",
            ""
          ],
          "isEmpty": 0,
          "isCommentOut": 0
        },
        {
          "rowIndex": 79,
          "strings": [
            "",
            "ノワール",
            "真剣",
            "",
            "",
            "",
            ".2",
            "",
            "だから、私は忙しいんだってば",
            "",
            "",
            ""
          ],
          "isEmpty": 0,
          "isCommentOut": 0
        },
        {
          "rowIndex": 80,
          "strings": [
            "Tween",
            "ティアラ新春",
            "MoveTo",
            "x=50 y=0 islocal=true time=0.5",
            "easeOutCirc",
            "",
            "",
            "Add",
            "",
            "",
            "",
            ""
          ],
          "isEmpty": 0,
          "isCommentOut": 0
        },
        {
          "rowIndex": 81,
          "strings": [
            "",
            "ティアラ新春",
            "強気笑み",
            "",
            "",
            "",
            ".2",
            "",
            "あら？　怖じ気づきましたの？",
            "Br",
            "",
            ""
          ],
          "isEmpty": 0,
          "isCommentOut": 0
        },
        {
          "rowIndex": 82,
          "strings": [
            "Wait",
            "",
            "",
            "",
            "",
            "",
            ".3",
            "",
            "",
            "",
            "",
            ""
          ],
          "isEmpty": 0,
          "isCommentOut": 0
        },
        {
          "rowIndex": 83,
          "strings": [
            "",
            "ティアラ新春",
            "通常",
            "",
            "",
            "",
            ".2",
            "",
            "では、不戦敗ということですわね",
            "",
            "",
            ""
          ],
          "isEmpty": 0,
          "isCommentOut": 0
        },
        {
          "rowIndex": 84,
          "strings": [
            "",
            "ティアラ新春",
            "強気笑み",
            "",
            "",
            "",
            ".2",
            "",
            "守護女神であるノワールさんがペナルティを恐れて\n勝負を逃げたとラステイション中に宣伝しますわよ",
            "",
            "",
            ""
          ],
          "isEmpty": 0,
          "isCommentOut": 0
        },
        {
          "rowIndex": 85,
          "strings": [
            "",
            "ノワール",
            "悲しみ",
            "",
            "",
            "",
            ".2",
            "",
            "な、なんてせこい……",
            "",
            "",
            ""
          ],
          "isEmpty": 0,
          "isCommentOut": 0
        },
        {
          "rowIndex": 86,
          "strings": [
            "",
            "ノワール",
            "真剣",
            "",
            "",
            "",
            ".2",
            "",
            "いいわ、やってあげるわよ。\nまあ、どうせ私には勝てないだろうけど",
            "",
            "",
            ""
          ],
          "isEmpty": 0,
          "isCommentOut": 0
        },
        {
          "rowIndex": 87,
          "strings": [
            "",
            "ティアラ新春",
            "笑い",
            "",
            "",
            "",
            ".2",
            "",
            "ではさっそく開始ですわ。",
            "Next",
            "",
            ""
          ],
          "isEmpty": 0,
          "isCommentOut": 0
        },
        {
          "rowIndex": 88,
          "strings": [
            "Wait",
            "",
            "",
            "",
            "",
            "",
            ".5",
            "",
            "",
            "",
            "",
            ""
          ],
          "isEmpty": 0,
          "isCommentOut": 0
        },
        {
          "rowIndex": 89,
          "strings": [
            "CharacterOff",
            "",
            "",
            "",
            "",
            "",
            "",
            "",
            "",
            "",
            "",
            ""
          ],
          "isEmpty": 0,
          "isCommentOut": 0
        },
        {
          "rowIndex": 90,
          "strings": [
            "",
            "ティアラ新春",
            "真剣",
            "キャラ中央",
            "",
            "",
            ".2",
            "Add",
            "",
            "",
            "",
            ""
          ],
          "isEmpty": 0,
          "isCommentOut": 0
        },
        {
          "rowIndex": 91,
          "strings": [
            "Tween",
            "ティアラ新春",
            "ScaleTo",
            "time=0 x=1.5 y=1.5",
            "",
            "",
            "",
            "Add",
            "",
            "",
            "",
            ""
          ],
          "isEmpty": 0,
          "isCommentOut": 0
        },
        {
          "rowIndex": 92,
          "strings": [
            "Tween",
            "ティアラ新春",
            "MoveAdd",
            "x=0 y=-150 time=0",
            "",
            "",
            "",
            "Add",
            "",
            "",
            "",
            ""
          ],
          "isEmpty": 0,
          "isCommentOut": 0
        },
        {
          "rowIndex": 93,
          "strings": [
            "Tween",
            "BG",
            "ScaleTo",
            "time=0 x=1.5 y=1.5",
            "",
            "",
            "",
            "Add",
            "",
            "",
            "",
            ""
          ],
          "isEmpty": 0,
          "isCommentOut": 0
        },
        {
          "rowIndex": 94,
          "strings": [
            "Tween",
            "BG",
            "MoveAdd",
            "x=0 y=-50 time=0",
            "",
            "",
            "",
            "Add",
            "",
            "",
            "",
            ""
          ],
          "isEmpty": 0,
          "isCommentOut": 0
        },
        {
          "rowIndex": 95,
          "strings": [
            "Particle",
            "集中線",
            "",
            "",
            "",
            "",
            "",
            "Add",
            "",
            "",
            "",
            ""
          ],
          "isEmpty": 0,
          "isCommentOut": 0
        },
        {
          "rowIndex": 96,
          "strings": [
            "Se",
            "ドアノック音",
            "",
            "",
            "",
            "",
            "",
            "Add",
            "",
            "",
            "",
            ""
          ],
          "isEmpty": 0,
          "isCommentOut": 0
        },
        {
          "rowIndex": 97,
          "strings": [
            "StopSe",
            "",
            "",
            "",
            "",
            "",
            "",
            "Add",
            "",
            "",
            "",
            ""
          ],
          "isEmpty": 0,
          "isCommentOut": 0
        },
        {
          "rowIndex": 98,
          "strings": [
            "",
            "ティアラ新春",
            "",
            "",
            "",
            "",
            "",
            "",
            "とりゃああっ！",
            "",
            "",
            ""
          ],
          "isEmpty": 0,
          "isCommentOut": 0
        },
        {
          "rowIndex": 99,
          "strings": [
            "ParticleOff",
            "",
            "",
            "",
            "",
            "",
            "",
            "Add",
            "",
            "",
            "",
            ""
          ],
          "isEmpty": 0,
          "isCommentOut": 0
        },
        {
          "rowIndex": 100,
          "strings": [
            "Tween",
            "BG",
            "ScaleTo",
            "time=0 x=1 y=1",
            "",
            "",
            "",
            "Add",
            "",
            "",
            "",
            ""
          ],
          "isEmpty": 0,
          "isCommentOut": 0
        },
        {
          "rowIndex": 101,
          "strings": [
            "Tween",
            "BG",
            "MoveAdd",
            "x=0 y=50 time=0",
            "",
            "",
            "",
            "",
            "",
            "",
            "",
            ""
          ],
          "isEmpty": 0,
          "isCommentOut": 0
        },
        {
          "rowIndex": 102,
          "strings": [
            "",
            "ノワール",
            "真剣",
            "",
            "",
            "",
            "",
            "",
            "",
            "",
            "",
            ""
          ],
          "isEmpty": 0,
          "isCommentOut": 0
        },
        {
          "rowIndex": 103,
          "strings": [
            "Tween",
            "ノワール",
            "ShakePosition",
            "x=10 islocal=true time=.3",
            "",
            "",
            "",
            "Add",
            "",
            "",
            "",
            ""
          ],
          "isEmpty": 0,
          "isCommentOut": 0
        },
        {
          "rowIndex": 104,
          "strings": [
            "",
            "ノワール",
            "固有",
            "",
            "",
            "",
            ".2",
            "",
            "ちょっ、不意打ち汚ッ！？",
            "",
            "",
            ""
          ],
          "isEmpty": 0,
          "isCommentOut": 0
        },
        {
          "rowIndex": 105,
          "strings": [
            "",
            "ティアラ新春",
            "笑い",
            "",
            "",
            "",
            "",
            "",
            "１点先取ですわ！　続けていきますわよ！",
            "",
            "",
            ""
          ],
          "isEmpty": 0,
          "isCommentOut": 0
        },
        {
          "rowIndex": 106,
          "strings": [
            "StopBgm",
            "",
            "",
            "",
            "",
            "",
            "",
            "",
            "",
            "",
            "",
            ""
          ],
          "isEmpty": 0,
          "isCommentOut": 0
        },
        {
          "rowIndex": 107,
          "strings": [
            "CaptureImage",
            "キャプチャーイメージ",
            "SpriteCamera",
            "キャプチャ画像レイヤー",
            "",
            "",
            "",
            "",
            "",
            "",
            "",
            ""
          ],
          "isEmpty": 0,
          "isCommentOut": 0
        },
        {
          "rowIndex": 108,
          "strings": [
            "CharacterOff",
            "",
            "",
            "",
            "",
            "",
            "0",
            "",
            "",
            "",
            "",
            ""
          ],
          "isEmpty": 0,
          "isCommentOut": 0
        },
        {
          "rowIndex": 109,
          "strings": [
            "Bg",
            "背景(黒)",
            "",
            "",
            "",
            "",
            "0",
            "",
            "",
            "",
            "",
            ""
          ],
          "isEmpty": 0,
          "isCommentOut": 0
        },
        {
          "rowIndex": 110,
          "strings": [
            "RuleFadeOut",
            "キャプチャーイメージ",
            "Clockwise",
            "",
            "",
            "",
            ".5",
            "",
            "",
            "",
            "",
            ""
          ],
          "isEmpty": 0,
          "isCommentOut": 0
        },
        {
          "rowIndex": 111,
          "strings": [
            "Wait",
            "",
            "",
            "",
            "",
            "",
            ".5",
            "",
            "",
            "",
            "",
            ""
          ],
          "isEmpty": 0,
          "isCommentOut": 0
        },
        {
          "rowIndex": 112,
          "strings": [
            "CaptureImage",
            "キャプチャーイメージ",
            "SpriteCamera",
            "キャプチャ画像レイヤー",
            "",
            "",
            "",
            "",
            "",
            "",
            "",
            ""
          ],
          "isEmpty": 0,
          "isCommentOut": 0
        },
        {
          "rowIndex": 113,
          "strings": [
            "Bg",
            "背景(ラステイションの街)",
            "",
            "",
            "",
            "",
            "0",
            "",
            "",
            "",
            "",
            ""
          ],
          "isEmpty": 0,
          "isCommentOut": 0
        },
        {
          "rowIndex": 114,
          "strings": [
            "RuleFadeOut",
            "キャプチャーイメージ",
            "Clockwise",
            "",
            "",
            "",
            ".5",
            "",
            "",
            "",
            "",
            ""
          ],
          "isEmpty": 0,
          "isCommentOut": 0
        },
        {
          "rowIndex": 115,
          "strings": [
            "Bgm",
            "明るいテーマ",
            "",
            "",
            "",
            "",
            "",
            "",
            "",
            "",
            "",
            ""
          ],
          "isEmpty": 0,
          "isCommentOut": 0
        },
        {
          "rowIndex": 116,
          "strings": [
            "",
            "ノワール",
            "悲しみ",
            "",
            "",
            "",
            "",
            "",
            "",
            "",
            "",
            ""
          ],
          "isEmpty": 0,
          "isCommentOut": 0
        },
        {
          "rowIndex": 117,
          "strings": [
            "Tween",
            "ノワール",
            "MoveTo",
            "x=0 y=-10 islocal=true time=0.5",
            "easeOutCirc",
            "pingPong=4",
            "",
            "Add",
            "",
            "",
            "",
            ""
          ],
          "isEmpty": 0,
          "isCommentOut": 0
        },
        {
          "rowIndex": 118,
          "strings": [
            "",
            "ノワール",
            "",
            "",
            "",
            "",
            "",
            "",
            "ぜいぜい……はぁはぁ……",
            "",
            "",
            ""
          ],
          "isEmpty": 0,
          "isCommentOut": 0
        },
        {
          "rowIndex": 119,
          "strings": [
            "",
            "ティアラ新春",
            "強気笑み",
            "",
            "",
            "",
            "",
            "",
            "わ、わたくしの勝ちですわ！",
            "",
            "",
            ""
          ],
          "isEmpty": 0,
          "isCommentOut": 0
        },
        {
          "rowIndex": 120,
          "strings": [
            "CharacterOff",
            "",
            "",
            "",
            "",
            "",
            "",
            "",
            "",
            "",
            "",
            ""
          ],
          "isEmpty": 0,
          "isCommentOut": 0
        },
        {
          "rowIndex": 121,
          "strings": [
            "",
            "天王星うずめ",
            "通常",
            "キャラ右",
            "",
            "",
            "",
            "",
            "",
            "",
            "",
            ""
          ],
          "isEmpty": 0,
          "isCommentOut": 0
        },
        {
          "rowIndex": 122,
          "strings": [
            "",
            "大人ネプテューヌ",
            "通常",
            "キャラ左",
            "",
            "",
            "",
            "",
            "",
            "",
            "",
            ""
          ],
          "isEmpty": 0,
          "isCommentOut": 0
        },
        {
          "rowIndex": 123,
          "strings": [
            "",
            "天王星うずめ",
            "固有",
            "",
            "",
            "",
            ".2",
            "",
            "汚いっ、さすがティアラ汚い……！",
            "",
            "",
            ""
          ],
          "isEmpty": 0,
          "isCommentOut": 0
        },
        {
          "rowIndex": 124,
          "strings": [
            "",
            "大人ネプテューヌ",
            "悲しみ",
            "",
            "",
            "",
            ".2",
            "",
            "不意打ちに騙し討ちに、\n反則ギリギリのラフプレーだもんね",
            "",
            "",
            ""
          ],
          "isEmpty": 0,
          "isCommentOut": 0
        },
        {
          "rowIndex": 125,
          "strings": [
            "CharacterOff",
            "",
            "",
            "",
            "",
            "",
            "",
            "",
            "",
            "",
            "",
            ""
          ],
          "isEmpty": 0,
          "isCommentOut": 0
        },
        {
          "rowIndex": 126,
          "strings": [
            "",
            "ティアラ新春",
            "強気笑み",
            "キャラ中央左",
            "",
            "",
            "",
            "",
            "",
            "",
            "",
            ""
          ],
          "isEmpty": 0,
          "isCommentOut": 0
        },
        {
          "rowIndex": 127,
          "strings": [
            "",
            "ノワール",
            "悲しみ",
            "キャラ中央右",
            "",
            "",
            "",
            "",
            "",
            "",
            "",
            ""
          ],
          "isEmpty": 0,
          "isCommentOut": 0
        },
        {
          "rowIndex": 128,
          "strings": [
            "Wait",
            "",
            "",
            "",
            "",
            "",
            ".5",
            "",
            "",
            "",
            "",
            ""
          ],
          "isEmpty": 0,
          "isCommentOut": 0
        },
        {
          "rowIndex": 129,
          "strings": [
            "Tween",
            "ティアラ新春",
            "MoveTo",
            "x=50 y=0 islocal=true time=0.5",
            "easeOutCirc",
            "",
            "",
            "Add",
            "",
            "",
            "",
            ""
          ],
          "isEmpty": 0,
          "isCommentOut": 0
        },
        {
          "rowIndex": 130,
          "strings": [
            "",
            "ティアラ新春",
            "笑い",
            "",
            "",
            "",
            ".2",
            "",
            "ではさっそくペナルティを執行させていただきますわ",
            "",
            "",
            ""
          ],
          "isEmpty": 0,
          "isCommentOut": 0
        },
        {
          "rowIndex": 131,
          "strings": [
            "Se",
            "掴む音",
            "",
            "",
            "",
            "",
            "",
            "",
            "",
            "",
            "",
            ""
          ],
          "isEmpty": 0,
          "isCommentOut": 0
        },
        {
          "rowIndex": 132,
          "strings": [
            "Wait",
            "",
            "",
            "",
            "",
            "",
            ".3",
            "",
            "",
            "",
            "",
            ""
          ],
          "isEmpty": 0,
          "isCommentOut": 0
        },
        {
          "rowIndex": 133,
          "strings": [
            "Tween",
            "ノワール",
            "ShakePosition",
            "x=10 islocal=true time=.3",
            "",
            "",
            "",
            "Add",
            "",
            "",
            "",
            ""
          ],
          "isEmpty": 0,
          "isCommentOut": 0
        },
        {
          "rowIndex": 134,
          "strings": [
            "",
            "ノワール",
            "固有",
            "",
            "",
            "",
            ".2",
            "",
            "ちょ、は、離してー！",
            "",
            "",
            ""
          ],
          "isEmpty": 0,
          "isCommentOut": 0
        },
        {
          "rowIndex": 135,
          "strings": [
            "",
            "ティアラ新春",
            "悲しみ",
            "",
            "",
            "",
            ".2",
            "",
            "捕まえたのはいいですが、\nこれでは落書きができませんわね……",
            "Next",
            "",
            ""
          ],
          "isEmpty": 0,
          "isCommentOut": 0
        },
        {
          "rowIndex": 136,
          "strings": [
            "Wait",
            "",
            "",
            "",
            "",
            "",
            ".3",
            "",
            "",
            "",
            "",
            ""
          ],
          "isEmpty": 0,
          "isCommentOut": 0
        },
        {
          "rowIndex": 137,
          "strings": [
            "",
            "ティアラ新春",
            "通常",
            "",
            "",
            "",
            ".2",
            "",
            "そうですわ",
            "",
            "",
            ""
          ],
          "isEmpty": 0,
          "isCommentOut": 0
        },
        {
          "rowIndex": 138,
          "strings": [
            "",
            "ティアラ新春",
            "笑い",
            "",
            "",
            "",
            ".2",
            "",
            "ユニさん、わたくしの代わりに落書きを\nしてくださいませんか？",
            "",
            "",
            ""
          ],
          "isEmpty": 0,
          "isCommentOut": 0
        },
        {
          "rowIndex": 139,
          "strings": [
            "CharacterOff",
            "",
            "",
            "",
            "",
            "",
            "",
            "",
            "",
            "",
            "",
            ""
          ],
          "isEmpty": 0,
          "isCommentOut": 0
        },
        {
          "rowIndex": 140,
          "strings": [
            "",
            "ユニ",
            "通常",
            "",
            "",
            "",
            "",
            "",
            "え……アタシ？",
            "",
            "",
            ""
          ],
          "isEmpty": 0,
          "isCommentOut": 0
        },
        {
          "rowIndex": 141,
          "strings": [
            "CharacterOff",
            "",
            "",
            "",
            "",
            "",
            "",
            "",
            "",
            "",
            "",
            ""
          ],
          "isEmpty": 0,
          "isCommentOut": 0
        },
        {
          "rowIndex": 142,
          "strings": [
            "",
            "ティアラ新春",
            "笑い",
            "キャラ中央左",
            "50",
            "0",
            "",
            "",
            "",
            "",
            "",
            ""
          ],
          "isEmpty": 0,
          "isCommentOut": 0
        },
        {
          "rowIndex": 143,
          "strings": [
            "",
            "ノワール",
            "固有",
            "キャラ中央右",
            "",
            "",
            "",
            "",
            "",
            "",
            "",
            ""
          ],
          "isEmpty": 0,
          "isCommentOut": 0
        },
        {
          "rowIndex": 144,
          "strings": [
            "",
            "ティアラ新春",
            "強気笑み",
            "",
            "",
            "",
            ".2",
            "",
            "妹に落書きされる姉……その屈辱こそ、\nペナルティにふさわしいと思いますわ",
            "",
            "",
            ""
          ],
          "isEmpty": 0,
          "isCommentOut": 0
        },
        {
          "rowIndex": 145,
          "strings": [
            "",
            "ノワール",
            "悲しみ",
            "",
            "",
            "",
            ".2",
            "",
            "ちょ、ちょっと、ユニ……まさか……",
            "",
            "",
            ""
          ],
          "isEmpty": 0,
          "isCommentOut": 0
        },
        {
          "rowIndex": 146,
          "strings": [
            "CharacterOff",
            "",
            "",
            "",
            "",
            "",
            "",
            "",
            "",
            "",
            "",
            ""
          ],
          "isEmpty": 0,
          "isCommentOut": 0
        },
        {
          "rowIndex": 147,
          "strings": [
            "",
            "ユニ",
            "悲しみ",
            "",
            "",
            "",
            "",
            "",
            "そっかあ、ペナルティじゃ仕方ないよね",
            "",
            "",
            ""
          ],
          "isEmpty": 0,
          "isCommentOut": 0
        },
        {
          "rowIndex": 148,
          "strings": [
            "",
            "ティアラ新春",
            "笑い",
            "",
            "",
            "",
            "",
            "",
            "さあ、遠慮なくやってくださいませ",
            "",
            "",
            ""
          ],
          "isEmpty": 0,
          "isCommentOut": 0
        },
        {
          "rowIndex": 149,
          "strings": [
            "",
            "ユニ",
            "悲しみ",
            "",
            "",
            "",
            "",
            "",
            "",
            "",
            "",
            ""
          ],
          "isEmpty": 0,
          "isCommentOut": 0
        },
        {
          "rowIndex": 150,
          "strings": [
            "Tween",
            "ユニ",
            "ScaleTo",
            "time=0.5 x=1.5 y=1.5",
            "",
            "",
            "",
            "Add",
            "",
            "",
            "",
            ""
          ],
          "isEmpty": 0,
          "isCommentOut": 0
        },
        {
          "rowIndex": 151,
          "strings": [
            "Tween",
            "ユニ",
            "MoveAdd",
            "x=0 y=-50 time=.5",
            "",
            "",
            "",
            "Add",
            "",
            "",
            "",
            ""
          ],
          "isEmpty": 0,
          "isCommentOut": 0
        },
        {
          "rowIndex": 152,
          "strings": [
            "",
            "ユニ",
            "笑い",
            "",
            "",
            "",
            ".2",
            "",
            "ごめんね、お姉ちゃん",
            "",
            "",
            ""
          ],
          "isEmpty": 0,
          "isCommentOut": 0
        },
        {
          "rowIndex": 153,
          "strings": [
            "",
            "ノワール",
            "固有",
            "",
            "",
            "",
            "",
            "",
            "",
            "",
            "",
            ""
          ],
          "isEmpty": 0,
          "isCommentOut": 0
        },
        {
          "rowIndex": 154,
          "strings": [
            "Tween",
            "ノワール",
            "ShakePosition",
            "x=10 islocal=true time=.3",
            "",
            "",
            "",
            "Add",
            "",
            "",
            "",
            ""
          ],
          "isEmpty": 0,
          "isCommentOut": 0
        },
        {
          "rowIndex": 155,
          "strings": [
            "",
            "ノワール",
            "",
            "",
            "",
            "",
            "",
            "",
            "いやー！　たすけてー！",
            "",
            "",
            ""
          ],
          "isEmpty": 0,
          "isCommentOut": 0
        },
        {
          "rowIndex": 156,
          "strings": [
            "CaptureImage",
            "キャプチャーイメージ",
            "SpriteCamera",
            "キャプチャ画像レイヤー",
            "",
            "",
            "",
            "",
            "",
            "",
            "",
            ""
          ],
          "isEmpty": 0,
          "isCommentOut": 0
        },
        {
          "rowIndex": 157,
          "strings": [
            "CharacterOff",
            "",
            "",
            "",
            "",
            "",
            "0",
            "",
            "",
            "",
            "",
            ""
          ],
          "isEmpty": 0,
          "isCommentOut": 0
        },
        {
          "rowIndex": 158,
          "strings": [
            "Bg",
            "背景(黒)",
            "",
            "",
            "",
            "",
            "0",
            "",
            "",
            "",
            "",
            ""
          ],
          "isEmpty": 0,
          "isCommentOut": 0
        },
        {
          "rowIndex": 159,
          "strings": [
            "RuleFadeOut",
            "キャプチャーイメージ",
            "Clockwise",
            "",
            "",
            "",
            ".5",
            "",
            "",
            "",
            "",
            ""
          ],
          "isEmpty": 0,
          "isCommentOut": 0
        },
        {
          "rowIndex": 160,
          "strings": [
            "Wait",
            "",
            "",
            "",
            "",
            "",
            ".5",
            "",
            "",
            "",
            "",
            ""
          ],
          "isEmpty": 0,
          "isCommentOut": 0
        },
        {
          "rowIndex": 161,
          "strings": [
            "CaptureImage",
            "キャプチャーイメージ",
            "SpriteCamera",
            "キャプチャ画像レイヤー",
            "",
            "",
            "",
            "",
            "",
            "",
            "",
            ""
          ],
          "isEmpty": 0,
          "isCommentOut": 0
        },
        {
          "rowIndex": 162,
          "strings": [
            "Bg",
            "背景(ラステイションの街)",
            "",
            "",
            "",
            "",
            "0",
            "",
            "",
            "",
            "",
            ""
          ],
          "isEmpty": 0,
          "isCommentOut": 0
        },
        {
          "rowIndex": 163,
          "strings": [
            "RuleFadeOut",
            "キャプチャーイメージ",
            "Clockwise",
            "",
            "",
            "",
            ".5",
            "",
            "",
            "",
            "",
            ""
          ],
          "isEmpty": 0,
          "isCommentOut": 0
        },
        {
          "rowIndex": 164,
          "strings": [
            "",
            "ノワール",
            "悲しみ",
            "",
            "",
            "",
            "",
            "",
            "うう……ひどい……",
            "",
            "",
            ""
          ],
          "isEmpty": 0,
          "isCommentOut": 0
        },
        {
          "rowIndex": 165,
          "strings": [
            "",
            "ティアラ新春",
            "通常",
            "",
            "",
            "",
            "",
            "",
            "ふぅー、すっきりしましたわ",
            "",
            "",
            ""
          ],
          "isEmpty": 0,
          "isCommentOut": 0
        },
        {
          "rowIndex": 166,
          "strings": [
            "",
            "ユニ",
            "照れ",
            "",
            "",
            "",
            "",
            "",
            "なんだか、ちょっと楽しかった……かも",
            "",
            "",
            ""
          ],
          "isEmpty": 0,
          "isCommentOut": 0
        },
        {
          "rowIndex": 167,
          "strings": [
            "CharacterOff",
            "",
            "",
            "",
            "",
            "",
            "",
            "",
            "",
            "",
            "",
            ""
          ],
          "isEmpty": 0,
          "isCommentOut": 0
        },
        {
          "rowIndex": 168,
          "strings": [
            "",
            "ティアラ新春",
            "通常",
            "キャラ左",
            "",
            "",
            "",
            "",
            "",
            "",
            "",
            ""
          ],
          "isEmpty": 0,
          "isCommentOut": 0
        },
        {
          "rowIndex": 169,
          "strings": [
            "",
            "ノワール",
            "固有",
            "キャラ右",
            "",
            "",
            "",
            "",
            "",
            "",
            "",
            ""
          ],
          "isEmpty": 0,
          "isCommentOut": 0
        },
        {
          "rowIndex": 170,
          "strings": [
            "",
            "ノワール",
            "真剣",
            "",
            "",
            "",
            ".2",
            "",
            "ティアラ！　もう一回勝負よ、\nこのまま終われないわ！",
            "",
            "",
            ""
          ],
          "isEmpty": 0,
          "isCommentOut": 0
        },
        {
          "rowIndex": 171,
          "strings": [
            "",
            "ティアラ新春",
            "強気笑み",
            "",
            "",
            "",
            ".2",
            "",
            "あら、よろしくてよ",
            "",
            "",
            ""
          ],
          "isEmpty": 0,
          "isCommentOut": 0
        },
        {
          "rowIndex": 172,
          "strings": [
            "CharacterOff",
            "",
            "",
            "",
            "",
            "",
            "",
            "",
            "",
            "",
            "",
            ""
          ],
          "isEmpty": 0,
          "isCommentOut": 0
        },
        {
          "rowIndex": 173,
          "strings": [
            "",
            "ユニ",
            "照れ",
            "",
            "",
            "",
            "",
            "",
            "またお姉ちゃんに落書き……",
            "Next",
            "",
            ""
          ],
          "isEmpty": 0,
          "isCommentOut": 0
        },
        {
          "rowIndex": 174,
          "strings": [
            "Wait",
            "",
            "",
            "",
            "",
            "",
            ".3",
            "",
            "",
            "",
            "",
            ""
          ],
          "isEmpty": 0,
          "isCommentOut": 0
        },
        {
          "rowIndex": 175,
          "strings": [
            "Tween",
            "ユニ",
            "ShakePosition",
            "x=10 islocal=true time=.3",
            "",
            "",
            "",
            "Add",
            "",
            "",
            "",
            ""
          ],
          "isEmpty": 0,
          "isCommentOut": 0
        },
        {
          "rowIndex": 176,
          "strings": [
            "",
            "ユニ",
            "",
            "",
            "",
            "",
            "",
            "",
            "ふふふ……",
            "",
            "",
            ""
          ],
          "isEmpty": 0,
          "isCommentOut": 0
        },
        {
          "rowIndex": 177,
          "strings": [
            "CharacterOff",
            "",
            "",
            "",
            "",
            "",
            "",
            "",
            "",
            "",
            "",
            ""
          ],
          "isEmpty": 0,
          "isCommentOut": 0
        },
        {
          "rowIndex": 178,
          "strings": [
            "",
            "大人ネプテューヌ",
            "通常",
            "キャラ左",
            "",
            "",
            "",
            "",
            "",
            "",
            "",
            ""
          ],
          "isEmpty": 0,
          "isCommentOut": 0
        },
        {
          "rowIndex": 179,
          "strings": [
            "",
            "クロワール",
            "通常",
            "キャラ右",
            "",
            "",
            "",
            "",
            "",
            "",
            "",
            ""
          ],
          "isEmpty": 0,
          "isCommentOut": 0
        },
        {
          "rowIndex": 180,
          "strings": [
            "",
            "大人ネプテューヌ",
            "",
            "",
            "",
            "",
            "",
            "",
            "ノワールも熱くなりやすいよねー",
            "",
            "",
            ""
          ],
          "isEmpty": 0,
          "isCommentOut": 0
        },
        {
          "rowIndex": 181,
          "strings": [
            "",
            "クロワール",
            "悲しみ",
            "",
            "",
            "",
            ".2",
            "",
            "こっちにとばっちり来なきゃいいけどな",
            "",
            "",
            ""
          ],
          "isEmpty": 0,
          "isCommentOut": 0
        },
        {
          "rowIndex": 182,
          "strings": [
            "CaptureImage",
            "キャプチャーイメージ",
            "SpriteCamera",
            "キャプチャ画像レイヤー",
            "",
            "",
            "",
            "",
            "",
            "",
            "",
            ""
          ],
          "isEmpty": 0,
          "isCommentOut": 0
        },
        {
          "rowIndex": 183,
          "strings": [
            "CharacterOff",
            "",
            "",
            "",
            "",
            "",
            "0",
            "",
            "",
            "",
            "",
            ""
          ],
          "isEmpty": 0,
          "isCommentOut": 0
        },
        {
          "rowIndex": 184,
          "strings": [
            "Bg",
            "背景(黒)",
            "",
            "",
            "",
            "",
            "0",
            "",
            "",
            "",
            "",
            ""
          ],
          "isEmpty": 0,
          "isCommentOut": 0
        },
        {
          "rowIndex": 185,
          "strings": [
            "RuleFadeOut",
            "キャプチャーイメージ",
            "Clockwise",
            "",
            "",
            "",
            ".5",
            "",
            "",
            "",
            "",
            ""
          ],
          "isEmpty": 0,
          "isCommentOut": 0
        },
        {
          "rowIndex": 186,
          "strings": [
            "Wait",
            "",
            "",
            "",
            "",
            "",
            ".5",
            "",
            "",
            "",
            "",
            ""
          ],
          "isEmpty": 0,
          "isCommentOut": 0
        },
        {
          "rowIndex": 187,
          "strings": [
            "CaptureImage",
            "キャプチャーイメージ",
            "SpriteCamera",
            "キャプチャ画像レイヤー",
            "",
            "",
            "",
            "",
            "",
            "",
            "",
            ""
          ],
          "isEmpty": 0,
          "isCommentOut": 0
        },
        {
          "rowIndex": 188,
          "strings": [
            "Bg",
            "背景(ラステイションの街)",
            "",
            "",
            "",
            "",
            "0",
            "",
            "",
            "",
            "",
            ""
          ],
          "isEmpty": 0,
          "isCommentOut": 0
        },
        {
          "rowIndex": 189,
          "strings": [
            "RuleFadeOut",
            "キャプチャーイメージ",
            "Clockwise",
            "",
            "",
            "",
            ".5",
            "",
            "",
            "",
            "",
            ""
          ],
          "isEmpty": 0,
          "isCommentOut": 0
        },
        {
          "rowIndex": 190,
          "strings": [
            "",
            "ノワール",
            "真剣",
            "",
            "",
            "",
            "",
            "",
            "",
            "",
            "",
            ""
          ],
          "isEmpty": 0,
          "isCommentOut": 0
        },
        {
          "rowIndex": 191,
          "strings": [
            "Wait",
            "",
            "",
            "",
            "",
            "",
            ".5",
            "",
            "",
            "",
            "",
            ""
          ],
          "isEmpty": 0,
          "isCommentOut": 0
        },
        {
          "rowIndex": 192,
          "strings": [
            "Tween",
            "ノワール",
            "ScaleTo",
            "time=0.2 x=1.2 y=1.2",
            "",
            "",
            "",
            "Add",
            "",
            "",
            "",
            ""
          ],
          "isEmpty": 0,
          "isCommentOut": 0
        },
        {
          "rowIndex": 193,
          "strings": [
            "Tween",
            "ノワール",
            "MoveAdd",
            "x=0 y=-50 time=.2",
            "",
            "",
            "",
            "Add",
            "",
            "",
            "",
            ""
          ],
          "isEmpty": 0,
          "isCommentOut": 0
        },
        {
          "rowIndex": 194,
          "strings": [
            "Se",
            "ドアノック音",
            "",
            "",
            "",
            "",
            "",
            "Add",
            "",
            "",
            "",
            ""
          ],
          "isEmpty": 0,
          "isCommentOut": 0
        },
        {
          "rowIndex": 195,
          "strings": [
            "StopSe",
            "",
            "",
            "",
            "",
            "",
            "",
            "Add",
            "",
            "",
            "",
            ""
          ],
          "isEmpty": 0,
          "isCommentOut": 0
        },
        {
          "rowIndex": 196,
          "strings": [
            "",
            "ノワール",
            "",
            "",
            "",
            "",
            "",
            "",
            "おりゃあ！　",
            "Next",
            "",
            ""
          ],
          "isEmpty": 0,
          "isCommentOut": 0
        },
        {
          "rowIndex": 197,
          "strings": [
            "Wait",
            "",
            "",
            "",
            "",
            "",
            ".5",
            "",
            "",
            "",
            "",
            ""
          ],
          "isEmpty": 0,
          "isCommentOut": 0
        },
        {
          "rowIndex": 198,
          "strings": [
            "",
            "ノワール",
            "笑い",
            "",
            "",
            "",
            ".2",
            "",
            "勝ったあ！",
            "",
            "",
            ""
          ],
          "isEmpty": 0,
          "isCommentOut": 0
        },
        {
          "rowIndex": 199,
          "strings": [
            "",
            "ティアラ新春",
            "悲しみ",
            "",
            "",
            "",
            "",
            "",
            "そんな、わたくしが……負けるなんて……",
            "",
            "",
            ""
          ],
          "isEmpty": 0,
          "isCommentOut": 0
        },
        {
          "rowIndex": 200,
          "strings": [
            "",
            "ノワール",
            "真剣",
            "",
            "",
            "",
            "",
            "",
            "そんな卑怯な手が何度も通じるわけないでしょ。\nさあ、ペナルティよペナルティ！",
            "",
            "",
            ""
          ],
          "isEmpty": 0,
          "isCommentOut": 0
        },
        {
          "rowIndex": 201,
          "strings": [
            "",
            "クロワール",
            "通常",
            "",
            "",
            "",
            "",
            "",
            "活き活きしてんなー",
            "",
            "",
            ""
          ],
          "isEmpty": 0,
          "isCommentOut": 0
        },
        {
          "rowIndex": 202,
          "strings": [
            "StopBgm",
            "",
            "",
            "",
            "",
            "",
            "",
            "",
            "",
            "",
            "",
            ""
          ],
          "isEmpty": 0,
          "isCommentOut": 0
        },
        {
          "rowIndex": 203,
          "strings": [
            "CharacterOff",
            "",
            "",
            "",
            "",
            "",
            "",
            "",
            "",
            "",
            "",
            ""
          ],
          "isEmpty": 0,
          "isCommentOut": 0
        },
        {
          "rowIndex": 204,
          "strings": [
            "Bgm",
            "コミカル",
            "",
            "",
            "",
            "",
            "",
            "",
            "",
            "",
            "",
            ""
          ],
          "isEmpty": 0,
          "isCommentOut": 0
        },
        {
          "rowIndex": 205,
          "strings": [
            "",
            "ティアラ新春",
            "悲しみ",
            "キャラ中央左",
            "",
            "",
            "",
            "",
            "",
            "",
            "",
            ""
          ],
          "isEmpty": 0,
          "isCommentOut": 0
        },
        {
          "rowIndex": 206,
          "strings": [
            "",
            "ノワール",
            "真剣",
            "キャラ中央右",
            "",
            "",
            "",
            "",
            "",
            "",
            "",
            ""
          ],
          "isEmpty": 0,
          "isCommentOut": 0
        },
        {
          "rowIndex": 207,
          "strings": [
            "",
            "ティアラ新春",
            "",
            "",
            "",
            "",
            "",
            "",
            "くっ……わたくしにもプライドがあります。",
            "Br",
            "",
            ""
          ],
          "isEmpty": 0,
          "isCommentOut": 0
        },
        {
          "rowIndex": 208,
          "strings": [
            "Wait",
            "",
            "",
            "",
            "",
            "",
            ".3",
            "",
            "",
            "",
            "",
            ""
          ],
          "isEmpty": 0,
          "isCommentOut": 0
        },
        {
          "rowIndex": 209,
          "strings": [
            "",
            "ティアラ新春",
            "真剣",
            "",
            "",
            "",
            ".2",
            "",
            "逃げも隠れもしませんわ。やってくださいませ！",
            "",
            "",
            ""
          ],
          "isEmpty": 0,
          "isCommentOut": 0
        },
        {
          "rowIndex": 210,
          "strings": [
            "",
            "ノワール",
            "笑い",
            "",
            "",
            "",
            ".2",
            "",
            "いい覚悟じゃない。",
            "Next",
            "",
            ""
          ],
          "isEmpty": 0,
          "isCommentOut": 0
        },
        {
          "rowIndex": 211,
          "strings": [
            "Wait",
            "",
            "",
            "",
            "",
            "",
            ".3",
            "",
            "",
            "",
            "",
            ""
          ],
          "isEmpty": 0,
          "isCommentOut": 0
        },
        {
          "rowIndex": 212,
          "strings": [
            "SendMessageByName",
            "AdvEngine",
            "ChangeNoGrayOutCharacter",
            "ノワール,ティアラ新春",
            "",
            "",
            "",
            "",
            "",
            "",
            "",
            ""
          ],
          "isEmpty": 0,
          "isCommentOut": 0
        },
        {
          "rowIndex": 213,
          "strings": [
            "Tween",
            "ノワール",
            "MoveTo",
            "x=-50 y=0 islocal=true time=0.5",
            "easeOutCirc",
            "",
            "",
            "Add",
            "",
            "",
            "",
            ""
          ],
          "isEmpty": 0,
          "isCommentOut": 0
        },
        {
          "rowIndex": 214,
          "strings": [
            "",
            "ノワール",
            "真剣",
            "",
            "",
            "",
            ".2",
            "",
            "だったら……！",
            "",
            "",
            ""
          ],
          "isEmpty": 0,
          "isCommentOut": 0
        },
        {
          "rowIndex": 215,
          "strings": [
            "SendMessageByName",
            "AdvEngine",
            "ChangeNoGrayOutCharacter",
            "ノワール,ティアラ新春",
            "",
            "",
            "",
            "",
            "",
            "",
            "",
            ""
          ],
          "isEmpty": 0,
          "isCommentOut": 0
        },
        {
          "rowIndex": 216,
          "strings": [
            "Se",
            "水をかける音",
            "",
            "",
            "",
            "",
            "",
            "",
            "",
            "",
            "",
            ""
          ],
          "isEmpty": 0,
          "isCommentOut": 0
        },
        {
          "rowIndex": 217,
          "strings": [
            "Wait",
            "",
            "",
            "",
            "",
            "",
            ".5",
            "",
            "",
            "",
            "",
            ""
          ],
          "isEmpty": 0,
          "isCommentOut": 0
        },
        {
          "rowIndex": 218,
          "strings": [
            "Se",
            "水をかける音",
            "",
            "",
            "",
            "",
            "",
            "",
            "",
            "",
            "",
            ""
          ],
          "isEmpty": 0,
          "isCommentOut": 0
        },
        {
          "rowIndex": 219,
          "strings": [
            "",
            "ノワール",
            "真剣",
            "",
            "",
            "",
            "",
            "",
            "ふっ……どう？　みじめな顔になったでしょう",
            "",
            "",
            ""
          ],
          "isEmpty": 0,
          "isCommentOut": 0
        },
        {
          "rowIndex": 220,
          "strings": [
            "",
            "ティアラ新春",
            "照れ",
            "",
            "",
            "",
            "",
            "",
            "なすすべもなく自分の顔を蹂躙される……\n新しい感覚ですわ。なんだかゾクゾクします！",
            "",
            "",
            ""
          ],
          "isEmpty": 0,
          "isCommentOut": 0
        },
        {
          "rowIndex": 221,
          "strings": [
            "Tween",
            "ノワール",
            "MoveTo",
            "x=30 y=0 islocal=true time=0.2",
            "easeOutQuint",
            "",
            "",
            "Add",
            "",
            "",
            "",
            ""
          ],
          "isEmpty": 0,
          "isCommentOut": 0
        },
        {
          "rowIndex": 222,
          "strings": [
            "",
            "ノワール",
            "悲しみ",
            "",
            "",
            "",
            "",
            "",
            "え……なにそれ、なんで喜んでるの……",
            "",
            "",
            ""
          ],
          "isEmpty": 0,
          "isCommentOut": 0
        },
        {
          "rowIndex": 223,
          "strings": [
            "CharacterOff",
            "",
            "",
            "",
            "",
            "",
            "",
            "",
            "",
            "",
            "",
            ""
          ],
          "isEmpty": 0,
          "isCommentOut": 0
        },
        {
          "rowIndex": 224,
          "strings": [
            "",
            "クロワール",
            "悲しみ",
            "",
            "",
            "",
            "",
            "",
            "うわ、出たぞドＭ発言",
            "",
            "",
            ""
          ],
          "isEmpty": 0,
          "isCommentOut": 0
        },
        {
          "rowIndex": 225,
          "strings": [
            "CharacterOff",
            "",
            "",
            "",
            "",
            "",
            "",
            "",
            "",
            "",
            "",
            ""
          ],
          "isEmpty": 0,
          "isCommentOut": 0
        },
        {
          "rowIndex": 226,
          "strings": [
            "",
            "ティアラ新春",
            "照れ",
            "キャラ中央左",
            "",
            "",
            "",
            "",
            "",
            "",
            "",
            ""
          ],
          "isEmpty": 0,
          "isCommentOut": 0
        },
        {
          "rowIndex": 227,
          "strings": [
            "",
            "ノワール",
            "悲しみ",
            "キャラ中央右",
            "30",
            "0",
            "",
            "",
            "",
            "",
            "",
            ""
          ],
          "isEmpty": 0,
          "isCommentOut": 0
        },
        {
          "rowIndex": 228,
          "strings": [
            "Wait",
            "",
            "",
            "",
            "",
            "",
            ".5",
            "",
            "",
            "",
            "",
            ""
          ],
          "isEmpty": 0,
          "isCommentOut": 0
        },
        {
          "rowIndex": 229,
          "strings": [
            "Tween",
            "ティアラ新春",
            "MoveTo",
            "x=50 y=0 islocal=true time=0.2",
            "easeOutCirc",
            "",
            "",
            "Add",
            "",
            "",
            "",
            ""
          ],
          "isEmpty": 0,
          "isCommentOut": 0
        },
        {
          "rowIndex": 230,
          "strings": [
            "",
            "ティアラ新春",
            "笑い",
            "",
            "",
            "",
            ".2",
            "",
            "ノワールさん！　もっとやりましょう！\n今度は顔だけでなく、全身で！",
            "",
            "",
            ""
          ],
          "isEmpty": 0,
          "isCommentOut": 0
        },
        {
          "rowIndex": 231,
          "strings": [
            "",
            "ノワール",
            "固有",
            "",
            "",
            "",
            ".2",
            "",
            "いやー！　なんかこの人怖いんだけどー！",
            "",
            "",
            ""
          ],
          "isEmpty": 0,
          "isCommentOut": 0
        },
        {
          "rowIndex": 232,
          "strings": [
            "Se",
            "踏み込み音",
            "",
            "",
            "",
            "",
            "",
            "",
            "",
            "",
            "",
            ""
          ],
          "isEmpty": 0,
          "isCommentOut": 0
        },
        {
          "rowIndex": 233,
          "strings": [
            "Tween",
            "ノワール",
            "MoveAdd",
            "x=100 y=0 time=1",
            "easeOutQuad",
            "",
            "",
            "Add",
            "",
            "",
            "",
            ""
          ],
          "isEmpty": 0,
          "isCommentOut": 0
        },
        {
          "rowIndex": 234,
          "strings": [
            "CharacterOff",
            "ノワール",
            "",
            "",
            "",
            "",
            "1",
            "",
            "",
            "",
            "",
            ""
          ],
          "isEmpty": 0,
          "isCommentOut": 0
        },
        {
          "rowIndex": 235,
          "strings": [
            "Wait",
            "",
            "",
            "",
            "",
            "",
            "1",
            "",
            "",
            "",
            "",
            ""
          ],
          "isEmpty": 0,
          "isCommentOut": 0
        },
        {
          "rowIndex": 236,
          "strings": [
            "CharacterOff",
            "",
            "",
            "",
            "",
            "",
            "",
            "",
            "",
            "",
            "",
            ""
          ],
          "isEmpty": 0,
          "isCommentOut": 0
        },
        {
          "rowIndex": 237,
          "strings": [
            "Wait",
            "",
            "",
            "",
            "",
            "",
            ".5",
            "",
            "",
            "",
            "",
            ""
          ],
          "isEmpty": 0,
          "isCommentOut": 0
        },
        {
          "rowIndex": 238,
          "strings": [
            "",
            "天王星うずめ",
            "",
            "",
            "",
            "",
            "",
            "",
            "のどかだなー、<param=player_name>っち……",
            "Input",
            "",
            ""
          ],
          "isEmpty": 0,
          "isCommentOut": 0
        },
        {
          "rowIndex": 239,
          "strings": [
            "Selection",
            "*201306-02",
            "",
            "",
            "",
            "0",
            "300",
            "",
            "「だねー」",
            "",
            "",
            ""
          ],
          "isEmpty": 0,
          "isCommentOut": 0
        },
        {
          "rowIndex": 240,
          "strings": [
            "*201306-02",
            "",
            "",
            "",
            "",
            "",
            "",
            "",
            "",
            "",
            "",
            ""
          ],
          "isEmpty": 0,
          "isCommentOut": 0
        },
        {
          "rowIndex": 241,
          "strings": [
            "FadeOut",
            "black",
            "",
            "",
            "",
            "",
            "1",
            "",
            "",
            "",
            "",
            ""
          ],
          "isEmpty": 0,
          "isCommentOut": 0
        },
        {
          "rowIndex": 242,
          "strings": [
            "Wait",
            "",
            "",
            "",
            "",
            "",
            ".3",
            "",
            "",
            "",
            "",
            ""
          ],
          "isEmpty": 0,
          "isCommentOut": 0
        },
        {
          "rowIndex": 243,
          "strings": [
            "EndScenario",
            "",
            "",
            "",
            "",
            "",
            "",
            "",
            "",
            "",
            "",
            ""
          ],
          "isEmpty": 0,
          "isCommentOut": 0
        }
      ],
      "name": "Assets/_Create/adv_201306.xls:201306",
      "type": 1,
      "textLength": 5268,
      "headerRow": 0,
      "entityIndexTbl": [],
      "entityDataList": []
    }
  ]
}