{
  "m_GameObject": {
    "m_FileID": 0,
    "m_PathID": 0
  },
  "m_Enabled": 1,
  "m_Script": {
    "m_FileID": 0,
    "m_PathID": 8527011069456626154
  },
  "m_Name": "adv_200405_path",
  "advPathList": [
    {
      "assetName": "",
      "assetPath": "texture/character/stand/1040100_stand",
      "resourcePath": "Texture/Character/1040100_stand.asset"
    },
    {
      "assetName": "",
      "assetPath": "texture/character/stand/1030800_stand",
      "resourcePath": "Texture/Character/1030800_stand.asset"
    },
    {
      "assetName": "",
      "assetPath": "texture/character/stand/1170400_stand",
      "resourcePath": "Texture/Character/1170400_stand.asset"
    },
    {
      "assetName": "",
      "assetPath": "texture/character/stand/1160300_stand",
      "resourcePath": "Texture/Character/1160300_stand.asset"
    },
    {
      "assetName": "",
      "assetPath": "texture/background/bg_007_ll",
      "resourcePath": "Texture/BG/bg_007_LL.png"
    },
    {
      "assetName": "",
      "assetPath": "texture/background/bg_022_ll",
      "resourcePath": "Texture/BG/bg_022_LL.png"
    },
    {
      "assetName": "",
      "assetPath": "texture/background/bg_004_ll",
      "resourcePath": "Texture/BG/bg_004_LL.png"
    },
    {
      "assetName": "",
      "assetPath": "texture/adventure/sprite_hibi_1",
      "resourcePath": "Texture/Sprite/sprite_hibi_1.png"
    },
    {
      "assetName": "",
      "assetPath": "texture/adventure/sprite_hibi_2",
      "resourcePath": "Texture/Sprite/sprite_hibi_2.png"
    },
    {
      "assetName": "",
      "assetPath": "texture/adventure/sprite_hibi_3",
      "resourcePath": "Texture/Sprite/sprite_hibi_3.png"
    },
    {
      "assetName": "",
      "assetPath": "sound/bgm/adventure/bgm_comical",
      "resourcePath": "Sound/BGM/bgm_comical.wav"
    },
    {
      "assetName": "",
      "assetPath": "sound/se/adventure/se_crack",
      "resourcePath": "Sound/SE/se_crack.wav"
    },
    {
      "assetName": "",
      "assetPath": "sound/se/adventure/se_metastasis",
      "resourcePath": "Sound/SE/se_metastasis.wav"
    },
    {
      "assetName": "",
      "assetPath": "data/adventure/event/story2004/adv_200405.scenarios",
      "resourcePath": "adv_200405.scenarios.asset"
    }
  ]
}