{
  "m_GameObject": {
    "m_FileID": 0,
    "m_PathID": 0
  },
  "m_Enabled": 1,
  "m_Script": {
    "m_FileID": 0,
    "m_PathID": 8527011069456626154
  },
  "m_Name": "adv_200406_path",
  "advPathList": [
    {
      "assetName": "",
      "assetPath": "texture/character/stand/1040100_stand",
      "resourcePath": "Texture/Character/1040100_stand.asset"
    },
    {
      "assetName": "",
      "assetPath": "texture/character/stand/1030800_stand",
      "resourcePath": "Texture/Character/1030800_stand.asset"
    },
    {
      "assetName": "",
      "assetPath": "texture/character/stand/1170400_stand",
      "resourcePath": "Texture/Character/1170400_stand.asset"
    },
    {
      "assetName": "",
      "assetPath": "texture/character/stand/1020500_stand",
      "resourcePath": "Texture/Character/1020500_stand.asset"
    },
    {
      "assetName": "",
      "assetPath": "texture/character/stand/1020600_stand",
      "resourcePath": "Texture/Character/1020600_stand.asset"
    },
    {
      "assetName": "",
      "assetPath": "texture/background/bg_007_ll",
      "resourcePath": "Texture/BG/bg_007_LL.png"
    },
    {
      "assetName": "",
      "assetPath": "texture/background/bg_022_ll",
      "resourcePath": "Texture/BG/bg_022_LL.png"
    },
    {
      "assetName": "",
      "assetPath": "texture/background/bg_003_ll",
      "resourcePath": "Texture/BG/bg_003_LL.png"
    },
    {
      "assetName": "",
      "assetPath": "sound/bgm/bgm_battle01",
      "resourcePath": "Sound/BGM/bgm_battle01.wav"
    },
    {
      "assetName": "",
      "assetPath": "sound/bgm/adventure/bgm_adv_general",
      "resourcePath": "Sound/BGM/bgm_adv_general.wav"
    },
    {
      "assetName": "",
      "assetPath": "sound/bgm/adventure/bgm_comical",
      "resourcePath": "Sound/BGM/bgm_comical.wav"
    },
    {
      "assetName": "",
      "assetPath": "sound/se/adventure/se_metastasis",
      "resourcePath": "Sound/SE/se_metastasis.wav"
    },
    {
      "assetName": "",
      "assetPath": "data/adventure/event/story2004/adv_200406.scenarios",
      "resourcePath": "adv_200406.scenarios.asset"
    }
  ]
}