{
  "m_GameObject": {
    "m_FileID": 0,
    "m_PathID": 0
  },
  "m_Enabled": 1,
  "m_Script": {
    "m_FileID": 0,
    "m_PathID": -2767099076474933927
  },
  "m_Name": "dc_1081300_sd",
  "Version": 65537,
  "TableCellMap": [
    {
      "Name": "1081300_sd",
      "SizeOriginal": {
        "x": 2048.0,
        "y": 2048.0
      },
      "TableCell": [
        {
          "Name": "face_normal",
          "Rectangle": {
            "x": 4.0,
            "y": 654.0,
            "width": 250.0,
            "height": 250.0
          },
          "Pivot": {
            "x": 125.0,
            "y": 135.0
          },
          "Mesh": {
            "TableCoordinate": [],
            "TableIndexVertex": []
          }
        },
        {
          "Name": "face_eye_close_normal",
          "Rectangle": {
            "x": 1164.0,
            "y": 584.0,
            "width": 250.0,
            "height": 250.0
          },
          "Pivot": {
            "x": 125.0,
            "y": 135.0
          },
          "Mesh": {
            "TableCoordinate": [],
            "TableIndexVertex": []
          }
        },
        {
          "Name": "face_mouth_open_happy",
          "Rectangle": {
            "x": 1664.0,
            "y": 614.0,
            "width": 250.0,
            "height": 250.0
          },
          "Pivot": {
            "x": 125.0,
            "y": 135.0
          },
          "Mesh": {
            "TableCoordinate": [],
            "TableIndexVertex": []
          }
        },
        {
          "Name": "face_happy",
          "Rectangle": {
            "x": 1414.0,
            "y": 584.0,
            "width": 250.0,
            "height": 250.0
          },
          "Pivot": {
            "x": 125.0,
            "y": 135.0
          },
          "Mesh": {
            "TableCoordinate": [],
            "TableIndexVertex": []
          }
        },
        {
          "Name": "face_attack",
          "Rectangle": {
            "x": 134.0,
            "y": 404.0,
            "width": 250.0,
            "height": 250.0
          },
          "Pivot": {
            "x": 125.0,
            "y": 135.0
          },
          "Mesh": {
            "TableCoordinate": [],
            "TableIndexVertex": []
          }
        },
        {
          "Name": "face_damage",
          "Rectangle": {
            "x": 384.0,
            "y": 404.0,
            "width": 250.0,
            "height": 250.0
          },
          "Pivot": {
            "x": 125.0,
            "y": 135.0
          },
          "Mesh": {
            "TableCoordinate": [],
            "TableIndexVertex": []
          }
        },
        {
          "Name": "face_unique",
          "Rectangle": {
            "x": 254.0,
            "y": 654.0,
            "width": 250.0,
            "height": 250.0
          },
          "Pivot": {
            "x": 125.0,
            "y": 135.0
          },
          "Mesh": {
            "TableCoordinate": [],
            "TableIndexVertex": []
          }
        },
        {
          "Name": "acce_head_front_c",
          "Rectangle": {
            "x": 834.0,
            "y": 4.0,
            "width": 530.0,
            "height": 360.0
          },
          "Pivot": {
            "x": 265.0,
            "y": 180.0
          },
          "Mesh": {
            "TableCoordinate": [],
            "TableIndexVertex": []
          }
        },
        {
          "Name": "acce_head_front_l",
          "Rectangle": {
            "x": 1364.0,
            "y": 4.0,
            "width": 250.0,
            "height": 280.0
          },
          "Pivot": {
            "x": 132.0,
            "y": 119.999878
          },
          "Mesh": {
            "TableCoordinate": [],
            "TableIndexVertex": []
          }
        },
        {
          "Name": "acce_head_front_r",
          "Rectangle": {
            "x": 1614.0,
            "y": 4.0,
            "width": 250.0,
            "height": 280.0
          },
          "Pivot": {
            "x": 123.0,
            "y": 133.999878
          },
          "Mesh": {
            "TableCoordinate": [],
            "TableIndexVertex": []
          }
        },
        {
          "Name": "hear_front_c",
          "Rectangle": {
            "x": 4.0,
            "y": 904.0,
            "width": 430.0,
            "height": 320.0
          },
          "Pivot": {
            "x": 213.0,
            "y": 63.0
          },
          "Mesh": {
            "TableCoordinate": [
              {
                "x": 108.0,
                "y": 203.0
              },
              {
                "x": 116.0,
                "y": 231.0
              },
              {
                "x": 104.0,
                "y": 227.0
              },
              {
                "x": 131.0,
                "y": 219.0
              },
              {
                "x": 126.0,
                "y": 200.0
              },
              {
                "x": 148.0,
                "y": 212.0
              },
              {
                "x": 135.0,
                "y": 181.0
              },
              {
                "x": 163.0,
                "y": 179.0
              },
              {
                "x": 144.0,
                "y": 157.0
              },
              {
                "x": 120.0,
                "y": 148.0
              },
              {
                "x": 130.0,
                "y": 121.0
              },
              {
                "x": 158.0,
                "y": 134.0
              },
              {
                "x": 178.0,
                "y": 146.0
              },
              {
                "x": 198.0,
                "y": 164.0
              },
              {
                "x": 188.0,
                "y": 190.0
              },
              {
                "x": 167.0,
                "y": 211.0
              },
              {
                "x": 178.0,
                "y": 211.0
              },
              {
                "x": 172.0,
                "y": 237.0
              },
              {
                "x": 191.0,
                "y": 231.0
              },
              {
                "x": 190.0,
                "y": 264.0
              },
              {
                "x": 206.0,
                "y": 189.0
              },
              {
                "x": 215.0,
                "y": 162.0
              },
              {
                "x": 220.0,
                "y": 148.0
              },
              {
                "x": 181.0,
                "y": 110.0
              },
              {
                "x": 199.0,
                "y": 79.0
              },
              {
                "x": 267.0,
                "y": 139.0
              },
              {
                "x": 238.0,
                "y": 54.0
              },
              {
                "x": 201.0,
                "y": 48.0
              },
              {
                "x": 229.0,
                "y": 40.0
              },
              {
                "x": 248.0,
                "y": 45.0
              },
              {
                "x": 284.0,
                "y": 78.0
              },
              {
                "x": 296.0,
                "y": 118.0
              },
              {
                "x": 309.0,
                "y": 165.0
              },
              {
                "x": 298.0,
                "y": 196.0
              },
              {
                "x": 322.0,
                "y": 198.0
              },
              {
                "x": 329.0,
                "y": 216.0
              },
              {
                "x": 331.0,
                "y": 163.0
              },
              {
                "x": 348.0,
                "y": 212.0
              },
              {
                "x": 331.0,
                "y": 208.0
              },
              {
                "x": 333.0,
                "y": 144.0
              },
              {
                "x": 352.0,
                "y": 147.0
              },
              {
                "x": 353.0,
                "y": 164.0
              },
              {
                "x": 358.0,
                "y": 194.0
              },
              {
                "x": 344.0,
                "y": 124.0
              },
              {
                "x": 317.0,
                "y": 77.0
              },
              {
                "x": 280.0,
                "y": 47.0
              },
              {
                "x": 258.0,
                "y": 38.0
              },
              {
                "x": 238.0,
                "y": 23.0
              },
              {
                "x": 219.0,
                "y": 25.0
              },
              {
                "x": 213.0,
                "y": 4.0
              },
              {
                "x": 175.0,
                "y": 7.0
              },
              {
                "x": 161.0,
                "y": 76.0
              },
              {
                "x": 143.0,
                "y": 100.0
              },
              {
                "x": 262.0,
                "y": 171.0
              },
              {
                "x": 245.0,
                "y": 178.0
              },
              {
                "x": 268.0,
                "y": 226.0
              },
              {
                "x": 229.0,
                "y": 195.0
              },
              {
                "x": 279.0,
                "y": 180.0
              },
              {
                "x": 113.0,
                "y": 176.0
              }
            ],
            "TableIndexVertex": [
              0,
              1,
              2,
              3,
              1,
              0,
              3,
              0,
              4,
              3,
              4,
              5,
              5,
              4,
              6,
              5,
              6,
              7,
              6,
              8,
              7,
              8,
              6,
              9,
              8,
              9,
              10,
              11,
              8,
              10,
              12,
              8,
              11,
              7,
              8,
              12,
              7,
              12,
              13,
              14,
              7,
              13,
              15,
              7,
              14,
              16,
              15,
              14,
              17,
              15,
              16,
              17,
              16,
              18,
              19,
              17,
              18,
              14,
              18,
              16,
              20,
              14,
              13,
              20,
              13,
              21,
              21,
              13,
              22,
              22,
              13,
              12,
              22,
              12,
              23,
              22,
              23,
              24,
              24,
              25,
              22,
              24,
              26,
              25,
              26,
              24,
              27,
              26,
              27,
              28,
              26,
              28,
              29,
              30,
              26,
              29,
              25,
              26,
              30,
              25,
              30,
              31,
              25,
              31,
              32,
              32,
              33,
              25,
              34,
              33,
              32,
              33,
              34,
              35,
              36,
              34,
              32,
              36,
              37,
              34,
              37,
              38,
              34,
              36,
              32,
              39,
              36,
              39,
              40,
              36,
              40,
              41,
              36,
              41,
              42,
              39,
              43,
              40,
              39,
              31,
              43,
              39,
              32,
              31,
              31,
              44,
              43,
              31,
              30,
              44,
              30,
              45,
              44,
              29,
              45,
              30,
              45,
              29,
              46,
              29,
              28,
              47,
              28,
              48,
              47,
              48,
              49,
              47,
              50,
              49,
              48,
              24,
              51,
              27,
              23,
              51,
              24,
              52,
              51,
              23,
              11,
              52,
              23,
              10,
              52,
              11,
              12,
              11,
              23,
              53,
              22,
              25,
              53,
              54,
              22,
              53,
              55,
              54,
              56,
              54,
              55,
              22,
              54,
              56,
              57,
              53,
              25,
              6,
              58,
              9,
              4,
              58,
              6,
              0,
              58,
              4
            ]
          }
        },
        {
          "Name": "hear_front_r",
          "Rectangle": {
            "x": 1800.0,
            "y": 864.0,
            "width": 200.0,
            "height": 380.0
          },
          "Pivot": {
            "x": 139.0,
            "y": 100.000038
          },
          "Mesh": {
            "TableCoordinate": [
              {
                "x": 88.0,
                "y": 143.0
              },
              {
                "x": 79.0,
                "y": 111.0
              },
              {
                "x": 132.0,
                "y": 111.0
              },
              {
                "x": 138.0,
                "y": 154.0
              },
              {
                "x": 100.0,
                "y": 160.0
              },
              {
                "x": 110.0,
                "y": 168.0
              },
              {
                "x": 149.0,
                "y": 170.0
              },
              {
                "x": 117.0,
                "y": 193.0
              },
              {
                "x": 156.0,
                "y": 196.0
              },
              {
                "x": 123.0,
                "y": 208.0
              },
              {
                "x": 135.0,
                "y": 216.0
              },
              {
                "x": 163.0,
                "y": 212.0
              },
              {
                "x": 142.0,
                "y": 235.0
              },
              {
                "x": 154.0,
                "y": 241.0
              },
              {
                "x": 168.0,
                "y": 239.0
              },
              {
                "x": 123.0,
                "y": 81.0
              },
              {
                "x": 80.0,
                "y": 75.0
              },
              {
                "x": 105.0,
                "y": 50.0
              },
              {
                "x": 88.0,
                "y": 45.0
              }
            ],
            "TableIndexVertex": [
              0,
              1,
              2,
              0,
              2,
              3,
              4,
              0,
              3,
              5,
              4,
              3,
              6,
              5,
              3,
              6,
              7,
              5,
              7,
              6,
              8,
              9,
              7,
              8,
              10,
              9,
              8,
              10,
              8,
              11,
              12,
              10,
              11,
              13,
              12,
              11,
              14,
              13,
              11,
              1,
              15,
              2,
              1,
              16,
              15,
              16,
              17,
              15,
              16,
              18,
              17
            ]
          }
        },
        {
          "Name": "head",
          "Rectangle": {
            "x": 730.0,
            "y": 694.0,
            "width": 290.0,
            "height": 250.0
          },
          "Pivot": {
            "x": 163.000015,
            "y": 225.0
          },
          "Mesh": {
            "TableCoordinate": [],
            "TableIndexVertex": []
          }
        },
        {
          "Name": "hear_front_l",
          "Rectangle": {
            "x": 504.0,
            "y": 840.0,
            "width": 200.0,
            "height": 380.0
          },
          "Pivot": {
            "x": 81.0,
            "y": 93.00006
          },
          "Mesh": {
            "TableCoordinate": [
              {
                "x": 49.0,
                "y": 240.0
              },
              {
                "x": 47.0,
                "y": 219.0
              },
              {
                "x": 68.0,
                "y": 237.0
              },
              {
                "x": 78.0,
                "y": 213.0
              },
              {
                "x": 58.0,
                "y": 196.0
              },
              {
                "x": 88.0,
                "y": 201.0
              },
              {
                "x": 62.0,
                "y": 168.0
              },
              {
                "x": 97.0,
                "y": 180.0
              },
              {
                "x": 93.0,
                "y": 158.0
              },
              {
                "x": 66.0,
                "y": 146.0
              },
              {
                "x": 101.0,
                "y": 139.0
              },
              {
                "x": 66.0,
                "y": 106.0
              },
              {
                "x": 107.0,
                "y": 107.0
              },
              {
                "x": 84.0,
                "y": 72.0
              },
              {
                "x": 96.0,
                "y": 65.0
              }
            ],
            "TableIndexVertex": [
              0,
              1,
              2,
              2,
              1,
              3,
              1,
              4,
              3,
              3,
              4,
              5,
              5,
              4,
              6,
              7,
              5,
              6,
              6,
              8,
              7,
              6,
              9,
              8,
              8,
              9,
              10,
              9,
              11,
              10,
              10,
              11,
              12,
              11,
              13,
              12,
              13,
              14,
              12
            ]
          }
        },
        {
          "Name": "acce_body_front",
          "Rectangle": {
            "x": 4.0,
            "y": 4.0,
            "width": 250.0,
            "height": 275.0
          },
          "Pivot": {
            "x": 125.0,
            "y": 101.999977
          },
          "Mesh": {
            "TableCoordinate": [],
            "TableIndexVertex": []
          }
        },
        {
          "Name": "hand_r",
          "Rectangle": {
            "x": 504.0,
            "y": 660.0,
            "width": 225.0,
            "height": 180.0
          },
          "Pivot": {
            "x": 81.9999,
            "y": 61.00002
          },
          "Mesh": {
            "TableCoordinate": [],
            "TableIndexVertex": []
          }
        },
        {
          "Name": "arm_r",
          "Rectangle": {
            "x": 4.0,
            "y": 280.0,
            "width": 130.0,
            "height": 180.0
          },
          "Pivot": {
            "x": 78.99996,
            "y": 64.00008
          },
          "Mesh": {
            "TableCoordinate": [],
            "TableIndexVertex": []
          }
        },
        {
          "Name": "body",
          "Rectangle": {
            "x": 1164.0,
            "y": 364.0,
            "width": 180.0,
            "height": 220.0
          },
          "Pivot": {
            "x": 93.99996,
            "y": 151.000076
          },
          "Mesh": {
            "TableCoordinate": [],
            "TableIndexVertex": []
          }
        },
        {
          "Name": "acce_hip_front",
          "Rectangle": {
            "x": 1664.0,
            "y": 284.0,
            "width": 330.0,
            "height": 330.0
          },
          "Pivot": {
            "x": 167.000137,
            "y": 141.000092
          },
          "Mesh": {
            "TableCoordinate": [],
            "TableIndexVertex": []
          }
        },
        {
          "Name": "thigh_r",
          "Rectangle": {
            "x": 864.0,
            "y": 1124.0,
            "width": 130.0,
            "height": 180.0
          },
          "Pivot": {
            "x": 61.00003,
            "y": 68.00004
          },
          "Mesh": {
            "TableCoordinate": [],
            "TableIndexVertex": []
          }
        },
        {
          "Name": "leg_r",
          "Rectangle": {
            "x": 1914.0,
            "y": 614.0,
            "width": 130.0,
            "height": 180.0
          },
          "Pivot": {
            "x": 78.0,
            "y": 54.0
          },
          "Mesh": {
            "TableCoordinate": [],
            "TableIndexVertex": []
          }
        },
        {
          "Name": "hip",
          "Rectangle": {
            "x": 704.0,
            "y": 944.0,
            "width": 180.0,
            "height": 180.0
          },
          "Pivot": {
            "x": 95.00004,
            "y": 109.000076
          },
          "Mesh": {
            "TableCoordinate": [],
            "TableIndexVertex": []
          }
        },
        {
          "Name": "thigh_l",
          "Rectangle": {
            "x": 884.0,
            "y": 944.0,
            "width": 130.0,
            "height": 180.0
          },
          "Pivot": {
            "x": 61.99999,
            "y": 68.00004
          },
          "Mesh": {
            "TableCoordinate": [],
            "TableIndexVertex": []
          }
        },
        {
          "Name": "leg_l",
          "Rectangle": {
            "x": 4.0,
            "y": 460.0,
            "width": 130.0,
            "height": 180.0
          },
          "Pivot": {
            "x": 71.99998,
            "y": 55.00008
          },
          "Mesh": {
            "TableCoordinate": [],
            "TableIndexVertex": []
          }
        },
        {
          "Name": "weapon_b",
          "Rectangle": {
            "x": 1294.0,
            "y": 1384.0,
            "width": 250.0,
            "height": 500.0
          },
          "Pivot": {
            "x": 130.0,
            "y": 368.0
          },
          "Mesh": {
            "TableCoordinate": [],
            "TableIndexVertex": []
          }
        },
        {
          "Name": "hand_l",
          "Rectangle": {
            "x": 634.0,
            "y": 404.0,
            "width": 180.0,
            "height": 255.0
          },
          "Pivot": {
            "x": 99.0,
            "y": 59.00012
          },
          "Mesh": {
            "TableCoordinate": [],
            "TableIndexVertex": []
          }
        },
        {
          "Name": "arm_l",
          "Rectangle": {
            "x": 1864.0,
            "y": 4.0,
            "width": 130.0,
            "height": 180.0
          },
          "Pivot": {
            "x": 49.99995,
            "y": 63.0
          },
          "Mesh": {
            "TableCoordinate": [],
            "TableIndexVertex": []
          }
        },
        {
          "Name": "hear_back_c",
          "Rectangle": {
            "x": 1020.0,
            "y": 834.0,
            "width": 260.0,
            "height": 520.0
          },
          "Pivot": {
            "x": 119.999878,
            "y": 80.99988
          },
          "Mesh": {
            "TableCoordinate": [
              {
                "x": 13.0,
                "y": 385.0
              },
              {
                "x": 2.0,
                "y": 359.0
              },
              {
                "x": 36.0,
                "y": 378.0
              },
              {
                "x": 38.0,
                "y": 359.0
              },
              {
                "x": 3.0,
                "y": 328.0
              },
              {
                "x": 10.0,
                "y": 290.0
              },
              {
                "x": 124.0,
                "y": 288.0
              },
              {
                "x": 127.0,
                "y": 330.0
              },
              {
                "x": 109.0,
                "y": 376.0
              },
              {
                "x": 63.0,
                "y": 383.0
              },
              {
                "x": 206.0,
                "y": 366.0
              },
              {
                "x": 249.0,
                "y": 281.0
              },
              {
                "x": 236.0,
                "y": 245.0
              },
              {
                "x": 125.0,
                "y": 244.0
              },
              {
                "x": 21.0,
                "y": 239.0
              },
              {
                "x": 27.0,
                "y": 207.0
              },
              {
                "x": 126.0,
                "y": 208.0
              },
              {
                "x": 235.0,
                "y": 200.0
              },
              {
                "x": 129.0,
                "y": 168.0
              },
              {
                "x": 35.0,
                "y": 169.0
              },
              {
                "x": 42.0,
                "y": 132.0
              },
              {
                "x": 127.0,
                "y": 132.0
              },
              {
                "x": 231.0,
                "y": 149.0
              },
              {
                "x": 218.0,
                "y": 95.0
              },
              {
                "x": 129.0,
                "y": 92.0
              },
              {
                "x": 197.0,
                "y": 58.0
              },
              {
                "x": 146.0,
                "y": 39.0
              },
              {
                "x": 93.0,
                "y": 47.0
              },
              {
                "x": 71.0,
                "y": 66.0
              },
              {
                "x": 54.0,
                "y": 94.0
              },
              {
                "x": 258.0,
                "y": 319.0
              },
              {
                "x": 243.0,
                "y": 354.0
              },
              {
                "x": 261.0,
                "y": 357.0
              },
              {
                "x": 251.0,
                "y": 371.0
              },
              {
                "x": 224.0,
                "y": 373.0
              }
            ],
            "TableIndexVertex": [
              0,
              1,
              2,
              2,
              1,
              3,
              3,
              1,
              4,
              3,
              4,
              5,
              3,
              5,
              6,
              3,
              6,
              7,
              8,
              3,
              7,
              8,
              9,
              3,
              8,
              7,
              10,
              10,
              7,
              6,
              6,
              11,
              10,
              6,
              12,
              11,
              6,
              13,
              12,
              6,
              14,
              13,
              5,
              14,
              6,
              14,
              15,
              13,
              13,
              15,
              16,
              13,
              16,
              12,
              16,
              17,
              12,
              16,
              18,
              17,
              16,
              19,
              18,
              15,
              19,
              16,
              18,
              19,
              20,
              18,
              20,
              21,
              21,
              22,
              18,
              22,
              21,
              23,
              24,
              23,
              21,
              25,
              23,
              24,
              24,
              26,
              25,
              24,
              27,
              26,
              28,
              27,
              24,
              24,
              29,
              28,
              21,
              29,
              24,
              20,
              29,
              21,
              18,
              22,
              17,
              11,
              30,
              10,
              30,
              31,
              10,
              31,
              30,
              32,
              33,
              31,
              32,
              34,
              10,
              31
            ]
          }
        },
        {
          "Name": "hear_back_r",
          "Rectangle": {
            "x": 1540.0,
            "y": 864.0,
            "width": 260.0,
            "height": 520.0
          },
          "Pivot": {
            "x": 164.999908,
            "y": 81.99983
          },
          "Mesh": {
            "TableCoordinate": [
              {
                "x": 9.0,
                "y": 322.0
              },
              {
                "x": 3.0,
                "y": 269.0
              },
              {
                "x": 63.0,
                "y": 280.0
              },
              {
                "x": 75.0,
                "y": 319.0
              },
              {
                "x": 44.0,
                "y": 354.0
              },
              {
                "x": 106.0,
                "y": 366.0
              },
              {
                "x": 89.0,
                "y": 385.0
              },
              {
                "x": 28.0,
                "y": 353.0
              },
              {
                "x": 63.0,
                "y": 226.0
              },
              {
                "x": 9.0,
                "y": 216.0
              },
              {
                "x": 34.0,
                "y": 140.0
              },
              {
                "x": 88.0,
                "y": 156.0
              },
              {
                "x": 47.0,
                "y": 100.0
              },
              {
                "x": 125.0,
                "y": 85.0
              },
              {
                "x": 64.0,
                "y": 61.0
              },
              {
                "x": 134.0,
                "y": 58.0
              },
              {
                "x": 127.0,
                "y": 33.0
              },
              {
                "x": 92.0,
                "y": 19.0
              },
              {
                "x": 107.0,
                "y": 10.0
              }
            ],
            "TableIndexVertex": [
              0,
              1,
              2,
              0,
              2,
              3,
              3,
              4,
              0,
              4,
              3,
              5,
              6,
              4,
              5,
              4,
              7,
              0,
              1,
              8,
              2,
              1,
              9,
              8,
              9,
              10,
              8,
              8,
              10,
              11,
              10,
              12,
              11,
              11,
              12,
              13,
              13,
              12,
              14,
              13,
              14,
              15,
              14,
              16,
              15,
              16,
              14,
              17,
              16,
              17,
              18
            ]
          }
        },
        {
          "Name": "hear_back_l",
          "Rectangle": {
            "x": 1280.0,
            "y": 834.0,
            "width": 260.0,
            "height": 520.0
          },
          "Pivot": {
            "x": 71.99998,
            "y": 77.0000458
          },
          "Mesh": {
            "TableCoordinate": [
              {
                "x": 149.0,
                "y": 135.0
              },
              {
                "x": 128.0,
                "y": 83.0
              },
              {
                "x": 198.0,
                "y": 69.0
              },
              {
                "x": 213.0,
                "y": 127.0
              },
              {
                "x": 171.0,
                "y": 196.0
              },
              {
                "x": 226.0,
                "y": 159.0
              },
              {
                "x": 237.0,
                "y": 199.0
              },
              {
                "x": 184.0,
                "y": 231.0
              },
              {
                "x": 242.0,
                "y": 236.0
              },
              {
                "x": 183.0,
                "y": 274.0
              },
              {
                "x": 240.0,
                "y": 283.0
              },
              {
                "x": 214.0,
                "y": 326.0
              },
              {
                "x": 229.0,
                "y": 325.0
              },
              {
                "x": 173.0,
                "y": 318.0
              },
              {
                "x": 178.0,
                "y": 352.0
              },
              {
                "x": 163.0,
                "y": 343.0
              },
              {
                "x": 166.0,
                "y": 363.0
              },
              {
                "x": 197.0,
                "y": 363.0
              },
              {
                "x": 183.0,
                "y": 378.0
              },
              {
                "x": 177.0,
                "y": 25.0
              },
              {
                "x": 130.0,
                "y": 32.0
              },
              {
                "x": 152.0,
                "y": 11.0
              }
            ],
            "TableIndexVertex": [
              0,
              1,
              2,
              0,
              2,
              3,
              4,
              0,
              3,
              4,
              3,
              5,
              4,
              5,
              6,
              7,
              4,
              6,
              7,
              6,
              8,
              9,
              7,
              8,
              10,
              9,
              8,
              10,
              11,
              9,
              10,
              12,
              11,
              11,
              13,
              9,
              14,
              13,
              11,
              15,
              13,
              14,
              16,
              15,
              14,
              17,
              14,
              11,
              18,
              14,
              17,
              2,
              1,
              19,
              19,
              1,
              20,
              19,
              20,
              21
            ]
          }
        },
        {
          "Name": "weapon_r",
          "Rectangle": {
            "x": 1794.0,
            "y": 1384.0,
            "width": 250.0,
            "height": 400.0
          },
          "Pivot": {
            "x": 131.0,
            "y": 338.0
          },
          "Mesh": {
            "TableCoordinate": [],
            "TableIndexVertex": []
          }
        },
        {
          "Name": "weapon_r_1",
          "Rectangle": {
            "x": 1794.0,
            "y": 1384.0,
            "width": 250.0,
            "height": 400.0
          },
          "Pivot": {
            "x": 128.0,
            "y": 182.0
          },
          "Mesh": {
            "TableCoordinate": [],
            "TableIndexVertex": []
          }
        },
        {
          "Name": "weapon_l",
          "Rectangle": {
            "x": 1544.0,
            "y": 1384.0,
            "width": 250.0,
            "height": 400.0
          },
          "Pivot": {
            "x": 131.0,
            "y": 338.0
          },
          "Mesh": {
            "TableCoordinate": [],
            "TableIndexVertex": []
          }
        },
        {
          "Name": "rear_c",
          "Rectangle": {
            "x": 434.0,
            "y": 1220.0,
            "width": 430.0,
            "height": 430.0
          },
          "Pivot": {
            "x": 215.0,
            "y": 215.0
          },
          "Mesh": {
            "TableCoordinate": [],
            "TableIndexVertex": []
          }
        },
        {
          "Name": "rear_r",
          "Rectangle": {
            "x": 864.0,
            "y": 1354.0,
            "width": 430.0,
            "height": 430.0
          },
          "Pivot": {
            "x": 215.0,
            "y": 215.0
          },
          "Mesh": {
            "TableCoordinate": [],
            "TableIndexVertex": []
          }
        },
        {
          "Name": "rear_l",
          "Rectangle": {
            "x": 4.0,
            "y": 1224.0,
            "width": 430.0,
            "height": 430.0
          },
          "Pivot": {
            "x": 215.0,
            "y": 215.0
          },
          "Mesh": {
            "TableCoordinate": [],
            "TableIndexVertex": []
          }
        },
        {
          "Name": "acce_head_rear_c",
          "Rectangle": {
            "x": 1364.0,
            "y": 284.0,
            "width": 300.0,
            "height": 300.0
          },
          "Pivot": {
            "x": 150.0,
            "y": 150.0
          },
          "Mesh": {
            "TableCoordinate": [],
            "TableIndexVertex": []
          }
        },
        {
          "Name": "acce_body_rear",
          "Rectangle": {
            "x": 254.0,
            "y": 4.0,
            "width": 580.0,
            "height": 400.0
          },
          "Pivot": {
            "x": 290.0,
            "y": 200.0
          },
          "Mesh": {
            "TableCoordinate": [],
            "TableIndexVertex": []
          }
        },
        {
          "Name": "acce_hip_rear",
          "Rectangle": {
            "x": 834.0,
            "y": 364.0,
            "width": 330.0,
            "height": 330.0
          },
          "Pivot": {
            "x": 165.0,
            "y": 165.0
          },
          "Mesh": {
            "TableCoordinate": [],
            "TableIndexVertex": []
          }
        }
      ]
    }
  ]
}