{
  "m_GameObject": {
    "m_FileID": 0,
    "m_PathID": 0
  },
  "m_Enabled": 1,
  "m_Script": {
    "m_FileID": 0,
    "m_PathID": -2767099076474933927
  },
  "m_Name": "dc_1082100_sd",
  "Version": 65537,
  "TableCellMap": [
    {
      "Name": "1082100_sd",
      "SizeOriginal": {
        "x": 2048.0,
        "y": 2048.0
      },
      "TableCell": [
        {
          "Name": "face_normal",
          "Rectangle": {
            "x": 4.0,
            "y": 654.0,
            "width": 250.0,
            "height": 250.0
          },
          "Pivot": {
            "x": 125.0,
            "y": 135.0
          },
          "Mesh": {
            "TableCoordinate": [],
            "TableIndexVertex": []
          }
        },
        {
          "Name": "face_eye_close_normal",
          "Rectangle": {
            "x": 1164.0,
            "y": 584.0,
            "width": 250.0,
            "height": 250.0
          },
          "Pivot": {
            "x": 125.0,
            "y": 135.0
          },
          "Mesh": {
            "TableCoordinate": [],
            "TableIndexVertex": []
          }
        },
        {
          "Name": "face_mouth_open_happy",
          "Rectangle": {
            "x": 1664.0,
            "y": 614.0,
            "width": 250.0,
            "height": 250.0
          },
          "Pivot": {
            "x": 125.0,
            "y": 135.0
          },
          "Mesh": {
            "TableCoordinate": [],
            "TableIndexVertex": []
          }
        },
        {
          "Name": "face_happy",
          "Rectangle": {
            "x": 1414.0,
            "y": 584.0,
            "width": 250.0,
            "height": 250.0
          },
          "Pivot": {
            "x": 125.0,
            "y": 135.0
          },
          "Mesh": {
            "TableCoordinate": [],
            "TableIndexVertex": []
          }
        },
        {
          "Name": "face_attack",
          "Rectangle": {
            "x": 134.0,
            "y": 404.0,
            "width": 250.0,
            "height": 250.0
          },
          "Pivot": {
            "x": 125.0,
            "y": 135.0
          },
          "Mesh": {
            "TableCoordinate": [],
            "TableIndexVertex": []
          }
        },
        {
          "Name": "face_damage",
          "Rectangle": {
            "x": 384.0,
            "y": 404.0,
            "width": 250.0,
            "height": 250.0
          },
          "Pivot": {
            "x": 125.0,
            "y": 135.0
          },
          "Mesh": {
            "TableCoordinate": [],
            "TableIndexVertex": []
          }
        },
        {
          "Name": "face_unique",
          "Rectangle": {
            "x": 254.0,
            "y": 654.0,
            "width": 250.0,
            "height": 250.0
          },
          "Pivot": {
            "x": 125.0,
            "y": 135.0
          },
          "Mesh": {
            "TableCoordinate": [],
            "TableIndexVertex": []
          }
        },
        {
          "Name": "acce_head_front_c",
          "Rectangle": {
            "x": 834.0,
            "y": 4.0,
            "width": 530.0,
            "height": 360.0
          },
          "Pivot": {
            "x": 265.0,
            "y": 180.0
          },
          "Mesh": {
            "TableCoordinate": [],
            "TableIndexVertex": []
          }
        },
        {
          "Name": "acce_head_front_l",
          "Rectangle": {
            "x": 1364.0,
            "y": 4.0,
            "width": 250.0,
            "height": 280.0
          },
          "Pivot": {
            "x": 132.0,
            "y": 119.999878
          },
          "Mesh": {
            "TableCoordinate": [],
            "TableIndexVertex": []
          }
        },
        {
          "Name": "acce_head_front_r",
          "Rectangle": {
            "x": 1614.0,
            "y": 4.0,
            "width": 250.0,
            "height": 280.0
          },
          "Pivot": {
            "x": 123.0,
            "y": 133.999878
          },
          "Mesh": {
            "TableCoordinate": [],
            "TableIndexVertex": []
          }
        },
        {
          "Name": "hear_front_c",
          "Rectangle": {
            "x": 4.0,
            "y": 904.0,
            "width": 430.0,
            "height": 320.0
          },
          "Pivot": {
            "x": 216.0,
            "y": 71.00001
          },
          "Mesh": {
            "TableCoordinate": [
              {
                "x": 59.0,
                "y": 116.0
              },
              {
                "x": 56.0,
                "y": 64.0
              },
              {
                "x": 99.0,
                "y": 76.0
              },
              {
                "x": 137.0,
                "y": 91.0
              },
              {
                "x": 79.0,
                "y": 162.0
              },
              {
                "x": 140.0,
                "y": 157.0
              },
              {
                "x": 108.0,
                "y": 199.0
              },
              {
                "x": 149.0,
                "y": 223.0
              },
              {
                "x": 119.0,
                "y": 239.0
              },
              {
                "x": 139.0,
                "y": 256.0
              },
              {
                "x": 169.0,
                "y": 261.0
              },
              {
                "x": 194.0,
                "y": 223.0
              },
              {
                "x": 182.0,
                "y": 195.0
              },
              {
                "x": 173.0,
                "y": 136.0
              },
              {
                "x": 222.0,
                "y": 95.0
              },
              {
                "x": 223.0,
                "y": 127.0
              },
              {
                "x": 209.0,
                "y": 177.0
              },
              {
                "x": 201.0,
                "y": 197.0
              },
              {
                "x": 279.0,
                "y": 182.0
              },
              {
                "x": 242.0,
                "y": 207.0
              },
              {
                "x": 223.0,
                "y": 205.0
              },
              {
                "x": 286.0,
                "y": 138.0
              },
              {
                "x": 329.0,
                "y": 176.0
              },
              {
                "x": 303.0,
                "y": 210.0
              },
              {
                "x": 278.0,
                "y": 217.0
              },
              {
                "x": 290.0,
                "y": 241.0
              },
              {
                "x": 333.0,
                "y": 241.0
              },
              {
                "x": 336.0,
                "y": 209.0
              },
              {
                "x": 362.0,
                "y": 234.0
              },
              {
                "x": 362.0,
                "y": 209.0
              },
              {
                "x": 364.0,
                "y": 182.0
              },
              {
                "x": 361.0,
                "y": 166.0
              },
              {
                "x": 365.0,
                "y": 142.0
              },
              {
                "x": 368.0,
                "y": 100.0
              },
              {
                "x": 272.0,
                "y": 91.0
              },
              {
                "x": 212.0,
                "y": 61.0
              },
              {
                "x": 133.0,
                "y": 14.0
              },
              {
                "x": 207.0,
                "y": -7.0
              },
              {
                "x": 271.0,
                "y": 8.0
              },
              {
                "x": 308.0,
                "y": 34.0
              },
              {
                "x": 364.0,
                "y": 58.0
              },
              {
                "x": 97.0,
                "y": 224.0
              },
              {
                "x": 81.0,
                "y": 207.0
              },
              {
                "x": 79.0,
                "y": 184.0
              }
            ],
            "TableIndexVertex": [
              0,
              1,
              2,
              0,
              2,
              3,
              3,
              4,
              0,
              5,
              4,
              3,
              5,
              6,
              4,
              7,
              6,
              5,
              7,
              8,
              6,
              9,
              8,
              7,
              9,
              7,
              10,
              10,
              7,
              11,
              7,
              12,
              11,
              12,
              7,
              5,
              5,
              13,
              12,
              5,
              3,
              13,
              13,
              3,
              14,
              13,
              14,
              15,
              16,
              13,
              15,
              12,
              13,
              16,
              17,
              12,
              16,
              18,
              16,
              15,
              18,
              19,
              16,
              19,
              20,
              16,
              21,
              18,
              15,
              18,
              21,
              22,
              23,
              18,
              22,
              24,
              18,
              23,
              25,
              24,
              23,
              25,
              23,
              26,
              26,
              23,
              27,
              26,
              27,
              28,
              27,
              29,
              28,
              29,
              27,
              30,
              27,
              22,
              30,
              27,
              23,
              22,
              22,
              31,
              30,
              31,
              22,
              32,
              32,
              22,
              21,
              32,
              21,
              33,
              21,
              34,
              33,
              15,
              34,
              21,
              15,
              14,
              34,
              14,
              35,
              34,
              3,
              35,
              14,
              35,
              3,
              36,
              36,
              37,
              35,
              35,
              37,
              38,
              35,
              38,
              34,
              34,
              38,
              39,
              34,
              39,
              40,
              33,
              34,
              40,
              3,
              2,
              36,
              2,
              1,
              36,
              8,
              41,
              6,
              41,
              42,
              6,
              42,
              43,
              6,
              6,
              43,
              4
            ]
          }
        },
        {
          "Name": "hear_front_r",
          "Rectangle": {
            "x": 1800.0,
            "y": 864.0,
            "width": 200.0,
            "height": 380.0
          },
          "Pivot": {
            "x": 111.0,
            "y": 87.0
          },
          "Mesh": {
            "TableCoordinate": [
              {
                "x": 56.0,
                "y": 146.0
              },
              {
                "x": 146.0,
                "y": 166.0
              },
              {
                "x": 60.0,
                "y": 182.0
              },
              {
                "x": 143.0,
                "y": 139.0
              },
              {
                "x": 130.0,
                "y": 115.0
              },
              {
                "x": 59.0,
                "y": 119.0
              },
              {
                "x": 65.0,
                "y": 88.0
              },
              {
                "x": 131.0,
                "y": 82.0
              },
              {
                "x": 123.0,
                "y": 49.0
              },
              {
                "x": 78.0,
                "y": 41.0
              },
              {
                "x": 78.0,
                "y": 209.0
              },
              {
                "x": 104.0,
                "y": 220.0
              },
              {
                "x": 151.0,
                "y": 186.0
              },
              {
                "x": 143.0,
                "y": 216.0
              }
            ],
            "TableIndexVertex": [
              0,
              1,
              2,
              1,
              0,
              3,
              3,
              0,
              4,
              0,
              5,
              4,
              5,
              6,
              4,
              4,
              6,
              7,
              6,
              8,
              7,
              6,
              9,
              8,
              10,
              2,
              1,
              11,
              10,
              1,
              1,
              12,
              11,
              13,
              11,
              12
            ]
          }
        },
        {
          "Name": "head",
          "Rectangle": {
            "x": 730.0,
            "y": 694.0,
            "width": 290.0,
            "height": 250.0
          },
          "Pivot": {
            "x": 163.000015,
            "y": 225.0
          },
          "Mesh": {
            "TableCoordinate": [],
            "TableIndexVertex": []
          }
        },
        {
          "Name": "hear_front_l",
          "Rectangle": {
            "x": 504.0,
            "y": 840.0,
            "width": 200.0,
            "height": 380.0
          },
          "Pivot": {
            "x": 81.0,
            "y": 93.00006
          },
          "Mesh": {
            "TableCoordinate": [
              {
                "x": 92.0,
                "y": 224.0
              },
              {
                "x": 65.0,
                "y": 217.0
              },
              {
                "x": 76.0,
                "y": 195.0
              },
              {
                "x": 106.0,
                "y": 212.0
              },
              {
                "x": 122.0,
                "y": 191.0
              },
              {
                "x": 88.0,
                "y": 165.0
              },
              {
                "x": 139.0,
                "y": 167.0
              },
              {
                "x": 86.0,
                "y": 142.0
              },
              {
                "x": 145.0,
                "y": 144.0
              },
              {
                "x": 86.0,
                "y": 115.0
              },
              {
                "x": 148.0,
                "y": 113.0
              },
              {
                "x": 140.0,
                "y": 97.0
              },
              {
                "x": 88.0,
                "y": 95.0
              },
              {
                "x": 134.0,
                "y": 70.0
              },
              {
                "x": 87.0,
                "y": 68.0
              },
              {
                "x": 123.0,
                "y": 33.0
              },
              {
                "x": 88.0,
                "y": 37.0
              }
            ],
            "TableIndexVertex": [
              0,
              1,
              2,
              3,
              0,
              2,
              3,
              2,
              4,
              2,
              5,
              4,
              4,
              5,
              6,
              6,
              5,
              7,
              8,
              6,
              7,
              9,
              8,
              7,
              10,
              8,
              9,
              10,
              9,
              11,
              9,
              12,
              11,
              12,
              13,
              11,
              12,
              14,
              13,
              13,
              14,
              15,
              14,
              16,
              15
            ]
          }
        },
        {
          "Name": "acce_body_front",
          "Rectangle": {
            "x": 4.0,
            "y": 4.0,
            "width": 250.0,
            "height": 275.0
          },
          "Pivot": {
            "x": 125.0,
            "y": 101.999977
          },
          "Mesh": {
            "TableCoordinate": [],
            "TableIndexVertex": []
          }
        },
        {
          "Name": "hand_r",
          "Rectangle": {
            "x": 504.0,
            "y": 660.0,
            "width": 225.0,
            "height": 180.0
          },
          "Pivot": {
            "x": 81.9999,
            "y": 61.00002
          },
          "Mesh": {
            "TableCoordinate": [],
            "TableIndexVertex": []
          }
        },
        {
          "Name": "arm_r",
          "Rectangle": {
            "x": 4.0,
            "y": 280.0,
            "width": 130.0,
            "height": 180.0
          },
          "Pivot": {
            "x": 78.99996,
            "y": 64.00008
          },
          "Mesh": {
            "TableCoordinate": [],
            "TableIndexVertex": []
          }
        },
        {
          "Name": "body",
          "Rectangle": {
            "x": 1164.0,
            "y": 364.0,
            "width": 180.0,
            "height": 220.0
          },
          "Pivot": {
            "x": 93.99996,
            "y": 151.000076
          },
          "Mesh": {
            "TableCoordinate": [],
            "TableIndexVertex": []
          }
        },
        {
          "Name": "acce_hip_front",
          "Rectangle": {
            "x": 1664.0,
            "y": 284.0,
            "width": 330.0,
            "height": 330.0
          },
          "Pivot": {
            "x": 167.000137,
            "y": 141.000092
          },
          "Mesh": {
            "TableCoordinate": [],
            "TableIndexVertex": []
          }
        },
        {
          "Name": "thigh_r",
          "Rectangle": {
            "x": 864.0,
            "y": 1124.0,
            "width": 130.0,
            "height": 180.0
          },
          "Pivot": {
            "x": 61.00003,
            "y": 68.00004
          },
          "Mesh": {
            "TableCoordinate": [],
            "TableIndexVertex": []
          }
        },
        {
          "Name": "leg_r",
          "Rectangle": {
            "x": 1914.0,
            "y": 614.0,
            "width": 130.0,
            "height": 180.0
          },
          "Pivot": {
            "x": 81.0,
            "y": 60.0
          },
          "Mesh": {
            "TableCoordinate": [],
            "TableIndexVertex": []
          }
        },
        {
          "Name": "hip",
          "Rectangle": {
            "x": 704.0,
            "y": 944.0,
            "width": 180.0,
            "height": 180.0
          },
          "Pivot": {
            "x": 95.00004,
            "y": 109.000076
          },
          "Mesh": {
            "TableCoordinate": [],
            "TableIndexVertex": []
          }
        },
        {
          "Name": "thigh_l",
          "Rectangle": {
            "x": 896.0,
            "y": 944.0,
            "width": 109.0,
            "height": 180.0
          },
          "Pivot": {
            "x": 51.9846077,
            "y": 68.00004
          },
          "Mesh": {
            "TableCoordinate": [],
            "TableIndexVertex": []
          }
        },
        {
          "Name": "leg_l",
          "Rectangle": {
            "x": 4.0,
            "y": 460.0,
            "width": 130.0,
            "height": 180.0
          },
          "Pivot": {
            "x": 68.0,
            "y": 67.0
          },
          "Mesh": {
            "TableCoordinate": [],
            "TableIndexVertex": []
          }
        },
        {
          "Name": "weapon_b",
          "Rectangle": {
            "x": 1294.0,
            "y": 1384.0,
            "width": 250.0,
            "height": 500.0
          },
          "Pivot": {
            "x": 130.0,
            "y": 368.0
          },
          "Mesh": {
            "TableCoordinate": [],
            "TableIndexVertex": []
          }
        },
        {
          "Name": "weapon_b_1",
          "Rectangle": {
            "x": 1294.0,
            "y": 1384.0,
            "width": 250.0,
            "height": 500.0
          },
          "Pivot": {
            "x": 130.0,
            "y": 368.0
          },
          "Mesh": {
            "TableCoordinate": [],
            "TableIndexVertex": []
          }
        },
        {
          "Name": "hand_l",
          "Rectangle": {
            "x": 634.0,
            "y": 404.0,
            "width": 180.0,
            "height": 255.0
          },
          "Pivot": {
            "x": 99.0,
            "y": 59.00012
          },
          "Mesh": {
            "TableCoordinate": [],
            "TableIndexVertex": []
          }
        },
        {
          "Name": "arm_l",
          "Rectangle": {
            "x": 1864.0,
            "y": 4.0,
            "width": 130.0,
            "height": 180.0
          },
          "Pivot": {
            "x": 49.99995,
            "y": 63.0
          },
          "Mesh": {
            "TableCoordinate": [],
            "TableIndexVertex": []
          }
        },
        {
          "Name": "hear_back_c",
          "Rectangle": {
            "x": 1002.0,
            "y": 834.0,
            "width": 287.0,
            "height": 520.0
          },
          "Pivot": {
            "x": 132.461411,
            "y": 80.99988
          },
          "Mesh": {
            "TableCoordinate": [
              {
                "x": 13.0,
                "y": 229.0
              },
              {
                "x": 0.0,
                "y": 175.0
              },
              {
                "x": 52.0,
                "y": 111.0
              },
              {
                "x": 155.0,
                "y": 173.0
              },
              {
                "x": 158.0,
                "y": 220.0
              },
              {
                "x": 40.0,
                "y": 275.0
              },
              {
                "x": 149.0,
                "y": 283.0
              },
              {
                "x": 139.0,
                "y": 333.0
              },
              {
                "x": 28.0,
                "y": 330.0
              },
              {
                "x": 120.0,
                "y": 376.0
              },
              {
                "x": 31.0,
                "y": 381.0
              },
              {
                "x": 216.0,
                "y": 398.0
              },
              {
                "x": 248.0,
                "y": 338.0
              },
              {
                "x": 280.0,
                "y": 294.0
              },
              {
                "x": 287.0,
                "y": 239.0
              },
              {
                "x": 308.0,
                "y": 188.0
              },
              {
                "x": 303.0,
                "y": 131.0
              },
              {
                "x": 172.0,
                "y": 113.0
              },
              {
                "x": 268.0,
                "y": 77.0
              },
              {
                "x": 171.0,
                "y": 66.0
              },
              {
                "x": 206.0,
                "y": 30.0
              },
              {
                "x": 156.0,
                "y": 14.0
              },
              {
                "x": 96.0,
                "y": 45.0
              },
              {
                "x": 69.0,
                "y": 73.0
              }
            ],
            "TableIndexVertex": [
              0,
              1,
              2,
              0,
              2,
              3,
              0,
              3,
              4,
              5,
              0,
              4,
              6,
              5,
              4,
              7,
              5,
              6,
              8,
              5,
              7,
              9,
              8,
              7,
              10,
              8,
              9,
              9,
              7,
              11,
              11,
              7,
              12,
              7,
              6,
              12,
              12,
              6,
              13,
              13,
              6,
              4,
              14,
              13,
              4,
              14,
              4,
              3,
              15,
              14,
              3,
              15,
              3,
              16,
              17,
              16,
              3,
              18,
              16,
              17,
              18,
              17,
              19,
              18,
              19,
              20,
              19,
              21,
              20,
              22,
              21,
              19,
              22,
              19,
              17,
              23,
              22,
              17,
              17,
              2,
              23,
              3,
              2,
              17
            ]
          }
        },
        {
          "Name": "hear_back_r",
          "Rectangle": {
            "x": 1540.0,
            "y": 864.0,
            "width": 260.0,
            "height": 520.0
          },
          "Pivot": {
            "x": 164.999908,
            "y": 81.99983
          },
          "Mesh": {
            "TableCoordinate": [
              {
                "x": 12.0,
                "y": 419.0
              },
              {
                "x": 11.0,
                "y": 390.0
              },
              {
                "x": 117.0,
                "y": 418.0
              },
              {
                "x": 14.0,
                "y": 448.0
              },
              {
                "x": 117.0,
                "y": 446.0
              },
              {
                "x": 39.0,
                "y": 483.0
              },
              {
                "x": 21.0,
                "y": 473.0
              },
              {
                "x": 68.0,
                "y": 491.0
              },
              {
                "x": 112.0,
                "y": 470.0
              },
              {
                "x": 124.0,
                "y": 390.0
              },
              {
                "x": 15.0,
                "y": 360.0
              },
              {
                "x": 36.0,
                "y": 331.0
              },
              {
                "x": 132.0,
                "y": 365.0
              },
              {
                "x": 139.0,
                "y": 340.0
              },
              {
                "x": 48.0,
                "y": 293.0
              },
              {
                "x": 147.0,
                "y": 313.0
              },
              {
                "x": 61.0,
                "y": 256.0
              },
              {
                "x": 156.0,
                "y": 289.0
              },
              {
                "x": 166.0,
                "y": 263.0
              },
              {
                "x": 71.0,
                "y": 212.0
              },
              {
                "x": 176.0,
                "y": 235.0
              },
              {
                "x": 87.0,
                "y": 173.0
              },
              {
                "x": 185.0,
                "y": 208.0
              },
              {
                "x": 196.0,
                "y": 177.0
              },
              {
                "x": 111.0,
                "y": 118.0
              },
              {
                "x": 206.0,
                "y": 144.0
              },
              {
                "x": 127.0,
                "y": 94.0
              },
              {
                "x": 213.0,
                "y": 115.0
              },
              {
                "x": 145.0,
                "y": 71.0
              },
              {
                "x": 216.0,
                "y": 88.0
              },
              {
                "x": 176.0,
                "y": 41.0
              },
              {
                "x": 219.0,
                "y": 63.0
              }
            ],
            "TableIndexVertex": [
              0,
              1,
              2,
              3,
              0,
              2,
              4,
              3,
              2,
              3,
              4,
              5,
              3,
              5,
              6,
              4,
              7,
              5,
              8,
              7,
              4,
              2,
              1,
              9,
              1,
              10,
              9,
              10,
              11,
              9,
              9,
              11,
              12,
              12,
              11,
              13,
              11,
              14,
              13,
              13,
              14,
              15,
              14,
              16,
              15,
              15,
              16,
              17,
              17,
              16,
              18,
              16,
              19,
              18,
              18,
              19,
              20,
              19,
              21,
              20,
              20,
              21,
              22,
              22,
              21,
              23,
              21,
              24,
              23,
              23,
              24,
              25,
              25,
              24,
              26,
              25,
              26,
              27,
              27,
              26,
              28,
              27,
              28,
              29,
              28,
              30,
              29,
              29,
              30,
              31
            ]
          }
        },
        {
          "Name": "hear_back_l",
          "Rectangle": {
            "x": 1280.0,
            "y": 834.0,
            "width": 260.0,
            "height": 520.0
          },
          "Pivot": {
            "x": 71.99998,
            "y": 77.0000458
          },
          "Mesh": {
            "TableCoordinate": [
              {
                "x": 138.0,
                "y": 110.0
              },
              {
                "x": 50.0,
                "y": 133.0
              },
              {
                "x": 49.0,
                "y": 104.0
              },
              {
                "x": 147.0,
                "y": 152.0
              },
              {
                "x": 51.0,
                "y": 162.0
              },
              {
                "x": 54.0,
                "y": 195.0
              },
              {
                "x": 152.0,
                "y": 200.0
              },
              {
                "x": 64.0,
                "y": 224.0
              },
              {
                "x": 157.0,
                "y": 240.0
              },
              {
                "x": 82.0,
                "y": 287.0
              },
              {
                "x": 168.0,
                "y": 281.0
              },
              {
                "x": 86.0,
                "y": 333.0
              },
              {
                "x": 183.0,
                "y": 307.0
              },
              {
                "x": 202.0,
                "y": 337.0
              },
              {
                "x": 79.0,
                "y": 410.0
              },
              {
                "x": 219.0,
                "y": 387.0
              },
              {
                "x": 179.0,
                "y": 474.0
              },
              {
                "x": 222.0,
                "y": 429.0
              },
              {
                "x": 205.0,
                "y": 468.0
              },
              {
                "x": 145.0,
                "y": 481.0
              },
              {
                "x": 122.0,
                "y": 476.0
              },
              {
                "x": 93.0,
                "y": 455.0
              },
              {
                "x": 127.0,
                "y": 83.0
              },
              {
                "x": 108.0,
                "y": 63.0
              },
              {
                "x": 94.0,
                "y": 50.0
              },
              {
                "x": 50.0,
                "y": 75.0
              },
              {
                "x": 78.0,
                "y": 45.0
              },
              {
                "x": 52.0,
                "y": 45.0
              }
            ],
            "TableIndexVertex": [
              0,
              1,
              2,
              1,
              0,
              3,
              4,
              1,
              3,
              5,
              4,
              3,
              5,
              3,
              6,
              7,
              5,
              6,
              7,
              6,
              8,
              9,
              7,
              8,
              9,
              8,
              10,
              11,
              9,
              10,
              11,
              10,
              12,
              13,
              11,
              12,
              13,
              14,
              11,
              15,
              14,
              13,
              15,
              16,
              14,
              15,
              17,
              16,
              18,
              16,
              17,
              16,
              19,
              14,
              14,
              19,
              20,
              14,
              20,
              21,
              0,
              2,
              22,
              22,
              2,
              23,
              23,
              2,
              24,
              25,
              24,
              2,
              26,
              24,
              25,
              25,
              27,
              26
            ]
          }
        },
        {
          "Name": "weapon_r",
          "Rectangle": {
            "x": 1794.0,
            "y": 1384.0,
            "width": 250.0,
            "height": 400.0
          },
          "Pivot": {
            "x": 131.0,
            "y": 338.0
          },
          "Mesh": {
            "TableCoordinate": [],
            "TableIndexVertex": []
          }
        },
        {
          "Name": "weapon_l",
          "Rectangle": {
            "x": 1544.0,
            "y": 1384.0,
            "width": 250.0,
            "height": 400.0
          },
          "Pivot": {
            "x": 131.0,
            "y": 338.0
          },
          "Mesh": {
            "TableCoordinate": [],
            "TableIndexVertex": []
          }
        },
        {
          "Name": "rear_c",
          "Rectangle": {
            "x": 434.0,
            "y": 1220.0,
            "width": 430.0,
            "height": 430.0
          },
          "Pivot": {
            "x": 215.0,
            "y": 215.0
          },
          "Mesh": {
            "TableCoordinate": [],
            "TableIndexVertex": []
          }
        },
        {
          "Name": "rear_r",
          "Rectangle": {
            "x": 864.0,
            "y": 1354.0,
            "width": 430.0,
            "height": 430.0
          },
          "Pivot": {
            "x": 215.0,
            "y": 215.0
          },
          "Mesh": {
            "TableCoordinate": [],
            "TableIndexVertex": []
          }
        },
        {
          "Name": "rear_l",
          "Rectangle": {
            "x": 4.0,
            "y": 1224.0,
            "width": 430.0,
            "height": 430.0
          },
          "Pivot": {
            "x": 215.0,
            "y": 215.0
          },
          "Mesh": {
            "TableCoordinate": [],
            "TableIndexVertex": []
          }
        },
        {
          "Name": "acce_head_rear_c",
          "Rectangle": {
            "x": 1364.0,
            "y": 284.0,
            "width": 300.0,
            "height": 300.0
          },
          "Pivot": {
            "x": 150.0,
            "y": 150.0
          },
          "Mesh": {
            "TableCoordinate": [],
            "TableIndexVertex": []
          }
        },
        {
          "Name": "acce_body_rear",
          "Rectangle": {
            "x": 254.0,
            "y": 4.0,
            "width": 580.0,
            "height": 400.0
          },
          "Pivot": {
            "x": 290.0,
            "y": 200.0
          },
          "Mesh": {
            "TableCoordinate": [],
            "TableIndexVertex": []
          }
        },
        {
          "Name": "acce_hip_rear",
          "Rectangle": {
            "x": 834.0,
            "y": 364.0,
            "width": 330.0,
            "height": 330.0
          },
          "Pivot": {
            "x": 165.0,
            "y": 165.0
          },
          "Mesh": {
            "TableCoordinate": [],
            "TableIndexVertex": []
          }
        }
      ]
    }
  ]
}