{
  "m_GameObject": {
    "m_FileID": 0,
    "m_PathID": 0
  },
  "m_Enabled": 1,
  "m_Script": {
    "m_FileID": 0,
    "m_PathID": -2767099076474933927
  },
  "m_Name": "dc_1200400_sd",
  "Version": 65537,
  "TableCellMap": [
    {
      "Name": "1200400_sd",
      "SizeOriginal": {
        "x": 2048.0,
        "y": 2048.0
      },
      "TableCell": [
        {
          "Name": "face_normal",
          "Rectangle": {
            "x": 4.0,
            "y": 654.0,
            "width": 250.0,
            "height": 250.0
          },
          "Pivot": {
            "x": 125.0,
            "y": 135.0
          },
          "Mesh": {
            "TableCoordinate": [],
            "TableIndexVertex": []
          }
        },
        {
          "Name": "face_normal_rev",
          "Rectangle": {
            "x": 754.0,
            "y": 1795.0,
            "width": 250.0,
            "height": 250.0
          },
          "Pivot": {
            "x": 125.0,
            "y": 135.0
          },
          "Mesh": {
            "TableCoordinate": [],
            "TableIndexVertex": []
          }
        },
        {
          "Name": "face_eye_close_normal",
          "Rectangle": {
            "x": 1164.0,
            "y": 584.0,
            "width": 250.0,
            "height": 250.0
          },
          "Pivot": {
            "x": 125.0,
            "y": 135.0
          },
          "Mesh": {
            "TableCoordinate": [],
            "TableIndexVertex": []
          }
        },
        {
          "Name": "face_eye_close_normal_rev",
          "Rectangle": {
            "x": 4.0,
            "y": 1795.0,
            "width": 250.0,
            "height": 250.0
          },
          "Pivot": {
            "x": 125.0,
            "y": 135.0
          },
          "Mesh": {
            "TableCoordinate": [],
            "TableIndexVertex": []
          }
        },
        {
          "Name": "face_mouth_open_happy",
          "Rectangle": {
            "x": 1664.0,
            "y": 614.0,
            "width": 250.0,
            "height": 250.0
          },
          "Pivot": {
            "x": 125.0,
            "y": 135.0
          },
          "Mesh": {
            "TableCoordinate": [],
            "TableIndexVertex": []
          }
        },
        {
          "Name": "face_mouth_open_happy_rev",
          "Rectangle": {
            "x": 504.0,
            "y": 1795.0,
            "width": 250.0,
            "height": 250.0
          },
          "Pivot": {
            "x": 125.0,
            "y": 135.0
          },
          "Mesh": {
            "TableCoordinate": [],
            "TableIndexVertex": []
          }
        },
        {
          "Name": "face_happy",
          "Rectangle": {
            "x": 1414.0,
            "y": 584.0,
            "width": 250.0,
            "height": 250.0
          },
          "Pivot": {
            "x": 125.0,
            "y": 135.0
          },
          "Mesh": {
            "TableCoordinate": [],
            "TableIndexVertex": []
          }
        },
        {
          "Name": "face_happy_rev",
          "Rectangle": {
            "x": 254.0,
            "y": 1795.0,
            "width": 250.0,
            "height": 250.0
          },
          "Pivot": {
            "x": 125.0,
            "y": 135.0
          },
          "Mesh": {
            "TableCoordinate": [],
            "TableIndexVertex": []
          }
        },
        {
          "Name": "face_attack",
          "Rectangle": {
            "x": 134.0,
            "y": 404.0,
            "width": 250.0,
            "height": 250.0
          },
          "Pivot": {
            "x": 125.0,
            "y": 135.0
          },
          "Mesh": {
            "TableCoordinate": [],
            "TableIndexVertex": []
          }
        },
        {
          "Name": "face_attack_rev",
          "Rectangle": {
            "x": 4.0,
            "y": 1545.0,
            "width": 250.0,
            "height": 250.0
          },
          "Pivot": {
            "x": 125.0,
            "y": 135.0
          },
          "Mesh": {
            "TableCoordinate": [],
            "TableIndexVertex": []
          }
        },
        {
          "Name": "face_damage",
          "Rectangle": {
            "x": 384.0,
            "y": 404.0,
            "width": 250.0,
            "height": 250.0
          },
          "Pivot": {
            "x": 125.0,
            "y": 135.0
          },
          "Mesh": {
            "TableCoordinate": [],
            "TableIndexVertex": []
          }
        },
        {
          "Name": "face_damage_rev",
          "Rectangle": {
            "x": 254.0,
            "y": 1545.0,
            "width": 250.0,
            "height": 250.0
          },
          "Pivot": {
            "x": 125.0,
            "y": 135.0
          },
          "Mesh": {
            "TableCoordinate": [],
            "TableIndexVertex": []
          }
        },
        {
          "Name": "acce_head_front_l",
          "Rectangle": {
            "x": 1364.0,
            "y": 4.0,
            "width": 250.0,
            "height": 280.0
          },
          "Pivot": {
            "x": 137.0,
            "y": 202.0
          },
          "Mesh": {
            "TableCoordinate": [],
            "TableIndexVertex": []
          }
        },
        {
          "Name": "acce_head_front_l_rev",
          "Rectangle": {
            "x": 1114.0,
            "y": 4.0,
            "width": 250.0,
            "height": 280.0
          },
          "Pivot": {
            "x": 86.0,
            "y": 94.0
          },
          "Mesh": {
            "TableCoordinate": [],
            "TableIndexVertex": []
          }
        },
        {
          "Name": "acce_head_front_r",
          "Rectangle": {
            "x": 1614.0,
            "y": 4.0,
            "width": 250.0,
            "height": 280.0
          },
          "Pivot": {
            "x": 114.0,
            "y": 104.0
          },
          "Mesh": {
            "TableCoordinate": [],
            "TableIndexVertex": []
          }
        },
        {
          "Name": "acce_head_front_r_rev",
          "Rectangle": {
            "x": 864.0,
            "y": 5.0,
            "width": 250.0,
            "height": 279.0
          },
          "Pivot": {
            "x": 111.0,
            "y": 202.0
          },
          "Mesh": {
            "TableCoordinate": [],
            "TableIndexVertex": []
          }
        },
        {
          "Name": "hear_front_c",
          "Rectangle": {
            "x": 4.0,
            "y": 904.0,
            "width": 430.0,
            "height": 320.0
          },
          "Pivot": {
            "x": 216.0,
            "y": 71.00001
          },
          "Mesh": {
            "TableCoordinate": [
              {
                "x": 141.0,
                "y": 238.0
              },
              {
                "x": 140.0,
                "y": 150.0
              },
              {
                "x": 187.0,
                "y": 210.0
              },
              {
                "x": 190.0,
                "y": 240.0
              },
              {
                "x": 183.0,
                "y": 289.0
              },
              {
                "x": 203.0,
                "y": 256.0
              },
              {
                "x": 210.0,
                "y": 320.0
              },
              {
                "x": 183.0,
                "y": 321.0
              },
              {
                "x": 199.0,
                "y": 239.0
              },
              {
                "x": 192.0,
                "y": 195.0
              },
              {
                "x": 222.0,
                "y": 167.0
              },
              {
                "x": 219.0,
                "y": 198.0
              },
              {
                "x": 150.0,
                "y": 108.0
              },
              {
                "x": 206.0,
                "y": 96.0
              },
              {
                "x": 171.0,
                "y": 73.0
              },
              {
                "x": 225.0,
                "y": 49.0
              },
              {
                "x": 242.0,
                "y": 91.0
              },
              {
                "x": 260.0,
                "y": 135.0
              },
              {
                "x": 278.0,
                "y": 182.0
              },
              {
                "x": 234.0,
                "y": 195.0
              },
              {
                "x": 318.0,
                "y": 150.0
              },
              {
                "x": 288.0,
                "y": 196.0
              },
              {
                "x": 345.0,
                "y": 169.0
              },
              {
                "x": 320.0,
                "y": 228.0
              },
              {
                "x": 284.0,
                "y": 235.0
              },
              {
                "x": 274.0,
                "y": 220.0
              },
              {
                "x": 274.0,
                "y": 233.0
              },
              {
                "x": 293.0,
                "y": 290.0
              },
              {
                "x": 270.0,
                "y": 255.0
              },
              {
                "x": 269.0,
                "y": 321.0
              },
              {
                "x": 297.0,
                "y": 321.0
              },
              {
                "x": 333.0,
                "y": 99.0
              },
              {
                "x": 317.0,
                "y": 77.0
              },
              {
                "x": 281.0,
                "y": 57.0
              },
              {
                "x": 278.0,
                "y": 194.0
              }
            ],
            "TableIndexVertex": [
              0,
              1,
              2,
              3,
              0,
              2,
              4,
              0,
              3,
              4,
              3,
              5,
              4,
              5,
              6,
              7,
              4,
              6,
              8,
              3,
              2,
              2,
              1,
              9,
              9,
              1,
              10,
              11,
              9,
              10,
              1,
              12,
              10,
              12,
              13,
              10,
              12,
              14,
              13,
              13,
              14,
              15,
              16,
              13,
              15,
              17,
              13,
              16,
              17,
              10,
              13,
              10,
              17,
              18,
              19,
              10,
              18,
              18,
              17,
              20,
              20,
              21,
              18,
              21,
              20,
              22,
              23,
              21,
              22,
              21,
              23,
              24,
              24,
              25,
              21,
              24,
              26,
              25,
              27,
              24,
              23,
              28,
              24,
              27,
              27,
              29,
              28,
              29,
              27,
              30,
              20,
              31,
              22,
              20,
              17,
              31,
              17,
              32,
              31,
              32,
              17,
              16,
              32,
              16,
              33,
              16,
              15,
              33,
              21,
              34,
              18
            ]
          }
        },
        {
          "Name": "hear_front_c_rev",
          "Rectangle": {
            "x": 4.0,
            "y": 1225.0,
            "width": 430.0,
            "height": 320.0
          },
          "Pivot": {
            "x": 216.0,
            "y": 71.00001
          },
          "Mesh": {
            "TableCoordinate": [
              {
                "x": 141.0,
                "y": 238.0
              },
              {
                "x": 140.0,
                "y": 150.0
              },
              {
                "x": 187.0,
                "y": 210.0
              },
              {
                "x": 190.0,
                "y": 240.0
              },
              {
                "x": 183.0,
                "y": 289.0
              },
              {
                "x": 203.0,
                "y": 256.0
              },
              {
                "x": 210.0,
                "y": 320.0
              },
              {
                "x": 183.0,
                "y": 321.0
              },
              {
                "x": 199.0,
                "y": 225.0
              },
              {
                "x": 199.0,
                "y": 239.0
              },
              {
                "x": 192.0,
                "y": 195.0
              },
              {
                "x": 222.0,
                "y": 167.0
              },
              {
                "x": 220.0,
                "y": 197.0
              },
              {
                "x": 150.0,
                "y": 108.0
              },
              {
                "x": 206.0,
                "y": 96.0
              },
              {
                "x": 171.0,
                "y": 73.0
              },
              {
                "x": 225.0,
                "y": 49.0
              },
              {
                "x": 242.0,
                "y": 91.0
              },
              {
                "x": 260.0,
                "y": 135.0
              },
              {
                "x": 277.0,
                "y": 181.0
              },
              {
                "x": 234.0,
                "y": 195.0
              },
              {
                "x": 337.0,
                "y": 121.0
              },
              {
                "x": 340.0,
                "y": 177.0
              },
              {
                "x": 288.0,
                "y": 195.0
              },
              {
                "x": 319.0,
                "y": 234.0
              },
              {
                "x": 284.0,
                "y": 235.0
              },
              {
                "x": 274.0,
                "y": 220.0
              },
              {
                "x": 274.0,
                "y": 233.0
              },
              {
                "x": 293.0,
                "y": 290.0
              },
              {
                "x": 270.0,
                "y": 255.0
              },
              {
                "x": 269.0,
                "y": 321.0
              },
              {
                "x": 297.0,
                "y": 321.0
              },
              {
                "x": 278.0,
                "y": 194.0
              },
              {
                "x": 317.0,
                "y": 77.0
              },
              {
                "x": 281.0,
                "y": 57.0
              }
            ],
            "TableIndexVertex": [
              0,
              1,
              2,
              3,
              0,
              2,
              4,
              0,
              3,
              4,
              3,
              5,
              4,
              5,
              6,
              7,
              4,
              6,
              3,
              2,
              8,
              8,
              9,
              3,
              2,
              1,
              10,
              10,
              1,
              11,
              12,
              10,
              11,
              1,
              13,
              11,
              13,
              14,
              11,
              13,
              15,
              14,
              14,
              15,
              16,
              17,
              14,
              16,
              18,
              14,
              17,
              18,
              11,
              14,
              11,
              18,
              19,
              20,
              11,
              19,
              19,
              18,
              21,
              22,
              19,
              21,
              22,
              23,
              19,
              24,
              23,
              22,
              23,
              24,
              25,
              23,
              25,
              26,
              26,
              25,
              27,
              28,
              25,
              24,
              29,
              25,
              28,
              28,
              30,
              29,
              30,
              28,
              31,
              23,
              32,
              19,
              18,
              33,
              21,
              33,
              18,
              17,
              33,
              17,
              34,
              17,
              16,
              34
            ]
          }
        },
        {
          "Name": "hear_front_c2",
          "Rectangle": {
            "x": 548.0,
            "y": 1324.0,
            "width": 230.0,
            "height": 195.0
          },
          "Pivot": {
            "x": 115.0,
            "y": 97.5
          },
          "Mesh": {
            "TableCoordinate": [],
            "TableIndexVertex": []
          }
        },
        {
          "Name": "hear_front_c2_rev",
          "Rectangle": {
            "x": 548.0,
            "y": 1581.0,
            "width": 230.0,
            "height": 195.0
          },
          "Pivot": {
            "x": 115.0,
            "y": 97.5
          },
          "Mesh": {
            "TableCoordinate": [],
            "TableIndexVertex": []
          }
        },
        {
          "Name": "ear",
          "Rectangle": {
            "x": 663.0,
            "y": 866.0,
            "width": 45.0,
            "height": 51.0
          },
          "Pivot": {
            "x": 22.5,
            "y": 25.5
          },
          "Mesh": {
            "TableCoordinate": [],
            "TableIndexVertex": []
          }
        },
        {
          "Name": "head",
          "Rectangle": {
            "x": 730.0,
            "y": 694.0,
            "width": 290.0,
            "height": 250.0
          },
          "Pivot": {
            "x": 163.000015,
            "y": 225.0
          },
          "Mesh": {
            "TableCoordinate": [],
            "TableIndexVertex": []
          }
        },
        {
          "Name": "acce_body_front",
          "Rectangle": {
            "x": 4.0,
            "y": 4.0,
            "width": 250.0,
            "height": 275.0
          },
          "Pivot": {
            "x": 125.0,
            "y": 101.999977
          },
          "Mesh": {
            "TableCoordinate": [],
            "TableIndexVertex": []
          }
        },
        {
          "Name": "acce_body_front_neck",
          "Rectangle": {
            "x": 167.0,
            "y": 305.0,
            "width": 51.0,
            "height": 28.0
          },
          "Pivot": {
            "x": 25.5,
            "y": 14.0
          },
          "Mesh": {
            "TableCoordinate": [],
            "TableIndexVertex": []
          }
        },
        {
          "Name": "acce_body_front_neck_rev",
          "Rectangle": {
            "x": 167.0,
            "y": 360.0,
            "width": 51.0,
            "height": 28.0
          },
          "Pivot": {
            "x": 25.5,
            "y": 14.0
          },
          "Mesh": {
            "TableCoordinate": [],
            "TableIndexVertex": []
          }
        },
        {
          "Name": "hand_r",
          "Rectangle": {
            "x": 504.0,
            "y": 660.0,
            "width": 225.0,
            "height": 180.0
          },
          "Pivot": {
            "x": 81.9999,
            "y": 61.00002
          },
          "Mesh": {
            "TableCoordinate": [],
            "TableIndexVertex": []
          }
        },
        {
          "Name": "hand_r_rev",
          "Rectangle": {
            "x": 438.0,
            "y": 944.0,
            "width": 130.0,
            "height": 180.0
          },
          "Pivot": {
            "x": 81.0,
            "y": 61.0
          },
          "Mesh": {
            "TableCoordinate": [],
            "TableIndexVertex": []
          }
        },
        {
          "Name": "arm_r",
          "Rectangle": {
            "x": 4.0,
            "y": 280.0,
            "width": 130.0,
            "height": 180.0
          },
          "Pivot": {
            "x": 78.99996,
            "y": 64.00008
          },
          "Mesh": {
            "TableCoordinate": [],
            "TableIndexVertex": []
          }
        },
        {
          "Name": "arm_r_rev",
          "Rectangle": {
            "x": 254.0,
            "y": 655.0,
            "width": 130.0,
            "height": 180.0
          },
          "Pivot": {
            "x": 78.99996,
            "y": 64.00008
          },
          "Mesh": {
            "TableCoordinate": [],
            "TableIndexVertex": []
          }
        },
        {
          "Name": "body",
          "Rectangle": {
            "x": 1164.0,
            "y": 364.0,
            "width": 180.0,
            "height": 220.0
          },
          "Pivot": {
            "x": 93.99996,
            "y": 151.000076
          },
          "Mesh": {
            "TableCoordinate": [],
            "TableIndexVertex": []
          }
        },
        {
          "Name": "body_rev",
          "Rectangle": {
            "x": 1344.0,
            "y": 364.0,
            "width": 180.0,
            "height": 220.0
          },
          "Pivot": {
            "x": 93.99996,
            "y": 151.000076
          },
          "Mesh": {
            "TableCoordinate": [],
            "TableIndexVertex": []
          }
        },
        {
          "Name": "acce_hip_front",
          "Rectangle": {
            "x": 1664.0,
            "y": 284.0,
            "width": 330.0,
            "height": 330.0
          },
          "Pivot": {
            "x": 167.0,
            "y": 96.0
          },
          "Mesh": {
            "TableCoordinate": [],
            "TableIndexVertex": []
          }
        },
        {
          "Name": "thigh_r",
          "Rectangle": {
            "x": 864.0,
            "y": 1124.0,
            "width": 130.0,
            "height": 180.0
          },
          "Pivot": {
            "x": 61.00003,
            "y": 68.00004
          },
          "Mesh": {
            "TableCoordinate": [],
            "TableIndexVertex": []
          }
        },
        {
          "Name": "thigh_r_rev",
          "Rectangle": {
            "x": 884.0,
            "y": 1304.0,
            "width": 130.0,
            "height": 180.0
          },
          "Pivot": {
            "x": 61.00003,
            "y": 68.00004
          },
          "Mesh": {
            "TableCoordinate": [],
            "TableIndexVertex": []
          }
        },
        {
          "Name": "leg_r",
          "Rectangle": {
            "x": 1914.0,
            "y": 614.0,
            "width": 130.0,
            "height": 180.0
          },
          "Pivot": {
            "x": 78.0,
            "y": 54.0
          },
          "Mesh": {
            "TableCoordinate": [],
            "TableIndexVertex": []
          }
        },
        {
          "Name": "leg_r_rev",
          "Rectangle": {
            "x": 1914.0,
            "y": 794.0,
            "width": 130.0,
            "height": 180.0
          },
          "Pivot": {
            "x": 78.0,
            "y": 54.0
          },
          "Mesh": {
            "TableCoordinate": [],
            "TableIndexVertex": []
          }
        },
        {
          "Name": "hip",
          "Rectangle": {
            "x": 704.0,
            "y": 944.0,
            "width": 180.0,
            "height": 180.0
          },
          "Pivot": {
            "x": 95.00004,
            "y": 109.000076
          },
          "Mesh": {
            "TableCoordinate": [],
            "TableIndexVertex": []
          }
        },
        {
          "Name": "thigh_l",
          "Rectangle": {
            "x": 884.0,
            "y": 944.0,
            "width": 130.0,
            "height": 180.0
          },
          "Pivot": {
            "x": 61.99999,
            "y": 68.00004
          },
          "Mesh": {
            "TableCoordinate": [],
            "TableIndexVertex": []
          }
        },
        {
          "Name": "thigh_l_rev",
          "Rectangle": {
            "x": 731.0,
            "y": 1124.0,
            "width": 130.0,
            "height": 180.0
          },
          "Pivot": {
            "x": 61.99999,
            "y": 68.00004
          },
          "Mesh": {
            "TableCoordinate": [],
            "TableIndexVertex": []
          }
        },
        {
          "Name": "leg_l",
          "Rectangle": {
            "x": 4.0,
            "y": 460.0,
            "width": 130.0,
            "height": 180.0
          },
          "Pivot": {
            "x": 71.99998,
            "y": 55.00008
          },
          "Mesh": {
            "TableCoordinate": [],
            "TableIndexVertex": []
          }
        },
        {
          "Name": "leg_l_rev",
          "Rectangle": {
            "x": 438.0,
            "y": 1127.0,
            "width": 130.0,
            "height": 180.0
          },
          "Pivot": {
            "x": 71.99998,
            "y": 55.00008
          },
          "Mesh": {
            "TableCoordinate": [],
            "TableIndexVertex": []
          }
        },
        {
          "Name": "weapon_b",
          "Rectangle": {
            "x": 1294.0,
            "y": 1384.0,
            "width": 250.0,
            "height": 500.0
          },
          "Pivot": {
            "x": 122.0,
            "y": 436.0
          },
          "Mesh": {
            "TableCoordinate": [],
            "TableIndexVertex": []
          }
        },
        {
          "Name": "weapon_b_1",
          "Rectangle": {
            "x": 1294.0,
            "y": 1384.0,
            "width": 250.0,
            "height": 500.0
          },
          "Pivot": {
            "x": 130.0,
            "y": 368.0
          },
          "Mesh": {
            "TableCoordinate": [],
            "TableIndexVertex": []
          }
        },
        {
          "Name": "hand_l",
          "Rectangle": {
            "x": 634.0,
            "y": 404.0,
            "width": 180.0,
            "height": 255.0
          },
          "Pivot": {
            "x": 99.0,
            "y": 59.00012
          },
          "Mesh": {
            "TableCoordinate": [],
            "TableIndexVertex": []
          }
        },
        {
          "Name": "hand_l_rev",
          "Rectangle": {
            "x": 571.0,
            "y": 944.0,
            "width": 130.0,
            "height": 180.0
          },
          "Pivot": {
            "x": 49.0,
            "y": 59.0
          },
          "Mesh": {
            "TableCoordinate": [],
            "TableIndexVertex": []
          }
        },
        {
          "Name": "arm_l",
          "Rectangle": {
            "x": 1864.0,
            "y": 4.0,
            "width": 130.0,
            "height": 180.0
          },
          "Pivot": {
            "x": 49.99995,
            "y": 63.0
          },
          "Mesh": {
            "TableCoordinate": [],
            "TableIndexVertex": []
          }
        },
        {
          "Name": "arm_l_rev",
          "Rectangle": {
            "x": 1534.0,
            "y": 284.0,
            "width": 130.0,
            "height": 180.0
          },
          "Pivot": {
            "x": 49.99995,
            "y": 63.0
          },
          "Mesh": {
            "TableCoordinate": [],
            "TableIndexVertex": []
          }
        },
        {
          "Name": "hear_back_c",
          "Rectangle": {
            "x": 1020.0,
            "y": 834.0,
            "width": 260.0,
            "height": 520.0
          },
          "Pivot": {
            "x": 119.999878,
            "y": 80.99988
          },
          "Mesh": {
            "TableCoordinate": [
              {
                "x": 30.0,
                "y": 348.0
              },
              {
                "x": 28.0,
                "y": 320.0
              },
              {
                "x": 80.0,
                "y": 317.0
              },
              {
                "x": 93.0,
                "y": 354.0
              },
              {
                "x": 77.0,
                "y": 377.0
              },
              {
                "x": 85.0,
                "y": 398.0
              },
              {
                "x": 62.0,
                "y": 386.0
              },
              {
                "x": 62.0,
                "y": 398.0
              },
              {
                "x": 136.0,
                "y": 373.0
              },
              {
                "x": 93.0,
                "y": 409.0
              },
              {
                "x": 140.0,
                "y": 399.0
              },
              {
                "x": 175.0,
                "y": 367.0
              },
              {
                "x": 183.0,
                "y": 385.0
              },
              {
                "x": 183.0,
                "y": 371.0
              },
              {
                "x": 134.0,
                "y": 339.0
              },
              {
                "x": 133.0,
                "y": 298.0
              },
              {
                "x": 169.0,
                "y": 333.0
              },
              {
                "x": 201.0,
                "y": 336.0
              },
              {
                "x": 173.0,
                "y": 299.0
              },
              {
                "x": 153.0,
                "y": 262.0
              },
              {
                "x": 120.0,
                "y": 256.0
              },
              {
                "x": 100.0,
                "y": 287.0
              },
              {
                "x": 87.0,
                "y": 246.0
              },
              {
                "x": 69.0,
                "y": 275.0
              },
              {
                "x": 39.0,
                "y": 264.0
              },
              {
                "x": 36.0,
                "y": 212.0
              },
              {
                "x": 88.0,
                "y": 191.0
              },
              {
                "x": 112.0,
                "y": 187.0
              },
              {
                "x": 140.0,
                "y": 225.0
              },
              {
                "x": 175.0,
                "y": 230.0
              },
              {
                "x": 187.0,
                "y": 263.0
              },
              {
                "x": 199.0,
                "y": 202.0
              },
              {
                "x": 169.0,
                "y": 188.0
              },
              {
                "x": 138.0,
                "y": 169.0
              },
              {
                "x": 108.0,
                "y": 144.0
              },
              {
                "x": 75.0,
                "y": 165.0
              },
              {
                "x": 64.0,
                "y": 137.0
              },
              {
                "x": 31.0,
                "y": 161.0
              },
              {
                "x": 53.0,
                "y": 106.0
              },
              {
                "x": 35.0,
                "y": 88.0
              },
              {
                "x": 94.0,
                "y": 70.0
              },
              {
                "x": 85.0,
                "y": 106.0
              },
              {
                "x": 118.0,
                "y": 102.0
              },
              {
                "x": 168.0,
                "y": 137.0
              },
              {
                "x": 211.0,
                "y": 141.0
              },
              {
                "x": 207.0,
                "y": 84.0
              },
              {
                "x": 153.0,
                "y": 94.0
              },
              {
                "x": 156.0,
                "y": 71.0
              }
            ],
            "TableIndexVertex": [
              0,
              1,
              2,
              0,
              2,
              3,
              4,
              0,
              3,
              5,
              4,
              3,
              5,
              6,
              4,
              5,
              7,
              6,
              5,
              3,
              8,
              9,
              5,
              8,
              10,
              9,
              8,
              10,
              8,
              11,
              10,
              11,
              12,
              11,
              13,
              12,
              8,
              14,
              11,
              3,
              14,
              8,
              3,
              2,
              14,
              14,
              2,
              15,
              14,
              15,
              16,
              14,
              16,
              11,
              11,
              16,
              17,
              16,
              18,
              17,
              16,
              15,
              18,
              15,
              19,
              18,
              15,
              20,
              19,
              21,
              20,
              15,
              21,
              22,
              20,
              23,
              22,
              21,
              23,
              24,
              22,
              1,
              24,
              23,
              1,
              23,
              2,
              2,
              23,
              21,
              2,
              21,
              15,
              24,
              25,
              22,
              22,
              25,
              26,
              22,
              26,
              27,
              22,
              27,
              28,
              20,
              22,
              28,
              20,
              28,
              19,
              19,
              28,
              29,
              19,
              29,
              30,
              18,
              19,
              30,
              18,
              30,
              17,
              30,
              29,
              31,
              29,
              32,
              31,
              28,
              32,
              29,
              28,
              33,
              32,
              27,
              33,
              28,
              27,
              34,
              33,
              35,
              34,
              27,
              35,
              36,
              34,
              37,
              36,
              35,
              37,
              38,
              36,
              37,
              39,
              38,
              38,
              39,
              40,
              41,
              38,
              40,
              36,
              38,
              41,
              36,
              41,
              34,
              34,
              41,
              42,
              43,
              34,
              42,
              33,
              34,
              43,
              33,
              43,
              32,
              32,
              43,
              44,
              31,
              32,
              44,
              43,
              45,
              44,
              43,
              46,
              45,
              43,
              42,
              46,
              46,
              42,
              47,
              46,
              47,
              45,
              47,
              42,
              40,
              42,
              41,
              40,
              25,
              37,
              35,
              25,
              35,
              26,
              26,
              35,
              27
            ]
          }
        },
        {
          "Name": "hear_back_r",
          "Rectangle": {
            "x": 1540.0,
            "y": 864.0,
            "width": 260.0,
            "height": 520.0
          },
          "Pivot": {
            "x": 164.999908,
            "y": 81.99983
          },
          "Mesh": {
            "TableCoordinate": [
              {
                "x": 56.0,
                "y": 316.0
              },
              {
                "x": 43.0,
                "y": 304.0
              },
              {
                "x": 81.0,
                "y": 294.0
              },
              {
                "x": 105.0,
                "y": 309.0
              },
              {
                "x": 72.0,
                "y": 362.0
              },
              {
                "x": 117.0,
                "y": 328.0
              },
              {
                "x": 110.0,
                "y": 357.0
              },
              {
                "x": 91.0,
                "y": 370.0
              },
              {
                "x": 80.0,
                "y": 395.0
              },
              {
                "x": 99.0,
                "y": 376.0
              },
              {
                "x": 99.0,
                "y": 393.0
              },
              {
                "x": 149.0,
                "y": 341.0
              },
              {
                "x": 150.0,
                "y": 360.0
              },
              {
                "x": 132.0,
                "y": 375.0
              },
              {
                "x": 105.0,
                "y": 386.0
              },
              {
                "x": 137.0,
                "y": 390.0
              },
              {
                "x": 139.0,
                "y": 376.0
              },
              {
                "x": 144.0,
                "y": 283.0
              },
              {
                "x": 91.0,
                "y": 264.0
              },
              {
                "x": 125.0,
                "y": 244.0
              },
              {
                "x": 88.0,
                "y": 226.0
              },
              {
                "x": 43.0,
                "y": 284.0
              },
              {
                "x": 144.0,
                "y": 224.0
              },
              {
                "x": 123.0,
                "y": 187.0
              },
              {
                "x": 81.0,
                "y": 174.0
              },
              {
                "x": 92.0,
                "y": 130.0
              },
              {
                "x": 146.0,
                "y": 165.0
              },
              {
                "x": 144.0,
                "y": 116.0
              },
              {
                "x": 117.0,
                "y": 92.0
              },
              {
                "x": 144.0,
                "y": 78.0
              },
              {
                "x": 169.0,
                "y": 93.0
              },
              {
                "x": 169.0,
                "y": 80.0
              },
              {
                "x": 45.0,
                "y": 353.0
              }
            ],
            "TableIndexVertex": [
              0,
              1,
              2,
              0,
              2,
              3,
              3,
              4,
              0,
              5,
              4,
              3,
              4,
              5,
              6,
              7,
              4,
              6,
              8,
              4,
              7,
              8,
              7,
              9,
              10,
              8,
              9,
              6,
              5,
              11,
              6,
              11,
              12,
              13,
              6,
              12,
              13,
              14,
              6,
              14,
              13,
              15,
              15,
              13,
              16,
              5,
              3,
              17,
              17,
              3,
              18,
              18,
              19,
              17,
              18,
              20,
              19,
              21,
              20,
              18,
              2,
              21,
              18,
              1,
              21,
              2,
              3,
              2,
              18,
              19,
              20,
              22,
              19,
              22,
              17,
              20,
              23,
              22,
              20,
              24,
              23,
              23,
              24,
              25,
              26,
              23,
              25,
              22,
              23,
              26,
              25,
              27,
              26,
              25,
              28,
              27,
              28,
              29,
              27,
              27,
              29,
              30,
              26,
              27,
              30,
              29,
              31,
              30,
              4,
              32,
              0
            ]
          }
        },
        {
          "Name": "hear_back_l",
          "Rectangle": {
            "x": 1280.0,
            "y": 834.0,
            "width": 260.0,
            "height": 520.0
          },
          "Pivot": {
            "x": 71.99998,
            "y": 77.0000458
          },
          "Mesh": {
            "TableCoordinate": [
              {
                "x": 69.0,
                "y": 264.0
              },
              {
                "x": 61.0,
                "y": 200.0
              },
              {
                "x": 90.0,
                "y": 229.0
              },
              {
                "x": 124.0,
                "y": 251.0
              },
              {
                "x": 113.0,
                "y": 282.0
              },
              {
                "x": 108.0,
                "y": 316.0
              },
              {
                "x": 160.0,
                "y": 320.0
              },
              {
                "x": 144.0,
                "y": 341.0
              },
              {
                "x": 128.0,
                "y": 352.0
              },
              {
                "x": 88.0,
                "y": 340.0
              },
              {
                "x": 120.0,
                "y": 369.0
              },
              {
                "x": 85.0,
                "y": 384.0
              },
              {
                "x": 92.0,
                "y": 387.0
              },
              {
                "x": 113.0,
                "y": 385.0
              },
              {
                "x": 141.0,
                "y": 369.0
              },
              {
                "x": 142.0,
                "y": 355.0
              },
              {
                "x": 153.0,
                "y": 342.0
              },
              {
                "x": 169.0,
                "y": 330.0
              },
              {
                "x": 169.0,
                "y": 347.0
              },
              {
                "x": 159.0,
                "y": 361.0
              },
              {
                "x": 144.0,
                "y": 362.0
              },
              {
                "x": 164.0,
                "y": 267.0
              },
              {
                "x": 140.0,
                "y": 223.0
              },
              {
                "x": 117.0,
                "y": 199.0
              },
              {
                "x": 93.0,
                "y": 177.0
              },
              {
                "x": 67.0,
                "y": 157.0
              },
              {
                "x": 122.0,
                "y": 151.0
              },
              {
                "x": 151.0,
                "y": 176.0
              },
              {
                "x": 149.0,
                "y": 121.0
              },
              {
                "x": 110.0,
                "y": 91.0
              },
              {
                "x": 139.0,
                "y": 94.0
              },
              {
                "x": 91.0,
                "y": 98.0
              },
              {
                "x": 79.0,
                "y": 115.0
              }
            ],
            "TableIndexVertex": [
              0,
              1,
              2,
              0,
              2,
              3,
              4,
              0,
              3,
              5,
              0,
              4,
              5,
              4,
              6,
              7,
              5,
              6,
              8,
              5,
              7,
              9,
              5,
              8,
              10,
              9,
              8,
              11,
              9,
              10,
              10,
              12,
              11,
              13,
              12,
              10,
              8,
              14,
              10,
              15,
              14,
              8,
              16,
              7,
              6,
              17,
              16,
              6,
              16,
              17,
              18,
              19,
              16,
              18,
              19,
              20,
              16,
              6,
              4,
              21,
              4,
              3,
              21,
              3,
              22,
              21,
              3,
              2,
              22,
              2,
              23,
              22,
              2,
              24,
              23,
              2,
              1,
              24,
              1,
              25,
              24,
              24,
              25,
              26,
              23,
              24,
              26,
              23,
              26,
              27,
              22,
              23,
              27,
              26,
              28,
              27,
              28,
              26,
              29,
              28,
              29,
              30,
              31,
              29,
              26,
              32,
              31,
              26,
              25,
              32,
              26
            ]
          }
        },
        {
          "Name": "weapon_r",
          "Rectangle": {
            "x": 1794.0,
            "y": 1384.0,
            "width": 250.0,
            "height": 400.0
          },
          "Pivot": {
            "x": 131.0,
            "y": 338.0
          },
          "Mesh": {
            "TableCoordinate": [],
            "TableIndexVertex": []
          }
        },
        {
          "Name": "weapon_l",
          "Rectangle": {
            "x": 1544.0,
            "y": 1384.0,
            "width": 250.0,
            "height": 400.0
          },
          "Pivot": {
            "x": 131.0,
            "y": 338.0
          },
          "Mesh": {
            "TableCoordinate": [],
            "TableIndexVertex": []
          }
        },
        {
          "Name": "acce_body_rear",
          "Rectangle": {
            "x": 254.0,
            "y": 4.0,
            "width": 580.0,
            "height": 400.0
          },
          "Pivot": {
            "x": 296.0,
            "y": 276.0
          },
          "Mesh": {
            "TableCoordinate": [
              {
                "x": 165.0,
                "y": 377.0
              },
              {
                "x": 148.0,
                "y": 345.0
              },
              {
                "x": 183.0,
                "y": 344.0
              },
              {
                "x": 212.0,
                "y": 401.0
              },
              {
                "x": 256.0,
                "y": 377.0
              },
              {
                "x": 288.0,
                "y": 401.0
              },
              {
                "x": 320.0,
                "y": 373.0
              },
              {
                "x": 364.0,
                "y": 393.0
              },
              {
                "x": 376.0,
                "y": 340.0
              },
              {
                "x": 407.0,
                "y": 357.0
              },
              {
                "x": 382.0,
                "y": 313.0
              },
              {
                "x": 415.0,
                "y": 306.0
              },
              {
                "x": 386.0,
                "y": 270.0
              },
              {
                "x": 351.0,
                "y": 295.0
              },
              {
                "x": 351.0,
                "y": 271.0
              },
              {
                "x": 190.0,
                "y": 306.0
              },
              {
                "x": 157.0,
                "y": 290.0
              },
              {
                "x": 191.0,
                "y": 264.0
              },
              {
                "x": 225.0,
                "y": 290.0
              },
              {
                "x": 225.0,
                "y": 265.0
              }
            ],
            "TableIndexVertex": [
              0,
              1,
              2,
              0,
              2,
              3,
              3,
              2,
              4,
              3,
              4,
              5,
              5,
              4,
              6,
              5,
              6,
              7,
              7,
              6,
              8,
              7,
              8,
              9,
              8,
              10,
              9,
              9,
              10,
              11,
              10,
              12,
              11,
              10,
              13,
              12,
              13,
              14,
              12,
              2,
              1,
              15,
              15,
              1,
              16,
              15,
              16,
              17,
              15,
              17,
              18,
              17,
              19,
              18
            ]
          }
        },
        {
          "Name": "acce_hip_rear",
          "Rectangle": {
            "x": 834.0,
            "y": 364.0,
            "width": 330.0,
            "height": 330.0
          },
          "Pivot": {
            "x": 158.0,
            "y": 114.0
          },
          "Mesh": {
            "TableCoordinate": [],
            "TableIndexVertex": []
          }
        },
        {
          "Name": "acce_hip_rear_2",
          "Rectangle": {
            "x": 1043.0,
            "y": 1413.0,
            "width": 217.0,
            "height": 148.0
          },
          "Pivot": {
            "x": 118.0,
            "y": 79.0
          },
          "Mesh": {
            "TableCoordinate": [
              {
                "x": 6.0,
                "y": 122.0
              },
              {
                "x": -1.0,
                "y": 106.0
              },
              {
                "x": 20.0,
                "y": 107.0
              },
              {
                "x": 28.0,
                "y": 115.0
              },
              {
                "x": 39.0,
                "y": 146.0
              },
              {
                "x": 39.0,
                "y": 123.0
              },
              {
                "x": 62.0,
                "y": 149.0
              },
              {
                "x": 75.0,
                "y": 132.0
              },
              {
                "x": 86.0,
                "y": 148.0
              },
              {
                "x": 102.0,
                "y": 128.0
              },
              {
                "x": 111.0,
                "y": 146.0
              },
              {
                "x": 128.0,
                "y": 121.0
              },
              {
                "x": 135.0,
                "y": 139.0
              },
              {
                "x": 157.0,
                "y": 131.0
              },
              {
                "x": 162.0,
                "y": 101.0
              },
              {
                "x": 177.0,
                "y": 116.0
              },
              {
                "x": 183.0,
                "y": 97.0
              },
              {
                "x": 211.0,
                "y": 74.0
              },
              {
                "x": 190.0,
                "y": 77.0
              },
              {
                "x": 199.0,
                "y": 58.0
              },
              {
                "x": 218.0,
                "y": 56.0
              },
              {
                "x": 202.0,
                "y": 42.0
              },
              {
                "x": 214.0,
                "y": 20.0
              },
              {
                "x": 198.0,
                "y": 30.0
              },
              {
                "x": 190.0,
                "y": 21.0
              },
              {
                "x": 190.0,
                "y": -1.0
              },
              {
                "x": 174.0,
                "y": -2.0
              },
              {
                "x": 167.0,
                "y": 12.0
              },
              {
                "x": 166.0,
                "y": 1.0
              },
              {
                "x": 17.0,
                "y": 90.0
              },
              {
                "x": 0.0,
                "y": 73.0
              },
              {
                "x": 20.0,
                "y": 80.0
              },
              {
                "x": 14.0,
                "y": 56.0
              },
              {
                "x": 40.0,
                "y": 62.0
              },
              {
                "x": 36.0,
                "y": 50.0
              }
            ],
            "TableIndexVertex": [
              0,
              1,
              2,
              0,
              2,
              3,
              0,
              3,
              4,
              3,
              5,
              4,
              6,
              4,
              5,
              7,
              6,
              5,
              6,
              7,
              8,
              8,
              7,
              9,
              8,
              9,
              10,
              10,
              9,
              11,
              10,
              11,
              12,
              12,
              11,
              13,
              13,
              11,
              14,
              13,
              14,
              15,
              15,
              14,
              16,
              17,
              15,
              16,
              17,
              16,
              18,
              18,
              19,
              17,
              14,
              19,
              18,
              18,
              16,
              14,
              17,
              19,
              20,
              19,
              21,
              20,
              21,
              22,
              20,
              21,
              23,
              22,
              23,
              24,
              22,
              24,
              25,
              22,
              26,
              25,
              24,
              27,
              26,
              24,
              27,
              28,
              26,
              1,
              29,
              2,
              1,
              30,
              29,
              29,
              30,
              31,
              30,
              32,
              31,
              33,
              31,
              32,
              33,
              32,
              34
            ]
          }
        },
        {
          "Name": "acce_arm",
          "Rectangle": {
            "x": 1042.0,
            "y": 730.0,
            "width": 100.0,
            "height": 64.0
          },
          "Pivot": {
            "x": 93.0,
            "y": 6.0
          },
          "Mesh": {
            "TableCoordinate": [],
            "TableIndexVertex": []
          }
        }
      ]
    }
  ]
}