{
  "m_GameObject": {
    "m_FileID": 0,
    "m_PathID": 0
  },
  "m_Enabled": 1,
  "m_Script": {
    "m_FileID": 0,
    "m_PathID": -8016775561480030637
  },
  "m_Name": "adv_100605.chapter",
  "chapterName": "",
  "dataList": [
    {
      "m_FileID": 0,
      "m_PathID": 5394231449826147141
    }
  ],
  "settingList": [
    {
      "rows": [
        {
          "rowIndex": 0,
          "strings": [
            "CharacterName",
            "NameText",
            "Pattern",
            "X",
            "Y",
            "Z",
            "Pivot",
            "Scale",
            "Conditional",
            "BundlePath",
            "FileName",
            "SubFileName",
            "FileType",
            "Animation",
            "RenderTexture",
            "RenderRect",
            "EyeBlink",
            "LipSynch",
            "Icon",
            "IconSubFileName",
            "IconRect"
          ],
          "isEmpty": 0,
          "isCommentOut": 0
        },
        {
          "rowIndex": 1,
          "strings": [
            "大人ネプテューヌ",
            "ネプテューヌ",
            "通常",
            "",
            "-50",
            "",
            "",
            "",
            "",
            "texture/character/stand/1040100_stand",
            "1040100_stand.asset",
            "1040100_stand_01",
            "Dicing",
            "",
            "",
            "",
            "",
            "",
            "",
            "",
            ""
          ],
          "isEmpty": 0,
          "isCommentOut": 0
        },
        {
          "rowIndex": 2,
          "strings": [
            "",
            "",
            "目閉じ",
            "",
            "-50",
            "",
            "",
            "",
            "",
            "texture/character/stand/1040100_stand",
            "1040100_stand.asset",
            "1040100_stand_02",
            "Dicing",
            "",
            "",
            "",
            "",
            "",
            "",
            "",
            ""
          ],
          "isEmpty": 0,
          "isCommentOut": 0
        },
        {
          "rowIndex": 3,
          "strings": [
            "",
            "",
            "真剣",
            "",
            "-50",
            "",
            "",
            "",
            "",
            "texture/character/stand/1040100_stand",
            "1040100_stand.asset",
            "1040100_stand_03",
            "Dicing",
            "",
            "",
            "",
            "",
            "",
            "",
            "",
            ""
          ],
          "isEmpty": 0,
          "isCommentOut": 0
        },
        {
          "rowIndex": 4,
          "strings": [
            "",
            "",
            "笑い",
            "",
            "-50",
            "",
            "",
            "",
            "",
            "texture/character/stand/1040100_stand",
            "1040100_stand.asset",
            "1040100_stand_04",
            "Dicing",
            "",
            "",
            "",
            "",
            "",
            "",
            "",
            ""
          ],
          "isEmpty": 0,
          "isCommentOut": 0
        },
        {
          "rowIndex": 5,
          "strings": [
            "",
            "",
            "悲しみ",
            "",
            "-50",
            "",
            "",
            "",
            "",
            "texture/character/stand/1040100_stand",
            "1040100_stand.asset",
            "1040100_stand_05",
            "Dicing",
            "",
            "",
            "",
            "",
            "",
            "",
            "",
            ""
          ],
          "isEmpty": 0,
          "isCommentOut": 0
        },
        {
          "rowIndex": 6,
          "strings": [
            "",
            "",
            "照れ",
            "",
            "-50",
            "",
            "",
            "",
            "",
            "texture/character/stand/1040100_stand",
            "1040100_stand.asset",
            "1040100_stand_06",
            "Dicing",
            "",
            "",
            "",
            "",
            "",
            "",
            "",
            ""
          ],
          "isEmpty": 0,
          "isCommentOut": 0
        },
        {
          "rowIndex": 7,
          "strings": [
            "",
            "",
            "固有",
            "",
            "-50",
            "",
            "",
            "",
            "",
            "texture/character/stand/1040100_stand",
            "1040100_stand.asset",
            "1040100_stand_07",
            "Dicing",
            "",
            "",
            "",
            "",
            "",
            "",
            "",
            ""
          ],
          "isEmpty": 0,
          "isCommentOut": 0
        },
        {
          "rowIndex": 8,
          "strings": [
            "クロワール",
            "",
            "通常",
            "",
            "-50",
            "",
            "",
            "",
            "",
            "texture/character/stand/1030800_stand",
            "1030800_stand.asset",
            "1030800_stand_01",
            "Dicing",
            "",
            "",
            "",
            "",
            "",
            "",
            "",
            ""
          ],
          "isEmpty": 0,
          "isCommentOut": 0
        },
        {
          "rowIndex": 9,
          "strings": [
            "//",
            "",
            "目閉じ",
            "",
            "-50",
            "",
            "",
            "",
            "",
            "texture/character/stand/1030800_stand",
            "1030800_stand.asset",
            "1030800_stand_02",
            "Dicing",
            "",
            "",
            "",
            "",
            "",
            "",
            "",
            ""
          ],
          "isEmpty": 0,
          "isCommentOut": 1
        },
        {
          "rowIndex": 10,
          "strings": [
            "",
            "",
            "真剣",
            "",
            "-50",
            "",
            "",
            "",
            "",
            "texture/character/stand/1030800_stand",
            "1030800_stand.asset",
            "1030800_stand_03",
            "Dicing",
            "",
            "",
            "",
            "",
            "",
            "",
            "",
            ""
          ],
          "isEmpty": 0,
          "isCommentOut": 0
        },
        {
          "rowIndex": 11,
          "strings": [
            "",
            "",
            "笑い",
            "",
            "-50",
            "",
            "",
            "",
            "",
            "texture/character/stand/1030800_stand",
            "1030800_stand.asset",
            "1030800_stand_04",
            "Dicing",
            "",
            "",
            "",
            "",
            "",
            "",
            "",
            ""
          ],
          "isEmpty": 0,
          "isCommentOut": 0
        },
        {
          "rowIndex": 12,
          "strings": [
            "",
            "",
            "悲しみ",
            "",
            "-50",
            "",
            "",
            "",
            "",
            "texture/character/stand/1030800_stand",
            "1030800_stand.asset",
            "1030800_stand_05",
            "Dicing",
            "",
            "",
            "",
            "",
            "",
            "",
            "",
            ""
          ],
          "isEmpty": 0,
          "isCommentOut": 0
        },
        {
          "rowIndex": 13,
          "strings": [
            "//",
            "",
            "照れ",
            "",
            "-50",
            "",
            "",
            "",
            "",
            "texture/character/stand/1030800_stand",
            "1030800_stand.asset",
            "1030800_stand_06",
            "Dicing",
            "",
            "",
            "",
            "",
            "",
            "",
            "",
            ""
          ],
          "isEmpty": 0,
          "isCommentOut": 1
        },
        {
          "rowIndex": 14,
          "strings": [
            "",
            "",
            "固有",
            "",
            "-50",
            "",
            "",
            "",
            "",
            "texture/character/stand/1030800_stand",
            "1030800_stand.asset",
            "1030800_stand_07",
            "Dicing",
            "",
            "",
            "",
            "",
            "",
            "",
            "",
            ""
          ],
          "isEmpty": 0,
          "isCommentOut": 0
        },
        {
          "rowIndex": 15,
          "strings": [
            "ロム",
            "",
            "通常",
            "",
            "-150",
            "",
            "",
            "",
            "",
            "texture/character/stand/1020300_stand",
            "1020300_stand.asset",
            "1020300_stand_01",
            "Dicing",
            "",
            "",
            "",
            "",
            "",
            "",
            "",
            ""
          ],
          "isEmpty": 0,
          "isCommentOut": 0
        },
        {
          "rowIndex": 16,
          "strings": [
            "",
            "",
            "目閉じ",
            "",
            "-150",
            "",
            "",
            "",
            "",
            "texture/character/stand/1020300_stand",
            "1020300_stand.asset",
            "1020300_stand_02",
            "Dicing",
            "",
            "",
            "",
            "",
            "",
            "",
            "",
            ""
          ],
          "isEmpty": 0,
          "isCommentOut": 0
        },
        {
          "rowIndex": 17,
          "strings": [
            "",
            "",
            "真剣",
            "",
            "-150",
            "",
            "",
            "",
            "",
            "texture/character/stand/1020300_stand",
            "1020300_stand.asset",
            "1020300_stand_03",
            "Dicing",
            "",
            "",
            "",
            "",
            "",
            "",
            "",
            ""
          ],
          "isEmpty": 0,
          "isCommentOut": 0
        },
        {
          "rowIndex": 18,
          "strings": [
            "",
            "",
            "笑い",
            "",
            "-150",
            "",
            "",
            "",
            "",
            "texture/character/stand/1020300_stand",
            "1020300_stand.asset",
            "1020300_stand_04",
            "Dicing",
            "",
            "",
            "",
            "",
            "",
            "",
            "",
            ""
          ],
          "isEmpty": 0,
          "isCommentOut": 0
        },
        {
          "rowIndex": 19,
          "strings": [
            "",
            "",
            "悲しみ",
            "",
            "-150",
            "",
            "",
            "",
            "",
            "texture/character/stand/1020300_stand",
            "1020300_stand.asset",
            "1020300_stand_05",
            "Dicing",
            "",
            "",
            "",
            "",
            "",
            "",
            "",
            ""
          ],
          "isEmpty": 0,
          "isCommentOut": 0
        },
        {
          "rowIndex": 20,
          "strings": [
            "",
            "",
            "照れ",
            "",
            "-150",
            "",
            "",
            "",
            "",
            "texture/character/stand/1020300_stand",
            "1020300_stand.asset",
            "1020300_stand_06",
            "Dicing",
            "",
            "",
            "",
            "",
            "",
            "",
            "",
            ""
          ],
          "isEmpty": 0,
          "isCommentOut": 0
        },
        {
          "rowIndex": 21,
          "strings": [
            "",
            "",
            "固有",
            "",
            "-150",
            "",
            "",
            "",
            "",
            "texture/character/stand/1020300_stand",
            "1020300_stand.asset",
            "1020300_stand_07",
            "Dicing",
            "",
            "",
            "",
            "",
            "",
            "",
            "",
            ""
          ],
          "isEmpty": 0,
          "isCommentOut": 0
        },
        {
          "rowIndex": 22,
          "strings": [
            "ラム",
            "",
            "通常",
            "",
            "-150",
            "",
            "",
            "",
            "",
            "texture/character/stand/1020400_stand",
            "1020400_stand.asset",
            "1020400_stand_01",
            "Dicing",
            "",
            "",
            "",
            "",
            "",
            "",
            "",
            ""
          ],
          "isEmpty": 0,
          "isCommentOut": 0
        },
        {
          "rowIndex": 23,
          "strings": [
            "",
            "",
            "目閉じ",
            "",
            "-150",
            "",
            "",
            "",
            "",
            "texture/character/stand/1020400_stand",
            "1020400_stand.asset",
            "1020400_stand_02",
            "Dicing",
            "",
            "",
            "",
            "",
            "",
            "",
            "",
            ""
          ],
          "isEmpty": 0,
          "isCommentOut": 0
        },
        {
          "rowIndex": 24,
          "strings": [
            "",
            "",
            "真剣",
            "",
            "-150",
            "",
            "",
            "",
            "",
            "texture/character/stand/1020400_stand",
            "1020400_stand.asset",
            "1020400_stand_03",
            "Dicing",
            "",
            "",
            "",
            "",
            "",
            "",
            "",
            ""
          ],
          "isEmpty": 0,
          "isCommentOut": 0
        },
        {
          "rowIndex": 25,
          "strings": [
            "",
            "",
            "笑い",
            "",
            "-150",
            "",
            "",
            "",
            "",
            "texture/character/stand/1020400_stand",
            "1020400_stand.asset",
            "1020400_stand_04",
            "Dicing",
            "",
            "",
            "",
            "",
            "",
            "",
            "",
            ""
          ],
          "isEmpty": 0,
          "isCommentOut": 0
        },
        {
          "rowIndex": 26,
          "strings": [
            "",
            "",
            "悲しみ",
            "",
            "-150",
            "",
            "",
            "",
            "",
            "texture/character/stand/1020400_stand",
            "1020400_stand.asset",
            "1020400_stand_05",
            "Dicing",
            "",
            "",
            "",
            "",
            "",
            "",
            "",
            ""
          ],
          "isEmpty": 0,
          "isCommentOut": 0
        },
        {
          "rowIndex": 27,
          "strings": [
            "",
            "",
            "照れ",
            "",
            "-150",
            "",
            "",
            "",
            "",
            "texture/character/stand/1020400_stand",
            "1020400_stand.asset",
            "1020400_stand_06",
            "Dicing",
            "",
            "",
            "",
            "",
            "",
            "",
            "",
            ""
          ],
          "isEmpty": 0,
          "isCommentOut": 0
        },
        {
          "rowIndex": 28,
          "strings": [
            "",
            "",
            "固有",
            "",
            "-150",
            "",
            "",
            "",
            "",
            "texture/character/stand/1020400_stand",
            "1020400_stand.asset",
            "1020400_stand_07",
            "Dicing",
            "",
            "",
            "",
            "",
            "",
            "",
            "",
            ""
          ],
          "isEmpty": 0,
          "isCommentOut": 0
        },
        {
          "rowIndex": 29,
          "strings": [
            "天王星うずめ",
            "",
            "通常",
            "",
            "-50",
            "",
            "",
            "",
            "",
            "texture/character/stand/1040200_stand",
            "1040200_stand.asset",
            "1040200_stand_01",
            "Dicing",
            "",
            "",
            "",
            "",
            "",
            "",
            "",
            ""
          ],
          "isEmpty": 0,
          "isCommentOut": 0
        },
        {
          "rowIndex": 30,
          "strings": [
            "",
            "",
            "目閉じ",
            "",
            "-50",
            "",
            "",
            "",
            "",
            "texture/character/stand/1040200_stand",
            "1040200_stand.asset",
            "1040200_stand_02",
            "Dicing",
            "",
            "",
            "",
            "",
            "",
            "",
            "",
            ""
          ],
          "isEmpty": 0,
          "isCommentOut": 0
        },
        {
          "rowIndex": 31,
          "strings": [
            "",
            "",
            "真剣",
            "",
            "-50",
            "",
            "",
            "",
            "",
            "texture/character/stand/1040200_stand",
            "1040200_stand.asset",
            "1040200_stand_03",
            "Dicing",
            "",
            "",
            "",
            "",
            "",
            "",
            "",
            ""
          ],
          "isEmpty": 0,
          "isCommentOut": 0
        },
        {
          "rowIndex": 32,
          "strings": [
            "",
            "",
            "笑い",
            "",
            "-50",
            "",
            "",
            "",
            "",
            "texture/character/stand/1040200_stand",
            "1040200_stand.asset",
            "1040200_stand_04",
            "Dicing",
            "",
            "",
            "",
            "",
            "",
            "",
            "",
            ""
          ],
          "isEmpty": 0,
          "isCommentOut": 0
        },
        {
          "rowIndex": 33,
          "strings": [
            "",
            "",
            "悲しみ",
            "",
            "-50",
            "",
            "",
            "",
            "",
            "texture/character/stand/1040200_stand",
            "1040200_stand.asset",
            "1040200_stand_05",
            "Dicing",
            "",
            "",
            "",
            "",
            "",
            "",
            "",
            ""
          ],
          "isEmpty": 0,
          "isCommentOut": 0
        },
        {
          "rowIndex": 34,
          "strings": [
            "",
            "",
            "照れ",
            "",
            "-50",
            "",
            "",
            "",
            "",
            "texture/character/stand/1040200_stand",
            "1040200_stand.asset",
            "1040200_stand_06",
            "Dicing",
            "",
            "",
            "",
            "",
            "",
            "",
            "",
            ""
          ],
          "isEmpty": 0,
          "isCommentOut": 0
        },
        {
          "rowIndex": 35,
          "strings": [
            "",
            "",
            "固有",
            "",
            "-50",
            "",
            "",
            "",
            "",
            "texture/character/stand/1040200_stand",
            "1040200_stand.asset",
            "1040200_stand_07",
            "Dicing",
            "",
            "",
            "",
            "",
            "",
            "",
            "",
            ""
          ],
          "isEmpty": 0,
          "isCommentOut": 0
        },
        {
          "rowIndex": 36,
          "strings": [
            "ホワイトハートカオス",
            "ホワイトハート(カオス)",
            "通常",
            "",
            "30",
            "",
            "",
            "",
            "",
            "texture/character/stand/2000300_stand",
            "2000300_stand.asset",
            "2000300_stand_01",
            "Dicing",
            "",
            "",
            "",
            "",
            "",
            "",
            "",
            ""
          ],
          "isEmpty": 0,
          "isCommentOut": 0
        },
        {
          "rowIndex": 37,
          "strings": [
            "//",
            "",
            "目閉じ",
            "",
            "30",
            "",
            "",
            "",
            "",
            "texture/character/stand/2000300_stand",
            "2000300_stand.asset",
            "2000300_stand_02",
            "Dicing",
            "",
            "",
            "",
            "",
            "",
            "",
            "",
            ""
          ],
          "isEmpty": 0,
          "isCommentOut": 1
        },
        {
          "rowIndex": 38,
          "strings": [
            "",
            "",
            "真剣",
            "",
            "30",
            "",
            "",
            "",
            "",
            "texture/character/stand/2000300_stand",
            "2000300_stand.asset",
            "2000300_stand_03",
            "Dicing",
            "",
            "",
            "",
            "",
            "",
            "",
            "",
            ""
          ],
          "isEmpty": 0,
          "isCommentOut": 0
        },
        {
          "rowIndex": 39,
          "strings": [
            "",
            "",
            "笑い",
            "",
            "30",
            "",
            "",
            "",
            "",
            "texture/character/stand/2000300_stand",
            "2000300_stand.asset",
            "2000300_stand_04",
            "Dicing",
            "",
            "",
            "",
            "",
            "",
            "",
            "",
            ""
          ],
          "isEmpty": 0,
          "isCommentOut": 0
        },
        {
          "rowIndex": 40,
          "strings": [
            "",
            "",
            "悲しみ",
            "",
            "30",
            "",
            "",
            "",
            "",
            "texture/character/stand/2000300_stand",
            "2000300_stand.asset",
            "2000300_stand_05",
            "Dicing",
            "",
            "",
            "",
            "",
            "",
            "",
            "",
            ""
          ],
          "isEmpty": 0,
          "isCommentOut": 0
        },
        {
          "rowIndex": 41,
          "strings": [
            "",
            "",
            "照れ",
            "",
            "30",
            "",
            "",
            "",
            "",
            "texture/character/stand/2000300_stand",
            "2000300_stand.asset",
            "2000300_stand_06",
            "Dicing",
            "",
            "",
            "",
            "",
            "",
            "",
            "",
            ""
          ],
          "isEmpty": 0,
          "isCommentOut": 0
        },
        {
          "rowIndex": 42,
          "strings": [
            "//",
            "",
            "固有",
            "",
            "30",
            "",
            "",
            "",
            "",
            "texture/character/stand/2000300_stand",
            "2000300_stand.asset",
            "2000300_stand_07",
            "Dicing",
            "",
            "",
            "",
            "",
            "",
            "",
            "",
            ""
          ],
          "isEmpty": 0,
          "isCommentOut": 1
        },
        {
          "rowIndex": 43,
          "strings": [
            "ホワイトハート",
            "",
            "通常",
            "",
            "-120",
            "",
            "",
            "",
            "",
            "texture/character/stand/1010700_stand",
            "1010700_stand.asset",
            "1010700_stand_01",
            "Dicing",
            "",
            "",
            "",
            "",
            "",
            "",
            "",
            ""
          ],
          "isEmpty": 0,
          "isCommentOut": 0
        },
        {
          "rowIndex": 44,
          "strings": [
            "",
            "",
            "目閉じ",
            "",
            "-120",
            "",
            "",
            "",
            "",
            "texture/character/stand/1010700_stand",
            "1010700_stand.asset",
            "1010700_stand_02",
            "Dicing",
            "",
            "",
            "",
            "",
            "",
            "",
            "",
            ""
          ],
          "isEmpty": 0,
          "isCommentOut": 0
        },
        {
          "rowIndex": 45,
          "strings": [
            "",
            "",
            "真剣",
            "",
            "-120",
            "",
            "",
            "",
            "",
            "texture/character/stand/1010700_stand",
            "1010700_stand.asset",
            "1010700_stand_03",
            "Dicing",
            ""
          ],
          "isEmpty": 0,
          "isCommentOut": 0
        },
        {
          "rowIndex": 46,
          "strings": [
            "",
            "",
            "笑い",
            "",
            "-120",
            "",
            "",
            "",
            "",
            "texture/character/stand/1010700_stand",
            "1010700_stand.asset",
            "1010700_stand_04",
            "Dicing",
            ""
          ],
          "isEmpty": 0,
          "isCommentOut": 0
        },
        {
          "rowIndex": 47,
          "strings": [
            "",
            "",
            "悲しみ",
            "",
            "-120",
            "",
            "",
            "",
            "",
            "texture/character/stand/1010700_stand",
            "1010700_stand.asset",
            "1010700_stand_05",
            "Dicing",
            ""
          ],
          "isEmpty": 0,
          "isCommentOut": 0
        },
        {
          "rowIndex": 48,
          "strings": [
            "",
            "",
            "照れ",
            "",
            "-120",
            "",
            "",
            "",
            "",
            "texture/character/stand/1010700_stand",
            "1010700_stand.asset",
            "1010700_stand_06",
            "Dicing",
            ""
          ],
          "isEmpty": 0,
          "isCommentOut": 0
        },
        {
          "rowIndex": 49,
          "strings": [
            "",
            "",
            "固有",
            "",
            "-120",
            "",
            "",
            "",
            "",
            "texture/character/stand/1010700_stand",
            "1010700_stand.asset",
            "1010700_stand_07",
            "Dicing",
            ""
          ],
          "isEmpty": 0,
          "isCommentOut": 0
        },
        {
          "rowIndex": 50,
          "strings": [
            "フィナンシェ",
            "",
            "通常",
            "",
            "-50",
            "",
            "",
            "",
            "",
            "texture/character/stand/1011300_stand",
            "1011300_stand.asset",
            "1011300_stand_01",
            "Dicing",
            ""
          ],
          "isEmpty": 0,
          "isCommentOut": 0
        },
        {
          "rowIndex": 51,
          "strings": [
            "//",
            "",
            "目閉じ",
            "",
            "-50",
            "",
            "",
            "",
            "",
            "texture/character/stand/1011300_stand",
            "1011300_stand.asset",
            "1011300_stand_02",
            "Dicing",
            ""
          ],
          "isEmpty": 0,
          "isCommentOut": 1
        },
        {
          "rowIndex": 52,
          "strings": [
            "",
            "",
            "真剣",
            "",
            "-50",
            "",
            "",
            "",
            "",
            "texture/character/stand/1011300_stand",
            "1011300_stand.asset",
            "1011300_stand_03",
            "Dicing",
            ""
          ],
          "isEmpty": 0,
          "isCommentOut": 0
        },
        {
          "rowIndex": 53,
          "strings": [
            "",
            "",
            "笑い",
            "",
            "-50",
            "",
            "",
            "",
            "",
            "texture/character/stand/1011300_stand",
            "1011300_stand.asset",
            "1011300_stand_04",
            "Dicing",
            ""
          ],
          "isEmpty": 0,
          "isCommentOut": 0
        },
        {
          "rowIndex": 54,
          "strings": [
            "",
            "",
            "悲しみ",
            "",
            "-50",
            "",
            "",
            "",
            "",
            "texture/character/stand/1011300_stand",
            "1011300_stand.asset",
            "1011300_stand_05",
            "Dicing",
            ""
          ],
          "isEmpty": 0,
          "isCommentOut": 0
        },
        {
          "rowIndex": 55,
          "strings": [
            "",
            "",
            "照れ",
            "",
            "-50",
            "",
            "",
            "",
            "",
            "texture/character/stand/1011300_stand",
            "1011300_stand.asset",
            "1011300_stand_06",
            "Dicing",
            ""
          ],
          "isEmpty": 0,
          "isCommentOut": 0
        },
        {
          "rowIndex": 56,
          "strings": [
            "",
            "",
            "固有",
            "",
            "-50",
            "",
            "",
            "",
            "",
            "texture/character/stand/1011300_stand",
            "1011300_stand.asset",
            "1011300_stand_07",
            "Dicing",
            ""
          ],
          "isEmpty": 0,
          "isCommentOut": 0
        },
        {
          "rowIndex": 57,
          "strings": [
            "",
            "",
            "",
            "",
            "",
            "",
            "",
            "",
            "",
            "",
            "",
            "",
            "",
            ""
          ],
          "isEmpty": 1,
          "isCommentOut": 0
        }
      ],
      "name": "Assets/BundleResources/Data/Adventure/Main/Story1006/adv_100605.xls:Character",
      "type": 1,
      "textLength": 4916,
      "headerRow": 0
    },
    {
      "rows": [
        {
          "rowIndex": 0,
          "strings": [
            "Label",
            "Title",
            "Type",
            "BundlePath",
            "FileName",
            "IntroTime",
            "Volume",
            "Comment"
          ],
          "isEmpty": 0,
          "isCommentOut": 0
        },
        {
          "rowIndex": 1,
          "strings": [
            "//BGM",
            "",
            "",
            "",
            "",
            "",
            "",
            ""
          ],
          "isEmpty": 0,
          "isCommentOut": 1
        },
        {
          "rowIndex": 2,
          "strings": [
            "ADV通常",
            "",
            "Bgm",
            "sound/bgm/adventure/bgm_adv_general",
            "bgm_adv_general.wav",
            "",
            "",
            "既存BGM113"
          ],
          "isEmpty": 0,
          "isCommentOut": 0
        },
        {
          "rowIndex": 3,
          "strings": [
            "状況説明",
            "",
            "Bgm",
            "sound/bgm/adventure/bgm_description",
            "bgm_description.wav",
            "",
            "",
            "既存BGM103"
          ],
          "isEmpty": 0,
          "isCommentOut": 0
        },
        {
          "rowIndex": 4,
          "strings": [
            "倒れる音",
            "",
            "Se",
            "sound/se/adventure/se_down",
            "se_down.wav",
            "",
            "",
            "新規ＢＧＭ03。 \n『反撃』をテーマにした曲。"
          ],
          "isEmpty": 0,
          "isCommentOut": 0
        },
        {
          "rowIndex": 5,
          "strings": [
            "",
            "",
            "",
            "",
            "",
            "",
            "",
            ""
          ],
          "isEmpty": 1,
          "isCommentOut": 0
        }
      ],
      "name": "Assets/BundleResources/Data/Adventure/Main/Story1006/adv_100605.xls:Sound",
      "type": 1,
      "textLength": 264,
      "headerRow": 0
    },
    {
      "rows": [
        {
          "rowIndex": 0,
          "strings": [
            "Label",
            "Type",
            "X",
            "Y",
            "Z",
            "Pivot",
            "Scale",
            "Conditional",
            "BundlePath",
            "FileName",
            "FileType",
            "SubFileName",
            "Animation",
            "RenderTexture",
            "RenderRect",
            "Thumbnail",
            "CgCategolly",
            "元画像名"
          ],
          "isEmpty": 0,
          "isCommentOut": 0
        },
        {
          "rowIndex": 1,
          "strings": [
            "//背景",
            "",
            "",
            "",
            "",
            "",
            "",
            "",
            "",
            ""
          ],
          "isEmpty": 0,
          "isCommentOut": 1
        },
        {
          "rowIndex": 2,
          "strings": [
            "背景(黒)",
            "Bg",
            "",
            "",
            "",
            "",
            "x=1.25 y=0.9375",
            "",
            "texture/background/bg_007_ll",
            "bg_007_LL.png",
            "",
            "",
            "",
            "",
            "",
            "",
            "01_0048.png"
          ],
          "isEmpty": 0,
          "isCommentOut": 0
        },
        {
          "rowIndex": 3,
          "strings": [
            "背景(ルウィー汎用：昼)",
            "Bg",
            "",
            "",
            "",
            "",
            "x=1.25 y=0.9375",
            "",
            "texture/background/bg_015_ll",
            "bg_015_LL.png"
          ],
          "isEmpty": 0,
          "isCommentOut": 0
        },
        {
          "rowIndex": 4,
          "strings": [
            "",
            "",
            "",
            "",
            "",
            "",
            "",
            "",
            "",
            ""
          ],
          "isEmpty": 1,
          "isCommentOut": 0
        },
        {
          "rowIndex": 5,
          "strings": [
            "",
            "",
            "",
            "",
            "",
            "",
            "",
            "",
            "",
            ""
          ],
          "isEmpty": 1,
          "isCommentOut": 0
        },
        {
          "rowIndex": 6,
          "strings": [
            "",
            "",
            "",
            "",
            "",
            "",
            "",
            "",
            "",
            ""
          ],
          "isEmpty": 1,
          "isCommentOut": 0
        },
        {
          "rowIndex": 7,
          "strings": [
            "",
            "",
            "",
            "",
            "",
            "",
            "",
            "",
            "",
            ""
          ],
          "isEmpty": 1,
          "isCommentOut": 0
        },
        {
          "rowIndex": 8,
          "strings": [
            "",
            "",
            "",
            "",
            "",
            "",
            "",
            "",
            "",
            ""
          ],
          "isEmpty": 1,
          "isCommentOut": 0
        },
        {
          "rowIndex": 9,
          "strings": [
            "",
            "",
            "",
            "",
            "",
            "",
            "",
            "",
            "",
            ""
          ],
          "isEmpty": 1,
          "isCommentOut": 0
        },
        {
          "rowIndex": 10,
          "strings": [
            "",
            "",
            "",
            "",
            "",
            "",
            "",
            "",
            "",
            ""
          ],
          "isEmpty": 1,
          "isCommentOut": 0
        }
      ],
      "name": "Assets/BundleResources/Data/Adventure/Main/Story1006/adv_100605.xls:Texture",
      "type": 1,
      "textLength": 274,
      "headerRow": 0
    },
    {
      "rows": [
        {
          "rowIndex": 0,
          "strings": [
            "Label",
            "FileName",
            "BundlePath"
          ],
          "isEmpty": 0,
          "isCommentOut": 0
        },
        {
          "rowIndex": 1,
          "strings": [
            "",
            "",
            ""
          ],
          "isEmpty": 1,
          "isCommentOut": 0
        },
        {
          "rowIndex": 2,
          "strings": [
            "",
            "",
            ""
          ],
          "isEmpty": 1,
          "isCommentOut": 0
        }
      ],
      "name": "Assets/BundleResources/Data/Adventure/Main/Story1006/adv_100605.xls:Particle",
      "type": 1,
      "textLength": 23,
      "headerRow": 0
    },
    {
      "rows": [
        {
          "rowIndex": 0,
          "strings": [
            "LayerName",
            "Type",
            "X",
            "Y",
            "Order",
            "LayerMask",
            "ScaleX",
            "ScaleY",
            "FlipX",
            "FlipY",
            "Width",
            "Height",
            "BorderLeft",
            "BorderRight",
            "BorderTop",
            "BorderBottom",
            "Align"
          ],
          "isEmpty": 0,
          "isCommentOut": 0
        },
        {
          "rowIndex": 1,
          "strings": [
            "キャラ中央",
            "Character",
            "0",
            "0",
            "1",
            "",
            "",
            "",
            "",
            "",
            "",
            "",
            "",
            "",
            "",
            "0"
          ],
          "isEmpty": 0,
          "isCommentOut": 0
        },
        {
          "rowIndex": 2,
          "strings": [
            "キャラ左",
            "Character",
            "-350",
            "0",
            "2",
            "",
            "",
            "",
            "",
            "",
            "",
            "",
            "",
            "",
            "",
            "0"
          ],
          "isEmpty": 0,
          "isCommentOut": 0
        },
        {
          "rowIndex": 3,
          "strings": [
            "キャラ右",
            "Character",
            "350",
            "0",
            "3",
            "",
            "",
            "",
            "",
            "",
            "",
            "",
            "",
            "",
            "",
            "0"
          ],
          "isEmpty": 0,
          "isCommentOut": 0
        },
        {
          "rowIndex": 4,
          "strings": [
            "背景",
            "Bg",
            "0",
            "0",
            "0"
          ],
          "isEmpty": 0,
          "isCommentOut": 0
        },
        {
          "rowIndex": 5,
          "strings": [],
          "isEmpty": 1,
          "isCommentOut": 0
        },
        {
          "rowIndex": 6,
          "strings": [
            "フェードレイヤー",
            "Sprite",
            "0",
            "0",
            "150"
          ],
          "isEmpty": 0,
          "isCommentOut": 0
        },
        {
          "rowIndex": 7,
          "strings": [
            "スプライトレイヤー",
            "Sprite",
            "0",
            "0",
            "151"
          ],
          "isEmpty": 0,
          "isCommentOut": 0
        },
        {
          "rowIndex": 8,
          "strings": [
            "キャプチャ画像レイヤー",
            "Sprite",
            "0",
            "0",
            "500"
          ],
          "isEmpty": 0,
          "isCommentOut": 0
        }
      ],
      "name": "Assets/BundleResources/Data/Adventure/Main/Story1006/adv_100605.xls:Layer",
      "type": 1,
      "textLength": 234,
      "headerRow": 0
    },
    {
      "rows": [
        {
          "rowIndex": 0,
          "strings": [
            "Label",
            "Type",
            "Value",
            "FileType"
          ],
          "isEmpty": 0,
          "isCommentOut": 0
        },
        {
          "rowIndex": 1,
          "strings": [
            "player_name",
            "String",
            "アルト"
          ],
          "isEmpty": 0,
          "isCommentOut": 0
        },
        {
          "rowIndex": 2,
          "strings": [
            "is_heroine",
            "Bool",
            "FALSE"
          ],
          "isEmpty": 0,
          "isCommentOut": 0
        }
      ],
      "name": "Assets/BundleResources/Data/Adventure/Main/Story1006/adv_100605.xls:Param",
      "type": 1,
      "textLength": 61,
      "headerRow": 0
    }
  ]
}