{
  "m_GameObject": {
    "m_FileID": 0,
    "m_PathID": 0
  },
  "m_Enabled": 1,
  "m_Script": {
    "m_FileID": 0,
    "m_PathID": 8527011069456626154
  },
  "m_Name": "adv_101304_path",
  "advPathList": [
    {
      "assetName": "",
      "assetPath": "texture/character/stand/1040200_stand",
      "resourcePath": "Texture/Character/1040200_stand.asset"
    },
    {
      "assetName": "",
      "assetPath": "texture/character/stand/1081100_stand",
      "resourcePath": "Texture/Character/1081100_stand.asset"
    },
    {
      "assetName": "",
      "assetPath": "texture/character/stand/1030800_stand",
      "resourcePath": "Texture/Character/1030800_stand.asset"
    },
    {
      "assetName": "",
      "assetPath": "texture/character/stand/1010200_stand",
      "resourcePath": "Texture/Character/1010200_stand.asset"
    },
    {
      "assetName": "",
      "assetPath": "texture/character/stand/1081400_stand",
      "resourcePath": "Texture/Character/1081400_stand.asset"
    },
    {
      "assetName": "",
      "assetPath": "texture/character/stand/1040100_stand",
      "resourcePath": "Texture/Character/1040100_stand.asset"
    },
    {
      "assetName": "",
      "assetPath": "texture/character/stand/2000100_stand",
      "resourcePath": "Texture/Character/2000100_stand.asset"
    },
    {
      "assetName": "",
      "assetPath": "texture/character/stand/1020200_stand",
      "resourcePath": "Texture/Character/1020200_stand.asset"
    },
    {
      "assetName": "",
      "assetPath": "texture/character/stand/1010600_stand",
      "resourcePath": "Texture/Character/1010600_stand.asset"
    },
    {
      "assetName": "",
      "assetPath": "texture/character/stand/1130200_stand",
      "resourcePath": "Texture/Character/1130200_stand.asset"
    },
    {
      "assetName": "",
      "assetPath": "texture/character/stand/1012200_stand",
      "resourcePath": "Texture/Character/1012200_stand.asset"
    },
    {
      "assetName": "",
      "assetPath": "texture/character/stand/1011100_stand",
      "resourcePath": "Texture/Character/1011100_stand.asset"
    },
    {
      "assetName": "",
      "assetPath": "texture/background/bg_003_ll",
      "resourcePath": "Texture/BG/bg_003_LL.png"
    },
    {
      "assetName": "",
      "assetPath": "texture/background/bg_007_ll",
      "resourcePath": "Texture/BG/bg_007_LL.png"
    },
    {
      "assetName": "",
      "assetPath": "texture/adventure/sprite_limited_crystal",
      "resourcePath": "Texture/Sprite/sprite_limited_crystal.png"
    },
    {
      "assetName": "",
      "assetPath": "texture/background/bg_004_ll",
      "resourcePath": "Texture/BG/bg_004_LL.png"
    },
    {
      "assetName": "",
      "assetPath": "prefabs/effect/adventure/eff_020/eff_020",
      "resourcePath": "Particle/eff_020.prefab"
    },
    {
      "assetName": "",
      "assetPath": "prefabs/effect/adventure/eff_018/eff_018",
      "resourcePath": "Particle/eff_018.prefab"
    },
    {
      "assetName": "",
      "assetPath": "prefabs/effect/adventure/eff_004/eff_004",
      "resourcePath": "Particle/eff_004.prefab"
    },
    {
      "assetName": "",
      "assetPath": "prefabs/effect/adventure/eff_025/eff_025",
      "resourcePath": "Particle/eff_025.prefab"
    },
    {
      "assetName": "",
      "assetPath": "prefabs/effect/adventure/eff_017/eff_017",
      "resourcePath": "Particle/eff_017.prefab"
    },
    {
      "assetName": "",
      "assetPath": "sound/bgm/adventure/bgm_serious",
      "resourcePath": "Sound/BGM/bgm_serious.wav"
    },
    {
      "assetName": "",
      "assetPath": "sound/se/adventure/se_sprint",
      "resourcePath": "Sound/SE/se_sprint.wav"
    },
    {
      "assetName": "",
      "assetPath": "sound/se/adventure/se_knuckle",
      "resourcePath": "Sound/SE/se_knuckle.wav"
    },
    {
      "assetName": "",
      "assetPath": "sound/se/adventure/se_down",
      "resourcePath": "Sound/SE/se_down.wav"
    },
    {
      "assetName": "",
      "assetPath": "sound/se/adventure/se_slashing_sin",
      "resourcePath": "Sound/SE/se_slashing_sin.wav"
    },
    {
      "assetName": "",
      "assetPath": "sound/se/adventure/se_swing",
      "resourcePath": "Sound/SE/se_swing.wav"
    },
    {
      "assetName": "",
      "assetPath": "sound/se/adventure/se_single_bullet",
      "resourcePath": "Sound/SE/se_single_bullet.wav"
    },
    {
      "assetName": "",
      "assetPath": "sound/se/adventure/se_depression",
      "resourcePath": "Sound/SE/se_depression.wav"
    },
    {
      "assetName": "",
      "assetPath": "sound/bgm/adventure/bgm_ultra_dimension",
      "resourcePath": "Sound/BGM/bgm_ultra_dimension.wav"
    },
    {
      "assetName": "",
      "assetPath": "sound/se/adventure/se_transform",
      "resourcePath": "Sound/SE/se_transform.wav"
    },
    {
      "assetName": "",
      "assetPath": "sound/bgm/adventure/bgm_unrest",
      "resourcePath": "Sound/BGM/bgm_unrest.wav"
    },
    {
      "assetName": "",
      "assetPath": "sound/se/adventure/se_metastasis",
      "resourcePath": "Sound/SE/se_metastasis.wav"
    },
    {
      "assetName": "",
      "assetPath": "sound/se/adventure/se_energy_vanishing",
      "resourcePath": "Sound/SE/se_energy_vanishing.wav"
    },
    {
      "assetName": "",
      "assetPath": "sound/bgm/adventure/bgm_sad",
      "resourcePath": "Sound/BGM/bgm_sad.wav"
    },
    {
      "assetName": "",
      "assetPath": "data/adventure/main/story1013/adv_101304.scenarios",
      "resourcePath": "adv_101304.scenarios.asset"
    }
  ]
}