{
  "m_GameObject": {
    "m_FileID": 0,
    "m_PathID": 0
  },
  "m_Enabled": 1,
  "m_Script": {
    "m_FileID": 0,
    "m_PathID": -2767099076474933927
  },
  "m_Name": "dc_1160200_sd",
  "Version": 65537,
  "TableCellMap": [
    {
      "Name": "1160200_sd",
      "SizeOriginal": {
        "x": 2048.0,
        "y": 2048.0
      },
      "TableCell": [
        {
          "Name": "face_normal",
          "Rectangle": {
            "x": 4.0,
            "y": 654.0,
            "width": 250.0,
            "height": 250.0
          },
          "Pivot": {
            "x": 125.0,
            "y": 135.0
          },
          "Mesh": {
            "TableCoordinate": [],
            "TableIndexVertex": []
          }
        },
        {
          "Name": "face_eye_close_normal",
          "Rectangle": {
            "x": 1164.0,
            "y": 584.0,
            "width": 250.0,
            "height": 250.0
          },
          "Pivot": {
            "x": 125.0,
            "y": 135.0
          },
          "Mesh": {
            "TableCoordinate": [],
            "TableIndexVertex": []
          }
        },
        {
          "Name": "face_mouth_open_happy",
          "Rectangle": {
            "x": 1664.0,
            "y": 614.0,
            "width": 250.0,
            "height": 250.0
          },
          "Pivot": {
            "x": 125.0,
            "y": 135.0
          },
          "Mesh": {
            "TableCoordinate": [],
            "TableIndexVertex": []
          }
        },
        {
          "Name": "face_happy",
          "Rectangle": {
            "x": 1414.0,
            "y": 584.0,
            "width": 250.0,
            "height": 250.0
          },
          "Pivot": {
            "x": 125.0,
            "y": 135.0
          },
          "Mesh": {
            "TableCoordinate": [],
            "TableIndexVertex": []
          }
        },
        {
          "Name": "face_attack",
          "Rectangle": {
            "x": 134.0,
            "y": 404.0,
            "width": 250.0,
            "height": 250.0
          },
          "Pivot": {
            "x": 125.0,
            "y": 135.0
          },
          "Mesh": {
            "TableCoordinate": [],
            "TableIndexVertex": []
          }
        },
        {
          "Name": "face_damage",
          "Rectangle": {
            "x": 384.0,
            "y": 404.0,
            "width": 250.0,
            "height": 250.0
          },
          "Pivot": {
            "x": 125.0,
            "y": 135.0
          },
          "Mesh": {
            "TableCoordinate": [],
            "TableIndexVertex": []
          }
        },
        {
          "Name": "face_unique",
          "Rectangle": {
            "x": 254.0,
            "y": 654.0,
            "width": 250.0,
            "height": 250.0
          },
          "Pivot": {
            "x": 125.0,
            "y": 135.0
          },
          "Mesh": {
            "TableCoordinate": [],
            "TableIndexVertex": []
          }
        },
        {
          "Name": "acce_head_front_c",
          "Rectangle": {
            "x": 834.0,
            "y": 4.0,
            "width": 530.0,
            "height": 360.0
          },
          "Pivot": {
            "x": 265.0,
            "y": 180.0
          },
          "Mesh": {
            "TableCoordinate": [],
            "TableIndexVertex": []
          }
        },
        {
          "Name": "acce_head_front_l",
          "Rectangle": {
            "x": 1364.0,
            "y": 4.0,
            "width": 250.0,
            "height": 280.0
          },
          "Pivot": {
            "x": 132.0,
            "y": 119.999878
          },
          "Mesh": {
            "TableCoordinate": [],
            "TableIndexVertex": []
          }
        },
        {
          "Name": "acce_head_front_r",
          "Rectangle": {
            "x": 1614.0,
            "y": 4.0,
            "width": 250.0,
            "height": 280.0
          },
          "Pivot": {
            "x": 123.0,
            "y": 133.999878
          },
          "Mesh": {
            "TableCoordinate": [],
            "TableIndexVertex": []
          }
        },
        {
          "Name": "hear_front_c",
          "Rectangle": {
            "x": 4.0,
            "y": 904.0,
            "width": 430.0,
            "height": 320.0
          },
          "Pivot": {
            "x": 213.0,
            "y": 63.0
          },
          "Mesh": {
            "TableCoordinate": [
              {
                "x": 23.0,
                "y": 215.0
              },
              {
                "x": 13.0,
                "y": 199.0
              },
              {
                "x": 80.0,
                "y": 199.0
              },
              {
                "x": 66.0,
                "y": 230.0
              },
              {
                "x": 83.0,
                "y": 235.0
              },
              {
                "x": 127.0,
                "y": 207.0
              },
              {
                "x": 96.0,
                "y": 248.0
              },
              {
                "x": 133.0,
                "y": 239.0
              },
              {
                "x": 112.0,
                "y": 261.0
              },
              {
                "x": 120.0,
                "y": 264.0
              },
              {
                "x": 187.0,
                "y": 215.0
              },
              {
                "x": 164.0,
                "y": 251.0
              },
              {
                "x": 192.0,
                "y": 242.0
              },
              {
                "x": 181.0,
                "y": 190.0
              },
              {
                "x": 131.0,
                "y": 161.0
              },
              {
                "x": 74.0,
                "y": 158.0
              },
              {
                "x": 84.0,
                "y": 110.0
              },
              {
                "x": 160.0,
                "y": 103.0
              },
              {
                "x": 202.0,
                "y": 163.0
              },
              {
                "x": 200.0,
                "y": 75.0
              },
              {
                "x": 127.0,
                "y": 29.0
              },
              {
                "x": 94.0,
                "y": 59.0
              },
              {
                "x": 214.0,
                "y": 3.0
              },
              {
                "x": 266.0,
                "y": 82.0
              },
              {
                "x": 298.0,
                "y": 130.0
              },
              {
                "x": 286.0,
                "y": 192.0
              },
              {
                "x": 219.0,
                "y": 195.0
              },
              {
                "x": 248.0,
                "y": 233.0
              },
              {
                "x": 212.0,
                "y": 216.0
              },
              {
                "x": 222.0,
                "y": 246.0
              },
              {
                "x": 339.0,
                "y": 175.0
              },
              {
                "x": 309.0,
                "y": 209.0
              },
              {
                "x": 282.0,
                "y": 206.0
              },
              {
                "x": 282.0,
                "y": 231.0
              },
              {
                "x": 266.0,
                "y": 237.0
              },
              {
                "x": 296.0,
                "y": 247.0
              },
              {
                "x": 335.0,
                "y": 225.0
              },
              {
                "x": 342.0,
                "y": 208.0
              },
              {
                "x": 365.0,
                "y": 185.0
              },
              {
                "x": 371.0,
                "y": 226.0
              },
              {
                "x": 349.0,
                "y": 235.0
              },
              {
                "x": 354.0,
                "y": 245.0
              },
              {
                "x": 390.0,
                "y": 200.0
              },
              {
                "x": 398.0,
                "y": 223.0
              },
              {
                "x": 400.0,
                "y": 172.0
              },
              {
                "x": 429.0,
                "y": 180.0
              },
              {
                "x": 364.0,
                "y": 141.0
              },
              {
                "x": 375.0,
                "y": 114.0
              },
              {
                "x": 330.0,
                "y": 23.0
              },
              {
                "x": 267.0,
                "y": 1.0
              }
            ],
            "TableIndexVertex": [
              0,
              1,
              2,
              3,
              0,
              2,
              3,
              2,
              4,
              4,
              2,
              5,
              6,
              4,
              5,
              7,
              6,
              5,
              8,
              6,
              7,
              9,
              8,
              7,
              7,
              5,
              10,
              11,
              7,
              10,
              12,
              11,
              10,
              5,
              13,
              10,
              5,
              14,
              13,
              5,
              2,
              14,
              2,
              15,
              14,
              1,
              15,
              2,
              15,
              16,
              14,
              14,
              16,
              17,
              14,
              17,
              18,
              13,
              14,
              18,
              17,
              19,
              18,
              17,
              20,
              19,
              21,
              20,
              17,
              16,
              21,
              17,
              19,
              20,
              22,
              19,
              22,
              23,
              18,
              19,
              23,
              18,
              23,
              24,
              25,
              18,
              24,
              26,
              18,
              25,
              25,
              27,
              26,
              27,
              28,
              26,
              29,
              28,
              27,
              25,
              24,
              30,
              31,
              25,
              30,
              31,
              32,
              25,
              33,
              32,
              31,
              33,
              34,
              32,
              34,
              33,
              35,
              35,
              33,
              31,
              35,
              31,
              36,
              36,
              31,
              37,
              30,
              37,
              31,
              37,
              30,
              38,
              37,
              38,
              39,
              39,
              40,
              37,
              41,
              40,
              39,
              39,
              38,
              42,
              39,
              42,
              43,
              42,
              38,
              44,
              42,
              44,
              45,
              44,
              38,
              46,
              38,
              30,
              46,
              30,
              24,
              46,
              46,
              24,
              47,
              47,
              24,
              48,
              24,
              23,
              48,
              23,
              49,
              48,
              23,
              22,
              49
            ]
          }
        },
        {
          "Name": "hear_front_r",
          "Rectangle": {
            "x": 1776.0,
            "y": 856.0,
            "width": 200.0,
            "height": 380.0
          },
          "Pivot": {
            "x": 139.0,
            "y": 100.000038
          },
          "Mesh": {
            "TableCoordinate": [
              {
                "x": 63.0,
                "y": 223.0
              },
              {
                "x": 66.0,
                "y": 188.0
              },
              {
                "x": 127.0,
                "y": 249.0
              },
              {
                "x": 153.0,
                "y": 186.0
              },
              {
                "x": 167.0,
                "y": 204.0
              },
              {
                "x": 144.0,
                "y": 254.0
              },
              {
                "x": 175.0,
                "y": 220.0
              },
              {
                "x": 180.0,
                "y": 260.0
              },
              {
                "x": 192.0,
                "y": 236.0
              },
              {
                "x": 198.0,
                "y": 244.0
              },
              {
                "x": 80.0,
                "y": 159.0
              },
              {
                "x": 141.0,
                "y": 156.0
              },
              {
                "x": 95.0,
                "y": 118.0
              },
              {
                "x": 142.0,
                "y": 113.0
              },
              {
                "x": 127.0,
                "y": 68.0
              },
              {
                "x": 96.0,
                "y": 74.0
              },
              {
                "x": 142.0,
                "y": 80.0
              }
            ],
            "TableIndexVertex": [
              0,
              1,
              2,
              2,
              1,
              3,
              2,
              3,
              4,
              5,
              2,
              4,
              6,
              5,
              4,
              7,
              5,
              6,
              8,
              7,
              6,
              7,
              8,
              9,
              10,
              3,
              1,
              3,
              10,
              11,
              10,
              12,
              11,
              11,
              12,
              13,
              12,
              14,
              13,
              12,
              15,
              14,
              14,
              16,
              13
            ]
          }
        },
        {
          "Name": "head",
          "Rectangle": {
            "x": 730.0,
            "y": 694.0,
            "width": 290.0,
            "height": 250.0
          },
          "Pivot": {
            "x": 163.000015,
            "y": 225.0
          },
          "Mesh": {
            "TableCoordinate": [],
            "TableIndexVertex": []
          }
        },
        {
          "Name": "hear_front_l",
          "Rectangle": {
            "x": 504.0,
            "y": 840.0,
            "width": 200.0,
            "height": 380.0
          },
          "Pivot": {
            "x": 81.0,
            "y": 93.00006
          },
          "Mesh": {
            "TableCoordinate": [
              {
                "x": 33.0,
                "y": 239.0
              },
              {
                "x": 47.0,
                "y": 218.0
              },
              {
                "x": 71.0,
                "y": 238.0
              },
              {
                "x": 60.0,
                "y": 196.0
              },
              {
                "x": 99.0,
                "y": 225.0
              },
              {
                "x": 115.0,
                "y": 171.0
              },
              {
                "x": 123.0,
                "y": 205.0
              },
              {
                "x": 68.0,
                "y": 170.0
              },
              {
                "x": 70.0,
                "y": 146.0
              },
              {
                "x": 109.0,
                "y": 135.0
              },
              {
                "x": 72.0,
                "y": 116.0
              },
              {
                "x": 107.0,
                "y": 108.0
              },
              {
                "x": 67.0,
                "y": 72.0
              },
              {
                "x": 98.0,
                "y": 58.0
              }
            ],
            "TableIndexVertex": [
              0,
              1,
              2,
              2,
              1,
              3,
              4,
              2,
              3,
              5,
              4,
              3,
              6,
              4,
              5,
              3,
              7,
              5,
              7,
              8,
              5,
              8,
              9,
              5,
              8,
              10,
              9,
              10,
              11,
              9,
              10,
              12,
              11,
              12,
              13,
              11
            ]
          }
        },
        {
          "Name": "acce_body_front",
          "Rectangle": {
            "x": 4.0,
            "y": 4.0,
            "width": 250.0,
            "height": 275.0
          },
          "Pivot": {
            "x": 125.0,
            "y": 101.999977
          },
          "Mesh": {
            "TableCoordinate": [],
            "TableIndexVertex": []
          }
        },
        {
          "Name": "hand_r",
          "Rectangle": {
            "x": 504.0,
            "y": 660.0,
            "width": 225.0,
            "height": 180.0
          },
          "Pivot": {
            "x": 81.9999,
            "y": 61.00002
          },
          "Mesh": {
            "TableCoordinate": [],
            "TableIndexVertex": []
          }
        },
        {
          "Name": "arm_r",
          "Rectangle": {
            "x": 4.0,
            "y": 280.0,
            "width": 130.0,
            "height": 180.0
          },
          "Pivot": {
            "x": 78.99996,
            "y": 64.00008
          },
          "Mesh": {
            "TableCoordinate": [],
            "TableIndexVertex": []
          }
        },
        {
          "Name": "body",
          "Rectangle": {
            "x": 1164.0,
            "y": 364.0,
            "width": 180.0,
            "height": 220.0
          },
          "Pivot": {
            "x": 93.99996,
            "y": 151.000076
          },
          "Mesh": {
            "TableCoordinate": [],
            "TableIndexVertex": []
          }
        },
        {
          "Name": "acce_hip_front",
          "Rectangle": {
            "x": 1664.0,
            "y": 284.0,
            "width": 330.0,
            "height": 330.0
          },
          "Pivot": {
            "x": 167.000137,
            "y": 141.000092
          },
          "Mesh": {
            "TableCoordinate": [],
            "TableIndexVertex": []
          }
        },
        {
          "Name": "thigh_r",
          "Rectangle": {
            "x": 864.0,
            "y": 1124.0,
            "width": 130.0,
            "height": 180.0
          },
          "Pivot": {
            "x": 61.00003,
            "y": 68.00004
          },
          "Mesh": {
            "TableCoordinate": [],
            "TableIndexVertex": []
          }
        },
        {
          "Name": "leg_r",
          "Rectangle": {
            "x": 1914.0,
            "y": 614.0,
            "width": 130.0,
            "height": 180.0
          },
          "Pivot": {
            "x": 78.0,
            "y": 54.0
          },
          "Mesh": {
            "TableCoordinate": [],
            "TableIndexVertex": []
          }
        },
        {
          "Name": "hip",
          "Rectangle": {
            "x": 704.0,
            "y": 944.0,
            "width": 180.0,
            "height": 180.0
          },
          "Pivot": {
            "x": 95.00004,
            "y": 109.000076
          },
          "Mesh": {
            "TableCoordinate": [],
            "TableIndexVertex": []
          }
        },
        {
          "Name": "thigh_l",
          "Rectangle": {
            "x": 884.0,
            "y": 944.0,
            "width": 130.0,
            "height": 180.0
          },
          "Pivot": {
            "x": 61.99999,
            "y": 68.00004
          },
          "Mesh": {
            "TableCoordinate": [],
            "TableIndexVertex": []
          }
        },
        {
          "Name": "leg_l",
          "Rectangle": {
            "x": 4.0,
            "y": 460.0,
            "width": 130.0,
            "height": 180.0
          },
          "Pivot": {
            "x": 71.99998,
            "y": 55.00008
          },
          "Mesh": {
            "TableCoordinate": [],
            "TableIndexVertex": []
          }
        },
        {
          "Name": "weapon_b",
          "Rectangle": {
            "x": 1294.0,
            "y": 1384.0,
            "width": 250.0,
            "height": 500.0
          },
          "Pivot": {
            "x": 130.0,
            "y": 368.0
          },
          "Mesh": {
            "TableCoordinate": [],
            "TableIndexVertex": []
          }
        },
        {
          "Name": "hand_l",
          "Rectangle": {
            "x": 634.0,
            "y": 404.0,
            "width": 180.0,
            "height": 255.0
          },
          "Pivot": {
            "x": 99.0,
            "y": 59.00012
          },
          "Mesh": {
            "TableCoordinate": [],
            "TableIndexVertex": []
          }
        },
        {
          "Name": "arm_l",
          "Rectangle": {
            "x": 1864.0,
            "y": 4.0,
            "width": 130.0,
            "height": 180.0
          },
          "Pivot": {
            "x": 49.99995,
            "y": 63.0
          },
          "Mesh": {
            "TableCoordinate": [],
            "TableIndexVertex": []
          }
        },
        {
          "Name": "hear_back_c",
          "Rectangle": {
            "x": 1020.0,
            "y": 834.0,
            "width": 260.0,
            "height": 520.0
          },
          "Pivot": {
            "x": 119.999878,
            "y": 80.99988
          },
          "Mesh": {
            "TableCoordinate": [
              {
                "x": 21.0,
                "y": 441.0
              },
              {
                "x": 16.0,
                "y": 407.0
              },
              {
                "x": 113.0,
                "y": 407.0
              },
              {
                "x": 109.0,
                "y": 466.0
              },
              {
                "x": 179.0,
                "y": 451.0
              },
              {
                "x": 199.0,
                "y": 407.0
              },
              {
                "x": 114.0,
                "y": 369.0
              },
              {
                "x": 21.0,
                "y": 366.0
              },
              {
                "x": 28.0,
                "y": 330.0
              },
              {
                "x": 119.0,
                "y": 328.0
              },
              {
                "x": 203.0,
                "y": 370.0
              },
              {
                "x": 204.0,
                "y": 328.0
              },
              {
                "x": 199.0,
                "y": 289.0
              },
              {
                "x": 119.0,
                "y": 288.0
              },
              {
                "x": 38.0,
                "y": 287.0
              },
              {
                "x": 44.0,
                "y": 238.0
              },
              {
                "x": 120.0,
                "y": 244.0
              },
              {
                "x": 195.0,
                "y": 248.0
              },
              {
                "x": 195.0,
                "y": 208.0
              },
              {
                "x": 116.0,
                "y": 205.0
              },
              {
                "x": 47.0,
                "y": 203.0
              },
              {
                "x": 50.0,
                "y": 169.0
              },
              {
                "x": 119.0,
                "y": 167.0
              },
              {
                "x": 197.0,
                "y": 168.0
              },
              {
                "x": 123.0,
                "y": 132.0
              },
              {
                "x": 54.0,
                "y": 135.0
              },
              {
                "x": 58.0,
                "y": 98.0
              },
              {
                "x": 129.0,
                "y": 92.0
              },
              {
                "x": 197.0,
                "y": 134.0
              },
              {
                "x": 197.0,
                "y": 93.0
              },
              {
                "x": 197.0,
                "y": 64.0
              },
              {
                "x": 144.0,
                "y": 36.0
              },
              {
                "x": 80.0,
                "y": 51.0
              }
            ],
            "TableIndexVertex": [
              0,
              1,
              2,
              3,
              0,
              2,
              3,
              2,
              4,
              4,
              2,
              5,
              2,
              6,
              5,
              2,
              7,
              6,
              1,
              7,
              2,
              7,
              8,
              6,
              6,
              8,
              9,
              6,
              9,
              10,
              5,
              6,
              10,
              10,
              9,
              11,
              9,
              12,
              11,
              9,
              13,
              12,
              14,
              13,
              9,
              14,
              15,
              13,
              13,
              15,
              16,
              13,
              16,
              17,
              13,
              17,
              12,
              16,
              18,
              17,
              16,
              19,
              18,
              16,
              15,
              19,
              15,
              20,
              19,
              20,
              21,
              19,
              19,
              21,
              22,
              19,
              22,
              18,
              18,
              22,
              23,
              22,
              24,
              23,
              22,
              25,
              24,
              21,
              25,
              22,
              25,
              26,
              24,
              24,
              26,
              27,
              24,
              27,
              28,
              24,
              28,
              23,
              27,
              29,
              28,
              27,
              30,
              29,
              27,
              31,
              30,
              27,
              32,
              31,
              26,
              32,
              27,
              8,
              14,
              9
            ]
          }
        },
        {
          "Name": "hear_back_r",
          "Rectangle": {
            "x": 1560.0,
            "y": 864.0,
            "width": 260.0,
            "height": 520.0
          },
          "Pivot": {
            "x": 164.999908,
            "y": 81.99983
          },
          "Mesh": {
            "TableCoordinate": [
              {
                "x": 6.0,
                "y": 224.0
              },
              {
                "x": 40.0,
                "y": 168.0
              },
              {
                "x": 53.0,
                "y": 292.0
              },
              {
                "x": 194.0,
                "y": 162.0
              },
              {
                "x": 228.0,
                "y": 219.0
              },
              {
                "x": 222.0,
                "y": 296.0
              },
              {
                "x": 132.0,
                "y": 347.0
              },
              {
                "x": 32.0,
                "y": 334.0
              },
              {
                "x": 120.0,
                "y": 408.0
              },
              {
                "x": 17.0,
                "y": 400.0
              },
              {
                "x": 103.0,
                "y": 499.0
              },
              {
                "x": 7.0,
                "y": 489.0
              },
              {
                "x": 62.0,
                "y": 114.0
              },
              {
                "x": 141.0,
                "y": 68.0
              },
              {
                "x": 209.0,
                "y": 104.0
              },
              {
                "x": 179.0,
                "y": 42.0
              },
              {
                "x": 216.0,
                "y": 55.0
              }
            ],
            "TableIndexVertex": [
              0,
              1,
              2,
              3,
              2,
              1,
              2,
              3,
              4,
              5,
              2,
              4,
              6,
              2,
              5,
              7,
              2,
              6,
              8,
              7,
              6,
              9,
              7,
              8,
              10,
              9,
              8,
              11,
              9,
              10,
              3,
              1,
              12,
              12,
              13,
              3,
              3,
              13,
              14,
              13,
              15,
              14,
              14,
              15,
              16
            ]
          }
        },
        {
          "Name": "hear_back_l",
          "Rectangle": {
            "x": 1280.0,
            "y": 860.0,
            "width": 260.0,
            "height": 520.0
          },
          "Pivot": {
            "x": 71.99998,
            "y": 77.0000458
          },
          "Mesh": {
            "TableCoordinate": [
              {
                "x": 40.0,
                "y": 188.0
              },
              {
                "x": 37.0,
                "y": 156.0
              },
              {
                "x": 147.0,
                "y": 155.0
              },
              {
                "x": 46.0,
                "y": 225.0
              },
              {
                "x": 166.0,
                "y": 235.0
              },
              {
                "x": 48.0,
                "y": 263.0
              },
              {
                "x": 176.0,
                "y": 311.0
              },
              {
                "x": 72.0,
                "y": 348.0
              },
              {
                "x": 186.0,
                "y": 341.0
              },
              {
                "x": 86.0,
                "y": 403.0
              },
              {
                "x": 191.0,
                "y": 372.0
              },
              {
                "x": 204.0,
                "y": 407.0
              },
              {
                "x": 96.0,
                "y": 445.0
              },
              {
                "x": 115.0,
                "y": 490.0
              },
              {
                "x": 217.0,
                "y": 461.0
              },
              {
                "x": 43.0,
                "y": 315.0
              },
              {
                "x": 190.0,
                "y": 276.0
              },
              {
                "x": 177.0,
                "y": 200.0
              },
              {
                "x": 37.0,
                "y": 127.0
              },
              {
                "x": 139.0,
                "y": 98.0
              },
              {
                "x": 45.0,
                "y": 69.0
              },
              {
                "x": 105.0,
                "y": 53.0
              },
              {
                "x": 48.0,
                "y": 45.0
              }
            ],
            "TableIndexVertex": [
              0,
              1,
              2,
              3,
              0,
              2,
              4,
              3,
              2,
              5,
              3,
              4,
              5,
              4,
              6,
              6,
              7,
              5,
              7,
              6,
              8,
              9,
              7,
              8,
              9,
              8,
              10,
              11,
              9,
              10,
              11,
              12,
              9,
              13,
              12,
              11,
              14,
              13,
              11,
              7,
              15,
              5,
              6,
              4,
              16,
              17,
              4,
              2,
              1,
              18,
              2,
              18,
              19,
              2,
              19,
              18,
              20,
              19,
              20,
              21,
              20,
              22,
              21
            ]
          }
        },
        {
          "Name": "weapon_r",
          "Rectangle": {
            "x": 1794.0,
            "y": 1384.0,
            "width": 250.0,
            "height": 400.0
          },
          "Pivot": {
            "x": 131.0,
            "y": 338.0
          },
          "Mesh": {
            "TableCoordinate": [],
            "TableIndexVertex": []
          }
        },
        {
          "Name": "weapon_r_1",
          "Rectangle": {
            "x": 1794.0,
            "y": 1384.0,
            "width": 250.0,
            "height": 400.0
          },
          "Pivot": {
            "x": 128.0,
            "y": 182.0
          },
          "Mesh": {
            "TableCoordinate": [],
            "TableIndexVertex": []
          }
        },
        {
          "Name": "weapon_l",
          "Rectangle": {
            "x": 1544.0,
            "y": 1384.0,
            "width": 250.0,
            "height": 400.0
          },
          "Pivot": {
            "x": 131.0,
            "y": 338.0
          },
          "Mesh": {
            "TableCoordinate": [],
            "TableIndexVertex": []
          }
        },
        {
          "Name": "rear_c",
          "Rectangle": {
            "x": 434.0,
            "y": 1220.0,
            "width": 430.0,
            "height": 430.0
          },
          "Pivot": {
            "x": 215.0,
            "y": 215.0
          },
          "Mesh": {
            "TableCoordinate": [],
            "TableIndexVertex": []
          }
        },
        {
          "Name": "rear_r",
          "Rectangle": {
            "x": 864.0,
            "y": 1354.0,
            "width": 430.0,
            "height": 430.0
          },
          "Pivot": {
            "x": 215.0,
            "y": 215.0
          },
          "Mesh": {
            "TableCoordinate": [],
            "TableIndexVertex": []
          }
        },
        {
          "Name": "rear_l",
          "Rectangle": {
            "x": 4.0,
            "y": 1224.0,
            "width": 430.0,
            "height": 430.0
          },
          "Pivot": {
            "x": 215.0,
            "y": 215.0
          },
          "Mesh": {
            "TableCoordinate": [],
            "TableIndexVertex": []
          }
        },
        {
          "Name": "acce_head_rear_c",
          "Rectangle": {
            "x": 1364.0,
            "y": 284.0,
            "width": 300.0,
            "height": 300.0
          },
          "Pivot": {
            "x": 150.0,
            "y": 150.0
          },
          "Mesh": {
            "TableCoordinate": [],
            "TableIndexVertex": []
          }
        },
        {
          "Name": "acce_body_rear",
          "Rectangle": {
            "x": 254.0,
            "y": 4.0,
            "width": 580.0,
            "height": 400.0
          },
          "Pivot": {
            "x": 290.0,
            "y": 200.0
          },
          "Mesh": {
            "TableCoordinate": [],
            "TableIndexVertex": []
          }
        },
        {
          "Name": "hand_2",
          "Rectangle": {
            "x": 0.0,
            "y": 1829.0,
            "width": 288.0,
            "height": 146.0
          },
          "Pivot": {
            "x": 166.0,
            "y": 78.0
          },
          "Mesh": {
            "TableCoordinate": [],
            "TableIndexVertex": []
          }
        },
        {
          "Name": "acce_hip_rear",
          "Rectangle": {
            "x": 834.0,
            "y": 364.0,
            "width": 330.0,
            "height": 330.0
          },
          "Pivot": {
            "x": 165.0,
            "y": 165.0
          },
          "Mesh": {
            "TableCoordinate": [],
            "TableIndexVertex": []
          }
        }
      ]
    }
  ]
}