{
  "m_GameObject": {
    "m_FileID": 0,
    "m_PathID": 0
  },
  "m_Enabled": 1,
  "m_Script": {
    "m_FileID": 0,
    "m_PathID": -2767099076474933927
  },
  "m_Name": "dc_1012300_sd",
  "Version": 65537,
  "TableCellMap": [
    {
      "Name": "1012300_sd",
      "SizeOriginal": {
        "x": 2048.0,
        "y": 2048.0
      },
      "TableCell": [
        {
          "Name": "face_normal",
          "Rectangle": {
            "x": 4.0,
            "y": 654.0,
            "width": 250.0,
            "height": 250.0
          },
          "Pivot": {
            "x": 125.0,
            "y": 135.0
          },
          "Mesh": {
            "TableCoordinate": [],
            "TableIndexVertex": []
          }
        },
        {
          "Name": "face_eye_close_normal",
          "Rectangle": {
            "x": 1164.0,
            "y": 584.0,
            "width": 250.0,
            "height": 250.0
          },
          "Pivot": {
            "x": 125.0,
            "y": 135.0
          },
          "Mesh": {
            "TableCoordinate": [],
            "TableIndexVertex": []
          }
        },
        {
          "Name": "face_mouth_open_happy",
          "Rectangle": {
            "x": 1664.0,
            "y": 614.0,
            "width": 250.0,
            "height": 250.0
          },
          "Pivot": {
            "x": 125.0,
            "y": 135.0
          },
          "Mesh": {
            "TableCoordinate": [],
            "TableIndexVertex": []
          }
        },
        {
          "Name": "face_happy",
          "Rectangle": {
            "x": 1414.0,
            "y": 584.0,
            "width": 250.0,
            "height": 250.0
          },
          "Pivot": {
            "x": 125.0,
            "y": 135.0
          },
          "Mesh": {
            "TableCoordinate": [],
            "TableIndexVertex": []
          }
        },
        {
          "Name": "face_attack",
          "Rectangle": {
            "x": 134.0,
            "y": 404.0,
            "width": 250.0,
            "height": 250.0
          },
          "Pivot": {
            "x": 125.0,
            "y": 135.0
          },
          "Mesh": {
            "TableCoordinate": [],
            "TableIndexVertex": []
          }
        },
        {
          "Name": "face_damage",
          "Rectangle": {
            "x": 384.0,
            "y": 404.0,
            "width": 250.0,
            "height": 250.0
          },
          "Pivot": {
            "x": 125.0,
            "y": 135.0
          },
          "Mesh": {
            "TableCoordinate": [],
            "TableIndexVertex": []
          }
        },
        {
          "Name": "face_unique",
          "Rectangle": {
            "x": 254.0,
            "y": 654.0,
            "width": 250.0,
            "height": 250.0
          },
          "Pivot": {
            "x": 125.0,
            "y": 135.0
          },
          "Mesh": {
            "TableCoordinate": [],
            "TableIndexVertex": []
          }
        },
        {
          "Name": "face_unique_1",
          "Rectangle": {
            "x": 1544.0,
            "y": 1784.0,
            "width": 249.0,
            "height": 249.0
          },
          "Pivot": {
            "x": 124.5,
            "y": 134.46
          },
          "Mesh": {
            "TableCoordinate": [],
            "TableIndexVertex": []
          }
        },
        {
          "Name": "acce_head_front_c",
          "Rectangle": {
            "x": 834.0,
            "y": 4.0,
            "width": 530.0,
            "height": 360.0
          },
          "Pivot": {
            "x": 244.0,
            "y": 179.0
          },
          "Mesh": {
            "TableCoordinate": [
              {
                "x": 56.0,
                "y": 298.0
              },
              {
                "x": 34.0,
                "y": 288.0
              },
              {
                "x": 30.0,
                "y": 254.0
              },
              {
                "x": 61.0,
                "y": 227.0
              },
              {
                "x": 100.0,
                "y": 276.0
              },
              {
                "x": 87.0,
                "y": 297.0
              },
              {
                "x": 97.0,
                "y": 241.0
              },
              {
                "x": 97.0,
                "y": 179.0
              },
              {
                "x": 146.0,
                "y": 225.0
              },
              {
                "x": 143.0,
                "y": 177.0
              },
              {
                "x": 197.0,
                "y": 173.0
              },
              {
                "x": 142.0,
                "y": 135.0
              },
              {
                "x": 87.0,
                "y": 133.0
              },
              {
                "x": 143.0,
                "y": 99.0
              },
              {
                "x": 208.0,
                "y": 82.0
              },
              {
                "x": 236.0,
                "y": 153.0
              },
              {
                "x": 248.0,
                "y": 85.0
              },
              {
                "x": 282.0,
                "y": 156.0
              },
              {
                "x": 334.0,
                "y": 116.0
              },
              {
                "x": 351.0,
                "y": 147.0
              },
              {
                "x": 362.0,
                "y": 216.0
              },
              {
                "x": 382.0,
                "y": 163.0
              },
              {
                "x": 402.0,
                "y": 195.0
              },
              {
                "x": 400.0,
                "y": 228.0
              }
            ],
            "TableIndexVertex": [
              0,
              1,
              2,
              0,
              2,
              3,
              0,
              3,
              4,
              5,
              0,
              4,
              3,
              6,
              4,
              7,
              6,
              3,
              8,
              6,
              7,
              8,
              7,
              9,
              8,
              9,
              10,
              9,
              11,
              10,
              7,
              11,
              9,
              7,
              12,
              11,
              3,
              12,
              7,
              11,
              12,
              13,
              11,
              13,
              14,
              14,
              10,
              11,
              15,
              10,
              14,
              15,
              14,
              16,
              17,
              15,
              16,
              18,
              17,
              16,
              17,
              18,
              19,
              17,
              19,
              20,
              20,
              19,
              21,
              20,
              21,
              22,
              23,
              20,
              22
            ]
          }
        },
        {
          "Name": "acce_head_front_c_2",
          "Rectangle": {
            "x": 5.0,
            "y": 1654.0,
            "width": 529.0,
            "height": 359.0
          },
          "Pivot": {
            "x": 243.539627,
            "y": 178.502777
          },
          "Mesh": {
            "TableCoordinate": [],
            "TableIndexVertex": []
          }
        },
        {
          "Name": "acce_head_front_c_1",
          "Rectangle": {
            "x": 849.0,
            "y": 1833.0,
            "width": 264.0,
            "height": 163.0
          },
          "Pivot": {
            "x": 220.0,
            "y": 50.0
          },
          "Mesh": {
            "TableCoordinate": [
              {
                "x": 8.0,
                "y": 90.0
              },
              {
                "x": -2.0,
                "y": 77.0
              },
              {
                "x": 23.0,
                "y": 73.0
              },
              {
                "x": 43.0,
                "y": 84.0
              },
              {
                "x": 28.0,
                "y": 120.0
              },
              {
                "x": 4.0,
                "y": 101.0
              },
              {
                "x": 57.0,
                "y": 89.0
              },
              {
                "x": 53.0,
                "y": 82.0
              },
              {
                "x": 67.0,
                "y": 98.0
              },
              {
                "x": 41.0,
                "y": 131.0
              },
              {
                "x": 73.0,
                "y": 110.0
              },
              {
                "x": 74.0,
                "y": 100.0
              },
              {
                "x": 57.0,
                "y": 138.0
              },
              {
                "x": 46.0,
                "y": 140.0
              },
              {
                "x": 82.0,
                "y": 114.0
              },
              {
                "x": 73.0,
                "y": 148.0
              },
              {
                "x": 92.0,
                "y": 139.0
              },
              {
                "x": 85.0,
                "y": 164.0
              },
              {
                "x": 94.0,
                "y": 164.0
              },
              {
                "x": 63.0,
                "y": 151.0
              },
              {
                "x": 29.0,
                "y": 131.0
              },
              {
                "x": 81.0,
                "y": 88.0
              },
              {
                "x": 86.0,
                "y": 65.0
              },
              {
                "x": 90.0,
                "y": 72.0
              },
              {
                "x": 95.0,
                "y": 64.0
              },
              {
                "x": 115.0,
                "y": 76.0
              },
              {
                "x": 91.0,
                "y": 83.0
              },
              {
                "x": 109.0,
                "y": 95.0
              },
              {
                "x": 127.0,
                "y": 83.0
              },
              {
                "x": 132.0,
                "y": 98.0
              },
              {
                "x": 130.0,
                "y": 111.0
              },
              {
                "x": 140.0,
                "y": 111.0
              },
              {
                "x": 150.0,
                "y": 87.0
              },
              {
                "x": 159.0,
                "y": 95.0
              },
              {
                "x": 172.0,
                "y": 84.0
              },
              {
                "x": 163.0,
                "y": 70.0
              },
              {
                "x": 137.0,
                "y": 82.0
              },
              {
                "x": 150.0,
                "y": 56.0
              },
              {
                "x": 173.0,
                "y": 55.0
              },
              {
                "x": 186.0,
                "y": 58.0
              },
              {
                "x": 186.0,
                "y": 95.0
              },
              {
                "x": 223.0,
                "y": 89.0
              },
              {
                "x": 217.0,
                "y": 41.0
              },
              {
                "x": 189.0,
                "y": 36.0
              },
              {
                "x": 177.0,
                "y": 28.0
              },
              {
                "x": 205.0,
                "y": 22.0
              },
              {
                "x": 231.0,
                "y": 16.0
              },
              {
                "x": 251.0,
                "y": 30.0
              },
              {
                "x": 269.0,
                "y": 29.0
              },
              {
                "x": 241.0,
                "y": 0.0
              },
              {
                "x": 223.0,
                "y": -2.0
              },
              {
                "x": 200.0,
                "y": 10.0
              },
              {
                "x": -2.0,
                "y": 69.0
              }
            ],
            "TableIndexVertex": [
              0,
              1,
              2,
              3,
              0,
              2,
              4,
              0,
              3,
              5,
              0,
              4,
              3,
              6,
              4,
              7,
              6,
              3,
              8,
              4,
              6,
              8,
              9,
              4,
              8,
              10,
              9,
              10,
              8,
              11,
              12,
              9,
              10,
              13,
              9,
              12,
              12,
              10,
              14,
              14,
              15,
              12,
              16,
              15,
              14,
              17,
              15,
              16,
              17,
              16,
              18,
              19,
              12,
              15,
              4,
              9,
              20,
              8,
              6,
              21,
              21,
              6,
              22,
              22,
              23,
              21,
              23,
              22,
              24,
              25,
              23,
              24,
              25,
              26,
              23,
              27,
              26,
              25,
              27,
              25,
              28,
              27,
              28,
              29,
              30,
              27,
              29,
              30,
              29,
              31,
              31,
              29,
              32,
              31,
              32,
              33,
              33,
              32,
              34,
              32,
              35,
              34,
              32,
              36,
              35,
              29,
              36,
              32,
              29,
              28,
              36,
              36,
              37,
              35,
              35,
              37,
              38,
              39,
              35,
              38,
              39,
              34,
              35,
              40,
              34,
              39,
              41,
              40,
              39,
              39,
              42,
              41,
              39,
              43,
              42,
              39,
              38,
              43,
              38,
              44,
              43,
              38,
              37,
              44,
              43,
              44,
              45,
              43,
              45,
              42,
              42,
              45,
              46,
              42,
              46,
              47,
              41,
              42,
              47,
              41,
              47,
              48,
              48,
              47,
              49,
              47,
              46,
              49,
              46,
              50,
              49,
              46,
              45,
              50,
              45,
              51,
              50,
              44,
              51,
              45,
              26,
              21,
              23,
              1,
              52,
              2
            ]
          }
        },
        {
          "Name": "presentBOX",
          "Rectangle": {
            "x": 1020.0,
            "y": 694.0,
            "width": 144.0,
            "height": 140.0
          },
          "Pivot": {
            "x": 75.0,
            "y": 83.0
          },
          "Mesh": {
            "TableCoordinate": [],
            "TableIndexVertex": []
          }
        },
        {
          "Name": "acce_head_front_l",
          "Rectangle": {
            "x": 1364.0,
            "y": 4.0,
            "width": 250.0,
            "height": 280.0
          },
          "Pivot": {
            "x": 110.0,
            "y": 128.0
          },
          "Mesh": {
            "TableCoordinate": [],
            "TableIndexVertex": []
          }
        },
        {
          "Name": "acce_head_front_r",
          "Rectangle": {
            "x": 1614.0,
            "y": 4.0,
            "width": 250.0,
            "height": 280.0
          },
          "Pivot": {
            "x": 119.0,
            "y": 125.0
          },
          "Mesh": {
            "TableCoordinate": [],
            "TableIndexVertex": []
          }
        },
        {
          "Name": "hear_front_c",
          "Rectangle": {
            "x": 4.0,
            "y": 904.0,
            "width": 430.0,
            "height": 320.0
          },
          "Pivot": {
            "x": 213.0,
            "y": 63.0
          },
          "Mesh": {
            "TableCoordinate": [
              {
                "x": 40.0,
                "y": 214.0
              },
              {
                "x": 10.0,
                "y": 206.0
              },
              {
                "x": 10.0,
                "y": 192.0
              },
              {
                "x": 44.0,
                "y": 184.0
              },
              {
                "x": 85.0,
                "y": 220.0
              },
              {
                "x": 41.0,
                "y": 228.0
              },
              {
                "x": 76.0,
                "y": 162.0
              },
              {
                "x": 128.0,
                "y": 190.0
              },
              {
                "x": 126.0,
                "y": 221.0
              },
              {
                "x": 102.0,
                "y": 248.0
              },
              {
                "x": 87.0,
                "y": 249.0
              },
              {
                "x": 123.0,
                "y": 258.0
              },
              {
                "x": 109.0,
                "y": 259.0
              },
              {
                "x": 147.0,
                "y": 236.0
              },
              {
                "x": 131.0,
                "y": 241.0
              },
              {
                "x": 182.0,
                "y": 189.0
              },
              {
                "x": 176.0,
                "y": 236.0
              },
              {
                "x": 194.0,
                "y": 233.0
              },
              {
                "x": 163.0,
                "y": 256.0
              },
              {
                "x": 179.0,
                "y": 257.0
              },
              {
                "x": 169.0,
                "y": 146.0
              },
              {
                "x": 118.0,
                "y": 153.0
              },
              {
                "x": 98.0,
                "y": 108.0
              },
              {
                "x": 149.0,
                "y": 104.0
              },
              {
                "x": 181.0,
                "y": 78.0
              },
              {
                "x": 222.0,
                "y": 150.0
              },
              {
                "x": 188.0,
                "y": 182.0
              },
              {
                "x": 207.0,
                "y": 195.0
              },
              {
                "x": 192.0,
                "y": 195.0
              },
              {
                "x": 219.0,
                "y": 69.0
              },
              {
                "x": 193.0,
                "y": 28.0
              },
              {
                "x": 128.0,
                "y": 56.0
              },
              {
                "x": 243.0,
                "y": 29.0
              },
              {
                "x": 253.0,
                "y": 77.0
              },
              {
                "x": 274.0,
                "y": 134.0
              },
              {
                "x": 228.0,
                "y": 169.0
              },
              {
                "x": 281.0,
                "y": 176.0
              },
              {
                "x": 260.0,
                "y": 204.0
              },
              {
                "x": 217.0,
                "y": 208.0
              },
              {
                "x": 316.0,
                "y": 129.0
              },
              {
                "x": 341.0,
                "y": 207.0
              },
              {
                "x": 290.0,
                "y": 199.0
              },
              {
                "x": 321.0,
                "y": 233.0
              },
              {
                "x": 292.0,
                "y": 228.0
              },
              {
                "x": 293.0,
                "y": 241.0
              },
              {
                "x": 270.0,
                "y": 215.0
              },
              {
                "x": 270.0,
                "y": 229.0
              },
              {
                "x": 279.0,
                "y": 198.0
              },
              {
                "x": 346.0,
                "y": 135.0
              },
              {
                "x": 386.0,
                "y": 167.0
              },
              {
                "x": 387.0,
                "y": 196.0
              },
              {
                "x": 369.0,
                "y": 216.0
              },
              {
                "x": 348.0,
                "y": 241.0
              },
              {
                "x": 362.0,
                "y": 241.0
              },
              {
                "x": 396.0,
                "y": 219.0
              },
              {
                "x": 421.0,
                "y": 174.0
              },
              {
                "x": 422.0,
                "y": 189.0
              },
              {
                "x": 385.0,
                "y": 153.0
              },
              {
                "x": 321.0,
                "y": 78.0
              },
              {
                "x": 296.0,
                "y": 52.0
              }
            ],
            "TableIndexVertex": [
              0,
              1,
              2,
              3,
              0,
              2,
              0,
              3,
              4,
              5,
              0,
              4,
              3,
              6,
              4,
              4,
              6,
              7,
              8,
              4,
              7,
              9,
              4,
              8,
              10,
              4,
              9,
              11,
              9,
              8,
              12,
              9,
              11,
              13,
              8,
              7,
              14,
              8,
              13,
              15,
              13,
              7,
              15,
              16,
              13,
              17,
              16,
              15,
              18,
              13,
              16,
              18,
              16,
              19,
              7,
              20,
              15,
              7,
              21,
              20,
              6,
              21,
              7,
              6,
              22,
              21,
              21,
              22,
              23,
              21,
              23,
              20,
              20,
              23,
              24,
              20,
              24,
              25,
              26,
              20,
              25,
              15,
              20,
              26,
              27,
              26,
              25,
              27,
              28,
              26,
              24,
              29,
              25,
              24,
              30,
              29,
              24,
              31,
              30,
              23,
              31,
              24,
              22,
              31,
              23,
              29,
              30,
              32,
              29,
              32,
              33,
              25,
              29,
              33,
              25,
              33,
              34,
              35,
              25,
              34,
              35,
              34,
              36,
              36,
              37,
              35,
              37,
              38,
              35,
              36,
              34,
              39,
              40,
              36,
              39,
              40,
              41,
              36,
              40,
              42,
              41,
              42,
              43,
              41,
              44,
              43,
              42,
              45,
              41,
              43,
              46,
              45,
              43,
              47,
              36,
              41,
              40,
              39,
              48,
              49,
              40,
              48,
              40,
              49,
              50,
              51,
              40,
              50,
              52,
              40,
              51,
              53,
              52,
              51,
              51,
              50,
              54,
              50,
              49,
              55,
              50,
              55,
              56,
              49,
              48,
              57,
              39,
              58,
              48,
              39,
              34,
              58,
              58,
              34,
              33,
              58,
              33,
              59,
              33,
              32,
              59
            ]
          }
        },
        {
          "Name": "hear_front_r",
          "Rectangle": {
            "x": 1800.0,
            "y": 864.0,
            "width": 200.0,
            "height": 380.0
          },
          "Pivot": {
            "x": 100.0,
            "y": 190.0
          },
          "Mesh": {
            "TableCoordinate": [
              {
                "x": 42.0,
                "y": 190.0
              },
              {
                "x": 18.0,
                "y": 159.0
              },
              {
                "x": 61.0,
                "y": 150.0
              },
              {
                "x": 65.0,
                "y": 198.0
              },
              {
                "x": 91.0,
                "y": 160.0
              },
              {
                "x": 97.0,
                "y": 197.0
              },
              {
                "x": 92.0,
                "y": 231.0
              },
              {
                "x": 102.0,
                "y": 225.0
              },
              {
                "x": 103.0,
                "y": 202.0
              },
              {
                "x": 52.0,
                "y": 229.0
              },
              {
                "x": 50.0,
                "y": 216.0
              },
              {
                "x": 52.0,
                "y": 199.0
              },
              {
                "x": 68.0,
                "y": 250.0
              },
              {
                "x": 84.0,
                "y": 250.0
              },
              {
                "x": 91.0,
                "y": 244.0
              },
              {
                "x": 106.0,
                "y": 191.0
              },
              {
                "x": 134.0,
                "y": 164.0
              },
              {
                "x": 127.0,
                "y": 209.0
              },
              {
                "x": 154.0,
                "y": 200.0
              },
              {
                "x": 148.0,
                "y": 214.0
              },
              {
                "x": 154.0,
                "y": 169.0
              },
              {
                "x": 144.0,
                "y": 132.0
              },
              {
                "x": 117.0,
                "y": 138.0
              },
              {
                "x": 93.0,
                "y": 127.0
              },
              {
                "x": 70.0,
                "y": 121.0
              },
              {
                "x": 47.0,
                "y": 122.0
              },
              {
                "x": 21.0,
                "y": 114.0
              },
              {
                "x": 54.0,
                "y": 89.0
              },
              {
                "x": 102.0,
                "y": 93.0
              },
              {
                "x": 126.0,
                "y": 94.0
              },
              {
                "x": 80.0,
                "y": 69.0
              },
              {
                "x": 99.0,
                "y": 53.0
              },
              {
                "x": 84.0,
                "y": 42.0
              },
              {
                "x": 64.0,
                "y": 42.0
              },
              {
                "x": 41.0,
                "y": 61.0
              }
            ],
            "TableIndexVertex": [
              0,
              1,
              2,
              3,
              0,
              2,
              3,
              2,
              4,
              5,
              3,
              4,
              5,
              6,
              3,
              5,
              7,
              6,
              7,
              5,
              8,
              3,
              6,
              9,
              9,
              10,
              3,
              3,
              10,
              11,
              6,
              12,
              9,
              6,
              13,
              12,
              14,
              13,
              6,
              15,
              5,
              4,
              15,
              4,
              16,
              17,
              15,
              16,
              18,
              17,
              16,
              19,
              17,
              18,
              16,
              20,
              18,
              16,
              21,
              20,
              16,
              22,
              21,
              4,
              22,
              16,
              4,
              23,
              22,
              4,
              2,
              23,
              2,
              24,
              23,
              2,
              25,
              24,
              1,
              25,
              2,
              1,
              26,
              25,
              25,
              26,
              27,
              24,
              25,
              27,
              28,
              24,
              27,
              23,
              24,
              28,
              23,
              28,
              29,
              29,
              22,
              23,
              21,
              22,
              29,
              28,
              27,
              30,
              30,
              31,
              28,
              30,
              32,
              31,
              30,
              33,
              32,
              34,
              33,
              30,
              27,
              34,
              30,
              26,
              34,
              27
            ]
          }
        },
        {
          "Name": "head",
          "Rectangle": {
            "x": 730.0,
            "y": 694.0,
            "width": 290.0,
            "height": 250.0
          },
          "Pivot": {
            "x": 163.000015,
            "y": 225.0
          },
          "Mesh": {
            "TableCoordinate": [],
            "TableIndexVertex": []
          }
        },
        {
          "Name": "hear_front_l",
          "Rectangle": {
            "x": 504.0,
            "y": 840.0,
            "width": 200.0,
            "height": 380.0
          },
          "Pivot": {
            "x": 81.0,
            "y": 93.00006
          },
          "Mesh": {
            "TableCoordinate": [
              {
                "x": 65.0,
                "y": 182.0
              },
              {
                "x": 65.0,
                "y": 172.0
              },
              {
                "x": 87.0,
                "y": 176.0
              },
              {
                "x": 76.0,
                "y": 160.0
              },
              {
                "x": 102.0,
                "y": 160.0
              },
              {
                "x": 91.0,
                "y": 186.0
              },
              {
                "x": 140.0,
                "y": 189.0
              },
              {
                "x": 100.0,
                "y": 201.0
              },
              {
                "x": 86.0,
                "y": 200.0
              },
              {
                "x": 142.0,
                "y": 222.0
              },
              {
                "x": 152.0,
                "y": 216.0
              },
              {
                "x": 153.0,
                "y": 193.0
              },
              {
                "x": 102.0,
                "y": 220.0
              },
              {
                "x": 118.0,
                "y": 241.0
              },
              {
                "x": 138.0,
                "y": 239.0
              },
              {
                "x": 131.0,
                "y": 155.0
              },
              {
                "x": 108.0,
                "y": 133.0
              },
              {
                "x": 79.0,
                "y": 115.0
              },
              {
                "x": 114.0,
                "y": 111.0
              },
              {
                "x": 145.0,
                "y": 126.0
              },
              {
                "x": 167.0,
                "y": 129.0
              },
              {
                "x": 176.0,
                "y": 161.0
              },
              {
                "x": 162.0,
                "y": 181.0
              },
              {
                "x": 180.0,
                "y": 102.0
              },
              {
                "x": 156.0,
                "y": 99.0
              },
              {
                "x": 118.0,
                "y": 92.0
              },
              {
                "x": 145.0,
                "y": 70.0
              },
              {
                "x": 95.0,
                "y": 61.0
              },
              {
                "x": 80.0,
                "y": 70.0
              },
              {
                "x": 125.0,
                "y": 33.0
              },
              {
                "x": 94.0,
                "y": 45.0
              },
              {
                "x": 101.0,
                "y": 2.0
              },
              {
                "x": 122.0,
                "y": 7.0
              },
              {
                "x": 160.0,
                "y": 47.0
              },
              {
                "x": 78.0,
                "y": 30.0
              },
              {
                "x": 78.0,
                "y": 12.0
              }
            ],
            "TableIndexVertex": [
              0,
              1,
              2,
              1,
              3,
              2,
              2,
              3,
              4,
              5,
              2,
              4,
              5,
              4,
              6,
              7,
              5,
              6,
              8,
              5,
              7,
              6,
              9,
              7,
              10,
              9,
              6,
              10,
              6,
              11,
              9,
              12,
              7,
              9,
              13,
              12,
              14,
              13,
              9,
              4,
              15,
              6,
              4,
              16,
              15,
              4,
              3,
              16,
              3,
              17,
              16,
              16,
              17,
              18,
              16,
              18,
              19,
              15,
              16,
              19,
              15,
              19,
              20,
              21,
              15,
              20,
              22,
              15,
              21,
              6,
              15,
              22,
              21,
              20,
              23,
              20,
              24,
              23,
              19,
              24,
              20,
              19,
              18,
              24,
              24,
              18,
              25,
              25,
              26,
              24,
              25,
              27,
              26,
              25,
              28,
              27,
              25,
              17,
              28,
              18,
              17,
              25,
              27,
              29,
              26,
              27,
              30,
              29,
              29,
              30,
              31,
              31,
              32,
              29,
              33,
              29,
              32,
              26,
              29,
              33,
              23,
              26,
              33,
              23,
              24,
              26,
              30,
              34,
              31,
              34,
              35,
              31
            ]
          }
        },
        {
          "Name": "acce_body_front",
          "Rectangle": {
            "x": 4.0,
            "y": 4.0,
            "width": 250.0,
            "height": 275.0
          },
          "Pivot": {
            "x": 146.0,
            "y": 106.0
          },
          "Mesh": {
            "TableCoordinate": [],
            "TableIndexVertex": []
          }
        },
        {
          "Name": "hand_r",
          "Rectangle": {
            "x": 504.0,
            "y": 660.0,
            "width": 225.0,
            "height": 180.0
          },
          "Pivot": {
            "x": 81.9999,
            "y": 61.00002
          },
          "Mesh": {
            "TableCoordinate": [],
            "TableIndexVertex": []
          }
        },
        {
          "Name": "arm_r",
          "Rectangle": {
            "x": 4.0,
            "y": 280.0,
            "width": 130.0,
            "height": 180.0
          },
          "Pivot": {
            "x": 78.99996,
            "y": 64.00008
          },
          "Mesh": {
            "TableCoordinate": [],
            "TableIndexVertex": []
          }
        },
        {
          "Name": "body",
          "Rectangle": {
            "x": 1164.0,
            "y": 364.0,
            "width": 180.0,
            "height": 220.0
          },
          "Pivot": {
            "x": 97.0,
            "y": 157.0
          },
          "Mesh": {
            "TableCoordinate": [],
            "TableIndexVertex": []
          }
        },
        {
          "Name": "acce_hip_front",
          "Rectangle": {
            "x": 1664.0,
            "y": 284.0,
            "width": 330.0,
            "height": 330.0
          },
          "Pivot": {
            "x": 168.0,
            "y": 120.0
          },
          "Mesh": {
            "TableCoordinate": [],
            "TableIndexVertex": []
          }
        },
        {
          "Name": "thigh_r",
          "Rectangle": {
            "x": 864.0,
            "y": 1124.0,
            "width": 130.0,
            "height": 180.0
          },
          "Pivot": {
            "x": 61.00003,
            "y": 68.00004
          },
          "Mesh": {
            "TableCoordinate": [],
            "TableIndexVertex": []
          }
        },
        {
          "Name": "leg_r",
          "Rectangle": {
            "x": 1914.0,
            "y": 614.0,
            "width": 130.0,
            "height": 180.0
          },
          "Pivot": {
            "x": 78.0,
            "y": 54.0
          },
          "Mesh": {
            "TableCoordinate": [],
            "TableIndexVertex": []
          }
        },
        {
          "Name": "hip",
          "Rectangle": {
            "x": 704.0,
            "y": 944.0,
            "width": 180.0,
            "height": 180.0
          },
          "Pivot": {
            "x": 95.00004,
            "y": 109.000076
          },
          "Mesh": {
            "TableCoordinate": [],
            "TableIndexVertex": []
          }
        },
        {
          "Name": "thigh_l",
          "Rectangle": {
            "x": 884.0,
            "y": 944.0,
            "width": 130.0,
            "height": 180.0
          },
          "Pivot": {
            "x": 61.99999,
            "y": 68.00004
          },
          "Mesh": {
            "TableCoordinate": [],
            "TableIndexVertex": []
          }
        },
        {
          "Name": "leg_l",
          "Rectangle": {
            "x": 4.0,
            "y": 460.0,
            "width": 130.0,
            "height": 180.0
          },
          "Pivot": {
            "x": 63.0,
            "y": 57.0
          },
          "Mesh": {
            "TableCoordinate": [],
            "TableIndexVertex": []
          }
        },
        {
          "Name": "weapon_b",
          "Rectangle": {
            "x": 1294.0,
            "y": 1384.0,
            "width": 250.0,
            "height": 500.0
          },
          "Pivot": {
            "x": 124.0,
            "y": 388.0
          },
          "Mesh": {
            "TableCoordinate": [],
            "TableIndexVertex": []
          }
        },
        {
          "Name": "hand_l",
          "Rectangle": {
            "x": 634.0,
            "y": 404.0,
            "width": 180.0,
            "height": 255.0
          },
          "Pivot": {
            "x": 99.0,
            "y": 59.00012
          },
          "Mesh": {
            "TableCoordinate": [],
            "TableIndexVertex": []
          }
        },
        {
          "Name": "arm_l",
          "Rectangle": {
            "x": 1864.0,
            "y": 4.0,
            "width": 130.0,
            "height": 180.0
          },
          "Pivot": {
            "x": 49.99995,
            "y": 63.0
          },
          "Mesh": {
            "TableCoordinate": [],
            "TableIndexVertex": []
          }
        },
        {
          "Name": "hear_back_c",
          "Rectangle": {
            "x": 1020.0,
            "y": 834.0,
            "width": 260.0,
            "height": 520.0
          },
          "Pivot": {
            "x": 119.999878,
            "y": 80.99988
          },
          "Mesh": {
            "TableCoordinate": [
              {
                "x": 25.0,
                "y": 234.0
              },
              {
                "x": 17.0,
                "y": 233.0
              },
              {
                "x": 17.0,
                "y": 220.0
              },
              {
                "x": 64.0,
                "y": 222.0
              },
              {
                "x": 38.0,
                "y": 250.0
              },
              {
                "x": 20.0,
                "y": 255.0
              },
              {
                "x": 64.0,
                "y": 250.0
              },
              {
                "x": 49.0,
                "y": 271.0
              },
              {
                "x": 61.0,
                "y": 271.0
              },
              {
                "x": 92.0,
                "y": 254.0
              },
              {
                "x": 76.0,
                "y": 269.0
              },
              {
                "x": 92.0,
                "y": 272.0
              },
              {
                "x": 102.0,
                "y": 244.0
              },
              {
                "x": 115.0,
                "y": 188.0
              },
              {
                "x": 150.0,
                "y": 236.0
              },
              {
                "x": 162.0,
                "y": 182.0
              },
              {
                "x": 189.0,
                "y": 210.0
              },
              {
                "x": 181.0,
                "y": 252.0
              },
              {
                "x": 204.0,
                "y": 265.0
              },
              {
                "x": 195.0,
                "y": 277.0
              },
              {
                "x": 184.0,
                "y": 277.0
              },
              {
                "x": 226.0,
                "y": 201.0
              },
              {
                "x": 230.0,
                "y": 263.0
              },
              {
                "x": 261.0,
                "y": 210.0
              },
              {
                "x": 261.0,
                "y": 266.0
              },
              {
                "x": 238.0,
                "y": 143.0
              },
              {
                "x": 201.0,
                "y": 165.0
              },
              {
                "x": 182.0,
                "y": 149.0
              },
              {
                "x": 156.0,
                "y": 140.0
              },
              {
                "x": 127.0,
                "y": 136.0
              },
              {
                "x": 98.0,
                "y": 130.0
              },
              {
                "x": 74.0,
                "y": 168.0
              },
              {
                "x": 32.0,
                "y": 129.0
              },
              {
                "x": 28.0,
                "y": 174.0
              },
              {
                "x": 56.0,
                "y": 97.0
              },
              {
                "x": 93.0,
                "y": 86.0
              },
              {
                "x": 138.0,
                "y": 87.0
              },
              {
                "x": 182.0,
                "y": 97.0
              },
              {
                "x": 215.0,
                "y": 116.0
              },
              {
                "x": 215.0,
                "y": 274.0
              },
              {
                "x": 229.0,
                "y": 274.0
              }
            ],
            "TableIndexVertex": [
              0,
              1,
              2,
              3,
              0,
              2,
              4,
              0,
              3,
              5,
              0,
              4,
              4,
              3,
              6,
              7,
              4,
              6,
              8,
              7,
              6,
              9,
              6,
              3,
              10,
              6,
              9,
              10,
              9,
              11,
              12,
              9,
              3,
              12,
              3,
              13,
              12,
              13,
              14,
              14,
              13,
              15,
              14,
              15,
              16,
              17,
              14,
              16,
              18,
              17,
              16,
              18,
              19,
              17,
              19,
              20,
              17,
              18,
              16,
              21,
              21,
              22,
              18,
              22,
              21,
              23,
              22,
              23,
              24,
              21,
              25,
              23,
              21,
              26,
              25,
              16,
              26,
              21,
              16,
              15,
              26,
              15,
              27,
              26,
              15,
              28,
              27,
              15,
              29,
              28,
              15,
              13,
              29,
              13,
              30,
              29,
              31,
              30,
              13,
              31,
              32,
              30,
              33,
              32,
              31,
              3,
              33,
              31,
              2,
              33,
              3,
              3,
              31,
              13,
              32,
              34,
              30,
              34,
              35,
              30,
              30,
              35,
              36,
              29,
              30,
              36,
              28,
              29,
              36,
              37,
              28,
              36,
              28,
              37,
              27,
              27,
              37,
              38,
              26,
              27,
              38,
              25,
              26,
              38,
              39,
              18,
              22,
              40,
              39,
              22
            ]
          }
        },
        {
          "Name": "hear_back_r",
          "Rectangle": {
            "x": 1540.0,
            "y": 864.0,
            "width": 260.0,
            "height": 520.0
          },
          "Pivot": {
            "x": 164.999908,
            "y": 81.99983
          },
          "Mesh": {
            "TableCoordinate": [
              {
                "x": 19.0,
                "y": 458.0
              },
              {
                "x": 16.0,
                "y": 424.0
              },
              {
                "x": 36.0,
                "y": 443.0
              },
              {
                "x": 50.0,
                "y": 473.0
              },
              {
                "x": 37.0,
                "y": 481.0
              },
              {
                "x": 49.0,
                "y": 481.0
              },
              {
                "x": 73.0,
                "y": 448.0
              },
              {
                "x": 68.0,
                "y": 487.0
              },
              {
                "x": 81.0,
                "y": 487.0
              },
              {
                "x": 65.0,
                "y": 415.0
              },
              {
                "x": 36.0,
                "y": 420.0
              },
              {
                "x": 20.0,
                "y": 390.0
              },
              {
                "x": 51.0,
                "y": 386.0
              },
              {
                "x": 80.0,
                "y": 381.0
              },
              {
                "x": 102.0,
                "y": 408.0
              },
              {
                "x": 94.0,
                "y": 451.0
              },
              {
                "x": 81.0,
                "y": 461.0
              },
              {
                "x": 92.0,
                "y": 461.0
              },
              {
                "x": 110.0,
                "y": 453.0
              },
              {
                "x": 107.0,
                "y": 377.0
              },
              {
                "x": 88.0,
                "y": 351.0
              },
              {
                "x": 61.0,
                "y": 356.0
              },
              {
                "x": 32.0,
                "y": 360.0
              },
              {
                "x": 46.0,
                "y": 331.0
              },
              {
                "x": 72.0,
                "y": 326.0
              },
              {
                "x": 98.0,
                "y": 321.0
              },
              {
                "x": 113.0,
                "y": 346.0
              },
              {
                "x": 124.0,
                "y": 315.0
              },
              {
                "x": 109.0,
                "y": 290.0
              },
              {
                "x": 84.0,
                "y": 296.0
              },
              {
                "x": 59.0,
                "y": 302.0
              },
              {
                "x": 70.0,
                "y": 273.0
              },
              {
                "x": 96.0,
                "y": 262.0
              },
              {
                "x": 121.0,
                "y": 256.0
              },
              {
                "x": 135.0,
                "y": 284.0
              },
              {
                "x": 145.0,
                "y": 253.0
              },
              {
                "x": 127.0,
                "y": 235.0
              },
              {
                "x": 83.0,
                "y": 231.0
              },
              {
                "x": 110.0,
                "y": 214.0
              },
              {
                "x": 138.0,
                "y": 201.0
              },
              {
                "x": 153.0,
                "y": 222.0
              },
              {
                "x": 168.0,
                "y": 191.0
              },
              {
                "x": 151.0,
                "y": 166.0
              },
              {
                "x": 122.0,
                "y": 176.0
              },
              {
                "x": 94.0,
                "y": 190.0
              },
              {
                "x": 105.0,
                "y": 149.0
              },
              {
                "x": 135.0,
                "y": 139.0
              },
              {
                "x": 164.0,
                "y": 132.0
              },
              {
                "x": 182.0,
                "y": 160.0
              },
              {
                "x": 193.0,
                "y": 129.0
              },
              {
                "x": 180.0,
                "y": 98.0
              },
              {
                "x": 153.0,
                "y": 101.0
              },
              {
                "x": 119.0,
                "y": 108.0
              },
              {
                "x": 148.0,
                "y": 68.0
              },
              {
                "x": 177.0,
                "y": 71.0
              },
              {
                "x": 201.0,
                "y": 97.0
              },
              {
                "x": 203.0,
                "y": 55.0
              },
              {
                "x": 182.0,
                "y": 50.0
              }
            ],
            "TableIndexVertex": [
              0,
              1,
              2,
              0,
              2,
              3,
              4,
              0,
              3,
              5,
              4,
              3,
              3,
              2,
              6,
              6,
              7,
              3,
              6,
              8,
              7,
              2,
              9,
              6,
              2,
              10,
              9,
              1,
              10,
              2,
              1,
              11,
              10,
              10,
              11,
              12,
              10,
              12,
              9,
              9,
              12,
              13,
              9,
              13,
              14,
              6,
              9,
              14,
              15,
              6,
              14,
              16,
              6,
              15,
              17,
              16,
              15,
              15,
              14,
              18,
              14,
              13,
              19,
              13,
              20,
              19,
              13,
              21,
              20,
              12,
              21,
              13,
              12,
              22,
              21,
              11,
              22,
              12,
              22,
              23,
              21,
              21,
              23,
              24,
              21,
              24,
              20,
              20,
              24,
              25,
              20,
              25,
              26,
              19,
              20,
              26,
              26,
              25,
              27,
              25,
              28,
              27,
              25,
              29,
              28,
              24,
              29,
              25,
              24,
              30,
              29,
              23,
              30,
              24,
              30,
              31,
              29,
              29,
              31,
              32,
              29,
              32,
              28,
              28,
              32,
              33,
              28,
              33,
              34,
              27,
              28,
              34,
              34,
              33,
              35,
              33,
              36,
              35,
              33,
              37,
              36,
              32,
              37,
              33,
              31,
              37,
              32,
              36,
              37,
              38,
              36,
              38,
              39,
              36,
              39,
              40,
              35,
              36,
              40,
              40,
              39,
              41,
              39,
              42,
              41,
              39,
              43,
              42,
              38,
              43,
              39,
              38,
              44,
              43,
              37,
              44,
              38,
              44,
              45,
              43,
              43,
              45,
              46,
              43,
              46,
              42,
              42,
              46,
              47,
              42,
              47,
              48,
              41,
              42,
              48,
              48,
              47,
              49,
              47,
              50,
              49,
              47,
              51,
              50,
              46,
              51,
              47,
              46,
              52,
              51,
              45,
              52,
              46,
              52,
              53,
              51,
              51,
              53,
              54,
              51,
              54,
              50,
              50,
              54,
              55,
              49,
              50,
              55,
              55,
              54,
              56,
              54,
              57,
              56,
              54,
              53,
              57
            ]
          }
        },
        {
          "Name": "hear_back_l",
          "Rectangle": {
            "x": 1280.0,
            "y": 834.0,
            "width": 260.0,
            "height": 520.0
          },
          "Pivot": {
            "x": 71.99998,
            "y": 77.0000458
          },
          "Mesh": {
            "TableCoordinate": [
              {
                "x": 54.0,
                "y": 158.0
              },
              {
                "x": 48.0,
                "y": 122.0
              },
              {
                "x": 73.0,
                "y": 154.0
              },
              {
                "x": 86.0,
                "y": 176.0
              },
              {
                "x": 62.0,
                "y": 194.0
              },
              {
                "x": 92.0,
                "y": 211.0
              },
              {
                "x": 73.0,
                "y": 230.0
              },
              {
                "x": 98.0,
                "y": 246.0
              },
              {
                "x": 83.0,
                "y": 267.0
              },
              {
                "x": 122.0,
                "y": 261.0
              },
              {
                "x": 105.0,
                "y": 285.0
              },
              {
                "x": 88.0,
                "y": 315.0
              },
              {
                "x": 128.0,
                "y": 299.0
              },
              {
                "x": 113.0,
                "y": 328.0
              },
              {
                "x": 97.0,
                "y": 363.0
              },
              {
                "x": 115.0,
                "y": 352.0
              },
              {
                "x": 112.0,
                "y": 386.0
              },
              {
                "x": 100.0,
                "y": 405.0
              },
              {
                "x": 125.0,
                "y": 409.0
              },
              {
                "x": 106.0,
                "y": 439.0
              },
              {
                "x": 90.0,
                "y": 440.0
              },
              {
                "x": 135.0,
                "y": 431.0
              },
              {
                "x": 120.0,
                "y": 451.0
              },
              {
                "x": 107.0,
                "y": 451.0
              },
              {
                "x": 141.0,
                "y": 392.0
              },
              {
                "x": 135.0,
                "y": 365.0
              },
              {
                "x": 139.0,
                "y": 337.0
              },
              {
                "x": 168.0,
                "y": 341.0
              },
              {
                "x": 165.0,
                "y": 369.0
              },
              {
                "x": 175.0,
                "y": 391.0
              },
              {
                "x": 163.0,
                "y": 409.0
              },
              {
                "x": 148.0,
                "y": 429.0
              },
              {
                "x": 174.0,
                "y": 431.0
              },
              {
                "x": 158.0,
                "y": 452.0
              },
              {
                "x": 138.0,
                "y": 474.0
              },
              {
                "x": 190.0,
                "y": 455.0
              },
              {
                "x": 201.0,
                "y": 433.0
              },
              {
                "x": 200.0,
                "y": 408.0
              },
              {
                "x": 186.0,
                "y": 375.0
              },
              {
                "x": 154.0,
                "y": 308.0
              },
              {
                "x": 144.0,
                "y": 274.0
              },
              {
                "x": 139.0,
                "y": 242.0
              },
              {
                "x": 117.0,
                "y": 227.0
              },
              {
                "x": 115.0,
                "y": 194.0
              },
              {
                "x": 113.0,
                "y": 160.0
              },
              {
                "x": 91.0,
                "y": 148.0
              },
              {
                "x": 78.0,
                "y": 129.0
              },
              {
                "x": 68.0,
                "y": 87.0
              },
              {
                "x": 52.0,
                "y": 70.0
              },
              {
                "x": 65.0,
                "y": 53.0
              },
              {
                "x": 105.0,
                "y": 69.0
              },
              {
                "x": 95.0,
                "y": 100.0
              },
              {
                "x": 110.0,
                "y": 137.0
              },
              {
                "x": 143.0,
                "y": 146.0
              },
              {
                "x": 143.0,
                "y": 178.0
              },
              {
                "x": 141.0,
                "y": 210.0
              },
              {
                "x": 134.0,
                "y": 109.0
              }
            ],
            "TableIndexVertex": [
              0,
              1,
              2,
              3,
              0,
              2,
              3,
              4,
              0,
              4,
              3,
              5,
              6,
              4,
              5,
              6,
              5,
              7,
              8,
              6,
              7,
              9,
              8,
              7,
              10,
              8,
              9,
              11,
              8,
              10,
              11,
              10,
              12,
              13,
              11,
              12,
              14,
              11,
              13,
              14,
              13,
              15,
              16,
              14,
              15,
              17,
              14,
              16,
              17,
              16,
              18,
              19,
              17,
              18,
              20,
              17,
              19,
              19,
              18,
              21,
              21,
              22,
              19,
              22,
              23,
              19,
              21,
              18,
              24,
              18,
              16,
              24,
              16,
              25,
              24,
              16,
              15,
              25,
              25,
              15,
              26,
              27,
              25,
              26,
              28,
              25,
              27,
              24,
              25,
              28,
              24,
              28,
              29,
              30,
              24,
              29,
              31,
              24,
              30,
              31,
              30,
              32,
              33,
              31,
              32,
              31,
              33,
              34,
              34,
              33,
              35,
              33,
              32,
              35,
              35,
              32,
              36,
              32,
              37,
              36,
              32,
              30,
              37,
              30,
              29,
              37,
              29,
              38,
              37,
              29,
              28,
              38,
              28,
              27,
              38,
              26,
              39,
              27,
              26,
              12,
              39,
              13,
              12,
              26,
              15,
              13,
              26,
              12,
              40,
              39,
              12,
              9,
              40,
              10,
              9,
              12,
              9,
              41,
              40,
              9,
              42,
              41,
              7,
              42,
              9,
              7,
              5,
              42,
              5,
              43,
              42,
              5,
              3,
              43,
              3,
              44,
              43,
              3,
              45,
              44,
              3,
              2,
              45,
              2,
              46,
              45,
              2,
              1,
              46,
              1,
              47,
              46,
              1,
              48,
              47,
              48,
              49,
              47,
              47,
              49,
              50,
              51,
              47,
              50,
              46,
              47,
              51,
              46,
              51,
              52,
              45,
              46,
              52,
              45,
              52,
              44,
              44,
              52,
              53,
              44,
              53,
              54,
              43,
              44,
              54,
              55,
              43,
              54,
              42,
              43,
              55,
              41,
              42,
              55,
              52,
              56,
              53,
              52,
              51,
              56,
              51,
              50,
              56
            ]
          }
        },
        {
          "Name": "weapon_r",
          "Rectangle": {
            "x": 1794.0,
            "y": 1384.0,
            "width": 250.0,
            "height": 400.0
          },
          "Pivot": {
            "x": 147.0,
            "y": 345.0
          },
          "Mesh": {
            "TableCoordinate": [],
            "TableIndexVertex": []
          }
        },
        {
          "Name": "weapon_l",
          "Rectangle": {
            "x": 1794.0,
            "y": 1384.0,
            "width": 250.0,
            "height": 400.0
          },
          "Pivot": {
            "x": 147.0,
            "y": 345.0
          },
          "Mesh": {
            "TableCoordinate": [],
            "TableIndexVertex": []
          }
        },
        {
          "Name": "weapon_r_1",
          "Rectangle": {
            "x": 1794.0,
            "y": 1384.0,
            "width": 250.0,
            "height": 400.0
          },
          "Pivot": {
            "x": 142.0,
            "y": 182.0
          },
          "Mesh": {
            "TableCoordinate": [],
            "TableIndexVertex": []
          }
        },
        {
          "Name": "rear_c",
          "Rectangle": {
            "x": 434.0,
            "y": 1220.0,
            "width": 430.0,
            "height": 156.0
          },
          "Pivot": {
            "x": 215.0,
            "y": 78.0
          },
          "Mesh": {
            "TableCoordinate": [],
            "TableIndexVertex": []
          }
        },
        {
          "Name": "acce_head_rear_c",
          "Rectangle": {
            "x": 1364.0,
            "y": 284.0,
            "width": 300.0,
            "height": 300.0
          },
          "Pivot": {
            "x": 150.0,
            "y": 150.0
          },
          "Mesh": {
            "TableCoordinate": [],
            "TableIndexVertex": []
          }
        },
        {
          "Name": "acce_body_rear",
          "Rectangle": {
            "x": 254.0,
            "y": 4.0,
            "width": 580.0,
            "height": 400.0
          },
          "Pivot": {
            "x": 290.0,
            "y": 200.0
          },
          "Mesh": {
            "TableCoordinate": [],
            "TableIndexVertex": []
          }
        },
        {
          "Name": "acce_hip_rear",
          "Rectangle": {
            "x": 834.0,
            "y": 364.0,
            "width": 330.0,
            "height": 330.0
          },
          "Pivot": {
            "x": 156.0,
            "y": 107.0
          },
          "Mesh": {
            "TableCoordinate": [],
            "TableIndexVertex": []
          }
        }
      ]
    }
  ]
}