{
  "m_GameObject": {
    "m_FileID": 0,
    "m_PathID": 0
  },
  "m_Enabled": 1,
  "m_Script": {
    "m_FileID": 0,
    "m_PathID": -2767099076474933927
  },
  "m_Name": "dc_1081200_sd",
  "Version": 65537,
  "TableCellMap": [
    {
      "Name": "1081200_sd",
      "SizeOriginal": {
        "x": 2048.0,
        "y": 2048.0
      },
      "TableCell": [
        {
          "Name": "face_normal",
          "Rectangle": {
            "x": 4.0,
            "y": 654.0,
            "width": 250.0,
            "height": 250.0
          },
          "Pivot": {
            "x": 125.0,
            "y": 135.0
          },
          "Mesh": {
            "TableCoordinate": [],
            "TableIndexVertex": []
          }
        },
        {
          "Name": "face_eye_close_normal",
          "Rectangle": {
            "x": 1164.0,
            "y": 584.0,
            "width": 250.0,
            "height": 250.0
          },
          "Pivot": {
            "x": 125.0,
            "y": 135.0
          },
          "Mesh": {
            "TableCoordinate": [],
            "TableIndexVertex": []
          }
        },
        {
          "Name": "face_mouth_open_happy",
          "Rectangle": {
            "x": 1664.0,
            "y": 614.0,
            "width": 250.0,
            "height": 250.0
          },
          "Pivot": {
            "x": 125.0,
            "y": 135.0
          },
          "Mesh": {
            "TableCoordinate": [],
            "TableIndexVertex": []
          }
        },
        {
          "Name": "face_happy",
          "Rectangle": {
            "x": 1414.0,
            "y": 584.0,
            "width": 250.0,
            "height": 250.0
          },
          "Pivot": {
            "x": 125.0,
            "y": 135.0
          },
          "Mesh": {
            "TableCoordinate": [],
            "TableIndexVertex": []
          }
        },
        {
          "Name": "face_attack",
          "Rectangle": {
            "x": 134.0,
            "y": 404.0,
            "width": 250.0,
            "height": 250.0
          },
          "Pivot": {
            "x": 125.0,
            "y": 135.0
          },
          "Mesh": {
            "TableCoordinate": [],
            "TableIndexVertex": []
          }
        },
        {
          "Name": "face_damage",
          "Rectangle": {
            "x": 384.0,
            "y": 404.0,
            "width": 250.0,
            "height": 250.0
          },
          "Pivot": {
            "x": 125.0,
            "y": 135.0
          },
          "Mesh": {
            "TableCoordinate": [],
            "TableIndexVertex": []
          }
        },
        {
          "Name": "face_unique",
          "Rectangle": {
            "x": 254.0,
            "y": 654.0,
            "width": 250.0,
            "height": 250.0
          },
          "Pivot": {
            "x": 125.0,
            "y": 135.0
          },
          "Mesh": {
            "TableCoordinate": [],
            "TableIndexVertex": []
          }
        },
        {
          "Name": "acce_head_front_c",
          "Rectangle": {
            "x": 834.0,
            "y": 4.0,
            "width": 530.0,
            "height": 360.0
          },
          "Pivot": {
            "x": 265.0,
            "y": 180.0
          },
          "Mesh": {
            "TableCoordinate": [],
            "TableIndexVertex": []
          }
        },
        {
          "Name": "acce_head_front_l",
          "Rectangle": {
            "x": 1364.0,
            "y": 4.0,
            "width": 250.0,
            "height": 280.0
          },
          "Pivot": {
            "x": 132.0,
            "y": 119.999878
          },
          "Mesh": {
            "TableCoordinate": [],
            "TableIndexVertex": []
          }
        },
        {
          "Name": "acce_head_front_r",
          "Rectangle": {
            "x": 1614.0,
            "y": 4.0,
            "width": 250.0,
            "height": 280.0
          },
          "Pivot": {
            "x": 123.0,
            "y": 133.999878
          },
          "Mesh": {
            "TableCoordinate": [],
            "TableIndexVertex": []
          }
        },
        {
          "Name": "hear_front_c",
          "Rectangle": {
            "x": 4.0,
            "y": 904.0,
            "width": 430.0,
            "height": 320.0
          },
          "Pivot": {
            "x": 216.0,
            "y": 71.00001
          },
          "Mesh": {
            "TableCoordinate": [
              {
                "x": 78.0,
                "y": 255.0
              },
              {
                "x": 49.0,
                "y": 221.0
              },
              {
                "x": 81.0,
                "y": 179.0
              },
              {
                "x": 183.0,
                "y": 199.0
              },
              {
                "x": 96.0,
                "y": 272.0
              },
              {
                "x": 121.0,
                "y": 286.0
              },
              {
                "x": 149.0,
                "y": 295.0
              },
              {
                "x": 180.0,
                "y": 296.0
              },
              {
                "x": 203.0,
                "y": 290.0
              },
              {
                "x": 162.0,
                "y": 157.0
              },
              {
                "x": 227.0,
                "y": 137.0
              },
              {
                "x": 229.0,
                "y": 205.0
              },
              {
                "x": 281.0,
                "y": 185.0
              },
              {
                "x": 277.0,
                "y": 133.0
              },
              {
                "x": 219.0,
                "y": 94.0
              },
              {
                "x": 182.0,
                "y": 112.0
              },
              {
                "x": 170.0,
                "y": 67.0
              },
              {
                "x": 150.0,
                "y": 89.0
              },
              {
                "x": 108.0,
                "y": 44.0
              },
              {
                "x": 63.0,
                "y": 102.0
              },
              {
                "x": 207.0,
                "y": 28.0
              },
              {
                "x": 213.0,
                "y": 58.0
              },
              {
                "x": 274.0,
                "y": 78.0
              },
              {
                "x": 318.0,
                "y": 134.0
              },
              {
                "x": 329.0,
                "y": 176.0
              },
              {
                "x": 320.0,
                "y": 212.0
              },
              {
                "x": 286.0,
                "y": 224.0
              },
              {
                "x": 307.0,
                "y": 241.0
              },
              {
                "x": 284.0,
                "y": 280.0
              },
              {
                "x": 338.0,
                "y": 241.0
              },
              {
                "x": 354.0,
                "y": 177.0
              },
              {
                "x": 350.0,
                "y": 133.0
              },
              {
                "x": 328.0,
                "y": 82.0
              },
              {
                "x": 294.0,
                "y": 49.0
              },
              {
                "x": 261.0,
                "y": 33.0
              }
            ],
            "TableIndexVertex": [
              0,
              1,
              2,
              3,
              0,
              2,
              4,
              0,
              3,
              5,
              4,
              3,
              3,
              6,
              5,
              3,
              7,
              6,
              8,
              7,
              3,
              3,
              2,
              9,
              3,
              9,
              10,
              11,
              3,
              10,
              12,
              11,
              10,
              10,
              13,
              12,
              10,
              14,
              13,
              15,
              14,
              10,
              15,
              16,
              14,
              17,
              16,
              15,
              17,
              18,
              16,
              19,
              18,
              17,
              9,
              19,
              17,
              9,
              2,
              19,
              1,
              19,
              2,
              9,
              17,
              15,
              9,
              15,
              10,
              16,
              18,
              20,
              16,
              20,
              21,
              16,
              21,
              14,
              14,
              21,
              22,
              14,
              22,
              13,
              23,
              13,
              22,
              12,
              13,
              23,
              12,
              23,
              24,
              25,
              12,
              24,
              26,
              12,
              25,
              27,
              26,
              25,
              28,
              26,
              27,
              28,
              27,
              29,
              27,
              25,
              29,
              29,
              25,
              30,
              25,
              24,
              30,
              24,
              31,
              30,
              24,
              23,
              31,
              31,
              23,
              32,
              32,
              23,
              22,
              22,
              33,
              32,
              22,
              34,
              33,
              21,
              34,
              22,
              21,
              20,
              34
            ]
          }
        },
        {
          "Name": "hear_front_r",
          "Rectangle": {
            "x": 1800.0,
            "y": 864.0,
            "width": 200.0,
            "height": 380.0
          },
          "Pivot": {
            "x": 111.0,
            "y": 87.0
          },
          "Mesh": {
            "TableCoordinate": [
              {
                "x": 99.0,
                "y": 150.0
              },
              {
                "x": 97.0,
                "y": 109.0
              },
              {
                "x": 134.0,
                "y": 106.0
              },
              {
                "x": 145.0,
                "y": 136.0
              },
              {
                "x": 99.0,
                "y": 180.0
              },
              {
                "x": 164.0,
                "y": 177.0
              },
              {
                "x": 103.0,
                "y": 212.0
              },
              {
                "x": 181.0,
                "y": 210.0
              },
              {
                "x": 112.0,
                "y": 235.0
              },
              {
                "x": 137.0,
                "y": 256.0
              },
              {
                "x": 192.0,
                "y": 235.0
              },
              {
                "x": 187.0,
                "y": 257.0
              },
              {
                "x": 128.0,
                "y": 75.0
              },
              {
                "x": 98.0,
                "y": 77.0
              }
            ],
            "TableIndexVertex": [
              0,
              1,
              2,
              0,
              2,
              3,
              4,
              0,
              3,
              4,
              3,
              5,
              6,
              4,
              5,
              6,
              5,
              7,
              8,
              6,
              7,
              9,
              8,
              7,
              9,
              7,
              10,
              11,
              9,
              10,
              1,
              12,
              2,
              1,
              13,
              12
            ]
          }
        },
        {
          "Name": "head",
          "Rectangle": {
            "x": 730.0,
            "y": 694.0,
            "width": 290.0,
            "height": 250.0
          },
          "Pivot": {
            "x": 163.000015,
            "y": 225.0
          },
          "Mesh": {
            "TableCoordinate": [],
            "TableIndexVertex": []
          }
        },
        {
          "Name": "hear_front_l",
          "Rectangle": {
            "x": 504.0,
            "y": 840.0,
            "width": 200.0,
            "height": 380.0
          },
          "Pivot": {
            "x": 81.0,
            "y": 93.00006
          },
          "Mesh": {
            "TableCoordinate": [
              {
                "x": 27.0,
                "y": 242.0
              },
              {
                "x": 49.0,
                "y": 215.0
              },
              {
                "x": 59.0,
                "y": 249.0
              },
              {
                "x": 81.0,
                "y": 237.0
              },
              {
                "x": 62.0,
                "y": 193.0
              },
              {
                "x": 103.0,
                "y": 221.0
              },
              {
                "x": 109.0,
                "y": 199.0
              },
              {
                "x": 109.0,
                "y": 175.0
              },
              {
                "x": 70.0,
                "y": 163.0
              },
              {
                "x": 108.0,
                "y": 148.0
              },
              {
                "x": 70.0,
                "y": 138.0
              },
              {
                "x": 109.0,
                "y": 120.0
              },
              {
                "x": 69.0,
                "y": 113.0
              },
              {
                "x": 105.0,
                "y": 87.0
              },
              {
                "x": 68.0,
                "y": 92.0
              },
              {
                "x": 98.0,
                "y": 68.0
              },
              {
                "x": 67.0,
                "y": 71.0
              }
            ],
            "TableIndexVertex": [
              0,
              1,
              2,
              2,
              1,
              3,
              3,
              1,
              4,
              5,
              3,
              4,
              5,
              4,
              6,
              4,
              7,
              6,
              4,
              8,
              7,
              8,
              9,
              7,
              8,
              10,
              9,
              9,
              10,
              11,
              10,
              12,
              11,
              12,
              13,
              11,
              12,
              14,
              13,
              14,
              15,
              13,
              14,
              16,
              15
            ]
          }
        },
        {
          "Name": "acce_body_front",
          "Rectangle": {
            "x": 4.0,
            "y": 4.0,
            "width": 250.0,
            "height": 275.0
          },
          "Pivot": {
            "x": 125.0,
            "y": 101.999977
          },
          "Mesh": {
            "TableCoordinate": [],
            "TableIndexVertex": []
          }
        },
        {
          "Name": "hand_r",
          "Rectangle": {
            "x": 504.0,
            "y": 660.0,
            "width": 225.0,
            "height": 180.0
          },
          "Pivot": {
            "x": 81.9999,
            "y": 61.00002
          },
          "Mesh": {
            "TableCoordinate": [],
            "TableIndexVertex": []
          }
        },
        {
          "Name": "arm_r",
          "Rectangle": {
            "x": 4.0,
            "y": 280.0,
            "width": 130.0,
            "height": 180.0
          },
          "Pivot": {
            "x": 78.99996,
            "y": 64.00008
          },
          "Mesh": {
            "TableCoordinate": [],
            "TableIndexVertex": []
          }
        },
        {
          "Name": "body",
          "Rectangle": {
            "x": 1164.0,
            "y": 364.0,
            "width": 180.0,
            "height": 220.0
          },
          "Pivot": {
            "x": 93.99996,
            "y": 151.000076
          },
          "Mesh": {
            "TableCoordinate": [],
            "TableIndexVertex": []
          }
        },
        {
          "Name": "acce_hip_front",
          "Rectangle": {
            "x": 1664.0,
            "y": 284.0,
            "width": 330.0,
            "height": 330.0
          },
          "Pivot": {
            "x": 167.000137,
            "y": 141.000092
          },
          "Mesh": {
            "TableCoordinate": [],
            "TableIndexVertex": []
          }
        },
        {
          "Name": "thigh_r",
          "Rectangle": {
            "x": 864.0,
            "y": 1124.0,
            "width": 130.0,
            "height": 180.0
          },
          "Pivot": {
            "x": 61.00003,
            "y": 68.00004
          },
          "Mesh": {
            "TableCoordinate": [],
            "TableIndexVertex": []
          }
        },
        {
          "Name": "leg_r",
          "Rectangle": {
            "x": 1914.0,
            "y": 614.0,
            "width": 130.0,
            "height": 180.0
          },
          "Pivot": {
            "x": 78.0,
            "y": 54.0
          },
          "Mesh": {
            "TableCoordinate": [],
            "TableIndexVertex": []
          }
        },
        {
          "Name": "hip",
          "Rectangle": {
            "x": 704.0,
            "y": 944.0,
            "width": 180.0,
            "height": 180.0
          },
          "Pivot": {
            "x": 95.00004,
            "y": 109.000076
          },
          "Mesh": {
            "TableCoordinate": [],
            "TableIndexVertex": []
          }
        },
        {
          "Name": "thigh_l",
          "Rectangle": {
            "x": 884.0,
            "y": 944.0,
            "width": 130.0,
            "height": 180.0
          },
          "Pivot": {
            "x": 61.99999,
            "y": 68.00004
          },
          "Mesh": {
            "TableCoordinate": [],
            "TableIndexVertex": []
          }
        },
        {
          "Name": "leg_l",
          "Rectangle": {
            "x": 4.0,
            "y": 460.0,
            "width": 130.0,
            "height": 180.0
          },
          "Pivot": {
            "x": 71.99998,
            "y": 55.00008
          },
          "Mesh": {
            "TableCoordinate": [],
            "TableIndexVertex": []
          }
        },
        {
          "Name": "weapon_b",
          "Rectangle": {
            "x": 1294.0,
            "y": 1384.0,
            "width": 250.0,
            "height": 500.0
          },
          "Pivot": {
            "x": 124.0,
            "y": 368.0
          },
          "Mesh": {
            "TableCoordinate": [],
            "TableIndexVertex": []
          }
        },
        {
          "Name": "weapon_b_1",
          "Rectangle": {
            "x": 1294.0,
            "y": 1384.0,
            "width": 250.0,
            "height": 500.0
          },
          "Pivot": {
            "x": 124.0,
            "y": 368.0
          },
          "Mesh": {
            "TableCoordinate": [],
            "TableIndexVertex": []
          }
        },
        {
          "Name": "hand_l",
          "Rectangle": {
            "x": 634.0,
            "y": 404.0,
            "width": 180.0,
            "height": 255.0
          },
          "Pivot": {
            "x": 99.0,
            "y": 59.00012
          },
          "Mesh": {
            "TableCoordinate": [],
            "TableIndexVertex": []
          }
        },
        {
          "Name": "arm_l",
          "Rectangle": {
            "x": 1864.0,
            "y": 4.0,
            "width": 130.0,
            "height": 180.0
          },
          "Pivot": {
            "x": 49.99995,
            "y": 63.0
          },
          "Mesh": {
            "TableCoordinate": [],
            "TableIndexVertex": []
          }
        },
        {
          "Name": "hear_back_c",
          "Rectangle": {
            "x": 1020.0,
            "y": 834.0,
            "width": 260.0,
            "height": 520.0
          },
          "Pivot": {
            "x": 119.999878,
            "y": 80.99988
          },
          "Mesh": {
            "TableCoordinate": [
              {
                "x": 50.0,
                "y": 225.0
              },
              {
                "x": 46.0,
                "y": 175.0
              },
              {
                "x": 114.0,
                "y": 220.0
              },
              {
                "x": 68.0,
                "y": 260.0
              },
              {
                "x": 117.0,
                "y": 260.0
              },
              {
                "x": 117.0,
                "y": 290.0
              },
              {
                "x": 171.0,
                "y": 269.0
              },
              {
                "x": 192.0,
                "y": 238.0
              },
              {
                "x": 199.0,
                "y": 188.0
              },
              {
                "x": 115.0,
                "y": 174.0
              },
              {
                "x": 52.0,
                "y": 111.0
              },
              {
                "x": 124.0,
                "y": 114.0
              },
              {
                "x": 199.0,
                "y": 128.0
              },
              {
                "x": 200.0,
                "y": 91.0
              },
              {
                "x": 132.0,
                "y": 63.0
              },
              {
                "x": 183.0,
                "y": 58.0
              },
              {
                "x": 141.0,
                "y": 41.0
              },
              {
                "x": 96.0,
                "y": 45.0
              },
              {
                "x": 69.0,
                "y": 73.0
              }
            ],
            "TableIndexVertex": [
              0,
              1,
              2,
              3,
              0,
              2,
              3,
              2,
              4,
              3,
              4,
              5,
              5,
              4,
              6,
              6,
              4,
              2,
              7,
              6,
              2,
              7,
              2,
              8,
              2,
              9,
              8,
              2,
              1,
              9,
              1,
              10,
              9,
              9,
              10,
              11,
              12,
              9,
              11,
              8,
              9,
              12,
              12,
              11,
              13,
              13,
              11,
              14,
              13,
              14,
              15,
              14,
              16,
              15,
              14,
              17,
              16,
              14,
              18,
              17,
              11,
              18,
              14,
              10,
              18,
              11
            ]
          }
        },
        {
          "Name": "hear_back_r",
          "Rectangle": {
            "x": 1540.0,
            "y": 864.0,
            "width": 260.0,
            "height": 520.0
          },
          "Pivot": {
            "x": 164.999908,
            "y": 81.99983
          },
          "Mesh": {
            "TableCoordinate": [
              {
                "x": 12.0,
                "y": 419.0
              },
              {
                "x": 11.0,
                "y": 390.0
              },
              {
                "x": 117.0,
                "y": 418.0
              },
              {
                "x": 14.0,
                "y": 448.0
              },
              {
                "x": 117.0,
                "y": 446.0
              },
              {
                "x": 39.0,
                "y": 483.0
              },
              {
                "x": 21.0,
                "y": 473.0
              },
              {
                "x": 68.0,
                "y": 491.0
              },
              {
                "x": 112.0,
                "y": 470.0
              },
              {
                "x": 124.0,
                "y": 390.0
              },
              {
                "x": 15.0,
                "y": 360.0
              },
              {
                "x": 36.0,
                "y": 331.0
              },
              {
                "x": 132.0,
                "y": 365.0
              },
              {
                "x": 139.0,
                "y": 340.0
              },
              {
                "x": 48.0,
                "y": 293.0
              },
              {
                "x": 147.0,
                "y": 313.0
              },
              {
                "x": 61.0,
                "y": 256.0
              },
              {
                "x": 156.0,
                "y": 289.0
              },
              {
                "x": 166.0,
                "y": 263.0
              },
              {
                "x": 71.0,
                "y": 212.0
              },
              {
                "x": 176.0,
                "y": 235.0
              },
              {
                "x": 87.0,
                "y": 173.0
              },
              {
                "x": 185.0,
                "y": 208.0
              },
              {
                "x": 196.0,
                "y": 177.0
              },
              {
                "x": 111.0,
                "y": 118.0
              },
              {
                "x": 206.0,
                "y": 144.0
              },
              {
                "x": 127.0,
                "y": 94.0
              },
              {
                "x": 213.0,
                "y": 115.0
              },
              {
                "x": 145.0,
                "y": 71.0
              },
              {
                "x": 216.0,
                "y": 88.0
              },
              {
                "x": 176.0,
                "y": 41.0
              },
              {
                "x": 219.0,
                "y": 63.0
              }
            ],
            "TableIndexVertex": [
              0,
              1,
              2,
              3,
              0,
              2,
              4,
              3,
              2,
              3,
              4,
              5,
              3,
              5,
              6,
              4,
              7,
              5,
              8,
              7,
              4,
              2,
              1,
              9,
              1,
              10,
              9,
              10,
              11,
              9,
              9,
              11,
              12,
              12,
              11,
              13,
              11,
              14,
              13,
              13,
              14,
              15,
              14,
              16,
              15,
              15,
              16,
              17,
              17,
              16,
              18,
              16,
              19,
              18,
              18,
              19,
              20,
              19,
              21,
              20,
              20,
              21,
              22,
              22,
              21,
              23,
              21,
              24,
              23,
              23,
              24,
              25,
              25,
              24,
              26,
              25,
              26,
              27,
              27,
              26,
              28,
              27,
              28,
              29,
              28,
              30,
              29,
              29,
              30,
              31
            ]
          }
        },
        {
          "Name": "hear_back_l",
          "Rectangle": {
            "x": 1280.0,
            "y": 834.0,
            "width": 260.0,
            "height": 520.0
          },
          "Pivot": {
            "x": 71.99998,
            "y": 77.0000458
          },
          "Mesh": {
            "TableCoordinate": [
              {
                "x": 138.0,
                "y": 110.0
              },
              {
                "x": 50.0,
                "y": 133.0
              },
              {
                "x": 49.0,
                "y": 104.0
              },
              {
                "x": 147.0,
                "y": 152.0
              },
              {
                "x": 53.0,
                "y": 173.0
              },
              {
                "x": 147.0,
                "y": 194.0
              },
              {
                "x": 59.0,
                "y": 210.0
              },
              {
                "x": 130.0,
                "y": 241.0
              },
              {
                "x": 75.0,
                "y": 252.0
              },
              {
                "x": 113.0,
                "y": 273.0
              },
              {
                "x": 91.0,
                "y": 292.0
              },
              {
                "x": 127.0,
                "y": 83.0
              },
              {
                "x": 108.0,
                "y": 63.0
              },
              {
                "x": 94.0,
                "y": 50.0
              },
              {
                "x": 50.0,
                "y": 75.0
              },
              {
                "x": 78.0,
                "y": 45.0
              },
              {
                "x": 52.0,
                "y": 45.0
              }
            ],
            "TableIndexVertex": [
              0,
              1,
              2,
              1,
              0,
              3,
              4,
              1,
              3,
              4,
              3,
              5,
              6,
              4,
              5,
              7,
              6,
              5,
              8,
              6,
              7,
              9,
              8,
              7,
              10,
              8,
              9,
              0,
              2,
              11,
              11,
              2,
              12,
              12,
              2,
              13,
              14,
              13,
              2,
              15,
              13,
              14,
              14,
              16,
              15
            ]
          }
        },
        {
          "Name": "weapon_r",
          "Rectangle": {
            "x": 1794.0,
            "y": 1384.0,
            "width": 250.0,
            "height": 400.0
          },
          "Pivot": {
            "x": 131.0,
            "y": 338.0
          },
          "Mesh": {
            "TableCoordinate": [],
            "TableIndexVertex": []
          }
        },
        {
          "Name": "weapon_l",
          "Rectangle": {
            "x": 1544.0,
            "y": 1384.0,
            "width": 250.0,
            "height": 400.0
          },
          "Pivot": {
            "x": 131.0,
            "y": 338.0
          },
          "Mesh": {
            "TableCoordinate": [],
            "TableIndexVertex": []
          }
        },
        {
          "Name": "rear_c",
          "Rectangle": {
            "x": 434.0,
            "y": 1220.0,
            "width": 430.0,
            "height": 430.0
          },
          "Pivot": {
            "x": 215.0,
            "y": 215.0
          },
          "Mesh": {
            "TableCoordinate": [],
            "TableIndexVertex": []
          }
        },
        {
          "Name": "rear_r",
          "Rectangle": {
            "x": 864.0,
            "y": 1354.0,
            "width": 430.0,
            "height": 430.0
          },
          "Pivot": {
            "x": 215.0,
            "y": 215.0
          },
          "Mesh": {
            "TableCoordinate": [],
            "TableIndexVertex": []
          }
        },
        {
          "Name": "rear_l",
          "Rectangle": {
            "x": 4.0,
            "y": 1224.0,
            "width": 430.0,
            "height": 430.0
          },
          "Pivot": {
            "x": 215.0,
            "y": 215.0
          },
          "Mesh": {
            "TableCoordinate": [],
            "TableIndexVertex": []
          }
        },
        {
          "Name": "acce_head_rear_c",
          "Rectangle": {
            "x": 1364.0,
            "y": 284.0,
            "width": 300.0,
            "height": 300.0
          },
          "Pivot": {
            "x": 150.0,
            "y": 150.0
          },
          "Mesh": {
            "TableCoordinate": [],
            "TableIndexVertex": []
          }
        },
        {
          "Name": "acce_body_rear",
          "Rectangle": {
            "x": 254.0,
            "y": 4.0,
            "width": 580.0,
            "height": 400.0
          },
          "Pivot": {
            "x": 290.0,
            "y": 200.0
          },
          "Mesh": {
            "TableCoordinate": [],
            "TableIndexVertex": []
          }
        },
        {
          "Name": "acce_hip_rear",
          "Rectangle": {
            "x": 834.0,
            "y": 364.0,
            "width": 330.0,
            "height": 330.0
          },
          "Pivot": {
            "x": 165.0,
            "y": 165.0
          },
          "Mesh": {
            "TableCoordinate": [],
            "TableIndexVertex": []
          }
        }
      ]
    }
  ]
}