{
  "m_GameObject": {
    "m_FileID": 0,
    "m_PathID": 0
  },
  "m_Enabled": 1,
  "m_Script": {
    "m_FileID": 0,
    "m_PathID": -2195584510539435343
  },
  "m_Name": "adv_200506.book",
  "importVersion": 0,
  "importGridList": [
    {
      "rows": [
        {
          "rowIndex": 0,
          "strings": [
            "Command",
            "Arg1",
            "Arg2",
            "Arg3",
            "Arg4",
            "Arg5",
            "Arg6",
            "WaitType",
            "Text",
            "PageCtrl",
            "Voice",
            "WindowType"
          ],
          "isEmpty": 0,
          "isCommentOut": 0
        },
        {
          "rowIndex": 1,
          "strings": [
            "FadeOut",
            "black",
            "",
            "",
            "",
            "",
            "0",
            "",
            "",
            "",
            "",
            ""
          ],
          "isEmpty": 0,
          "isCommentOut": 0
        },
        {
          "rowIndex": 2,
          "strings": [
            "Bg",
            "背景(教会内部)",
            "",
            "",
            "",
            "",
            "",
            "",
            "",
            "",
            "",
            ""
          ],
          "isEmpty": 0,
          "isCommentOut": 0
        },
        {
          "rowIndex": 3,
          "strings": [
            "Wait",
            "",
            "",
            "",
            "",
            "",
            ".3",
            "",
            "",
            "",
            "",
            ""
          ],
          "isEmpty": 0,
          "isCommentOut": 0
        },
        {
          "rowIndex": 4,
          "strings": [
            "FadeIn",
            "black",
            "",
            "",
            "",
            "",
            "1",
            "",
            "",
            "",
            "",
            ""
          ],
          "isEmpty": 0,
          "isCommentOut": 0
        },
        {
          "rowIndex": 5,
          "strings": [
            "Bgm",
            "未来へ",
            "",
            "",
            "",
            "",
            "",
            "",
            "",
            "",
            "",
            ""
          ],
          "isEmpty": 0,
          "isCommentOut": 0
        },
        {
          "rowIndex": 6,
          "strings": [
            "",
            "メガミンオレンジ",
            "<Character=オレンジハート>笑い",
            "キャラ中央",
            "",
            "",
            "",
            "",
            "悪は滅びた",
            "",
            "",
            ""
          ],
          "isEmpty": 0,
          "isCommentOut": 0
        },
        {
          "rowIndex": 7,
          "strings": [
            "CharacterOff",
            "",
            "",
            "",
            "",
            "",
            "",
            "",
            "",
            "",
            "",
            ""
          ],
          "isEmpty": 0,
          "isCommentOut": 0
        },
        {
          "rowIndex": 8,
          "strings": [
            "",
            "ラム",
            "笑い",
            "キャラ左",
            "",
            "",
            "",
            "",
            "",
            "",
            "",
            ""
          ],
          "isEmpty": 0,
          "isCommentOut": 0
        },
        {
          "rowIndex": 9,
          "strings": [
            "",
            "ロム",
            "照れ",
            "キャラ右",
            "",
            "",
            "",
            "",
            "",
            "",
            "",
            ""
          ],
          "isEmpty": 0,
          "isCommentOut": 0
        },
        {
          "rowIndex": 10,
          "strings": [
            "",
            "ラム",
            "笑い",
            "キャラ左",
            "",
            "",
            "",
            "",
            "メガミンジャーだーー！",
            "",
            "",
            ""
          ],
          "isEmpty": 0,
          "isCommentOut": 0
        },
        {
          "rowIndex": 11,
          "strings": [
            "",
            "ロム",
            "照れ",
            "キャラ右",
            "",
            "",
            "",
            "",
            "メガミンオレンジ、かっこいいー",
            "",
            "",
            ""
          ],
          "isEmpty": 0,
          "isCommentOut": 0
        },
        {
          "rowIndex": 12,
          "strings": [
            "CharacterOff",
            "",
            "",
            "",
            "",
            "",
            "",
            "",
            "",
            "",
            "",
            ""
          ],
          "isEmpty": 0,
          "isCommentOut": 0
        },
        {
          "rowIndex": 13,
          "strings": [
            "",
            "クロワール",
            "悲しみ",
            "キャラ左",
            "",
            "",
            "",
            "",
            "",
            "",
            "",
            ""
          ],
          "isEmpty": 0,
          "isCommentOut": 0
        },
        {
          "rowIndex": 14,
          "strings": [
            "",
            "ヨーコ",
            "固有",
            "キャラ中央",
            "",
            "",
            "",
            "",
            "",
            "",
            "",
            ""
          ],
          "isEmpty": 0,
          "isCommentOut": 0
        },
        {
          "rowIndex": 15,
          "strings": [
            "",
            "ルゥシェ",
            "悲しみ",
            "キャラ右",
            "",
            "",
            "",
            "",
            "",
            "",
            "",
            ""
          ],
          "isEmpty": 0,
          "isCommentOut": 0
        },
        {
          "rowIndex": 16,
          "strings": [
            "",
            "クロワール",
            "悲しみ",
            "キャラ左",
            "",
            "",
            "",
            "",
            "いや、誰だよメガミンオレンジって",
            "",
            "",
            ""
          ],
          "isEmpty": 0,
          "isCommentOut": 0
        },
        {
          "rowIndex": 17,
          "strings": [
            "",
            "ヨーコ",
            "固有",
            "キャラ中央",
            "",
            "",
            "",
            "",
            "わらわもこの展開には流石に付いていけないわ",
            "",
            "",
            ""
          ],
          "isEmpty": 0,
          "isCommentOut": 0
        },
        {
          "rowIndex": 18,
          "strings": [
            "",
            "ルゥシェ",
            "悲しみ",
            "キャラ右",
            "",
            "",
            "",
            "",
            "もう帰りたい。なんで召喚されたのよ、あたし",
            "",
            "",
            ""
          ],
          "isEmpty": 0,
          "isCommentOut": 0
        },
        {
          "rowIndex": 19,
          "strings": [
            "CharacterOff",
            "",
            "",
            "",
            "",
            "",
            "",
            "",
            "",
            "",
            "",
            ""
          ],
          "isEmpty": 0,
          "isCommentOut": 0
        },
        {
          "rowIndex": 20,
          "strings": [
            "",
            "オレンジハート",
            "真剣",
            "キャラ中央",
            "",
            "",
            "0",
            "",
            "",
            "",
            "",
            ""
          ],
          "isEmpty": 0,
          "isCommentOut": 0
        },
        {
          "rowIndex": 21,
          "strings": [
            "Se",
            "着地音",
            "",
            "",
            "",
            "",
            "",
            "",
            "",
            "",
            "",
            ""
          ],
          "isEmpty": 0,
          "isCommentOut": 0
        },
        {
          "rowIndex": 22,
          "strings": [
            "",
            "ブラックハート",
            "真剣",
            "キャラ中央右",
            "",
            "",
            ".2",
            "Add",
            "",
            "",
            "",
            ""
          ],
          "isEmpty": 0,
          "isCommentOut": 0
        },
        {
          "rowIndex": 23,
          "strings": [
            "",
            "ホワイトハート",
            "真剣",
            "キャラ中央左",
            "",
            "",
            ".2",
            "Add",
            "",
            "",
            "",
            ""
          ],
          "isEmpty": 0,
          "isCommentOut": 0
        },
        {
          "rowIndex": 24,
          "strings": [
            "",
            "グリーンハート",
            "真剣",
            "キャラ右",
            "150",
            "",
            ".2",
            "Add",
            "",
            "",
            "",
            ""
          ],
          "isEmpty": 0,
          "isCommentOut": 0
        },
        {
          "rowIndex": 25,
          "strings": [
            "",
            "パープルハート",
            "真剣",
            "キャラ左",
            "-150",
            "",
            ".2",
            "Add",
            "",
            "",
            "",
            ""
          ],
          "isEmpty": 0,
          "isCommentOut": 0
        },
        {
          "rowIndex": 26,
          "strings": [
            "Tween",
            "ブラックハート",
            "MoveFrom",
            "x=0 y=100 islocal=true time=.2",
            "",
            "",
            "",
            "Add",
            "",
            "",
            "",
            ""
          ],
          "isEmpty": 0,
          "isCommentOut": 0
        },
        {
          "rowIndex": 27,
          "strings": [
            "Tween",
            "ホワイトハート",
            "MoveFrom",
            "x=0 y=100 islocal=true time=.2",
            "",
            "",
            "",
            "Add",
            "",
            "",
            "",
            ""
          ],
          "isEmpty": 0,
          "isCommentOut": 0
        },
        {
          "rowIndex": 28,
          "strings": [
            "Tween",
            "グリーンハート",
            "MoveFrom",
            "x=150 y=100 islocal=true time=.2",
            "",
            "",
            "",
            "Add",
            "",
            "",
            "",
            ""
          ],
          "isEmpty": 0,
          "isCommentOut": 0
        },
        {
          "rowIndex": 29,
          "strings": [
            "Tween",
            "パープルハート",
            "MoveFrom",
            "x=-150 y=100 islocal=true time=.2",
            "",
            "",
            "",
            "Add",
            "",
            "",
            "",
            ""
          ],
          "isEmpty": 0,
          "isCommentOut": 0
        },
        {
          "rowIndex": 30,
          "strings": [
            "",
            "メガミンブラック",
            "<Character=ブラックハート>真剣",
            "",
            "",
            "",
            "",
            "",
            "メガミンオレンジに先を越されたわ！",
            "",
            "",
            ""
          ],
          "isEmpty": 0,
          "isCommentOut": 0
        },
        {
          "rowIndex": 31,
          "strings": [
            "",
            "メガミンパープル",
            "<Character=パープルハート>真剣",
            "",
            "",
            "",
            "",
            "",
            "とりあえず、名乗るだけ名乗っておきましょう",
            "",
            "",
            ""
          ],
          "isEmpty": 0,
          "isCommentOut": 0
        },
        {
          "rowIndex": 32,
          "strings": [
            "",
            "メガミンオレンジ",
            "<Character=オレンジハート>真剣",
            "",
            "",
            "",
            "",
            "",
            "流浪の女神、メガミンオレンジ！",
            "",
            "",
            ""
          ],
          "isEmpty": 0,
          "isCommentOut": 0
        },
        {
          "rowIndex": 33,
          "strings": [
            "",
            "メガミンブラック",
            "<Character=ブラックハート>真剣",
            "",
            "",
            "",
            "",
            "",
            "ツンの女神、メガミンブラック！",
            "",
            "",
            ""
          ],
          "isEmpty": 0,
          "isCommentOut": 0
        },
        {
          "rowIndex": 34,
          "strings": [
            "",
            "メガミンホワイト",
            "<Character=ホワイトハート>真剣",
            "",
            "",
            "",
            "",
            "",
            "才覚の女神、メガミンホワイト！",
            "",
            "",
            ""
          ],
          "isEmpty": 0,
          "isCommentOut": 0
        },
        {
          "rowIndex": 35,
          "strings": [
            "",
            "メガミングリーン",
            "<Character=グリーンハート>真剣",
            "",
            "",
            "",
            "",
            "",
            "美貌の女神、メガミングリーン！",
            "",
            "",
            ""
          ],
          "isEmpty": 0,
          "isCommentOut": 0
        },
        {
          "rowIndex": 36,
          "strings": [
            "",
            "メガミンパープル",
            "<Character=パープルハート>真剣",
            "",
            "",
            "",
            "",
            "",
            "サイツヨの女神、メガミンパープル！",
            "",
            "",
            ""
          ],
          "isEmpty": 0,
          "isCommentOut": 0
        },
        {
          "rowIndex": 37,
          "strings": [
            "",
            "メガミンオレンジ",
            "<Character=オレンジハート>真剣",
            "",
            "",
            "",
            "",
            "",
            "五人揃って正義の守護女神、守護神戦隊メガミン――",
            "",
            "",
            ""
          ],
          "isEmpty": 0,
          "isCommentOut": 0
        },
        {
          "rowIndex": 38,
          "strings": [
            "Bgm",
            "コミカル",
            "",
            "",
            "",
            ".5",
            "",
            "",
            "",
            "",
            "",
            ""
          ],
          "isEmpty": 0,
          "isCommentOut": 0
        },
        {
          "rowIndex": 39,
          "strings": [
            "",
            "メガミンパープル",
            "<Character=パープルハート>固有",
            "",
            "",
            "",
            ".2",
            "",
            "ちょっと待って。何故メガミンオレンジが真ん中なの？\nリーダーポジならわたしでしょう？",
            "",
            "",
            ""
          ],
          "isEmpty": 0,
          "isCommentOut": 0
        },
        {
          "rowIndex": 40,
          "strings": [
            "",
            "メガミンオレンジ",
            "<Character=オレンジハート>悲しみ",
            "",
            "",
            "",
            ".2",
            "",
            "レッドがいないんだから、\n赤に近いオレンジが担当するしかないじゃん？",
            "",
            "",
            ""
          ],
          "isEmpty": 0,
          "isCommentOut": 0
        },
        {
          "rowIndex": 41,
          "strings": [
            "",
            "メガミンパープル",
            "<Character=パープルハート>真剣",
            "",
            "",
            "",
            "",
            "",
            "紫は赤と青の混合色よ。戦隊ものでメインどころの\nレッドとブルー２人の兼用みたいなものなんだから",
            "",
            "",
            ""
          ],
          "isEmpty": 0,
          "isCommentOut": 0
        },
        {
          "rowIndex": 42,
          "strings": [
            "",
            "メガミンパープル",
            "<Character=パープルハート>笑い",
            "",
            "",
            "",
            ".2",
            "",
            "うん。やっぱり紫が真ん中なのが道理だわ",
            "",
            "",
            ""
          ],
          "isEmpty": 0,
          "isCommentOut": 0
        },
        {
          "rowIndex": 43,
          "strings": [
            "",
            "メガミンパープル",
            "<Character=パープルハート>真剣",
            "",
            "",
            "",
            ".2",
            "",
            "あと、パープルじゃなくてヴァイオレットと呼んで。\nヴァが付いてカッコイイでしょ",
            "",
            "",
            ""
          ],
          "isEmpty": 0,
          "isCommentOut": 0
        },
        {
          "rowIndex": 44,
          "strings": [
            "",
            "メガミンブラック",
            "<Character=ブラックハート>悲しみ",
            "",
            "",
            "",
            ".2",
            "",
            "ただのこじつけじゃない。\nそれに、さっき自分でパープルって言ってたし",
            "",
            "",
            ""
          ],
          "isEmpty": 0,
          "isCommentOut": 0
        },
        {
          "rowIndex": 45,
          "strings": [
            "",
            "メガミングリーン",
            "<Character=グリーンハート>目閉じ",
            "",
            "",
            "",
            ".2",
            "",
            "どちらもレッドではないという意味では一緒ですわ",
            "",
            "",
            ""
          ],
          "isEmpty": 0,
          "isCommentOut": 0
        },
        {
          "rowIndex": 46,
          "strings": [
            "",
            "メガミングリーン",
            "<Character=グリーンハート>通常",
            "",
            "",
            "",
            "",
            "",
            "どうでしょう。ここは別の基準で決めてみては？",
            "Br",
            "",
            ""
          ],
          "isEmpty": 0,
          "isCommentOut": 0
        },
        {
          "rowIndex": 47,
          "strings": [
            "Wait",
            "",
            "",
            "",
            "",
            "",
            ".3",
            "",
            "",
            "",
            "",
            ""
          ],
          "isEmpty": 0,
          "isCommentOut": 0
        },
        {
          "rowIndex": 48,
          "strings": [
            "",
            "メガミングリーン",
            "<Character=グリーンハート>笑い",
            "",
            "",
            "",
            ".2",
            "",
            "たとえば、胸が一番大きい者とか",
            "",
            "",
            ""
          ],
          "isEmpty": 0,
          "isCommentOut": 0
        },
        {
          "rowIndex": 49,
          "strings": [
            "",
            "メガミンホワイト",
            "<Character=ホワイトハート>固有",
            "",
            "",
            "",
            ".2",
            "",
            "却下だ却下！",
            "",
            "",
            ""
          ],
          "isEmpty": 0,
          "isCommentOut": 0
        },
        {
          "rowIndex": 50,
          "strings": [
            "",
            "メガミンパープル",
            "<Character=パープルハート>真剣",
            "",
            "",
            "",
            ".2",
            "",
            "緑がメインなんてありえないわ。\n料理だってパセリは端っこでしょう？",
            "",
            "",
            ""
          ],
          "isEmpty": 0,
          "isCommentOut": 0
        },
        {
          "rowIndex": 51,
          "strings": [
            "",
            "メガミンブラック",
            "<Character=ブラックハート>笑い",
            "",
            "",
            "",
            ".2",
            "",
            "今こそ一番強いブラックこそがメインに立つべきね",
            "",
            "",
            ""
          ],
          "isEmpty": 0,
          "isCommentOut": 0
        },
        {
          "rowIndex": 52,
          "strings": [
            "",
            "メガミンオレンジ",
            "<Character=オレンジハート>悲しみ",
            "",
            "",
            "",
            ".2",
            "",
            "えー、ブラックがメインとか悪者っぽーい",
            "",
            "",
            ""
          ],
          "isEmpty": 0,
          "isCommentOut": 0
        },
        {
          "rowIndex": 53,
          "strings": [
            "",
            "メガミンホワイト",
            "<Character=ホワイトハート>笑い",
            "",
            "",
            "",
            ".2",
            "",
            "そいうことなら、いかにも正義側の色な、\nホワイトのわたしがメインで決まりだな",
            "",
            "",
            ""
          ],
          "isEmpty": 0,
          "isCommentOut": 0
        },
        {
          "rowIndex": 54,
          "strings": [
            "",
            "パープルハート",
            "目閉じ",
            "",
            "",
            "",
            "0",
            "",
            "",
            "",
            "",
            ""
          ],
          "isEmpty": 0,
          "isCommentOut": 0
        },
        {
          "rowIndex": 55,
          "strings": [
            "",
            "グリーンハート",
            "目閉じ",
            "",
            "",
            "",
            "0",
            "",
            "",
            "",
            "",
            ""
          ],
          "isEmpty": 0,
          "isCommentOut": 0
        },
        {
          "rowIndex": 56,
          "strings": [
            "",
            "オレンジハート",
            "目閉じ",
            "",
            "",
            "",
            "0",
            "",
            "",
            "",
            "",
            ""
          ],
          "isEmpty": 0,
          "isCommentOut": 0
        },
        {
          "rowIndex": 57,
          "strings": [
            "",
            "ブラックハート",
            "目閉じ",
            "",
            "",
            "",
            "0",
            "",
            "",
            "",
            "",
            ""
          ],
          "isEmpty": 0,
          "isCommentOut": 0
        },
        {
          "rowIndex": 58,
          "strings": [
            "SendMessageByName",
            "AdvEngine",
            "ChangeNoGrayOutCharacter",
            "パープルハート,グリーンハート,オレンジハート,ブラックハート",
            "",
            "",
            "",
            "",
            "",
            "",
            "",
            ""
          ],
          "isEmpty": 0,
          "isCommentOut": 0
        },
        {
          "rowIndex": 59,
          "strings": [
            "",
            "メガミンホワイト以外",
            "",
            "",
            "",
            "",
            "",
            "",
            "貧乳は却下",
            "",
            "",
            ""
          ],
          "isEmpty": 0,
          "isCommentOut": 0
        },
        {
          "rowIndex": 60,
          "strings": [
            "",
            "メガミンホワイト",
            "<Character=ホワイトハート>固有",
            "",
            "",
            "",
            ".2",
            "",
            "なんだとっっっ",
            "",
            "",
            ""
          ],
          "isEmpty": 0,
          "isCommentOut": 0
        },
        {
          "rowIndex": 61,
          "strings": [
            "",
            "メガミンパープル",
            "<Character=パープルハート>真剣",
            "",
            "",
            "",
            ".2",
            "",
            "こうなったら、次に現れた敵を最初に倒した女神が\n真ん中よ！　それなら文句ないでしょ。決まり！",
            "",
            "",
            ""
          ],
          "isEmpty": 0,
          "isCommentOut": 0
        },
        {
          "rowIndex": 62,
          "strings": [
            "",
            "メガミンオレンジ",
            "<Character=オレンジハート>悲しみ",
            "",
            "",
            "",
            ".2",
            "",
            "ワガママ言ってー。\nそんな敵がすぐに見つかるわけ……",
            "",
            "",
            ""
          ],
          "isEmpty": 0,
          "isCommentOut": 0
        },
        {
          "rowIndex": 63,
          "strings": [
            "CharacterOff",
            "",
            "",
            "",
            "",
            "",
            "",
            "",
            "",
            "",
            "",
            ""
          ],
          "isEmpty": 0,
          "isCommentOut": 0
        },
        {
          "rowIndex": 64,
          "strings": [
            "",
            "下っ端",
            "通常",
            "キャラ左",
            "",
            "",
            "0",
            "",
            "",
            "",
            "",
            ""
          ],
          "isEmpty": 0,
          "isCommentOut": 0
        },
        {
          "rowIndex": 65,
          "strings": [
            "",
            "マジェコンヌ",
            "通常",
            "キャラ右",
            "",
            "",
            "0",
            "",
            "",
            "",
            "",
            ""
          ],
          "isEmpty": 0,
          "isCommentOut": 0
        },
        {
          "rowIndex": 66,
          "strings": [
            "Wait",
            "",
            "",
            "",
            "",
            "",
            "1.5",
            "",
            "",
            "",
            "",
            ""
          ],
          "isEmpty": 0,
          "isCommentOut": 0
        },
        {
          "rowIndex": 67,
          "strings": [
            "CharacterOff",
            "",
            "",
            "",
            "",
            "",
            "",
            "",
            "",
            "",
            "",
            ""
          ],
          "isEmpty": 0,
          "isCommentOut": 0
        },
        {
          "rowIndex": 68,
          "strings": [
            "",
            "パープルハート",
            "真剣",
            "キャラ左",
            "",
            "",
            "",
            "",
            "",
            "",
            "",
            ""
          ],
          "isEmpty": 0,
          "isCommentOut": 0
        },
        {
          "rowIndex": 69,
          "strings": [
            "",
            "オレンジハート",
            "固有",
            "キャラ右",
            "",
            "",
            "",
            "",
            "",
            "",
            "",
            ""
          ],
          "isEmpty": 0,
          "isCommentOut": 0
        },
        {
          "rowIndex": 70,
          "strings": [
            "",
            "メガミンパープル",
            "<Character=パープルハート>真剣",
            "キャラ左",
            "",
            "",
            "",
            "",
            "いたわ！",
            "",
            "",
            ""
          ],
          "isEmpty": 0,
          "isCommentOut": 0
        },
        {
          "rowIndex": 71,
          "strings": [
            "",
            "メガミンオレンジ",
            "<Character=オレンジハート>固有",
            "キャラ右",
            "",
            "",
            ".2",
            "",
            "早っ！？",
            "",
            "",
            ""
          ],
          "isEmpty": 0,
          "isCommentOut": 0
        },
        {
          "rowIndex": 72,
          "strings": [
            "CharacterOff",
            "",
            "",
            "",
            "",
            "",
            "",
            "",
            "",
            "",
            "",
            ""
          ],
          "isEmpty": 0,
          "isCommentOut": 0
        },
        {
          "rowIndex": 73,
          "strings": [
            "",
            "下っ端",
            "驚き",
            "キャラ左",
            "",
            "",
            "",
            "",
            "",
            "",
            "",
            ""
          ],
          "isEmpty": 0,
          "isCommentOut": 0
        },
        {
          "rowIndex": 74,
          "strings": [
            "",
            "マジェコンヌ",
            "真剣",
            "キャラ右",
            "",
            "",
            "",
            "",
            "",
            "",
            "",
            ""
          ],
          "isEmpty": 0,
          "isCommentOut": 0
        },
        {
          "rowIndex": 75,
          "strings": [
            "",
            "下っ端",
            "驚き",
            "キャラ左",
            "",
            "",
            "",
            "",
            "え、なにこのひとたち",
            "",
            "",
            ""
          ],
          "isEmpty": 0,
          "isCommentOut": 0
        },
        {
          "rowIndex": 76,
          "strings": [
            "",
            "マジェコンヌ",
            "真剣",
            "キャラ右",
            "",
            "",
            "",
            "",
            "野良女神だ！\nおい、目を合わせるな！　噛みつかれるぞ！",
            "",
            "",
            ""
          ],
          "isEmpty": 0,
          "isCommentOut": 0
        },
        {
          "rowIndex": 77,
          "strings": [
            "CharacterOff",
            "",
            "",
            "",
            "",
            "",
            "",
            "",
            "",
            "",
            "",
            ""
          ],
          "isEmpty": 0,
          "isCommentOut": 0
        },
        {
          "rowIndex": 78,
          "strings": [
            "",
            "パープルハート",
            "真剣",
            "キャラ左",
            "",
            "",
            "",
            "",
            "",
            "",
            "",
            ""
          ],
          "isEmpty": 0,
          "isCommentOut": 0
        },
        {
          "rowIndex": 79,
          "strings": [
            "",
            "ホワイトハート",
            "真剣",
            "キャラ右",
            "",
            "",
            "",
            "",
            "",
            "",
            "",
            ""
          ],
          "isEmpty": 0,
          "isCommentOut": 0
        },
        {
          "rowIndex": 80,
          "strings": [
            "",
            "メガミンパープル",
            "<Character=パープルハート>真剣",
            "キャラ左",
            "",
            "",
            "",
            "",
            "女神を野犬呼ばわりとは失礼ね",
            "",
            "",
            ""
          ],
          "isEmpty": 0,
          "isCommentOut": 0
        },
        {
          "rowIndex": 81,
          "strings": [
            "",
            "メガミンホワイト",
            "<Character=ホワイトハート>真剣",
            "キャラ右",
            "",
            "",
            "",
            "",
            "抹殺してやる！",
            "",
            "",
            ""
          ],
          "isEmpty": 0,
          "isCommentOut": 0
        },
        {
          "rowIndex": 82,
          "strings": [
            "CharacterOff",
            "",
            "",
            "",
            "",
            "",
            "",
            "",
            "",
            "",
            "",
            ""
          ],
          "isEmpty": 0,
          "isCommentOut": 0
        },
        {
          "rowIndex": 83,
          "strings": [
            "",
            "下っ端",
            "驚き",
            "キャラ左",
            "",
            "",
            "",
            "",
            "",
            "",
            "",
            ""
          ],
          "isEmpty": 0,
          "isCommentOut": 0
        },
        {
          "rowIndex": 84,
          "strings": [
            "",
            "マジェコンヌ",
            "真剣",
            "キャラ右",
            "",
            "",
            "",
            "",
            "",
            "",
            "",
            ""
          ],
          "isEmpty": 0,
          "isCommentOut": 0
        },
        {
          "rowIndex": 85,
          "strings": [
            "",
            "下っ端",
            "驚き",
            "キャラ左",
            "",
            "",
            "",
            "",
            "ぎゃー！　目があっちゃったっス！",
            "",
            "",
            ""
          ],
          "isEmpty": 0,
          "isCommentOut": 0
        },
        {
          "rowIndex": 86,
          "strings": [
            "",
            "マジェコンヌ",
            "目閉じ",
            "キャラ右",
            "",
            "",
            "",
            "",
            "こうなったら……",
            "Next",
            "",
            ""
          ],
          "isEmpty": 0,
          "isCommentOut": 0
        },
        {
          "rowIndex": 87,
          "strings": [
            "Wait",
            "",
            "",
            "",
            "",
            "",
            ".5",
            "",
            "",
            "",
            "",
            ""
          ],
          "isEmpty": 0,
          "isCommentOut": 0
        },
        {
          "rowIndex": 88,
          "strings": [
            "",
            "マジェコンヌ",
            "悲しみ",
            "キャラ右",
            "",
            "",
            ".2",
            "",
            "助けてベルシーお姉ちゃん！",
            "Br",
            "",
            ""
          ],
          "isEmpty": 0,
          "isCommentOut": 0
        },
        {
          "rowIndex": 89,
          "strings": [
            "Wait",
            "",
            "",
            "",
            "",
            "",
            ".3",
            "",
            "",
            "",
            "",
            ""
          ],
          "isEmpty": 0,
          "isCommentOut": 0
        },
        {
          "rowIndex": 90,
          "strings": [
            "",
            "マジェコンヌ",
            "真剣",
            "キャラ右",
            "",
            "",
            ".2",
            "",
            "ほら、おまえも頼め！　可愛く、すがるように！",
            "",
            "",
            ""
          ],
          "isEmpty": 0,
          "isCommentOut": 0
        },
        {
          "rowIndex": 91,
          "strings": [
            "",
            "下っ端",
            "驚き",
            "キャラ左",
            "",
            "",
            "",
            "",
            "ええ、マジっすか。……ええと、助けてお姉ちゃーん",
            "",
            "",
            ""
          ],
          "isEmpty": 0,
          "isCommentOut": 0
        },
        {
          "rowIndex": 92,
          "strings": [
            "CharacterOff",
            "",
            "",
            "",
            "",
            "",
            "",
            "",
            "",
            "",
            "",
            ""
          ],
          "isEmpty": 0,
          "isCommentOut": 0
        },
        {
          "rowIndex": 93,
          "strings": [
            "",
            "ベルシー",
            "目閉じ",
            "キャラ中央",
            "",
            "",
            "",
            "",
            "そこの厚化粧オバサンはともかく、\n下っ端さんは良いツルペタなので助けてあげるわ",
            "",
            "",
            ""
          ],
          "isEmpty": 0,
          "isCommentOut": 0
        },
        {
          "rowIndex": 94,
          "strings": [
            "",
            "ベルシー",
            "真剣",
            "キャラ中央",
            "",
            "",
            ".2",
            "",
            "ただし、マジェコン販売やチート行為を\n止めるのなら……という条件で",
            "",
            "",
            ""
          ],
          "isEmpty": 0,
          "isCommentOut": 0
        },
        {
          "rowIndex": 95,
          "strings": [
            "CharacterOff",
            "",
            "",
            "",
            "",
            "",
            "",
            "",
            "",
            "",
            "",
            ""
          ],
          "isEmpty": 0,
          "isCommentOut": 0
        },
        {
          "rowIndex": 96,
          "strings": [
            "",
            "パープルハート",
            "悲しみ",
            "キャラ左",
            "",
            "",
            "",
            "",
            "",
            "",
            "",
            ""
          ],
          "isEmpty": 0,
          "isCommentOut": 0
        },
        {
          "rowIndex": 97,
          "strings": [
            "",
            "ブラックハート",
            "悲しみ",
            "キャラ中央",
            "",
            "",
            "",
            "",
            "",
            "",
            "",
            ""
          ],
          "isEmpty": 0,
          "isCommentOut": 0
        },
        {
          "rowIndex": 98,
          "strings": [
            "",
            "グリーンハート",
            "笑い",
            "キャラ右",
            "",
            "",
            "",
            "",
            "",
            "",
            "",
            ""
          ],
          "isEmpty": 0,
          "isCommentOut": 0
        },
        {
          "rowIndex": 99,
          "strings": [
            "",
            "メガミンブラック",
            "<Character=ブラックハート>悲しみ",
            "キャラ中央",
            "",
            "",
            "",
            "",
            "こいつらの味方をするというの？",
            "",
            "",
            ""
          ],
          "isEmpty": 0,
          "isCommentOut": 0
        },
        {
          "rowIndex": 100,
          "strings": [
            "",
            "メガミンパープル",
            "<Character=パープルハート>悲しみ",
            "キャラ左",
            "",
            "",
            "",
            "",
            "まさか、その幼女たちは人質……",
            "",
            "",
            ""
          ],
          "isEmpty": 0,
          "isCommentOut": 0
        },
        {
          "rowIndex": 101,
          "strings": [
            "",
            "メガミングリーン",
            "<Character=グリーンハート>笑い",
            "キャラ右",
            "",
            "",
            ".2",
            "",
            "幼女さんたち、今すぐこちらへいらっしゃい",
            "",
            "",
            ""
          ],
          "isEmpty": 0,
          "isCommentOut": 0
        },
        {
          "rowIndex": 102,
          "strings": [
            "CharacterOff",
            "",
            "",
            "",
            "",
            "",
            "",
            "",
            "",
            "",
            "",
            ""
          ],
          "isEmpty": 0,
          "isCommentOut": 0
        },
        {
          "rowIndex": 103,
          "strings": [
            "",
            "ベルシー",
            "悲しみ",
            "キャラ中央",
            "",
            "",
            "",
            "",
            "だ、だめよ！　これはわたくしだけの幼女パラダイス",
            "",
            "",
            ""
          ],
          "isEmpty": 0,
          "isCommentOut": 0
        },
        {
          "rowIndex": 104,
          "strings": [
            "CharacterOff",
            "",
            "",
            "",
            "",
            "",
            "",
            "",
            "",
            "",
            "",
            ""
          ],
          "isEmpty": 0,
          "isCommentOut": 0
        },
        {
          "rowIndex": 105,
          "strings": [
            "",
            "ヨーコ",
            "悲しみ",
            "キャラ中央",
            "",
            "",
            "",
            "",
            "さっき、ぺろぺろはみんなで共有とか言ってなかった？",
            "",
            "",
            ""
          ],
          "isEmpty": 0,
          "isCommentOut": 0
        },
        {
          "rowIndex": 106,
          "strings": [
            "CharacterOff",
            "",
            "",
            "",
            "",
            "",
            "",
            "",
            "",
            "",
            "",
            ""
          ],
          "isEmpty": 0,
          "isCommentOut": 0
        },
        {
          "rowIndex": 107,
          "strings": [
            "",
            "ベルシー",
            "真剣",
            "キャラ中央",
            "",
            "",
            "",
            "",
            "それはそれこれはこれ！　限りある幼女は大切に！\n<param=player_name>、この子たちを戻して！",
            "Input",
            "",
            ""
          ],
          "isEmpty": 0,
          "isCommentOut": 0
        },
        {
          "rowIndex": 108,
          "strings": [
            "HideMenuButton",
            "",
            "",
            "",
            "",
            "",
            "",
            "",
            "",
            "",
            "",
            ""
          ],
          "isEmpty": 0,
          "isCommentOut": 0
        },
        {
          "rowIndex": 109,
          "strings": [
            "Selection",
            "*select 200506-1",
            "",
            "",
            "",
            "0",
            "300",
            "",
            "「仕方ない……」",
            "",
            "",
            ""
          ],
          "isEmpty": 0,
          "isCommentOut": 0
        },
        {
          "rowIndex": 110,
          "strings": [
            "*select 200506-1",
            "",
            "",
            "",
            "",
            "",
            "",
            "",
            "",
            "",
            "",
            ""
          ],
          "isEmpty": 0,
          "isCommentOut": 0
        },
        {
          "rowIndex": 111,
          "strings": [
            "ShowMenuButton",
            "",
            "",
            "",
            "",
            "",
            "",
            "",
            "",
            "",
            "",
            ""
          ],
          "isEmpty": 0,
          "isCommentOut": 0
        },
        {
          "rowIndex": 112,
          "strings": [
            "CharacterOff",
            "",
            "",
            "",
            "",
            "",
            "0",
            "",
            "",
            "",
            "",
            ""
          ],
          "isEmpty": 0,
          "isCommentOut": 0
        },
        {
          "rowIndex": 113,
          "strings": [
            "",
            "ラム",
            "笑い",
            "キャラ左",
            "",
            "",
            "0",
            "",
            "",
            "",
            "",
            ""
          ],
          "isEmpty": 0,
          "isCommentOut": 0
        },
        {
          "rowIndex": 114,
          "strings": [
            "",
            "ロム",
            "笑い",
            "キャラ右",
            "",
            "",
            "0",
            "",
            "",
            "",
            "",
            ""
          ],
          "isEmpty": 0,
          "isCommentOut": 0
        },
        {
          "rowIndex": 115,
          "strings": [
            "SendMessageByName",
            "AdvEngine",
            "ChangeNoGrayOutCharacter",
            "ラム,ロム",
            "",
            "",
            "",
            "",
            "",
            "",
            "",
            ""
          ],
          "isEmpty": 0,
          "isCommentOut": 0
        },
        {
          "rowIndex": 116,
          "strings": [
            "",
            "ロム・ラム",
            "",
            "",
            "",
            "",
            "",
            "",
            "さようならお姉ちゃ～ん",
            "",
            "",
            ""
          ],
          "isEmpty": 0,
          "isCommentOut": 0
        },
        {
          "rowIndex": 117,
          "strings": [
            "Se",
            "消滅音",
            "",
            "",
            "",
            "",
            "",
            "",
            "",
            "",
            "",
            ""
          ],
          "isEmpty": 0,
          "isCommentOut": 0
        },
        {
          "rowIndex": 118,
          "strings": [
            "RuleFadeOut",
            "ラム",
            "FadeLeftBottom",
            "",
            "",
            "",
            "1",
            "Add",
            "",
            "",
            "",
            ""
          ],
          "isEmpty": 0,
          "isCommentOut": 0
        },
        {
          "rowIndex": 119,
          "strings": [
            "RuleFadeOut",
            "ロム",
            "FadeLeftBottom",
            "",
            "",
            "",
            "1",
            "",
            "",
            "",
            "",
            ""
          ],
          "isEmpty": 0,
          "isCommentOut": 0
        },
        {
          "rowIndex": 120,
          "strings": [
            "Wait",
            "",
            "",
            "",
            "",
            "",
            ".5",
            "",
            "",
            "",
            "",
            ""
          ],
          "isEmpty": 0,
          "isCommentOut": 0
        },
        {
          "rowIndex": 121,
          "strings": [
            "",
            "ココ",
            "笑い",
            "キャラ左",
            "",
            "",
            "0",
            "",
            "",
            "",
            "",
            ""
          ],
          "isEmpty": 0,
          "isCommentOut": 0
        },
        {
          "rowIndex": 122,
          "strings": [
            "",
            "ロロ",
            "笑い",
            "キャラ右",
            "",
            "",
            "0",
            "",
            "",
            "",
            "",
            ""
          ],
          "isEmpty": 0,
          "isCommentOut": 0
        },
        {
          "rowIndex": 123,
          "strings": [
            "SendMessageByName",
            "AdvEngine",
            "ChangeNoGrayOutCharacter",
            "ココ,ロロ",
            "",
            "",
            "",
            "",
            "",
            "",
            "",
            ""
          ],
          "isEmpty": 0,
          "isCommentOut": 0
        },
        {
          "rowIndex": 124,
          "strings": [
            "",
            "ココ・ロロ",
            "",
            "",
            "",
            "",
            "",
            "",
            "さよーならー",
            "",
            "",
            ""
          ],
          "isEmpty": 0,
          "isCommentOut": 0
        },
        {
          "rowIndex": 125,
          "strings": [
            "Se",
            "消滅音",
            "",
            "",
            "",
            "",
            "",
            "",
            "",
            "",
            "",
            ""
          ],
          "isEmpty": 0,
          "isCommentOut": 0
        },
        {
          "rowIndex": 126,
          "strings": [
            "RuleFadeOut",
            "ココ",
            "FadeLeftBottom",
            "",
            "",
            "",
            "1",
            "Add",
            "",
            "",
            "",
            ""
          ],
          "isEmpty": 0,
          "isCommentOut": 0
        },
        {
          "rowIndex": 127,
          "strings": [
            "RuleFadeOut",
            "ロロ",
            "FadeLeftBottom",
            "",
            "",
            "",
            "1",
            "",
            "",
            "",
            "",
            ""
          ],
          "isEmpty": 0,
          "isCommentOut": 0
        },
        {
          "rowIndex": 128,
          "strings": [
            "Wait",
            "",
            "",
            "",
            "",
            "",
            ".5",
            "",
            "",
            "",
            "",
            ""
          ],
          "isEmpty": 0,
          "isCommentOut": 0
        },
        {
          "rowIndex": 129,
          "strings": [
            "",
            "ルゥシェ",
            "悲しみ",
            "キャラ中央",
            "",
            "",
            "",
            "",
            "はぁ……やっと帰れるわ",
            "",
            "",
            ""
          ],
          "isEmpty": 0,
          "isCommentOut": 0
        },
        {
          "rowIndex": 130,
          "strings": [
            "Se",
            "消滅音",
            "",
            "",
            "",
            "",
            "",
            "",
            "",
            "",
            "",
            ""
          ],
          "isEmpty": 0,
          "isCommentOut": 0
        },
        {
          "rowIndex": 131,
          "strings": [
            "RuleFadeOut",
            "ルゥシェ",
            "FadeLeftBottom",
            "",
            "",
            "",
            "1",
            "",
            "",
            "",
            "",
            ""
          ],
          "isEmpty": 0,
          "isCommentOut": 0
        },
        {
          "rowIndex": 132,
          "strings": [
            "StopSe",
            "",
            "",
            "",
            "",
            "",
            ".5",
            "",
            "",
            "",
            "",
            ""
          ],
          "isEmpty": 0,
          "isCommentOut": 0
        },
        {
          "rowIndex": 133,
          "strings": [
            "Wait",
            "",
            "",
            "",
            "",
            "",
            "1",
            "",
            "",
            "",
            "",
            ""
          ],
          "isEmpty": 0,
          "isCommentOut": 0
        },
        {
          "rowIndex": 134,
          "strings": [
            "",
            "グリーンハート",
            "悲しみ",
            "キャラ右",
            "",
            "",
            "1",
            "Add",
            "",
            "",
            "",
            ""
          ],
          "isEmpty": 0,
          "isCommentOut": 0
        },
        {
          "rowIndex": 135,
          "strings": [
            "Tween",
            "グリーンハート",
            "MoveFrom",
            "x=100 y=0 islocal=true time=1",
            "easeOutQuad",
            "",
            "",
            "",
            "",
            "",
            "",
            ""
          ],
          "isEmpty": 0,
          "isCommentOut": 0
        },
        {
          "rowIndex": 136,
          "strings": [
            "Wait",
            "",
            "",
            "",
            "",
            "",
            ".2",
            "",
            "",
            "",
            "",
            ""
          ],
          "isEmpty": 0,
          "isCommentOut": 0
        },
        {
          "rowIndex": 137,
          "strings": [
            "",
            "メガミングリーン",
            "<Character=グリーンハート>悲しみ",
            "キャラ右",
            "",
            "",
            "",
            "",
            "ああ！　妹たちが！\nせめて匂いだけでも！　妹臭の残り香を……！",
            "",
            "",
            ""
          ],
          "isEmpty": 0,
          "isCommentOut": 0
        },
        {
          "rowIndex": 138,
          "strings": [
            "",
            "ベルシー",
            "真剣",
            "キャラ中央",
            "",
            "",
            "1",
            "Add",
            "",
            "",
            "",
            ""
          ],
          "isEmpty": 0,
          "isCommentOut": 0
        },
        {
          "rowIndex": 139,
          "strings": [
            "Tween",
            "ベルシー",
            "MoveFrom",
            "x=-100 y=0 islocal=true time=1",
            "easeOutQuad",
            "",
            "",
            "Add",
            "",
            "",
            "",
            ""
          ],
          "isEmpty": 0,
          "isCommentOut": 0
        },
        {
          "rowIndex": 140,
          "strings": [
            "",
            "ベルシー",
            "真剣",
            "キャラ中央",
            "",
            "",
            "",
            "",
            "させないわ！",
            "",
            "",
            ""
          ],
          "isEmpty": 0,
          "isCommentOut": 0
        },
        {
          "rowIndex": 141,
          "strings": [
            "",
            "ベルシー",
            "真剣",
            "キャラ中央",
            "",
            "",
            "",
            "",
            "まったく、幼女の残り香を求めるなんて、\nとんでもないヘンタイね！",
            "",
            "",
            ""
          ],
          "isEmpty": 0,
          "isCommentOut": 0
        },
        {
          "rowIndex": 142,
          "strings": [
            "",
            "ベルシー",
            "真剣",
            "キャラ中央",
            "",
            "",
            "",
            "",
            "ていうかその匂いは、わたくしのものよ！",
            "",
            "",
            ""
          ],
          "isEmpty": 0,
          "isCommentOut": 0
        },
        {
          "rowIndex": 143,
          "strings": [
            "CharacterOff",
            "",
            "",
            "",
            "",
            "",
            "",
            "",
            "",
            "",
            "",
            ""
          ],
          "isEmpty": 0,
          "isCommentOut": 0
        },
        {
          "rowIndex": 144,
          "strings": [
            "",
            "クロワール",
            "固有",
            "キャラ中央",
            "",
            "",
            "",
            "",
            "なに言ってんだおまえ",
            "",
            "",
            ""
          ],
          "isEmpty": 0,
          "isCommentOut": 0
        },
        {
          "rowIndex": 145,
          "strings": [
            "CharacterOff",
            "",
            "",
            "",
            "",
            "",
            "",
            "",
            "",
            "",
            "",
            ""
          ],
          "isEmpty": 0,
          "isCommentOut": 0
        },
        {
          "rowIndex": 146,
          "strings": [
            "",
            "ベルシー",
            "真剣",
            "キャラ左",
            "",
            "",
            "",
            "",
            "",
            "",
            "",
            ""
          ],
          "isEmpty": 0,
          "isCommentOut": 0
        },
        {
          "rowIndex": 147,
          "strings": [
            "",
            "グリーンハート",
            "真剣",
            "キャラ右",
            "",
            "",
            "",
            "",
            "",
            "",
            "",
            ""
          ],
          "isEmpty": 0,
          "isCommentOut": 0
        },
        {
          "rowIndex": 148,
          "strings": [
            "",
            "ベルシー",
            "真剣",
            "キャラ左",
            "",
            "",
            "",
            "",
            "どうやら、メガミンジャーとは、\n戦う定めにあるようね！",
            "",
            "",
            ""
          ],
          "isEmpty": 0,
          "isCommentOut": 0
        },
        {
          "rowIndex": 149,
          "strings": [
            "",
            "メガミングリーン",
            "<Character=グリーンハート>真剣",
            "キャラ右",
            "",
            "",
            "",
            "",
            "あら、気が合いますわね。\nわたくしも同じことを考えていましたわ",
            "",
            "",
            ""
          ],
          "isEmpty": 0,
          "isCommentOut": 0
        },
        {
          "rowIndex": 150,
          "strings": [
            "SendMessageByName",
            "AdvEngine",
            "ChangeNoGrayOutCharacter",
            "ベルシー,グリーンハート",
            "",
            "",
            "",
            "",
            "",
            "",
            "",
            ""
          ],
          "isEmpty": 0,
          "isCommentOut": 0
        },
        {
          "rowIndex": 151,
          "strings": [
            "",
            "ベルシー・メガミングリーン",
            "真剣",
            "",
            "",
            "",
            "",
            "",
            "いざ！　真の姉の座をかけて！",
            "",
            "",
            ""
          ],
          "isEmpty": 0,
          "isCommentOut": 0
        },
        {
          "rowIndex": 152,
          "strings": [
            "CharacterOff",
            "",
            "",
            "",
            "",
            "",
            "",
            "",
            "",
            "",
            "",
            ""
          ],
          "isEmpty": 0,
          "isCommentOut": 0
        },
        {
          "rowIndex": 153,
          "strings": [
            "",
            "ヨーコ",
            "悲しみ",
            "キャラ左",
            "",
            "",
            "",
            "",
            "",
            "",
            "",
            ""
          ],
          "isEmpty": 0,
          "isCommentOut": 0
        },
        {
          "rowIndex": 154,
          "strings": [
            "",
            "クロワール",
            "悲しみ",
            "キャラ右",
            "",
            "",
            "",
            "",
            "",
            "",
            "",
            ""
          ],
          "isEmpty": 0,
          "isCommentOut": 0
        },
        {
          "rowIndex": 155,
          "strings": [
            "SendMessageByName",
            "AdvEngine",
            "ChangeNoGrayOutCharacter",
            "ヨーコ,クロワール",
            "",
            "",
            "",
            "",
            "",
            "",
            "",
            ""
          ],
          "isEmpty": 0,
          "isCommentOut": 0
        },
        {
          "rowIndex": 156,
          "strings": [
            "",
            "ヨーコ・クロワール",
            "悲しみ",
            "",
            "",
            "",
            "",
            "",
            "……あほくさ",
            "",
            "",
            ""
          ],
          "isEmpty": 0,
          "isCommentOut": 0
        },
        {
          "rowIndex": 157,
          "strings": [
            "FadeOut",
            "black",
            "",
            "",
            "",
            "",
            "1",
            "",
            "",
            "",
            "",
            ""
          ],
          "isEmpty": 0,
          "isCommentOut": 0
        },
        {
          "rowIndex": 158,
          "strings": [
            "Wait",
            "",
            "",
            "",
            "",
            "",
            ".3",
            "",
            "",
            "",
            "",
            ""
          ],
          "isEmpty": 0,
          "isCommentOut": 0
        }
      ],
      "name": "Assets/BundleResources/Data/Adventure/Event/Story2005/adv_200506.xls:200506",
      "type": 1,
      "textLength": 4464,
      "headerRow": 0,
      "entityIndexTbl": [],
      "entityDataList": []
    }
  ]
}