{
  "m_GameObject": {
    "m_FileID": 0,
    "m_PathID": 3741772294244844015
  },
  "m_Enabled": 1,
  "m_Script": {
    "m_FileID": 0,
    "m_PathID": -1247748226983267122
  },
  "m_Name": "",
  "TableMaterial": [
    {
      "m_FileID": 0,
      "m_PathID": -1434323407446492451
    },
    {
      "m_FileID": 0,
      "m_PathID": -3520397127322832554
    },
    {
      "m_FileID": 0,
      "m_PathID": -7986193428329143857
    },
    {
      "m_FileID": 0,
      "m_PathID": 3827937756350360665
    },
    {
      "m_FileID": 0,
      "m_PathID": -9195140537020400907
    },
    {
      "m_FileID": 0,
      "m_PathID": 6024267485028862917
    },
    {
      "m_FileID": 0,
      "m_PathID": 3729213615329065260
    },
    {
      "m_FileID": 0,
      "m_PathID": 5359572930735782585
    },
    {
      "m_FileID": 0,
      "m_PathID": -5665127597831970239
    },
    {
      "m_FileID": 0,
      "m_PathID": 7907512552982121115
    },
    {
      "m_FileID": 0,
      "m_PathID": -3029604949022282125
    },
    {
      "m_FileID": 0,
      "m_PathID": -7455869834789411808
    },
    {
      "m_FileID": 0,
      "m_PathID": 5131919668717586951
    },
    {
      "m_FileID": 0,
      "m_PathID": -5456793281117940525
    },
    {
      "m_FileID": 0,
      "m_PathID": -8867093074251294869
    },
    {
      "m_FileID": 0,
      "m_PathID": 754490149816875624
    },
    {
      "m_FileID": 0,
      "m_PathID": -1577307634812537369
    },
    {
      "m_FileID": 0,
      "m_PathID": 4120094678270693576
    },
    {
      "m_FileID": 0,
      "m_PathID": -2248026502341754910
    },
    {
      "m_FileID": 0,
      "m_PathID": 3088114672141845443
    }
  ],
  "DataCellMap": {
    "m_FileID": 0,
    "m_PathID": -2644375450512471810
  },
  "InstanceRootParent": {
    "m_FileID": 0,
    "m_PathID": 0
  },
  "InstanceGameObjectControl": {
    "m_FileID": 0,
    "m_PathID": 0
  },
  "FlagHideForce": 0,
  "DataAnimation": {
    "m_FileID": 0,
    "m_PathID": 5944622701853191051
  },
  "LimitTrack": 0,
  "TableInformationPlay": [
    {
      "DataAnimation": {
        "m_FileID": 0,
        "m_PathID": 0
      },
      "FlagSetInitial": 1,
      "FlagStopInitial": 0,
      "NameAnimation": "attack_gun_1",
      "FlagPingPong": 0,
      "LabelStart": "",
      "FrameOffsetStart": 0,
      "LabelEnd": "",
      "FrameOffsetEnd": 0,
      "Frame": 0,
      "TimesPlay": 0,
      "RateTime": 1.0
    }
  ],
  "TableControlParts": [
    {
      "InstanceGameObject": {
        "m_FileID": 0,
        "m_PathID": 3741772294244844015
      },
      "PrefabUnderControl": {
        "m_FileID": 0,
        "m_PathID": 0
      },
      "InstanceGameObjectUnderControl": {
        "m_FileID": 0,
        "m_PathID": 0
      },
      "InstanceScriptCollider": {
        "m_FileID": 0,
        "m_PathID": 0
      }
    },
    {
      "InstanceGameObject": {
        "m_FileID": 0,
        "m_PathID": 9187956131142920332
      },
      "PrefabUnderControl": {
        "m_FileID": 0,
        "m_PathID": 0
      },
      "InstanceGameObjectUnderControl": {
        "m_FileID": 0,
        "m_PathID": 0
      },
      "InstanceScriptCollider": {
        "m_FileID": 0,
        "m_PathID": 0
      }
    },
    {
      "InstanceGameObject": {
        "m_FileID": 0,
        "m_PathID": -6750104793623783377
      },
      "PrefabUnderControl": {
        "m_FileID": 0,
        "m_PathID": 0
      },
      "InstanceGameObjectUnderControl": {
        "m_FileID": 0,
        "m_PathID": 0
      },
      "InstanceScriptCollider": {
        "m_FileID": 0,
        "m_PathID": 0
      }
    },
    {
      "InstanceGameObject": {
        "m_FileID": 0,
        "m_PathID": 7174749543625622305
      },
      "PrefabUnderControl": {
        "m_FileID": 0,
        "m_PathID": 0
      },
      "InstanceGameObjectUnderControl": {
        "m_FileID": 0,
        "m_PathID": 0
      },
      "InstanceScriptCollider": {
        "m_FileID": 0,
        "m_PathID": 0
      }
    },
    {
      "InstanceGameObject": {
        "m_FileID": 0,
        "m_PathID": -1725678126671296309
      },
      "PrefabUnderControl": {
        "m_FileID": 0,
        "m_PathID": 0
      },
      "InstanceGameObjectUnderControl": {
        "m_FileID": 0,
        "m_PathID": 0
      },
      "InstanceScriptCollider": {
        "m_FileID": 0,
        "m_PathID": 0
      }
    },
    {
      "InstanceGameObject": {
        "m_FileID": 0,
        "m_PathID": -2992204262985855805
      },
      "PrefabUnderControl": {
        "m_FileID": 0,
        "m_PathID": 0
      },
      "InstanceGameObjectUnderControl": {
        "m_FileID": 0,
        "m_PathID": 0
      },
      "InstanceScriptCollider": {
        "m_FileID": 0,
        "m_PathID": 0
      }
    },
    {
      "InstanceGameObject": {
        "m_FileID": 0,
        "m_PathID": -7543089008358390072
      },
      "PrefabUnderControl": {
        "m_FileID": 0,
        "m_PathID": 0
      },
      "InstanceGameObjectUnderControl": {
        "m_FileID": 0,
        "m_PathID": 0
      },
      "InstanceScriptCollider": {
        "m_FileID": 0,
        "m_PathID": 0
      }
    },
    {
      "InstanceGameObject": {
        "m_FileID": 0,
        "m_PathID": 1382938006275578266
      },
      "PrefabUnderControl": {
        "m_FileID": 0,
        "m_PathID": 0
      },
      "InstanceGameObjectUnderControl": {
        "m_FileID": 0,
        "m_PathID": 0
      },
      "InstanceScriptCollider": {
        "m_FileID": 0,
        "m_PathID": 0
      }
    },
    {
      "InstanceGameObject": {
        "m_FileID": 0,
        "m_PathID": -8872666558437314440
      },
      "PrefabUnderControl": {
        "m_FileID": 0,
        "m_PathID": 0
      },
      "InstanceGameObjectUnderControl": {
        "m_FileID": 0,
        "m_PathID": 0
      },
      "InstanceScriptCollider": {
        "m_FileID": 0,
        "m_PathID": 0
      }
    },
    {
      "InstanceGameObject": {
        "m_FileID": 0,
        "m_PathID": -5535684892122885131
      },
      "PrefabUnderControl": {
        "m_FileID": 0,
        "m_PathID": 0
      },
      "InstanceGameObjectUnderControl": {
        "m_FileID": 0,
        "m_PathID": 0
      },
      "InstanceScriptCollider": {
        "m_FileID": 0,
        "m_PathID": 0
      }
    },
    {
      "InstanceGameObject": {
        "m_FileID": 0,
        "m_PathID": 6635173415491300191
      },
      "PrefabUnderControl": {
        "m_FileID": 0,
        "m_PathID": 0
      },
      "InstanceGameObjectUnderControl": {
        "m_FileID": 0,
        "m_PathID": 0
      },
      "InstanceScriptCollider": {
        "m_FileID": 0,
        "m_PathID": 0
      }
    },
    {
      "InstanceGameObject": {
        "m_FileID": 0,
        "m_PathID": 8481828047074791904
      },
      "PrefabUnderControl": {
        "m_FileID": 0,
        "m_PathID": 0
      },
      "InstanceGameObjectUnderControl": {
        "m_FileID": 0,
        "m_PathID": 0
      },
      "InstanceScriptCollider": {
        "m_FileID": 0,
        "m_PathID": 0
      }
    },
    {
      "InstanceGameObject": {
        "m_FileID": 0,
        "m_PathID": 6655246961610905861
      },
      "PrefabUnderControl": {
        "m_FileID": 0,
        "m_PathID": 0
      },
      "InstanceGameObjectUnderControl": {
        "m_FileID": 0,
        "m_PathID": 0
      },
      "InstanceScriptCollider": {
        "m_FileID": 0,
        "m_PathID": 0
      }
    }
  ]
}