{
  "m_GameObject": {
    "m_FileID": 0,
    "m_PathID": 0
  },
  "m_Enabled": 1,
  "m_Script": {
    "m_FileID": 0,
    "m_PathID": -2195584510539435343
  },
  "m_Name": "adv_201901.book",
  "importVersion": 0,
  "importGridList": [
    {
      "rows": [
        {
          "rowIndex": 0,
          "strings": [
            "Command",
            "Arg1",
            "Arg2",
            "Arg3",
            "Arg4",
            "Arg5",
            "Arg6",
            "WaitType",
            "Text",
            "PageCtrl",
            "Voice",
            "WindowType"
          ],
          "isEmpty": 0,
          "isCommentOut": 0
        },
        {
          "rowIndex": 1,
          "strings": [
            "ZoomCamera",
            "SpriteCamera",
            "1.4",
            "475",
            "-300",
            "",
            "0"
          ],
          "isEmpty": 0,
          "isCommentOut": 0
        },
        {
          "rowIndex": 2,
          "strings": [
            "FadeOut",
            "black",
            "",
            "",
            "",
            "",
            "0",
            "",
            "",
            "",
            "",
            ""
          ],
          "isEmpty": 0,
          "isCommentOut": 0
        },
        {
          "rowIndex": 3,
          "strings": [
            "Bg",
            "背景(ビーチ)",
            "",
            "",
            "",
            "",
            "",
            "",
            "",
            "",
            "",
            ""
          ],
          "isEmpty": 0,
          "isCommentOut": 0
        },
        {
          "rowIndex": 4,
          "strings": [
            "Wait",
            "",
            "",
            "",
            "",
            "",
            ".3",
            "",
            "",
            "",
            "",
            ""
          ],
          "isEmpty": 0,
          "isCommentOut": 0
        },
        {
          "rowIndex": 5,
          "strings": [
            "FadeIn",
            "black",
            "",
            "",
            "",
            "",
            "1",
            "",
            "",
            "",
            "",
            ""
          ],
          "isEmpty": 0,
          "isCommentOut": 0
        },
        {
          "rowIndex": 6,
          "strings": [
            "Se",
            "波の音"
          ],
          "isEmpty": 0,
          "isCommentOut": 0
        },
        {
          "rowIndex": 7,
          "strings": [
            "ZoomCamera",
            "SpriteCamera",
            "1.4",
            "-475",
            "-300",
            "",
            "3"
          ],
          "isEmpty": 0,
          "isCommentOut": 0
        },
        {
          "rowIndex": 8,
          "strings": [
            "Wait",
            "",
            "",
            "",
            "",
            "",
            ".3"
          ],
          "isEmpty": 0,
          "isCommentOut": 0
        },
        {
          "rowIndex": 9,
          "strings": [
            "ZoomCamera",
            "SpriteCamera",
            "1",
            "0",
            "0",
            "",
            "0"
          ],
          "isEmpty": 0,
          "isCommentOut": 0
        },
        {
          "rowIndex": 10,
          "strings": [
            "Bgm",
            "ADV通常"
          ],
          "isEmpty": 0,
          "isCommentOut": 0
        },
        {
          "rowIndex": 11,
          "strings": [
            "StopSe",
            "",
            "",
            "",
            "",
            "",
            ".5"
          ],
          "isEmpty": 0,
          "isCommentOut": 0
        },
        {
          "rowIndex": 12,
          "strings": [
            "Jump",
            "*201901-1",
            "is_heroine"
          ],
          "isEmpty": 0,
          "isCommentOut": 0
        },
        {
          "rowIndex": 13,
          "strings": [
            "Se",
            "踏み込み音"
          ],
          "isEmpty": 0,
          "isCommentOut": 0
        },
        {
          "rowIndex": 14,
          "strings": [
            "",
            "ネプテューヌサマー",
            "通常",
            "キャラ右",
            "",
            "",
            "1",
            "Add",
            "",
            "",
            "",
            ""
          ],
          "isEmpty": 0,
          "isCommentOut": 0
        },
        {
          "rowIndex": 15,
          "strings": [
            "Tween",
            "ネプテューヌサマー",
            "MoveFrom",
            "x=100 y=0 islocal=true time=1",
            "easeOutQuad",
            "",
            "",
            "Add",
            "",
            "",
            "",
            ""
          ],
          "isEmpty": 0,
          "isCommentOut": 0
        },
        {
          "rowIndex": 16,
          "strings": [
            "",
            "アルト水着",
            "笑い",
            "キャラ左",
            "",
            "",
            "1",
            "Add",
            "",
            "",
            "",
            ""
          ],
          "isEmpty": 0,
          "isCommentOut": 0
        },
        {
          "rowIndex": 17,
          "strings": [
            "Tween",
            "アルト水着",
            "MoveFrom",
            "x=100 y=0 islocal=true time=1",
            "easeOutQuad",
            "",
            "",
            "",
            "",
            "",
            "",
            ""
          ],
          "isEmpty": 0,
          "isCommentOut": 0
        },
        {
          "rowIndex": 18,
          "strings": [
            "",
            "ネプテューヌサマー",
            "笑い",
            "",
            "",
            "",
            ".2",
            "",
            "海だ、リゾートだ、ひと夏の思い出だー！"
          ],
          "isEmpty": 0,
          "isCommentOut": 0
        },
        {
          "rowIndex": 19,
          "strings": [
            "CharacterOff"
          ],
          "isEmpty": 0,
          "isCommentOut": 0
        },
        {
          "rowIndex": 20,
          "strings": [
            "Jump",
            "*201901-2"
          ],
          "isEmpty": 0,
          "isCommentOut": 0
        },
        {
          "rowIndex": 21,
          "strings": [
            "*201901-1"
          ],
          "isEmpty": 0,
          "isCommentOut": 0
        },
        {
          "rowIndex": 22,
          "strings": [
            "Se",
            "踏み込み音"
          ],
          "isEmpty": 0,
          "isCommentOut": 0
        },
        {
          "rowIndex": 23,
          "strings": [
            "",
            "ネプテューヌサマー",
            "通常",
            "キャラ右",
            "",
            "",
            "1",
            "Add",
            "",
            "",
            "",
            ""
          ],
          "isEmpty": 0,
          "isCommentOut": 0
        },
        {
          "rowIndex": 24,
          "strings": [
            "Tween",
            "ネプテューヌサマー",
            "MoveFrom",
            "x=100 y=0 islocal=true time=1",
            "easeOutQuad",
            "",
            "",
            "Add",
            "",
            "",
            "",
            ""
          ],
          "isEmpty": 0,
          "isCommentOut": 0
        },
        {
          "rowIndex": 25,
          "strings": [
            "",
            "アイナ水着",
            "通常",
            "キャラ左",
            "",
            "",
            "1",
            "Add",
            "",
            "",
            "",
            ""
          ],
          "isEmpty": 0,
          "isCommentOut": 0
        },
        {
          "rowIndex": 26,
          "strings": [
            "Tween",
            "アイナ水着",
            "MoveFrom",
            "x=100 y=0 islocal=true time=1",
            "easeOutQuad",
            "",
            "",
            "",
            "",
            "",
            "",
            ""
          ],
          "isEmpty": 0,
          "isCommentOut": 0
        },
        {
          "rowIndex": 27,
          "strings": [
            "",
            "ネプテューヌサマー",
            "笑い",
            "",
            "",
            "",
            ".2",
            "",
            "海だ、リゾートだ、ひと夏の思い出だー！"
          ],
          "isEmpty": 0,
          "isCommentOut": 0
        },
        {
          "rowIndex": 28,
          "strings": [
            "CharacterOff"
          ],
          "isEmpty": 0,
          "isCommentOut": 0
        },
        {
          "rowIndex": 29,
          "strings": [
            "Jump",
            "*201901-2"
          ],
          "isEmpty": 0,
          "isCommentOut": 0
        },
        {
          "rowIndex": 30,
          "strings": [
            "*201901-2"
          ],
          "isEmpty": 0,
          "isCommentOut": 0
        },
        {
          "rowIndex": 31,
          "strings": [
            "",
            "クロワールサマー",
            "通常",
            "",
            "",
            "",
            ".2",
            "",
            "今年もこの季節がやってきたな……"
          ],
          "isEmpty": 0,
          "isCommentOut": 0
        },
        {
          "rowIndex": 32,
          "strings": [
            "",
            "クロワールサマー",
            "笑い",
            "",
            "",
            "",
            ".2",
            "",
            "ギラギラの日差しを浴びながら、\n潮風の匂いを嗅いでると無性にワクワクするぜ！",
            "Input"
          ],
          "isEmpty": 0,
          "isCommentOut": 0
        },
        {
          "rowIndex": 33,
          "strings": [
            "Selection",
            "*201901-03",
            "",
            "",
            "",
            "0",
            "300",
            "",
            "「そうだね！」"
          ],
          "isEmpty": 0,
          "isCommentOut": 0
        },
        {
          "rowIndex": 34,
          "strings": [
            "*201901-03"
          ],
          "isEmpty": 0,
          "isCommentOut": 0
        },
        {
          "rowIndex": 35,
          "strings": [
            "",
            "クロワールサマー",
            "通常",
            "",
            "",
            "",
            ".2",
            "",
            "ところで、連中はまだ来てないのか"
          ],
          "isEmpty": 0,
          "isCommentOut": 0
        },
        {
          "rowIndex": 36,
          "strings": [
            "CharacterOff"
          ],
          "isEmpty": 0,
          "isCommentOut": 0
        },
        {
          "rowIndex": 37,
          "strings": [
            "Se",
            "踏み込み音"
          ],
          "isEmpty": 0,
          "isCommentOut": 0
        },
        {
          "rowIndex": 38,
          "strings": [
            "",
            "ラム・ロムサマー",
            "通常",
            "",
            "",
            "",
            "1",
            "Add",
            "",
            "",
            "",
            ""
          ],
          "isEmpty": 0,
          "isCommentOut": 0
        },
        {
          "rowIndex": 39,
          "strings": [
            "Tween",
            "ラム・ロムサマー",
            "MoveFrom",
            "x=100 y=0 islocal=true time=1",
            "easeOutQuad",
            "",
            "",
            "",
            "",
            "",
            "",
            ""
          ],
          "isEmpty": 0,
          "isCommentOut": 0
        },
        {
          "rowIndex": 40,
          "strings": [
            "",
            "ロム＆ラム",
            "<Character=ラム・ロムサマー>笑い",
            "",
            "",
            "",
            ".2",
            "",
            "ネプテューヌさーん！"
          ],
          "isEmpty": 0,
          "isCommentOut": 0
        },
        {
          "rowIndex": 41,
          "strings": [
            "",
            "ネプテューヌサマー",
            "笑い",
            "",
            "",
            "",
            "",
            "",
            "おっ、噂をすればってやつだね！"
          ],
          "isEmpty": 0,
          "isCommentOut": 0
        },
        {
          "rowIndex": 42,
          "strings": [
            "CharacterOff"
          ],
          "isEmpty": 0,
          "isCommentOut": 0
        },
        {
          "rowIndex": 43,
          "strings": [
            "Se",
            "踏み込み音"
          ],
          "isEmpty": 0,
          "isCommentOut": 0
        },
        {
          "rowIndex": 44,
          "strings": [
            "",
            "ブランサマー",
            "通常",
            "キャラ右",
            "-350",
            "",
            "1",
            "Add"
          ],
          "isEmpty": 0,
          "isCommentOut": 0
        },
        {
          "rowIndex": 45,
          "strings": [
            "Tween",
            "ブランサマー",
            "MoveFrom",
            "x=-250 y=0 islocal=true time=1",
            "easeOutQuad",
            "",
            "",
            "Add",
            "",
            "",
            "",
            ""
          ],
          "isEmpty": 0,
          "isCommentOut": 0
        },
        {
          "rowIndex": 46,
          "strings": [
            "Wait",
            "",
            "",
            "",
            "",
            "",
            "1"
          ],
          "isEmpty": 0,
          "isCommentOut": 0
        },
        {
          "rowIndex": 47,
          "strings": [
            "",
            "ブランサマー",
            "通常",
            "",
            "",
            "",
            ".2",
            "",
            "待たせたわね。",
            "Next"
          ],
          "isEmpty": 0,
          "isCommentOut": 0
        },
        {
          "rowIndex": 48,
          "strings": [
            "Wait",
            "",
            "",
            "",
            "",
            "",
            ".3"
          ],
          "isEmpty": 0,
          "isCommentOut": 0
        },
        {
          "rowIndex": 49,
          "strings": [
            "",
            "ブランサマー",
            "真剣",
            "",
            "",
            "",
            ".2",
            "",
            "……ほら、あなたも\nわたしの後ろに隠れてないで出てきなさいよ"
          ],
          "isEmpty": 0,
          "isCommentOut": 0
        },
        {
          "rowIndex": 50,
          "strings": [
            "",
            "ネプギアサマー",
            "照れ",
            "キャラ中央",
            "0",
            "",
            ".8",
            "Add"
          ],
          "isEmpty": 0,
          "isCommentOut": 0
        },
        {
          "rowIndex": 51,
          "strings": [
            "Tween",
            "ネプギアサマー",
            "MoveAdd",
            "x=100 y=0 time=.8",
            "easeOutQuad",
            "",
            "",
            "Add",
            "",
            "",
            "",
            ""
          ],
          "isEmpty": 0,
          "isCommentOut": 0
        },
        {
          "rowIndex": 52,
          "strings": [
            "Wait",
            "",
            "",
            "",
            "",
            "",
            ".2"
          ],
          "isEmpty": 0,
          "isCommentOut": 0
        },
        {
          "rowIndex": 53,
          "strings": [
            "Tween",
            "ネプギアサマー",
            "MoveAdd",
            "x=100 y=0 time=.8",
            "easeOutQuad",
            "",
            "",
            "Add",
            "",
            "",
            "",
            ""
          ],
          "isEmpty": 0,
          "isCommentOut": 0
        },
        {
          "rowIndex": 54,
          "strings": [
            "Wait",
            "",
            "",
            "",
            "",
            "",
            "1"
          ],
          "isEmpty": 0,
          "isCommentOut": 0
        },
        {
          "rowIndex": 55,
          "strings": [
            "Se",
            "踏み込み音"
          ],
          "isEmpty": 0,
          "isCommentOut": 0
        },
        {
          "rowIndex": 56,
          "strings": [
            "Tween",
            "ネプギアサマー",
            "MoveAdd",
            "x=150 y=0 time=1",
            "easeOutQuad",
            "",
            "",
            "Add",
            "",
            "",
            "",
            ""
          ],
          "isEmpty": 0,
          "isCommentOut": 0
        },
        {
          "rowIndex": 57,
          "strings": [
            "Wait",
            "",
            "",
            "",
            "",
            "",
            "1.5"
          ],
          "isEmpty": 0,
          "isCommentOut": 0
        },
        {
          "rowIndex": 58,
          "strings": [
            "CharacterOff"
          ],
          "isEmpty": 0,
          "isCommentOut": 0
        },
        {
          "rowIndex": 59,
          "strings": [
            "",
            "ネプギアサマー",
            "照れ",
            "",
            "",
            "",
            ".2",
            "",
            "ど、どうも……。",
            "Br"
          ],
          "isEmpty": 0,
          "isCommentOut": 0
        },
        {
          "rowIndex": 60,
          "strings": [
            "Wait",
            "",
            "",
            "",
            "",
            "",
            ".3"
          ],
          "isEmpty": 0,
          "isCommentOut": 0
        },
        {
          "rowIndex": 61,
          "strings": [
            "",
            "ネプギアサマー",
            "笑い",
            "",
            "",
            "",
            ".2",
            "",
            "今日はよろしくお願いします",
            "Input"
          ],
          "isEmpty": 0,
          "isCommentOut": 0
        },
        {
          "rowIndex": 62,
          "strings": [
            "Selection",
            "*201901-04",
            "",
            "",
            "",
            "0",
            "350",
            "",
            "「可愛い水着だね」"
          ],
          "isEmpty": 0,
          "isCommentOut": 0
        },
        {
          "rowIndex": 63,
          "strings": [
            "Selection",
            "*201901-04",
            "",
            "",
            "",
            "0",
            "200",
            "",
            "「大人っぽい水着姿だね」"
          ],
          "isEmpty": 0,
          "isCommentOut": 0
        },
        {
          "rowIndex": 64,
          "strings": [
            "*201901-04"
          ],
          "isEmpty": 0,
          "isCommentOut": 0
        },
        {
          "rowIndex": 65,
          "strings": [
            "",
            "ネプギアサマー",
            "照れ",
            "",
            "",
            "",
            ".2",
            "",
            "あ、ありがとうございます。\n恥ずかしいけど、嬉しいです"
          ],
          "isEmpty": 0,
          "isCommentOut": 0
        },
        {
          "rowIndex": 66,
          "strings": [
            "",
            "ネプギアサマー",
            "照れ",
            "",
            "",
            "",
            ".2",
            "",
            "この水着、お姉ちゃんと一緒に\n選んだので……",
            "Next"
          ],
          "isEmpty": 0,
          "isCommentOut": 0
        },
        {
          "rowIndex": 67,
          "strings": [
            "Wait",
            "",
            "",
            "",
            "",
            "",
            ".3"
          ],
          "isEmpty": 0,
          "isCommentOut": 0
        },
        {
          "rowIndex": 68,
          "strings": [
            "Tween",
            "ネプギアサマー",
            "ShakePosition",
            "x=10 islocal=true time=.3",
            "",
            "",
            "",
            "Add",
            "",
            "",
            "",
            ""
          ],
          "isEmpty": 0,
          "isCommentOut": 0
        },
        {
          "rowIndex": 69,
          "strings": [
            "",
            "ネプギアサマー",
            "照れ",
            "",
            "",
            "",
            ".2",
            "",
            "えへへっ"
          ],
          "isEmpty": 0,
          "isCommentOut": 0
        },
        {
          "rowIndex": 70,
          "strings": [
            "",
            "ネプギアサマー",
            "通常",
            "",
            "",
            "",
            ".2",
            "",
            "……あれ？\nそういえば、うずめさんは？"
          ],
          "isEmpty": 0,
          "isCommentOut": 0
        },
        {
          "rowIndex": 71,
          "strings": [
            "CharacterOff"
          ],
          "isEmpty": 0,
          "isCommentOut": 0
        },
        {
          "rowIndex": 72,
          "strings": [
            "",
            "ネプテューヌサマー",
            "悲しみ",
            "キャラ左"
          ],
          "isEmpty": 0,
          "isCommentOut": 0
        },
        {
          "rowIndex": 73,
          "strings": [
            "",
            "クロワールサマー",
            "悲しみ",
            "キャラ右"
          ],
          "isEmpty": 0,
          "isCommentOut": 0
        },
        {
          "rowIndex": 74,
          "strings": [
            "",
            "ネプテューヌサマー",
            "悲しみ",
            "",
            "",
            "",
            ".2",
            "",
            "ああ……"
          ],
          "isEmpty": 0,
          "isCommentOut": 0
        },
        {
          "rowIndex": 75,
          "strings": [
            "",
            "クロワールサマー",
            "悲しみ",
            "",
            "",
            "",
            ".2",
            "",
            "それを聞いちまうか……"
          ],
          "isEmpty": 0,
          "isCommentOut": 0
        },
        {
          "rowIndex": 76,
          "strings": [
            "CharacterOff"
          ],
          "isEmpty": 0,
          "isCommentOut": 0
        },
        {
          "rowIndex": 77,
          "strings": [
            "",
            "ネプギアサマー",
            "通常"
          ],
          "isEmpty": 0,
          "isCommentOut": 0
        },
        {
          "rowIndex": 78,
          "strings": [
            "Tween",
            "ネプギアサマー",
            "ScaleTo",
            "x=1.3 y=1.3 time=0.5",
            "",
            "",
            "",
            "Add"
          ],
          "isEmpty": 0,
          "isCommentOut": 0
        },
        {
          "rowIndex": 79,
          "strings": [
            "",
            "ネプギアサマー",
            "悲しみ",
            "",
            "",
            "",
            ".2",
            "",
            "え？　え？　どうしたんですか？",
            "Input"
          ],
          "isEmpty": 0,
          "isCommentOut": 0
        },
        {
          "rowIndex": 80,
          "strings": [
            "Selection",
            "*201901-05",
            "",
            "",
            "",
            "0",
            "300",
            "",
            "「悲しい事件だったね……」"
          ],
          "isEmpty": 0,
          "isCommentOut": 0
        },
        {
          "rowIndex": 81,
          "strings": [
            "*201901-05"
          ],
          "isEmpty": 0,
          "isCommentOut": 0
        },
        {
          "rowIndex": 82,
          "strings": [
            "",
            "ブランサマー",
            "悲しみ",
            "",
            "",
            "",
            ".2",
            "",
            "まさか、今年も熱を出したの？"
          ],
          "isEmpty": 0,
          "isCommentOut": 0
        },
        {
          "rowIndex": 83,
          "strings": [
            "",
            "ネプテューヌサマー",
            "悲しみ",
            "",
            "",
            "",
            ".2",
            "",
            "ううん、今回はアイスの食べ過ぎでお腹を壊して……"
          ],
          "isEmpty": 0,
          "isCommentOut": 0
        },
        {
          "rowIndex": 84,
          "strings": [
            "",
            "ネプテューヌサマー",
            "笑い",
            "",
            "",
            "",
            ".2",
            "",
            "……っていうのは、冗談！",
            "Br"
          ],
          "isEmpty": 0,
          "isCommentOut": 0
        },
        {
          "rowIndex": 85,
          "strings": [
            "Wait",
            "",
            "",
            "",
            "",
            "",
            ".3"
          ],
          "isEmpty": 0,
          "isCommentOut": 0
        },
        {
          "rowIndex": 86,
          "strings": [
            "",
            "ネプテューヌサマー",
            "通常",
            "",
            "",
            "",
            ".2",
            "",
            "悩みに悩んで『ねぷきゃん』の方に行ったよ！"
          ],
          "isEmpty": 0,
          "isCommentOut": 0
        },
        {
          "rowIndex": 87,
          "strings": [
            "",
            "ロム",
            "<Character=ラム・ロムサマー>通常",
            "",
            "",
            "",
            ".2",
            "",
            "ねぷきゃん？"
          ],
          "isEmpty": 0,
          "isCommentOut": 0
        },
        {
          "rowIndex": 88,
          "strings": [
            "",
            "ネプテューヌサマー",
            "笑い"
          ],
          "isEmpty": 0,
          "isCommentOut": 0
        },
        {
          "rowIndex": 89,
          "strings": [
            "Tween",
            "ネプテューヌサマー",
            "MoveTo",
            "x=0 y=-15 islocal=true time=.2",
            "easeOutCirc",
            "pingPong=2",
            "",
            "",
            "",
            "",
            "",
            ""
          ],
          "isEmpty": 0,
          "isCommentOut": 0
        },
        {
          "rowIndex": 90,
          "strings": [
            "",
            "ネプテューヌサマー",
            "真剣",
            "",
            "",
            "",
            ".2",
            "",
            "そうっ。小さいわたしが考えた『山キャンプ企画』",
            "Br"
          ],
          "isEmpty": 0,
          "isCommentOut": 0
        },
        {
          "rowIndex": 91,
          "strings": [
            "Wait",
            "",
            "",
            "",
            "",
            "",
            ".3"
          ],
          "isEmpty": 0,
          "isCommentOut": 0
        },
        {
          "rowIndex": 92,
          "strings": [
            "",
            "ネプテューヌサマー",
            "笑い",
            "",
            "",
            "",
            ".2",
            "",
            "略して、ねぷきゃん！"
          ],
          "isEmpty": 0,
          "isCommentOut": 0
        },
        {
          "rowIndex": 93,
          "strings": [
            "",
            "クロワールサマー",
            "通常",
            "",
            "",
            "",
            ".2",
            "",
            "ぜんぜん略されてねぇけどな"
          ],
          "isEmpty": 0,
          "isCommentOut": 0
        },
        {
          "rowIndex": 94,
          "strings": [
            "",
            "ラム",
            "<Character=ラム・ロムサマー>通常",
            "",
            "",
            "",
            ".2",
            "",
            "そういえばうちにも回覧板が来てたね"
          ],
          "isEmpty": 0,
          "isCommentOut": 0
        },
        {
          "rowIndex": 95,
          "strings": [
            "",
            "ロム",
            "<Character=ラム・ロムサマー>通常",
            "",
            "",
            "",
            ".2",
            "",
            "うん。わたしがお返事書いたよ……"
          ],
          "isEmpty": 0,
          "isCommentOut": 0
        },
        {
          "rowIndex": 96,
          "strings": [
            "",
            "ブランサマー",
            "通常",
            "",
            "",
            "",
            ".2",
            "",
            "今どき、回覧板で連絡するのはどうなのよ"
          ],
          "isEmpty": 0,
          "isCommentOut": 0
        },
        {
          "rowIndex": 97,
          "strings": [
            "",
            "ネプテューヌサマー",
            "笑い"
          ],
          "isEmpty": 0,
          "isCommentOut": 0
        },
        {
          "rowIndex": 98,
          "strings": [
            "",
            "ネプテューヌサマー",
            "通常",
            "",
            "",
            "",
            ".2",
            "",
            "ほんとはそれぞれ別の日にやりたかったんだけどねー。",
            "Br"
          ],
          "isEmpty": 0,
          "isCommentOut": 0
        },
        {
          "rowIndex": 99,
          "strings": [
            "Wait",
            "",
            "",
            "",
            "",
            "",
            ".3"
          ],
          "isEmpty": 0,
          "isCommentOut": 0
        },
        {
          "rowIndex": 100,
          "strings": [
            "",
            "ネプテューヌサマー",
            "悲しみ",
            "",
            "",
            "",
            ".2",
            "",
            "どーしてもみんなのお休みが合わなくて"
          ],
          "isEmpty": 0,
          "isCommentOut": 0
        },
        {
          "rowIndex": 101,
          "strings": [
            "",
            "クロワールサマー",
            "通常",
            "",
            "",
            "",
            ".2",
            "",
            "つーか、ネプギアはあっちに行かなくて良かったのか？\n大好きなねえちゃんがいるのに"
          ],
          "isEmpty": 0,
          "isCommentOut": 0
        },
        {
          "rowIndex": 102,
          "strings": [
            "CharacterOff"
          ],
          "isEmpty": 0,
          "isCommentOut": 0
        },
        {
          "rowIndex": 103,
          "strings": [
            "",
            "ネプギアサマー",
            "悲しみ",
            "キャラ右"
          ],
          "isEmpty": 0,
          "isCommentOut": 0
        },
        {
          "rowIndex": 104,
          "strings": [
            "",
            "ブランサマー",
            "通常",
            "キャラ左"
          ],
          "isEmpty": 0,
          "isCommentOut": 0
        },
        {
          "rowIndex": 105,
          "strings": [
            "",
            "ネプギアサマー",
            "悲しみ",
            "",
            "",
            "",
            ".2",
            "",
            "ええと、それは……"
          ],
          "isEmpty": 0,
          "isCommentOut": 0
        },
        {
          "rowIndex": 106,
          "strings": [
            "",
            "ブランサマー",
            "悲しみ",
            "",
            "",
            "",
            ".2",
            "",
            "ネプテューヌが準備から何からぜんぶネプギアに\n押しつようとしてたからノワールが怒ったのよ"
          ],
          "isEmpty": 0,
          "isCommentOut": 0
        },
        {
          "rowIndex": 107,
          "strings": [
            "",
            "ブランサマー",
            "通常",
            "",
            "",
            "",
            ".2",
            "",
            "ネプギアに頼らず自分でやれって"
          ],
          "isEmpty": 0,
          "isCommentOut": 0
        },
        {
          "rowIndex": 108,
          "strings": [
            "",
            "ネプギアサマー",
            "通常",
            "",
            "",
            "",
            ".2",
            "",
            "私も、海にも山にも行きたかったんですけど。",
            "Br"
          ],
          "isEmpty": 0,
          "isCommentOut": 0
        },
        {
          "rowIndex": 109,
          "strings": [
            "Wait",
            "",
            "",
            "",
            "",
            "",
            ".3"
          ],
          "isEmpty": 0,
          "isCommentOut": 0
        },
        {
          "rowIndex": 110,
          "strings": [
            "",
            "ネプギアサマー",
            "笑い",
            "",
            "",
            "",
            ".2",
            "",
            "今回はロムちゃんラムちゃんにも誘われたので"
          ],
          "isEmpty": 0,
          "isCommentOut": 0
        },
        {
          "rowIndex": 111,
          "strings": [
            "CharacterOff"
          ],
          "isEmpty": 0,
          "isCommentOut": 0
        },
        {
          "rowIndex": 112,
          "strings": [
            "",
            "クロワールサマー",
            "通常",
            "キャラ右"
          ],
          "isEmpty": 0,
          "isCommentOut": 0
        },
        {
          "rowIndex": 113,
          "strings": [
            "",
            "ネプテューヌサマー",
            "通常",
            "キャラ左"
          ],
          "isEmpty": 0,
          "isCommentOut": 0
        },
        {
          "rowIndex": 114,
          "strings": [
            "",
            "クロワールサマー",
            "通常",
            "",
            "",
            "",
            ".2",
            "",
            "山の方に行った連中、苦労してそうだな"
          ],
          "isEmpty": 0,
          "isCommentOut": 0
        },
        {
          "rowIndex": 115,
          "strings": [
            "",
            "ネプテューヌサマー",
            "笑い",
            "",
            "",
            "",
            ".2",
            "",
            "あっちもきっと楽しくやってるって！\nわたしたちも、思いっきりバカンスを楽しもう！！"
          ],
          "isEmpty": 0,
          "isCommentOut": 0
        },
        {
          "rowIndex": 116,
          "strings": [
            "CharacterOff"
          ],
          "isEmpty": 0,
          "isCommentOut": 0
        },
        {
          "rowIndex": 117,
          "strings": [
            "",
            "ネプギアサマー",
            "通常"
          ],
          "isEmpty": 0,
          "isCommentOut": 0
        },
        {
          "rowIndex": 118,
          "strings": [
            "Tween",
            "ネプギアサマー",
            "MoveTo",
            "x=0 y=-15 islocal=true time=.2",
            "easeOutCirc",
            "pingPong=2",
            "",
            "Add",
            "",
            "",
            "",
            ""
          ],
          "isEmpty": 0,
          "isCommentOut": 0
        },
        {
          "rowIndex": 119,
          "strings": [
            "",
            "ネプギアサマー",
            "笑い",
            "",
            "",
            "",
            ".2",
            "",
            "はいっ♪"
          ],
          "isEmpty": 0,
          "isCommentOut": 0
        },
        {
          "rowIndex": 120,
          "strings": [
            "FadeOut",
            "black",
            "",
            "",
            "",
            "",
            "1",
            "",
            "",
            "",
            "",
            ""
          ],
          "isEmpty": 0,
          "isCommentOut": 0
        },
        {
          "rowIndex": 121,
          "strings": [
            "Wait",
            "",
            "",
            "",
            "",
            "",
            ".3",
            "",
            "",
            "",
            "",
            ""
          ],
          "isEmpty": 0,
          "isCommentOut": 0
        },
        {
          "rowIndex": 122,
          "strings": [
            "EndScenario"
          ],
          "isEmpty": 0,
          "isCommentOut": 0
        }
      ],
      "name": "Assets/Story/adv_201901.xls:201901",
      "type": 1,
      "textLength": 3002,
      "headerRow": 0,
      "entityIndexTbl": [],
      "entityDataList": []
    }
  ]
}