{
  "m_GameObject": {
    "m_FileID": 0,
    "m_PathID": 0
  },
  "m_Enabled": 1,
  "m_Script": {
    "m_FileID": 0,
    "m_PathID": -2767099076474933927
  },
  "m_Name": "dc_1010500_sd",
  "Version": 65537,
  "TableCellMap": [
    {
      "Name": "1010500_sd",
      "SizeOriginal": {
        "x": 2048.0,
        "y": 2048.0
      },
      "TableCell": [
        {
          "Name": "face_normal",
          "Rectangle": {
            "x": 4.0,
            "y": 654.0,
            "width": 250.0,
            "height": 250.0
          },
          "Pivot": {
            "x": 125.0,
            "y": 135.0
          },
          "Mesh": {
            "TableCoordinate": [],
            "TableIndexVertex": []
          }
        },
        {
          "Name": "face_eye_close_normal",
          "Rectangle": {
            "x": 1164.0,
            "y": 584.0,
            "width": 250.0,
            "height": 250.0
          },
          "Pivot": {
            "x": 125.0,
            "y": 135.0
          },
          "Mesh": {
            "TableCoordinate": [],
            "TableIndexVertex": []
          }
        },
        {
          "Name": "face_mouth_open_happy",
          "Rectangle": {
            "x": 1664.0,
            "y": 614.0,
            "width": 250.0,
            "height": 250.0
          },
          "Pivot": {
            "x": 125.0,
            "y": 135.0
          },
          "Mesh": {
            "TableCoordinate": [],
            "TableIndexVertex": []
          }
        },
        {
          "Name": "face_happy",
          "Rectangle": {
            "x": 1414.0,
            "y": 584.0,
            "width": 250.0,
            "height": 250.0
          },
          "Pivot": {
            "x": 125.0,
            "y": 135.0
          },
          "Mesh": {
            "TableCoordinate": [],
            "TableIndexVertex": []
          }
        },
        {
          "Name": "face_attack",
          "Rectangle": {
            "x": 134.0,
            "y": 404.0,
            "width": 250.0,
            "height": 250.0
          },
          "Pivot": {
            "x": 125.0,
            "y": 135.0
          },
          "Mesh": {
            "TableCoordinate": [],
            "TableIndexVertex": []
          }
        },
        {
          "Name": "face_damage",
          "Rectangle": {
            "x": 384.0,
            "y": 404.0,
            "width": 250.0,
            "height": 250.0
          },
          "Pivot": {
            "x": 125.0,
            "y": 135.0
          },
          "Mesh": {
            "TableCoordinate": [],
            "TableIndexVertex": []
          }
        },
        {
          "Name": "face_unique",
          "Rectangle": {
            "x": 254.0,
            "y": 654.0,
            "width": 250.0,
            "height": 250.0
          },
          "Pivot": {
            "x": 125.0,
            "y": 135.0
          },
          "Mesh": {
            "TableCoordinate": [],
            "TableIndexVertex": []
          }
        },
        {
          "Name": "acce_head_front_c",
          "Rectangle": {
            "x": 834.0,
            "y": 4.0,
            "width": 530.0,
            "height": 360.0
          },
          "Pivot": {
            "x": 265.0,
            "y": 180.0
          },
          "Mesh": {
            "TableCoordinate": [],
            "TableIndexVertex": []
          }
        },
        {
          "Name": "acce_head_front_l",
          "Rectangle": {
            "x": 1364.0,
            "y": 4.0,
            "width": 250.0,
            "height": 280.0
          },
          "Pivot": {
            "x": 99.0,
            "y": 126.0
          },
          "Mesh": {
            "TableCoordinate": [],
            "TableIndexVertex": []
          }
        },
        {
          "Name": "acce_head_front_r",
          "Rectangle": {
            "x": 1614.0,
            "y": 4.0,
            "width": 250.0,
            "height": 280.0
          },
          "Pivot": {
            "x": 126.0,
            "y": 124.0
          },
          "Mesh": {
            "TableCoordinate": [],
            "TableIndexVertex": []
          }
        },
        {
          "Name": "hear_front_c",
          "Rectangle": {
            "x": 4.0,
            "y": 904.0,
            "width": 430.0,
            "height": 320.0
          },
          "Pivot": {
            "x": 213.0,
            "y": 63.0
          },
          "Mesh": {
            "TableCoordinate": [
              {
                "x": 62.0,
                "y": 215.0
              },
              {
                "x": 26.0,
                "y": 213.0
              },
              {
                "x": 26.0,
                "y": 199.0
              },
              {
                "x": 62.0,
                "y": 177.0
              },
              {
                "x": 103.0,
                "y": 208.0
              },
              {
                "x": 84.0,
                "y": 230.0
              },
              {
                "x": 69.0,
                "y": 249.0
              },
              {
                "x": 84.0,
                "y": 249.0
              },
              {
                "x": 125.0,
                "y": 164.0
              },
              {
                "x": 180.0,
                "y": 190.0
              },
              {
                "x": 121.0,
                "y": 234.0
              },
              {
                "x": 151.0,
                "y": 239.0
              },
              {
                "x": 139.0,
                "y": 263.0
              },
              {
                "x": 154.0,
                "y": 263.0
              },
              {
                "x": 203.0,
                "y": 220.0
              },
              {
                "x": 200.0,
                "y": 244.0
              },
              {
                "x": 108.0,
                "y": 234.0
              },
              {
                "x": 186.0,
                "y": 165.0
              },
              {
                "x": 130.0,
                "y": 116.0
              },
              {
                "x": 86.0,
                "y": 120.0
              },
              {
                "x": 120.0,
                "y": 65.0
              },
              {
                "x": 154.0,
                "y": 89.0
              },
              {
                "x": 200.0,
                "y": 118.0
              },
              {
                "x": 221.0,
                "y": 163.0
              },
              {
                "x": 206.0,
                "y": 208.0
              },
              {
                "x": 220.0,
                "y": 208.0
              },
              {
                "x": 266.0,
                "y": 131.0
              },
              {
                "x": 278.0,
                "y": 177.0
              },
              {
                "x": 245.0,
                "y": 206.0
              },
              {
                "x": 270.0,
                "y": 204.0
              },
              {
                "x": 314.0,
                "y": 164.0
              },
              {
                "x": 285.0,
                "y": 204.0
              },
              {
                "x": 328.0,
                "y": 205.0
              },
              {
                "x": 321.0,
                "y": 221.0
              },
              {
                "x": 276.0,
                "y": 229.0
              },
              {
                "x": 360.0,
                "y": 191.0
              },
              {
                "x": 350.0,
                "y": 243.0
              },
              {
                "x": 336.0,
                "y": 244.0
              },
              {
                "x": 375.0,
                "y": 164.0
              },
              {
                "x": 399.0,
                "y": 180.0
              },
              {
                "x": 399.0,
                "y": 193.0
              },
              {
                "x": 338.0,
                "y": 110.0
              },
              {
                "x": 305.0,
                "y": 114.0
              },
              {
                "x": 257.0,
                "y": 83.0
              },
              {
                "x": 221.0,
                "y": 74.0
              },
              {
                "x": 179.0,
                "y": 77.0
              },
              {
                "x": 157.0,
                "y": 38.0
              },
              {
                "x": 194.0,
                "y": 28.0
              },
              {
                "x": 250.0,
                "y": 31.0
              },
              {
                "x": 300.0,
                "y": 55.0
              }
            ],
            "TableIndexVertex": [
              0,
              1,
              2,
              0,
              2,
              3,
              0,
              3,
              4,
              5,
              0,
              4,
              6,
              0,
              5,
              6,
              5,
              7,
              4,
              3,
              8,
              9,
              4,
              8,
              9,
              10,
              4,
              11,
              10,
              9,
              12,
              10,
              11,
              12,
              11,
              13,
              11,
              9,
              14,
              15,
              11,
              14,
              4,
              10,
              16,
              9,
              8,
              17,
              8,
              18,
              17,
              8,
              19,
              18,
              3,
              19,
              8,
              19,
              20,
              18,
              18,
              20,
              21,
              22,
              18,
              21,
              17,
              18,
              22,
              17,
              22,
              23,
              17,
              23,
              24,
              23,
              25,
              24,
              23,
              22,
              26,
              23,
              26,
              27,
              27,
              28,
              23,
              29,
              28,
              27,
              27,
              26,
              30,
              31,
              27,
              30,
              31,
              30,
              32,
              33,
              31,
              32,
              34,
              31,
              33,
              32,
              30,
              35,
              36,
              32,
              35,
              36,
              37,
              32,
              35,
              30,
              38,
              35,
              38,
              39,
              35,
              39,
              40,
              30,
              41,
              38,
              30,
              42,
              41,
              26,
              42,
              30,
              26,
              43,
              42,
              26,
              22,
              43,
              22,
              44,
              43,
              22,
              45,
              44,
              21,
              45,
              22,
              45,
              21,
              46,
              45,
              46,
              47,
              45,
              47,
              44,
              44,
              47,
              48,
              44,
              48,
              43,
              43,
              48,
              49,
              43,
              49,
              42,
              42,
              49,
              41,
              21,
              20,
              46
            ]
          }
        },
        {
          "Name": "hear_front_r",
          "Rectangle": {
            "x": 1800.0,
            "y": 864.0,
            "width": 200.0,
            "height": 380.0
          },
          "Pivot": {
            "x": 139.0,
            "y": 100.000038
          },
          "Mesh": {
            "TableCoordinate": [
              {
                "x": 104.0,
                "y": 192.0
              },
              {
                "x": 97.0,
                "y": 143.0
              },
              {
                "x": 112.0,
                "y": 158.0
              },
              {
                "x": 129.0,
                "y": 170.0
              },
              {
                "x": 128.0,
                "y": 199.0
              },
              {
                "x": 121.0,
                "y": 227.0
              },
              {
                "x": 132.0,
                "y": 227.0
              },
              {
                "x": 157.0,
                "y": 224.0
              },
              {
                "x": 149.0,
                "y": 240.0
              },
              {
                "x": 161.0,
                "y": 239.0
              },
              {
                "x": 166.0,
                "y": 213.0
              },
              {
                "x": 166.0,
                "y": 223.0
              },
              {
                "x": 148.0,
                "y": 179.0
              },
              {
                "x": 136.0,
                "y": 140.0
              },
              {
                "x": 123.0,
                "y": 101.0
              },
              {
                "x": 98.0,
                "y": 102.0
              },
              {
                "x": 118.0,
                "y": 95.0
              },
              {
                "x": 103.0,
                "y": 95.0
              }
            ],
            "TableIndexVertex": [
              0,
              1,
              2,
              0,
              2,
              3,
              4,
              0,
              3,
              5,
              0,
              4,
              6,
              5,
              4,
              7,
              6,
              4,
              8,
              6,
              7,
              8,
              7,
              9,
              7,
              4,
              10,
              11,
              7,
              10,
              4,
              12,
              10,
              4,
              3,
              12,
              3,
              13,
              12,
              3,
              2,
              13,
              2,
              1,
              13,
              1,
              14,
              13,
              15,
              14,
              1,
              16,
              14,
              15,
              15,
              17,
              16
            ]
          }
        },
        {
          "Name": "head",
          "Rectangle": {
            "x": 730.0,
            "y": 694.0,
            "width": 290.0,
            "height": 250.0
          },
          "Pivot": {
            "x": 163.000015,
            "y": 225.0
          },
          "Mesh": {
            "TableCoordinate": [],
            "TableIndexVertex": []
          }
        },
        {
          "Name": "hear_front_l",
          "Rectangle": {
            "x": 504.0,
            "y": 840.0,
            "width": 200.0,
            "height": 380.0
          },
          "Pivot": {
            "x": 81.0,
            "y": 93.00006
          },
          "Mesh": {
            "TableCoordinate": [
              {
                "x": 46.0,
                "y": 237.0
              },
              {
                "x": 35.0,
                "y": 237.0
              },
              {
                "x": 35.0,
                "y": 228.0
              },
              {
                "x": 46.0,
                "y": 215.0
              },
              {
                "x": 58.0,
                "y": 227.0
              },
              {
                "x": 85.0,
                "y": 185.0
              },
              {
                "x": 55.0,
                "y": 180.0
              },
              {
                "x": 67.0,
                "y": 143.0
              },
              {
                "x": 92.0,
                "y": 142.0
              },
              {
                "x": 105.0,
                "y": 167.0
              },
              {
                "x": 106.0,
                "y": 117.0
              },
              {
                "x": 76.0,
                "y": 106.0
              },
              {
                "x": 85.0,
                "y": 95.0
              },
              {
                "x": 104.0,
                "y": 99.0
              },
              {
                "x": 96.0,
                "y": 208.0
              },
              {
                "x": 76.0,
                "y": 229.0
              },
              {
                "x": 88.0,
                "y": 226.0
              },
              {
                "x": 65.0,
                "y": 236.0
              },
              {
                "x": 75.0,
                "y": 236.0
              },
              {
                "x": 37.0,
                "y": 204.0
              },
              {
                "x": 37.0,
                "y": 214.0
              }
            ],
            "TableIndexVertex": [
              0,
              1,
              2,
              0,
              2,
              3,
              3,
              4,
              0,
              3,
              5,
              4,
              6,
              5,
              3,
              7,
              5,
              6,
              8,
              5,
              7,
              8,
              9,
              5,
              9,
              8,
              10,
              8,
              11,
              10,
              7,
              11,
              8,
              11,
              12,
              10,
              12,
              13,
              10,
              14,
              5,
              9,
              5,
              14,
              4,
              14,
              15,
              4,
              16,
              15,
              14,
              17,
              4,
              15,
              18,
              17,
              15,
              6,
              3,
              19,
              20,
              19,
              3
            ]
          }
        },
        {
          "Name": "acce_body_front",
          "Rectangle": {
            "x": 4.0,
            "y": 4.0,
            "width": 250.0,
            "height": 275.0
          },
          "Pivot": {
            "x": 125.0,
            "y": 101.999977
          },
          "Mesh": {
            "TableCoordinate": [],
            "TableIndexVertex": []
          }
        },
        {
          "Name": "hand_r",
          "Rectangle": {
            "x": 504.0,
            "y": 660.0,
            "width": 225.0,
            "height": 180.0
          },
          "Pivot": {
            "x": 81.9999,
            "y": 61.00002
          },
          "Mesh": {
            "TableCoordinate": [],
            "TableIndexVertex": []
          }
        },
        {
          "Name": "arm_r",
          "Rectangle": {
            "x": 4.0,
            "y": 280.0,
            "width": 130.0,
            "height": 180.0
          },
          "Pivot": {
            "x": 78.99996,
            "y": 64.00008
          },
          "Mesh": {
            "TableCoordinate": [],
            "TableIndexVertex": []
          }
        },
        {
          "Name": "body",
          "Rectangle": {
            "x": 1164.0,
            "y": 364.0,
            "width": 180.0,
            "height": 220.0
          },
          "Pivot": {
            "x": 93.99996,
            "y": 151.000076
          },
          "Mesh": {
            "TableCoordinate": [],
            "TableIndexVertex": []
          }
        },
        {
          "Name": "acce_hip_front",
          "Rectangle": {
            "x": 1664.0,
            "y": 284.0,
            "width": 330.0,
            "height": 330.0
          },
          "Pivot": {
            "x": 167.000137,
            "y": 141.000092
          },
          "Mesh": {
            "TableCoordinate": [],
            "TableIndexVertex": []
          }
        },
        {
          "Name": "thigh_r",
          "Rectangle": {
            "x": 864.0,
            "y": 1124.0,
            "width": 130.0,
            "height": 180.0
          },
          "Pivot": {
            "x": 61.00003,
            "y": 68.00004
          },
          "Mesh": {
            "TableCoordinate": [],
            "TableIndexVertex": []
          }
        },
        {
          "Name": "leg_r",
          "Rectangle": {
            "x": 1914.0,
            "y": 614.0,
            "width": 130.0,
            "height": 180.0
          },
          "Pivot": {
            "x": 78.0,
            "y": 54.0
          },
          "Mesh": {
            "TableCoordinate": [],
            "TableIndexVertex": []
          }
        },
        {
          "Name": "hip",
          "Rectangle": {
            "x": 704.0,
            "y": 944.0,
            "width": 180.0,
            "height": 180.0
          },
          "Pivot": {
            "x": 95.00004,
            "y": 109.000076
          },
          "Mesh": {
            "TableCoordinate": [],
            "TableIndexVertex": []
          }
        },
        {
          "Name": "thigh_l",
          "Rectangle": {
            "x": 884.0,
            "y": 944.0,
            "width": 130.0,
            "height": 180.0
          },
          "Pivot": {
            "x": 61.99999,
            "y": 68.00004
          },
          "Mesh": {
            "TableCoordinate": [],
            "TableIndexVertex": []
          }
        },
        {
          "Name": "leg_l",
          "Rectangle": {
            "x": 4.0,
            "y": 460.0,
            "width": 130.0,
            "height": 180.0
          },
          "Pivot": {
            "x": 71.99998,
            "y": 55.00008
          },
          "Mesh": {
            "TableCoordinate": [],
            "TableIndexVertex": []
          }
        },
        {
          "Name": "weapon_b",
          "Rectangle": {
            "x": 1294.0,
            "y": 1384.0,
            "width": 250.0,
            "height": 500.0
          },
          "Pivot": {
            "x": 130.0,
            "y": 368.0
          },
          "Mesh": {
            "TableCoordinate": [],
            "TableIndexVertex": []
          }
        },
        {
          "Name": "hand_l",
          "Rectangle": {
            "x": 634.0,
            "y": 404.0,
            "width": 180.0,
            "height": 255.0
          },
          "Pivot": {
            "x": 99.0,
            "y": 59.00012
          },
          "Mesh": {
            "TableCoordinate": [],
            "TableIndexVertex": []
          }
        },
        {
          "Name": "arm_l",
          "Rectangle": {
            "x": 1864.0,
            "y": 4.0,
            "width": 130.0,
            "height": 180.0
          },
          "Pivot": {
            "x": 49.99995,
            "y": 63.0
          },
          "Mesh": {
            "TableCoordinate": [],
            "TableIndexVertex": []
          }
        },
        {
          "Name": "hear_back_c",
          "Rectangle": {
            "x": 1020.0,
            "y": 834.0,
            "width": 260.0,
            "height": 520.0
          },
          "Pivot": {
            "x": 119.999878,
            "y": 80.99988
          },
          "Mesh": {
            "TableCoordinate": [
              {
                "x": 21.0,
                "y": 441.0
              },
              {
                "x": 16.0,
                "y": 407.0
              },
              {
                "x": 113.0,
                "y": 407.0
              },
              {
                "x": 109.0,
                "y": 466.0
              },
              {
                "x": 179.0,
                "y": 451.0
              },
              {
                "x": 199.0,
                "y": 407.0
              },
              {
                "x": 114.0,
                "y": 369.0
              },
              {
                "x": 21.0,
                "y": 366.0
              },
              {
                "x": 28.0,
                "y": 330.0
              },
              {
                "x": 119.0,
                "y": 328.0
              },
              {
                "x": 203.0,
                "y": 370.0
              },
              {
                "x": 204.0,
                "y": 328.0
              },
              {
                "x": 199.0,
                "y": 289.0
              },
              {
                "x": 119.0,
                "y": 288.0
              },
              {
                "x": 38.0,
                "y": 287.0
              },
              {
                "x": 44.0,
                "y": 238.0
              },
              {
                "x": 120.0,
                "y": 244.0
              },
              {
                "x": 195.0,
                "y": 248.0
              },
              {
                "x": 195.0,
                "y": 208.0
              },
              {
                "x": 116.0,
                "y": 205.0
              },
              {
                "x": 47.0,
                "y": 203.0
              },
              {
                "x": 50.0,
                "y": 169.0
              },
              {
                "x": 119.0,
                "y": 167.0
              },
              {
                "x": 197.0,
                "y": 168.0
              },
              {
                "x": 123.0,
                "y": 132.0
              },
              {
                "x": 54.0,
                "y": 135.0
              },
              {
                "x": 58.0,
                "y": 98.0
              },
              {
                "x": 129.0,
                "y": 92.0
              },
              {
                "x": 197.0,
                "y": 134.0
              },
              {
                "x": 197.0,
                "y": 93.0
              },
              {
                "x": 197.0,
                "y": 64.0
              },
              {
                "x": 144.0,
                "y": 36.0
              },
              {
                "x": 80.0,
                "y": 51.0
              }
            ],
            "TableIndexVertex": [
              0,
              1,
              2,
              3,
              0,
              2,
              3,
              2,
              4,
              4,
              2,
              5,
              2,
              6,
              5,
              2,
              7,
              6,
              1,
              7,
              2,
              7,
              8,
              6,
              6,
              8,
              9,
              6,
              9,
              10,
              5,
              6,
              10,
              10,
              9,
              11,
              9,
              12,
              11,
              9,
              13,
              12,
              14,
              13,
              9,
              14,
              15,
              13,
              13,
              15,
              16,
              13,
              16,
              17,
              13,
              17,
              12,
              16,
              18,
              17,
              16,
              19,
              18,
              16,
              15,
              19,
              15,
              20,
              19,
              20,
              21,
              19,
              19,
              21,
              22,
              19,
              22,
              18,
              18,
              22,
              23,
              22,
              24,
              23,
              22,
              25,
              24,
              21,
              25,
              22,
              25,
              26,
              24,
              24,
              26,
              27,
              24,
              27,
              28,
              24,
              28,
              23,
              27,
              29,
              28,
              27,
              30,
              29,
              27,
              31,
              30,
              27,
              32,
              31,
              26,
              32,
              27,
              8,
              14,
              9
            ]
          }
        },
        {
          "Name": "hear_back_r",
          "Rectangle": {
            "x": 1540.0,
            "y": 864.0,
            "width": 260.0,
            "height": 520.0
          },
          "Pivot": {
            "x": 164.999908,
            "y": 81.99983
          },
          "Mesh": {
            "TableCoordinate": [
              {
                "x": 22.0,
                "y": 478.0
              },
              {
                "x": 53.0,
                "y": 521.0
              },
              {
                "x": 25.0,
                "y": 512.0
              },
              {
                "x": 73.0,
                "y": 471.0
              },
              {
                "x": 80.0,
                "y": 511.0
              },
              {
                "x": 81.0,
                "y": 521.0
              },
              {
                "x": 90.0,
                "y": 493.0
              },
              {
                "x": 90.0,
                "y": 505.0
              },
              {
                "x": 41.0,
                "y": 450.0
              },
              {
                "x": 89.0,
                "y": 434.0
              },
              {
                "x": 96.0,
                "y": 461.0
              },
              {
                "x": 63.0,
                "y": 419.0
              },
              {
                "x": 39.0,
                "y": 421.0
              },
              {
                "x": 71.0,
                "y": 404.0
              },
              {
                "x": 118.0,
                "y": 400.0
              },
              {
                "x": 72.0,
                "y": 377.0
              },
              {
                "x": 119.0,
                "y": 378.0
              },
              {
                "x": 83.0,
                "y": 364.0
              },
              {
                "x": 85.0,
                "y": 337.0
              },
              {
                "x": 96.0,
                "y": 326.0
              },
              {
                "x": 148.0,
                "y": 328.0
              },
              {
                "x": 146.0,
                "y": 306.0
              },
              {
                "x": 97.0,
                "y": 297.0
              },
              {
                "x": 121.0,
                "y": 248.0
              },
              {
                "x": 161.0,
                "y": 273.0
              },
              {
                "x": 161.0,
                "y": 290.0
              },
              {
                "x": 171.0,
                "y": 243.0
              },
              {
                "x": 207.0,
                "y": 253.0
              },
              {
                "x": 198.0,
                "y": 211.0
              },
              {
                "x": 156.0,
                "y": 217.0
              },
              {
                "x": 117.0,
                "y": 195.0
              },
              {
                "x": 156.0,
                "y": 182.0
              },
              {
                "x": 121.0,
                "y": 142.0
              },
              {
                "x": 134.0,
                "y": 125.0
              },
              {
                "x": 153.0,
                "y": 118.0
              },
              {
                "x": 186.0,
                "y": 152.0
              },
              {
                "x": 191.0,
                "y": 181.0
              },
              {
                "x": 234.0,
                "y": 175.0
              },
              {
                "x": 232.0,
                "y": 210.0
              },
              {
                "x": 220.0,
                "y": 143.0
              },
              {
                "x": 192.0,
                "y": 122.0
              }
            ],
            "TableIndexVertex": [
              0,
              1,
              2,
              3,
              1,
              0,
              4,
              1,
              3,
              1,
              4,
              5,
              4,
              3,
              6,
              7,
              4,
              6,
              3,
              0,
              8,
              9,
              3,
              8,
              10,
              3,
              9,
              8,
              11,
              9,
              8,
              12,
              11,
              11,
              13,
              9,
              9,
              13,
              14,
              13,
              15,
              14,
              14,
              15,
              16,
              16,
              15,
              17,
              17,
              18,
              16,
              18,
              19,
              16,
              16,
              19,
              20,
              19,
              21,
              20,
              19,
              22,
              21,
              21,
              22,
              23,
              21,
              23,
              24,
              24,
              25,
              21,
              24,
              23,
              26,
              24,
              26,
              27,
              26,
              28,
              27,
              26,
              29,
              28,
              23,
              29,
              26,
              23,
              30,
              29,
              30,
              31,
              29,
              30,
              32,
              31,
              32,
              33,
              31,
              33,
              34,
              31,
              31,
              34,
              35,
              31,
              35,
              36,
              29,
              31,
              36,
              29,
              36,
              28,
              37,
              28,
              36,
              38,
              28,
              37,
              27,
              28,
              38,
              36,
              39,
              37,
              36,
              35,
              39,
              35,
              40,
              39,
              35,
              34,
              40
            ]
          }
        },
        {
          "Name": "hear_back_l",
          "Rectangle": {
            "x": 1280.0,
            "y": 834.0,
            "width": 260.0,
            "height": 520.0
          },
          "Pivot": {
            "x": 71.99998,
            "y": 77.0000458
          },
          "Mesh": {
            "TableCoordinate": [
              {
                "x": 32.0,
                "y": 231.0
              },
              {
                "x": 22.0,
                "y": 207.0
              },
              {
                "x": 56.0,
                "y": 190.0
              },
              {
                "x": 81.0,
                "y": 235.0
              },
              {
                "x": 86.0,
                "y": 271.0
              },
              {
                "x": 124.0,
                "y": 245.0
              },
              {
                "x": 137.0,
                "y": 259.0
              },
              {
                "x": 139.0,
                "y": 284.0
              },
              {
                "x": 101.0,
                "y": 305.0
              },
              {
                "x": 150.0,
                "y": 296.0
              },
              {
                "x": 151.0,
                "y": 325.0
              },
              {
                "x": 99.0,
                "y": 327.0
              },
              {
                "x": 128.0,
                "y": 377.0
              },
              {
                "x": 162.0,
                "y": 336.0
              },
              {
                "x": 164.0,
                "y": 363.0
              },
              {
                "x": 175.0,
                "y": 376.0
              },
              {
                "x": 129.0,
                "y": 399.0
              },
              {
                "x": 176.0,
                "y": 403.0
              },
              {
                "x": 158.0,
                "y": 433.0
              },
              {
                "x": 184.0,
                "y": 418.0
              },
              {
                "x": 165.0,
                "y": 461.0
              },
              {
                "x": 206.0,
                "y": 449.0
              },
              {
                "x": 207.0,
                "y": 420.0
              },
              {
                "x": 173.0,
                "y": 471.0
              },
              {
                "x": 224.0,
                "y": 473.0
              },
              {
                "x": 172.0,
                "y": 481.0
              },
              {
                "x": 220.0,
                "y": 513.0
              },
              {
                "x": 166.0,
                "y": 521.0
              },
              {
                "x": 157.0,
                "y": 492.0
              },
              {
                "x": 151.0,
                "y": 460.0
              },
              {
                "x": 86.0,
                "y": 289.0
              },
              {
                "x": 125.0,
                "y": 205.0
              },
              {
                "x": 94.0,
                "y": 169.0
              },
              {
                "x": 52.0,
                "y": 131.0
              },
              {
                "x": 91.0,
                "y": 134.0
              },
              {
                "x": 121.0,
                "y": 164.0
              },
              {
                "x": 36.0,
                "y": 138.0
              },
              {
                "x": 22.0,
                "y": 158.0
              }
            ],
            "TableIndexVertex": [
              0,
              1,
              2,
              0,
              2,
              3,
              0,
              3,
              4,
              4,
              3,
              5,
              4,
              5,
              6,
              7,
              4,
              6,
              7,
              8,
              4,
              8,
              7,
              9,
              10,
              8,
              9,
              11,
              8,
              10,
              12,
              11,
              10,
              12,
              10,
              13,
              12,
              13,
              14,
              15,
              12,
              14,
              15,
              16,
              12,
              16,
              15,
              17,
              18,
              16,
              17,
              18,
              17,
              19,
              19,
              20,
              18,
              19,
              21,
              20,
              21,
              19,
              22,
              23,
              20,
              21,
              24,
              23,
              21,
              24,
              25,
              23,
              26,
              25,
              24,
              27,
              25,
              26,
              27,
              28,
              25,
              18,
              20,
              29,
              8,
              30,
              4,
              5,
              3,
              31,
              3,
              32,
              31,
              3,
              2,
              32,
              32,
              2,
              33,
              32,
              33,
              34,
              32,
              34,
              35,
              32,
              35,
              31,
              36,
              33,
              2,
              37,
              36,
              2,
              1,
              37,
              2
            ]
          }
        },
        {
          "Name": "weapon_r",
          "Rectangle": {
            "x": 1794.0,
            "y": 1384.0,
            "width": 250.0,
            "height": 400.0
          },
          "Pivot": {
            "x": 179.0,
            "y": 328.0
          },
          "Mesh": {
            "TableCoordinate": [],
            "TableIndexVertex": []
          }
        },
        {
          "Name": "weapon_r_1",
          "Rectangle": {
            "x": 1794.0,
            "y": 1384.0,
            "width": 250.0,
            "height": 400.0
          },
          "Pivot": {
            "x": 180.0,
            "y": 328.0
          },
          "Mesh": {
            "TableCoordinate": [],
            "TableIndexVertex": []
          }
        },
        {
          "Name": "weapon_l",
          "Rectangle": {
            "x": 1544.0,
            "y": 1384.0,
            "width": 250.0,
            "height": 400.0
          },
          "Pivot": {
            "x": 180.0,
            "y": 328.0
          },
          "Mesh": {
            "TableCoordinate": [],
            "TableIndexVertex": []
          }
        },
        {
          "Name": "rear_c",
          "Rectangle": {
            "x": 434.0,
            "y": 1220.0,
            "width": 430.0,
            "height": 430.0
          },
          "Pivot": {
            "x": 215.0,
            "y": 215.0
          },
          "Mesh": {
            "TableCoordinate": [],
            "TableIndexVertex": []
          }
        },
        {
          "Name": "rear_r",
          "Rectangle": {
            "x": 864.0,
            "y": 1354.0,
            "width": 430.0,
            "height": 430.0
          },
          "Pivot": {
            "x": 295.0,
            "y": 275.0
          },
          "Mesh": {
            "TableCoordinate": [],
            "TableIndexVertex": []
          }
        },
        {
          "Name": "rear_l",
          "Rectangle": {
            "x": 4.0,
            "y": 1224.0,
            "width": 430.0,
            "height": 430.0
          },
          "Pivot": {
            "x": 69.0,
            "y": 284.0
          },
          "Mesh": {
            "TableCoordinate": [],
            "TableIndexVertex": []
          }
        },
        {
          "Name": "acce_head_rear_c",
          "Rectangle": {
            "x": 1364.0,
            "y": 284.0,
            "width": 300.0,
            "height": 300.0
          },
          "Pivot": {
            "x": 150.0,
            "y": 150.0
          },
          "Mesh": {
            "TableCoordinate": [],
            "TableIndexVertex": []
          }
        },
        {
          "Name": "acce_body_rear",
          "Rectangle": {
            "x": 254.0,
            "y": 4.0,
            "width": 580.0,
            "height": 400.0
          },
          "Pivot": {
            "x": 290.0,
            "y": 200.0
          },
          "Mesh": {
            "TableCoordinate": [],
            "TableIndexVertex": []
          }
        },
        {
          "Name": "acce_hip_rear",
          "Rectangle": {
            "x": 834.0,
            "y": 364.0,
            "width": 330.0,
            "height": 330.0
          },
          "Pivot": {
            "x": 165.0,
            "y": 165.0
          },
          "Mesh": {
            "TableCoordinate": [],
            "TableIndexVertex": []
          }
        }
      ]
    }
  ]
}