{
  "m_GameObject": {
    "m_FileID": 0,
    "m_PathID": 0
  },
  "m_Enabled": 1,
  "m_Script": {
    "m_FileID": 0,
    "m_PathID": 8527011069456626154
  },
  "m_Name": "adv_100503_path",
  "advPathList": [
    {
      "assetName": "",
      "assetPath": "texture/character/stand/1040100_stand",
      "resourcePath": "Texture/Character/1040100_stand.asset"
    },
    {
      "assetName": "",
      "assetPath": "texture/character/stand/1030800_stand",
      "resourcePath": "Texture/Character/1030800_stand.asset"
    },
    {
      "assetName": "",
      "assetPath": "texture/character/stand/1010300_stand",
      "resourcePath": "Texture/Character/1010300_stand.asset"
    },
    {
      "assetName": "",
      "assetPath": "texture/character/stand/1020300_stand",
      "resourcePath": "Texture/Character/1020300_stand.asset"
    },
    {
      "assetName": "",
      "assetPath": "texture/character/stand/1020400_stand",
      "resourcePath": "Texture/Character/1020400_stand.asset"
    },
    {
      "assetName": "",
      "assetPath": "texture/character/stand/1040200_stand",
      "resourcePath": "Texture/Character/1040200_stand.asset"
    },
    {
      "assetName": "",
      "assetPath": "texture/character/stand/1020900_stand",
      "resourcePath": "Texture/Character/1020900_stand.asset"
    },
    {
      "assetName": "",
      "assetPath": "sound/bgm/adventure/bgm_ruwi_thema",
      "resourcePath": "Sound/BGM/bgm_ruwi_thema.wav"
    },
    {
      "assetName": "",
      "assetPath": "sound/bgm/adventure/bgm_suspiction",
      "resourcePath": "Sound/BGM/bgm_suspiction.wav"
    },
    {
      "assetName": "",
      "assetPath": "sound/bgm/adventure/bgm_comical",
      "resourcePath": "Sound/BGM/bgm_comical.wav"
    },
    {
      "assetName": "",
      "assetPath": "sound/se/adventure/se_depression",
      "resourcePath": "Sound/SE/se_depression.wav"
    },
    {
      "assetName": "",
      "assetPath": "sound/se/adventure/se_call",
      "resourcePath": "Sound/SE/se_call.wav"
    },
    {
      "assetName": "",
      "assetPath": "sound/se/adventure/se_call_end",
      "resourcePath": "Sound/SE/se_call_end.wav"
    },
    {
      "assetName": "",
      "assetPath": "sound/se/adventure/se_hungry",
      "resourcePath": "Sound/SE/se_hungry.wav"
    },
    {
      "assetName": "",
      "assetPath": "texture/background/bg_007_ll",
      "resourcePath": "Texture/BG/bg_007_LL.png"
    },
    {
      "assetName": "",
      "assetPath": "texture/background/bg_022_ll",
      "resourcePath": "Texture/BG/bg_022_LL.png"
    },
    {
      "assetName": "",
      "assetPath": "texture/background/bg_006_ll",
      "resourcePath": "Texture/BG/bg_006_LL.png"
    },
    {
      "assetName": "",
      "assetPath": "data/adventure/main/story1005/adv_100503.scenarios",
      "resourcePath": "adv_100503.scenarios.asset"
    }
  ]
}