{
  "m_GameObject": {
    "m_FileID": 0,
    "m_PathID": 0
  },
  "m_Enabled": 1,
  "m_Script": {
    "m_FileID": 0,
    "m_PathID": -8016775561480030637
  },
  "m_Name": "adv_201404.chapter",
  "chapterName": "",
  "dataList": [
    {
      "m_FileID": 0,
      "m_PathID": -7031641952280535256
    }
  ],
  "settingList": [
    {
      "rows": [
        {
          "rowIndex": 0,
          "strings": [
            "CharacterName",
            "NameText",
            "Pattern",
            "X",
            "Y",
            "Z",
            "Pivot",
            "Scale",
            "Conditional",
            "BundlePath",
            "FileName",
            "SubFileName",
            "FileType",
            "Animation",
            "RenderTexture",
            "RenderRect",
            "EyeBlink",
            "LipSynch",
            "Icon",
            "IconSubFileName",
            "IconRect"
          ],
          "isEmpty": 0,
          "isCommentOut": 0
        },
        {
          "rowIndex": 1,
          "strings": [
            "ノワール",
            "",
            "通常",
            "",
            "-50",
            "",
            "",
            "",
            "",
            "texture/character/stand/1010200_stand",
            "1010200_stand.asset",
            "1010200_stand_01",
            "Dicing",
            "",
            "",
            "",
            "",
            "",
            "",
            "",
            ""
          ],
          "isEmpty": 0,
          "isCommentOut": 0
        },
        {
          "rowIndex": 2,
          "strings": [
            "",
            "",
            "目閉じ",
            "",
            "-50",
            "",
            "",
            "",
            "",
            "texture/character/stand/1010200_stand",
            "1010200_stand.asset",
            "1010200_stand_02",
            "Dicing",
            "",
            "",
            "",
            "",
            "",
            "",
            "",
            ""
          ],
          "isEmpty": 0,
          "isCommentOut": 0
        },
        {
          "rowIndex": 3,
          "strings": [
            "",
            "",
            "真剣",
            "",
            "-50",
            "",
            "",
            "",
            "",
            "texture/character/stand/1010200_stand",
            "1010200_stand.asset",
            "1010200_stand_03",
            "Dicing",
            "",
            "",
            "",
            "",
            "",
            "",
            "",
            ""
          ],
          "isEmpty": 0,
          "isCommentOut": 0
        },
        {
          "rowIndex": 4,
          "strings": [
            "",
            "",
            "笑い",
            "",
            "-50",
            "",
            "",
            "",
            "",
            "texture/character/stand/1010200_stand",
            "1010200_stand.asset",
            "1010200_stand_04",
            "Dicing",
            "",
            "",
            "",
            "",
            "",
            "",
            "",
            ""
          ],
          "isEmpty": 0,
          "isCommentOut": 0
        },
        {
          "rowIndex": 5,
          "strings": [
            "",
            "",
            "悲しみ",
            "",
            "-50",
            "",
            "",
            "",
            "",
            "texture/character/stand/1010200_stand",
            "1010200_stand.asset",
            "1010200_stand_05",
            "Dicing",
            "",
            "",
            "",
            "",
            "",
            "",
            "",
            ""
          ],
          "isEmpty": 0,
          "isCommentOut": 0
        },
        {
          "rowIndex": 6,
          "strings": [
            "",
            "",
            "照れ",
            "",
            "-50",
            "",
            "",
            "",
            "",
            "texture/character/stand/1010200_stand",
            "1010200_stand.asset",
            "1010200_stand_06",
            "Dicing",
            "",
            "",
            "",
            "",
            "",
            "",
            "",
            ""
          ],
          "isEmpty": 0,
          "isCommentOut": 0
        },
        {
          "rowIndex": 7,
          "strings": [
            "",
            "",
            "固有",
            "",
            "-50",
            "",
            "",
            "",
            "",
            "texture/character/stand/1010200_stand",
            "1010200_stand.asset",
            "1010200_stand_07",
            "Dicing",
            "",
            "",
            "",
            "",
            "",
            "",
            "",
            ""
          ],
          "isEmpty": 0,
          "isCommentOut": 0
        },
        {
          "rowIndex": 8,
          "strings": [],
          "isEmpty": 1,
          "isCommentOut": 0
        },
        {
          "rowIndex": 9,
          "strings": [
            "ネプテューヌ聖騎士",
            "ネプテューヌ",
            "通常",
            "",
            "-85",
            "",
            "",
            "",
            "",
            "texture/character/stand/1180700_stand",
            "1180700_stand.asset",
            "1180700_stand_01",
            "Dicing",
            "",
            "",
            "",
            "",
            "",
            "",
            "",
            ""
          ],
          "isEmpty": 0,
          "isCommentOut": 0
        },
        {
          "rowIndex": 10,
          "strings": [
            "",
            "",
            "目閉じ",
            "",
            "-85",
            "",
            "",
            "",
            "",
            "texture/character/stand/1180700_stand",
            "1180700_stand.asset",
            "1180700_stand_02",
            "Dicing",
            "",
            "",
            "",
            "",
            "",
            "",
            "",
            ""
          ],
          "isEmpty": 0,
          "isCommentOut": 0
        },
        {
          "rowIndex": 11,
          "strings": [
            "",
            "",
            "真剣",
            "",
            "-85",
            "",
            "",
            "",
            "",
            "texture/character/stand/1180700_stand",
            "1180700_stand.asset",
            "1180700_stand_03",
            "Dicing",
            "",
            "",
            "",
            "",
            "",
            "",
            "",
            ""
          ],
          "isEmpty": 0,
          "isCommentOut": 0
        },
        {
          "rowIndex": 12,
          "strings": [
            "",
            "",
            "笑い",
            "",
            "-85",
            "",
            "",
            "",
            "",
            "texture/character/stand/1180700_stand",
            "1180700_stand.asset",
            "1180700_stand_04",
            "Dicing",
            "",
            "",
            "",
            "",
            "",
            "",
            "",
            ""
          ],
          "isEmpty": 0,
          "isCommentOut": 0
        },
        {
          "rowIndex": 13,
          "strings": [
            "",
            "",
            "悲しみ",
            "",
            "-85",
            "",
            "",
            "",
            "",
            "texture/character/stand/1180700_stand",
            "1180700_stand.asset",
            "1180700_stand_05",
            "Dicing",
            "",
            "",
            "",
            "",
            "",
            "",
            "",
            ""
          ],
          "isEmpty": 0,
          "isCommentOut": 0
        },
        {
          "rowIndex": 14,
          "strings": [
            "",
            "",
            "照れ",
            "",
            "-85",
            "",
            "",
            "",
            "",
            "texture/character/stand/1180700_stand",
            "1180700_stand.asset",
            "1180700_stand_06",
            "Dicing",
            "",
            "",
            "",
            "",
            "",
            "",
            "",
            ""
          ],
          "isEmpty": 0,
          "isCommentOut": 0
        },
        {
          "rowIndex": 15,
          "strings": [
            "",
            "",
            "固有",
            "",
            "-85",
            "",
            "",
            "",
            "",
            "texture/character/stand/1180700_stand",
            "1180700_stand.asset",
            "1180700_stand_07",
            "Dicing",
            "",
            "",
            "",
            "",
            "",
            "",
            "",
            ""
          ],
          "isEmpty": 0,
          "isCommentOut": 0
        },
        {
          "rowIndex": 16,
          "strings": [],
          "isEmpty": 1,
          "isCommentOut": 0
        },
        {
          "rowIndex": 17,
          "strings": [
            "ネプテューヌ",
            "",
            "通常",
            "",
            "-100",
            "",
            "",
            "",
            "",
            "texture/character/stand/1010100_stand",
            "1010100_stand.asset",
            "1010100_stand_01",
            "Dicing",
            "",
            "",
            "",
            "",
            "",
            "",
            "",
            ""
          ],
          "isEmpty": 0,
          "isCommentOut": 0
        },
        {
          "rowIndex": 18,
          "strings": [
            "//",
            "",
            "目閉じ",
            "",
            "-100",
            "",
            "",
            "",
            "",
            "texture/character/stand/1010100_stand",
            "1010100_stand.asset",
            "1010100_stand_02",
            "Dicing",
            "",
            "",
            "",
            "",
            "",
            "",
            "",
            ""
          ],
          "isEmpty": 0,
          "isCommentOut": 1
        },
        {
          "rowIndex": 19,
          "strings": [
            "",
            "",
            "真剣",
            "",
            "-100",
            "",
            "",
            "",
            "",
            "texture/character/stand/1010100_stand",
            "1010100_stand.asset",
            "1010100_stand_03",
            "Dicing",
            "",
            "",
            "",
            "",
            "",
            "",
            "",
            ""
          ],
          "isEmpty": 0,
          "isCommentOut": 0
        },
        {
          "rowIndex": 20,
          "strings": [
            "",
            "",
            "笑い",
            "",
            "-100",
            "",
            "",
            "",
            "",
            "texture/character/stand/1010100_stand",
            "1010100_stand.asset",
            "1010100_stand_04",
            "Dicing",
            "",
            "",
            "",
            "",
            "",
            "",
            "",
            ""
          ],
          "isEmpty": 0,
          "isCommentOut": 0
        },
        {
          "rowIndex": 21,
          "strings": [
            "",
            "",
            "悲しみ",
            "",
            "-100",
            "",
            "",
            "",
            "",
            "texture/character/stand/1010100_stand",
            "1010100_stand.asset",
            "1010100_stand_05",
            "Dicing",
            "",
            "",
            "",
            "",
            "",
            "",
            "",
            ""
          ],
          "isEmpty": 0,
          "isCommentOut": 0
        },
        {
          "rowIndex": 22,
          "strings": [
            "",
            "",
            "照れ",
            "",
            "-100",
            "",
            "",
            "",
            "",
            "texture/character/stand/1010100_stand",
            "1010100_stand.asset",
            "1010100_stand_06",
            "Dicing",
            "",
            "",
            "",
            "",
            "",
            "",
            "",
            ""
          ],
          "isEmpty": 0,
          "isCommentOut": 0
        },
        {
          "rowIndex": 23,
          "strings": [
            "",
            "",
            "固有",
            "",
            "-100",
            "",
            "",
            "",
            "",
            "texture/character/stand/1010100_stand",
            "1010100_stand.asset",
            "1010100_stand_07",
            "Dicing",
            "",
            "",
            "",
            "",
            "",
            "",
            "",
            ""
          ],
          "isEmpty": 0,
          "isCommentOut": 0
        },
        {
          "rowIndex": 24,
          "strings": [],
          "isEmpty": 1,
          "isCommentOut": 0
        },
        {
          "rowIndex": 25,
          "strings": [
            "ブラン",
            "",
            "通常",
            "",
            "-100",
            "",
            "",
            "",
            "",
            "texture/character/stand/1010300_stand",
            "1010300_stand.asset",
            "1010300_stand_01",
            "Dicing",
            "",
            "",
            "",
            "",
            "",
            "",
            "",
            ""
          ],
          "isEmpty": 0,
          "isCommentOut": 0
        },
        {
          "rowIndex": 26,
          "strings": [
            "",
            "",
            "目閉じ",
            "",
            "-100",
            "",
            "",
            "",
            "",
            "texture/character/stand/1010300_stand",
            "1010300_stand.asset",
            "1010300_stand_02",
            "Dicing",
            "",
            "",
            "",
            "",
            "",
            "",
            "",
            ""
          ],
          "isEmpty": 0,
          "isCommentOut": 0
        },
        {
          "rowIndex": 27,
          "strings": [
            "",
            "",
            "真剣",
            "",
            "-100",
            "",
            "",
            "",
            "",
            "texture/character/stand/1010300_stand",
            "1010300_stand.asset",
            "1010300_stand_03",
            "Dicing",
            "",
            "",
            "",
            "",
            "",
            "",
            "",
            ""
          ],
          "isEmpty": 0,
          "isCommentOut": 0
        },
        {
          "rowIndex": 28,
          "strings": [
            "",
            "",
            "笑い",
            "",
            "-100",
            "",
            "",
            "",
            "",
            "texture/character/stand/1010300_stand",
            "1010300_stand.asset",
            "1010300_stand_04",
            "Dicing",
            "",
            "",
            "",
            "",
            "",
            "",
            "",
            ""
          ],
          "isEmpty": 0,
          "isCommentOut": 0
        },
        {
          "rowIndex": 29,
          "strings": [
            "",
            "",
            "悲しみ",
            "",
            "-100",
            "",
            "",
            "",
            "",
            "texture/character/stand/1010300_stand",
            "1010300_stand.asset",
            "1010300_stand_05",
            "Dicing",
            "",
            "",
            "",
            "",
            "",
            "",
            "",
            ""
          ],
          "isEmpty": 0,
          "isCommentOut": 0
        },
        {
          "rowIndex": 30,
          "strings": [
            "",
            "",
            "照れ",
            "",
            "-100",
            "",
            "",
            "",
            "",
            "texture/character/stand/1010300_stand",
            "1010300_stand.asset",
            "1010300_stand_06",
            "Dicing",
            "",
            "",
            "",
            "",
            "",
            "",
            "",
            ""
          ],
          "isEmpty": 0,
          "isCommentOut": 0
        },
        {
          "rowIndex": 31,
          "strings": [
            "",
            "",
            "固有",
            "",
            "-100",
            "",
            "",
            "",
            "",
            "texture/character/stand/1010300_stand",
            "1010300_stand.asset",
            "1010300_stand_07",
            "Dicing",
            "",
            "",
            "",
            "",
            "",
            "",
            "",
            ""
          ],
          "isEmpty": 0,
          "isCommentOut": 0
        },
        {
          "rowIndex": 32,
          "strings": [
            "",
            "",
            "ぶちギレ",
            "",
            "-100",
            "",
            "",
            "",
            "",
            "texture/character/stand/1010300_stand",
            "1010300_stand.asset",
            "1010300_stand_08",
            "Dicing",
            "",
            "",
            "",
            "",
            "",
            "",
            "",
            ""
          ],
          "isEmpty": 0,
          "isCommentOut": 0
        },
        {
          "rowIndex": 33,
          "strings": [],
          "isEmpty": 1,
          "isCommentOut": 0
        },
        {
          "rowIndex": 34,
          "strings": [
            "ベール",
            "",
            "通常",
            "",
            "0",
            "",
            "",
            "",
            "",
            "texture/character/stand/adventure/1010401_stand",
            "1010401_stand.asset",
            "1010400_stand_01",
            "Dicing",
            "",
            "",
            "",
            "",
            "",
            "",
            "",
            ""
          ],
          "isEmpty": 0,
          "isCommentOut": 0
        },
        {
          "rowIndex": 35,
          "strings": [
            "",
            "",
            "目閉じ",
            "",
            "0",
            "",
            "",
            "",
            "",
            "texture/character/stand/adventure/1010401_stand",
            "1010401_stand.asset",
            "1010400_stand_02",
            "Dicing",
            "",
            "",
            "",
            "",
            "",
            "",
            "",
            ""
          ],
          "isEmpty": 0,
          "isCommentOut": 0
        },
        {
          "rowIndex": 36,
          "strings": [
            "",
            "",
            "真剣",
            "",
            "0",
            "",
            "",
            "",
            "",
            "texture/character/stand/adventure/1010401_stand",
            "1010401_stand.asset",
            "1010400_stand_03",
            "Dicing",
            "",
            "",
            "",
            "",
            "",
            "",
            "",
            ""
          ],
          "isEmpty": 0,
          "isCommentOut": 0
        },
        {
          "rowIndex": 37,
          "strings": [
            "",
            "",
            "笑い",
            "",
            "0",
            "",
            "",
            "",
            "",
            "texture/character/stand/adventure/1010401_stand",
            "1010401_stand.asset",
            "1010400_stand_04",
            "Dicing",
            "",
            "",
            "",
            "",
            "",
            "",
            "",
            ""
          ],
          "isEmpty": 0,
          "isCommentOut": 0
        },
        {
          "rowIndex": 38,
          "strings": [
            "",
            "",
            "悲しみ",
            "",
            "0",
            "",
            "",
            "",
            "",
            "texture/character/stand/adventure/1010401_stand",
            "1010401_stand.asset",
            "1010400_stand_05",
            "Dicing",
            "",
            "",
            "",
            "",
            "",
            "",
            "",
            ""
          ],
          "isEmpty": 0,
          "isCommentOut": 0
        },
        {
          "rowIndex": 39,
          "strings": [
            "",
            "",
            "照れ",
            "",
            "0",
            "",
            "",
            "",
            "",
            "texture/character/stand/adventure/1010401_stand",
            "1010401_stand.asset",
            "1010400_stand_06",
            "Dicing",
            "",
            "",
            "",
            "",
            "",
            "",
            "",
            ""
          ],
          "isEmpty": 0,
          "isCommentOut": 0
        },
        {
          "rowIndex": 40,
          "strings": [
            "",
            "",
            "固有",
            "",
            "0",
            "",
            "",
            "",
            "",
            "texture/character/stand/adventure/1010401_stand",
            "1010401_stand.asset",
            "1010400_stand_07",
            "Dicing",
            "",
            "",
            "",
            "",
            "",
            "",
            "",
            ""
          ],
          "isEmpty": 0,
          "isCommentOut": 0
        },
        {
          "rowIndex": 41,
          "strings": [
            "",
            "",
            "鼻血",
            "",
            "0",
            "",
            "",
            "",
            "",
            "texture/character/stand/adventure/1010401_stand",
            "1010401_stand.asset",
            "1010400_stand_08",
            "Dicing",
            "",
            "",
            "",
            "",
            "",
            "",
            "",
            ""
          ],
          "isEmpty": 0,
          "isCommentOut": 0
        },
        {
          "rowIndex": 42,
          "strings": [],
          "isEmpty": 1,
          "isCommentOut": 0
        },
        {
          "rowIndex": 43,
          "strings": [
            "ノワール黒騎士",
            "ノワール",
            "通常",
            "",
            "-50",
            "",
            "",
            "",
            "",
            "texture/character/stand/1180100_stand",
            "1180100_stand.asset",
            "1180100_stand_01",
            "Dicing",
            "",
            "",
            "",
            "",
            "",
            "",
            "",
            ""
          ],
          "isEmpty": 0,
          "isCommentOut": 0
        },
        {
          "rowIndex": 44,
          "strings": [
            "",
            "",
            "目閉じ",
            "",
            "-50",
            "",
            "",
            "",
            "",
            "texture/character/stand/1180100_stand",
            "1180100_stand.asset",
            "1180100_stand_02",
            "Dicing",
            "",
            "",
            "",
            "",
            "",
            "",
            "",
            ""
          ],
          "isEmpty": 0,
          "isCommentOut": 0
        },
        {
          "rowIndex": 45,
          "strings": [
            "",
            "",
            "真剣",
            "",
            "-50",
            "",
            "",
            "",
            "",
            "texture/character/stand/1180100_stand",
            "1180100_stand.asset",
            "1180100_stand_03",
            "Dicing",
            "",
            "",
            "",
            "",
            "",
            "",
            "",
            ""
          ],
          "isEmpty": 0,
          "isCommentOut": 0
        },
        {
          "rowIndex": 46,
          "strings": [
            "",
            "",
            "笑い",
            "",
            "-50",
            "",
            "",
            "",
            "",
            "texture/character/stand/1180100_stand",
            "1180100_stand.asset",
            "1180100_stand_04",
            "Dicing",
            "",
            "",
            "",
            "",
            "",
            "",
            "",
            ""
          ],
          "isEmpty": 0,
          "isCommentOut": 0
        },
        {
          "rowIndex": 47,
          "strings": [
            "",
            "",
            "悲しみ",
            "",
            "-50",
            "",
            "",
            "",
            "",
            "texture/character/stand/1180100_stand",
            "1180100_stand.asset",
            "1180100_stand_05",
            "Dicing",
            "",
            "",
            "",
            "",
            "",
            "",
            "",
            ""
          ],
          "isEmpty": 0,
          "isCommentOut": 0
        },
        {
          "rowIndex": 48,
          "strings": [
            "",
            "",
            "照れ",
            "",
            "-50",
            "",
            "",
            "",
            "",
            "texture/character/stand/1180100_stand",
            "1180100_stand.asset",
            "1180100_stand_06",
            "Dicing",
            "",
            "",
            "",
            "",
            "",
            "",
            "",
            ""
          ],
          "isEmpty": 0,
          "isCommentOut": 0
        },
        {
          "rowIndex": 49,
          "strings": [
            "",
            "",
            "固有",
            "",
            "-50",
            "",
            "",
            "",
            "",
            "texture/character/stand/1180100_stand",
            "1180100_stand.asset",
            "1180100_stand_07",
            "Dicing",
            "",
            "",
            "",
            "",
            "",
            "",
            "",
            ""
          ],
          "isEmpty": 0,
          "isCommentOut": 0
        },
        {
          "rowIndex": 50,
          "strings": [],
          "isEmpty": 1,
          "isCommentOut": 0
        },
        {
          "rowIndex": 51,
          "strings": [
            "アイリス",
            "",
            "通常",
            "",
            "-50",
            "",
            "",
            "",
            "",
            "texture/character/stand/1100100_stand",
            "1100100_stand.asset",
            "1100100_stand_01",
            "Dicing",
            "",
            "",
            "",
            "",
            "",
            "",
            "",
            ""
          ],
          "isEmpty": 0,
          "isCommentOut": 0
        },
        {
          "rowIndex": 52,
          "strings": [
            "//",
            "",
            "目閉じ",
            "",
            "-50",
            "",
            "",
            "",
            "",
            "texture/character/stand/1100100_stand",
            "1100100_stand.asset",
            "1100100_stand_02",
            "Dicing",
            "",
            "",
            "",
            "",
            "",
            "",
            "",
            ""
          ],
          "isEmpty": 0,
          "isCommentOut": 1
        },
        {
          "rowIndex": 53,
          "strings": [
            "",
            "",
            "真剣",
            "",
            "-50",
            "",
            "",
            "",
            "",
            "texture/character/stand/1100100_stand",
            "1100100_stand.asset",
            "1100100_stand_03",
            "Dicing",
            "",
            "",
            "",
            "",
            "",
            "",
            "",
            ""
          ],
          "isEmpty": 0,
          "isCommentOut": 0
        },
        {
          "rowIndex": 54,
          "strings": [
            "",
            "",
            "笑い",
            "",
            "-50",
            "",
            "",
            "",
            "",
            "texture/character/stand/1100100_stand",
            "1100100_stand.asset",
            "1100100_stand_04",
            "Dicing",
            "",
            "",
            "",
            "",
            "",
            "",
            "",
            ""
          ],
          "isEmpty": 0,
          "isCommentOut": 0
        },
        {
          "rowIndex": 55,
          "strings": [
            "",
            "",
            "悲しみ",
            "",
            "-50",
            "",
            "",
            "",
            "",
            "texture/character/stand/1100100_stand",
            "1100100_stand.asset",
            "1100100_stand_05",
            "Dicing",
            "",
            "",
            "",
            "",
            "",
            "",
            "",
            ""
          ],
          "isEmpty": 0,
          "isCommentOut": 0
        },
        {
          "rowIndex": 56,
          "strings": [
            "",
            "",
            "照れ",
            "",
            "-50",
            "",
            "",
            "",
            "",
            "texture/character/stand/1100100_stand",
            "1100100_stand.asset",
            "1100100_stand_06",
            "Dicing",
            "",
            "",
            "",
            "",
            "",
            "",
            "",
            ""
          ],
          "isEmpty": 0,
          "isCommentOut": 0
        },
        {
          "rowIndex": 57,
          "strings": [
            "",
            "",
            "固有",
            "",
            "-50",
            "",
            "",
            "",
            "",
            "texture/character/stand/1100100_stand",
            "1100100_stand.asset",
            "1100100_stand_07",
            "Dicing",
            "",
            "",
            "",
            "",
            "",
            "",
            "",
            ""
          ],
          "isEmpty": 0,
          "isCommentOut": 0
        },
        {
          "rowIndex": 58,
          "strings": [],
          "isEmpty": 1,
          "isCommentOut": 0
        },
        {
          "rowIndex": 59,
          "strings": [
            "ベールエンチャンター",
            "ベール",
            "通常",
            "",
            "-30",
            "",
            "",
            "",
            "",
            "texture/character/stand/1180200_stand",
            "1180200_stand.asset",
            "1180200_stand_01",
            "Dicing",
            "",
            "",
            "",
            "",
            "",
            "",
            "",
            ""
          ],
          "isEmpty": 0,
          "isCommentOut": 0
        },
        {
          "rowIndex": 60,
          "strings": [
            "",
            "",
            "目閉じ",
            "",
            "-30",
            "",
            "",
            "",
            "",
            "texture/character/stand/1180200_stand",
            "1180200_stand.asset",
            "1180200_stand_02",
            "Dicing",
            "",
            "",
            "",
            "",
            "",
            "",
            "",
            ""
          ],
          "isEmpty": 0,
          "isCommentOut": 0
        },
        {
          "rowIndex": 61,
          "strings": [
            "",
            "",
            "真剣",
            "",
            "-30",
            "",
            "",
            "",
            "",
            "texture/character/stand/1180200_stand",
            "1180200_stand.asset",
            "1180200_stand_03",
            "Dicing",
            "",
            "",
            "",
            "",
            "",
            "",
            "",
            ""
          ],
          "isEmpty": 0,
          "isCommentOut": 0
        },
        {
          "rowIndex": 62,
          "strings": [
            "",
            "",
            "笑い",
            "",
            "-30",
            "",
            "",
            "",
            "",
            "texture/character/stand/1180200_stand",
            "1180200_stand.asset",
            "1180200_stand_04",
            "Dicing",
            "",
            "",
            "",
            "",
            "",
            "",
            "",
            ""
          ],
          "isEmpty": 0,
          "isCommentOut": 0
        },
        {
          "rowIndex": 63,
          "strings": [
            "",
            "",
            "悲しみ",
            "",
            "-30",
            "",
            "",
            "",
            "",
            "texture/character/stand/1180200_stand",
            "1180200_stand.asset",
            "1180200_stand_05",
            "Dicing",
            "",
            "",
            "",
            "",
            "",
            "",
            "",
            ""
          ],
          "isEmpty": 0,
          "isCommentOut": 0
        },
        {
          "rowIndex": 64,
          "strings": [
            "",
            "",
            "照れ",
            "",
            "-30",
            "",
            "",
            "",
            "",
            "texture/character/stand/1180200_stand",
            "1180200_stand.asset",
            "1180200_stand_06",
            "Dicing",
            "",
            "",
            "",
            "",
            "",
            "",
            "",
            ""
          ],
          "isEmpty": 0,
          "isCommentOut": 0
        },
        {
          "rowIndex": 65,
          "strings": [
            "",
            "",
            "固有",
            "",
            "-30",
            "",
            "",
            "",
            "",
            "texture/character/stand/1180200_stand",
            "1180200_stand.asset",
            "1180200_stand_07",
            "Dicing",
            "",
            "",
            "",
            "",
            "",
            "",
            "",
            ""
          ],
          "isEmpty": 0,
          "isCommentOut": 0
        },
        {
          "rowIndex": 66,
          "strings": [],
          "isEmpty": 1,
          "isCommentOut": 0
        },
        {
          "rowIndex": 67,
          "strings": [
            "ナツメ",
            "神貫ナツメ",
            "通常",
            "",
            "-50",
            "",
            "",
            "",
            "",
            "texture/character/stand/1140100_stand",
            "1140100_stand.asset",
            "1140100_stand_01",
            "Dicing",
            "",
            "",
            "",
            "",
            "",
            "",
            "",
            ""
          ],
          "isEmpty": 0,
          "isCommentOut": 0
        },
        {
          "rowIndex": 68,
          "strings": [
            "//",
            "",
            "目閉じ",
            "",
            "-50",
            "",
            "",
            "",
            "",
            "texture/character/stand/1140100_stand",
            "1140100_stand.asset",
            "1140100_stand_02",
            "Dicing",
            "",
            "",
            "",
            "",
            "",
            "",
            "",
            ""
          ],
          "isEmpty": 0,
          "isCommentOut": 1
        },
        {
          "rowIndex": 69,
          "strings": [
            "",
            "",
            "真剣",
            "",
            "-50",
            "",
            "",
            "",
            "",
            "texture/character/stand/1140100_stand",
            "1140100_stand.asset",
            "1140100_stand_03",
            "Dicing",
            "",
            "",
            "",
            "",
            "",
            "",
            "",
            ""
          ],
          "isEmpty": 0,
          "isCommentOut": 0
        },
        {
          "rowIndex": 70,
          "strings": [
            "",
            "",
            "笑い",
            "",
            "-50",
            "",
            "",
            "",
            "",
            "texture/character/stand/1140100_stand",
            "1140100_stand.asset",
            "1140100_stand_04",
            "Dicing",
            "",
            "",
            "",
            "",
            "",
            "",
            "",
            ""
          ],
          "isEmpty": 0,
          "isCommentOut": 0
        },
        {
          "rowIndex": 71,
          "strings": [
            "",
            "",
            "悲しみ",
            "",
            "-50",
            "",
            "",
            "",
            "",
            "texture/character/stand/1140100_stand",
            "1140100_stand.asset",
            "1140100_stand_05",
            "Dicing",
            "",
            "",
            "",
            "",
            "",
            "",
            "",
            ""
          ],
          "isEmpty": 0,
          "isCommentOut": 0
        },
        {
          "rowIndex": 72,
          "strings": [
            "",
            "",
            "照れ",
            "",
            "-50",
            "",
            "",
            "",
            "",
            "texture/character/stand/1140100_stand",
            "1140100_stand.asset",
            "1140100_stand_06",
            "Dicing",
            "",
            "",
            "",
            "",
            "",
            "",
            "",
            ""
          ],
          "isEmpty": 0,
          "isCommentOut": 0
        },
        {
          "rowIndex": 73,
          "strings": [
            "",
            "",
            "固有",
            "",
            "-50",
            "",
            "",
            "",
            "",
            "texture/character/stand/1140100_stand",
            "1140100_stand.asset",
            "1140100_stand_07",
            "Dicing",
            "",
            "",
            "",
            "",
            "",
            "",
            "",
            ""
          ],
          "isEmpty": 0,
          "isCommentOut": 0
        },
        {
          "rowIndex": 74,
          "strings": [],
          "isEmpty": 1,
          "isCommentOut": 0
        },
        {
          "rowIndex": 75,
          "strings": [
            "スライヌA",
            "",
            "通常",
            "",
            "-50",
            "",
            "",
            "",
            "",
            "texture/character/stand/1012100_stand",
            "1012100_stand.asset",
            "1012100_stand_01",
            "Dicing",
            "",
            "",
            "",
            "",
            "",
            "",
            "",
            ""
          ],
          "isEmpty": 0,
          "isCommentOut": 0
        },
        {
          "rowIndex": 76,
          "strings": [],
          "isEmpty": 1,
          "isCommentOut": 0
        },
        {
          "rowIndex": 77,
          "strings": [
            "スライヌB",
            "",
            "通常",
            "",
            "-50",
            "",
            "",
            "",
            "",
            "texture/character/stand/1012100_stand",
            "1012100_stand.asset",
            "1012100_stand_01",
            "Dicing",
            "",
            "",
            "",
            "",
            "",
            "",
            "",
            ""
          ],
          "isEmpty": 0,
          "isCommentOut": 0
        },
        {
          "rowIndex": 78,
          "strings": [],
          "isEmpty": 1,
          "isCommentOut": 0
        },
        {
          "rowIndex": 79,
          "strings": [
            "スライヌC",
            "",
            "通常",
            "",
            "-50",
            "",
            "",
            "",
            "",
            "texture/character/stand/1012100_stand",
            "1012100_stand.asset",
            "1012100_stand_01",
            "Dicing",
            "",
            "",
            "",
            "",
            "",
            "",
            "",
            ""
          ],
          "isEmpty": 0,
          "isCommentOut": 0
        },
        {
          "rowIndex": 80,
          "strings": [],
          "isEmpty": 1,
          "isCommentOut": 0
        },
        {
          "rowIndex": 81,
          "strings": [
            "ブラン司祭",
            "ブラン",
            "通常",
            "",
            "-90",
            "",
            "",
            "",
            "",
            "texture/character/stand/1180800_stand",
            "1180800_stand.asset",
            "1180800_stand_01",
            "Dicing",
            "",
            "",
            "",
            "",
            "",
            "",
            "",
            ""
          ],
          "isEmpty": 0,
          "isCommentOut": 0
        },
        {
          "rowIndex": 82,
          "strings": [
            "",
            "",
            "目閉じ",
            "",
            "-90",
            "",
            "",
            "",
            "",
            "texture/character/stand/1180800_stand",
            "1180800_stand.asset",
            "1180800_stand_02",
            "Dicing",
            "",
            "",
            "",
            "",
            "",
            "",
            "",
            ""
          ],
          "isEmpty": 0,
          "isCommentOut": 0
        },
        {
          "rowIndex": 83,
          "strings": [
            "",
            "",
            "真剣",
            "",
            "-90",
            "",
            "",
            "",
            "",
            "texture/character/stand/1180800_stand",
            "1180800_stand.asset",
            "1180800_stand_03",
            "Dicing",
            "",
            "",
            "",
            "",
            "",
            "",
            "",
            ""
          ],
          "isEmpty": 0,
          "isCommentOut": 0
        },
        {
          "rowIndex": 84,
          "strings": [
            "",
            "",
            "笑い",
            "",
            "-90",
            "",
            "",
            "",
            "",
            "texture/character/stand/1180800_stand",
            "1180800_stand.asset",
            "1180800_stand_04",
            "Dicing",
            "",
            "",
            "",
            "",
            "",
            "",
            "",
            ""
          ],
          "isEmpty": 0,
          "isCommentOut": 0
        },
        {
          "rowIndex": 85,
          "strings": [
            "",
            "",
            "悲しみ",
            "",
            "-90",
            "",
            "",
            "",
            "",
            "texture/character/stand/1180800_stand",
            "1180800_stand.asset",
            "1180800_stand_05",
            "Dicing",
            "",
            "",
            "",
            "",
            "",
            "",
            "",
            ""
          ],
          "isEmpty": 0,
          "isCommentOut": 0
        },
        {
          "rowIndex": 86,
          "strings": [
            "",
            "",
            "照れ",
            "",
            "-90",
            "",
            "",
            "",
            "",
            "texture/character/stand/1180800_stand",
            "1180800_stand.asset",
            "1180800_stand_06",
            "Dicing",
            "",
            "",
            "",
            "",
            "",
            "",
            "",
            ""
          ],
          "isEmpty": 0,
          "isCommentOut": 0
        },
        {
          "rowIndex": 87,
          "strings": [
            "",
            "",
            "固有",
            "",
            "-90",
            "",
            "",
            "",
            "",
            "texture/character/stand/1180800_stand",
            "1180800_stand.asset",
            "1180800_stand_07",
            "Dicing",
            "",
            "",
            "",
            "",
            "",
            "",
            "",
            ""
          ],
          "isEmpty": 0,
          "isCommentOut": 0
        },
        {
          "rowIndex": 88,
          "strings": [],
          "isEmpty": 1,
          "isCommentOut": 0
        },
        {
          "rowIndex": 89,
          "strings": [
            "ネプテューヌ聖騎士剣装備",
            "ネプテューヌ",
            "通常",
            "",
            "-85",
            "",
            "",
            "",
            "",
            "texture/character/stand/1181200_stand",
            "1181200_stand.asset",
            "1181200_stand_01",
            "Dicing",
            "",
            "",
            "",
            "",
            "",
            "",
            "",
            ""
          ],
          "isEmpty": 0,
          "isCommentOut": 0
        },
        {
          "rowIndex": 90,
          "strings": [
            "",
            "",
            "目閉じ",
            "",
            "-85",
            "",
            "",
            "",
            "",
            "texture/character/stand/1181200_stand",
            "1181200_stand.asset",
            "1181200_stand_02",
            "Dicing",
            "",
            "",
            "",
            "",
            "",
            "",
            "",
            ""
          ],
          "isEmpty": 0,
          "isCommentOut": 0
        },
        {
          "rowIndex": 91,
          "strings": [
            "",
            "",
            "真剣",
            "",
            "-85",
            "",
            "",
            "",
            "",
            "texture/character/stand/1181200_stand",
            "1181200_stand.asset",
            "1181200_stand_03",
            "Dicing",
            "",
            "",
            "",
            "",
            "",
            "",
            "",
            ""
          ],
          "isEmpty": 0,
          "isCommentOut": 0
        },
        {
          "rowIndex": 92,
          "strings": [
            "",
            "",
            "笑い",
            "",
            "-85",
            "",
            "",
            "",
            "",
            "texture/character/stand/1181200_stand",
            "1181200_stand.asset",
            "1181200_stand_04",
            "Dicing",
            "",
            "",
            "",
            "",
            "",
            "",
            "",
            ""
          ],
          "isEmpty": 0,
          "isCommentOut": 0
        },
        {
          "rowIndex": 93,
          "strings": [
            "",
            "",
            "悲しみ",
            "",
            "-85",
            "",
            "",
            "",
            "",
            "texture/character/stand/1181200_stand",
            "1181200_stand.asset",
            "1181200_stand_05",
            "Dicing",
            "",
            "",
            "",
            "",
            "",
            "",
            "",
            ""
          ],
          "isEmpty": 0,
          "isCommentOut": 0
        },
        {
          "rowIndex": 94,
          "strings": [
            "",
            "",
            "照れ",
            "",
            "-85",
            "",
            "",
            "",
            "",
            "texture/character/stand/1181200_stand",
            "1181200_stand.asset",
            "1181200_stand_06",
            "Dicing",
            "",
            "",
            "",
            "",
            "",
            "",
            "",
            ""
          ],
          "isEmpty": 0,
          "isCommentOut": 0
        },
        {
          "rowIndex": 95,
          "strings": [
            "",
            "",
            "固有",
            "",
            "-85",
            "",
            "",
            "",
            "",
            "texture/character/stand/1181200_stand",
            "1181200_stand.asset",
            "1181200_stand_07",
            "Dicing",
            "",
            "",
            "",
            "",
            "",
            "",
            "",
            ""
          ],
          "isEmpty": 0,
          "isCommentOut": 0
        },
        {
          "rowIndex": 96,
          "strings": [
            "",
            "",
            "ピース",
            "",
            "-85",
            "",
            "",
            "",
            "",
            "texture/character/stand/1181200_stand",
            "1181200_stand.asset",
            "1181200_stand_08",
            "Dicing",
            "",
            "",
            "",
            "",
            "",
            "",
            "",
            ""
          ],
          "isEmpty": 0,
          "isCommentOut": 0
        },
        {
          "rowIndex": 97,
          "strings": [],
          "isEmpty": 1,
          "isCommentOut": 0
        }
      ],
      "name": "Assets/test/adv_201404.xls:Character",
      "type": 1,
      "textLength": 7271,
      "headerRow": 0
    },
    {
      "rows": [
        {
          "rowIndex": 0,
          "strings": [
            "Label",
            "Type",
            "X",
            "Y",
            "Z",
            "Pivot",
            "Scale",
            "Conditional",
            "BundlePath",
            "FileName",
            "FileType",
            "SubFileName",
            "Animation",
            "RenderTexture",
            "RenderRect",
            "Thumbnail",
            "CgCategolly",
            "元画像名"
          ],
          "isEmpty": 0,
          "isCommentOut": 0
        },
        {
          "rowIndex": 1,
          "strings": [
            "背景(洞窟)",
            "Bg",
            "",
            "",
            "",
            "",
            "x=1.25 y=0.9375",
            "",
            "texture/background/bg_012_ll",
            "bg_012_LL.png",
            "",
            "",
            "",
            "",
            "",
            ""
          ],
          "isEmpty": 0,
          "isCommentOut": 0
        },
        {
          "rowIndex": 2,
          "strings": [
            "背景(山岳)",
            "Bg",
            "",
            "",
            "",
            "",
            "x=1.25 y=0.9375",
            "",
            "texture/background/bg_034_ll",
            "bg_034_LL.png",
            "",
            "",
            "",
            "",
            "",
            ""
          ],
          "isEmpty": 0,
          "isCommentOut": 0
        },
        {
          "rowIndex": 3,
          "strings": [
            "背景(草原：昼)",
            "Bg",
            "",
            "",
            "",
            "",
            "x=1.25 y=0.9375",
            "",
            "texture/background/bg_003_ll",
            "bg_003_LL.png",
            "",
            "",
            "",
            "",
            "",
            ""
          ],
          "isEmpty": 0,
          "isCommentOut": 0
        },
        {
          "rowIndex": 4,
          "strings": [
            "背景(力で統治された村)",
            "Bg",
            "",
            "",
            "",
            "",
            "x=1.25 y=0.9375",
            "",
            "texture/background/bg_039_ll",
            "bg_039_LL.png",
            "",
            "",
            "",
            "",
            "",
            ""
          ],
          "isEmpty": 0,
          "isCommentOut": 0
        },
        {
          "rowIndex": 5,
          "strings": [
            "背景(黒)",
            "Bg",
            "",
            "",
            "",
            "",
            "x=1.25 y=0.9375",
            "",
            "texture/background/bg_007_ll",
            "bg_007_LL.png",
            "",
            "",
            "",
            "",
            "",
            ""
          ],
          "isEmpty": 0,
          "isCommentOut": 0
        },
        {
          "rowIndex": 6,
          "strings": [
            "魔法陣(赤)",
            "Sprite",
            "",
            "",
            "",
            "",
            "0.8",
            "",
            "texture/adventure/sprite_magic_circle",
            "sprite_magic_circle.png",
            "",
            "",
            "",
            "",
            "",
            ""
          ],
          "isEmpty": 0,
          "isCommentOut": 0
        }
      ],
      "name": "Assets/test/adv_201404.xls:Texture",
      "type": 1,
      "textLength": 528,
      "headerRow": 0
    },
    {
      "rows": [
        {
          "rowIndex": 0,
          "strings": [
            "Label",
            "BundlePath",
            "FileName",
            ""
          ],
          "isEmpty": 0,
          "isCommentOut": 0
        },
        {
          "rowIndex": 1,
          "strings": [
            "闇オーラ",
            "prefabs/effect/adventure/eff_038/eff_038",
            "eff_038"
          ],
          "isEmpty": 0,
          "isCommentOut": 0
        },
        {
          "rowIndex": 2,
          "strings": [
            "黒いモヤ",
            "prefabs/effect/adventure/eff_036/eff_036",
            "eff_036"
          ],
          "isEmpty": 0,
          "isCommentOut": 0
        },
        {
          "rowIndex": 3,
          "strings": [
            "集中線",
            "prefabs/effect/adventure/eff_040/eff_040",
            "eff_040"
          ],
          "isEmpty": 0,
          "isCommentOut": 0
        },
        {
          "rowIndex": 4,
          "strings": [
            "パリィ",
            "prefabs/effect/adventure/eff_020/eff_020",
            "eff_020"
          ],
          "isEmpty": 0,
          "isCommentOut": 0
        },
        {
          "rowIndex": 5,
          "strings": [
            "収束",
            "prefabs/effect/adventure/eff_025/eff_025",
            "eff_025"
          ],
          "isEmpty": 0,
          "isCommentOut": 0
        },
        {
          "rowIndex": 6,
          "strings": [
            "白オーラ",
            "prefabs/effect/adventure/eff_026/eff_026",
            "eff_026"
          ],
          "isEmpty": 0,
          "isCommentOut": 0
        },
        {
          "rowIndex": 7,
          "strings": [
            "袈裟斬り",
            "prefabs/effect/adventure/eff_017/eff_017",
            "eff_017"
          ],
          "isEmpty": 0,
          "isCommentOut": 0
        }
      ],
      "name": "Assets/test/adv_201404.xls:Particle",
      "type": 1,
      "textLength": 376,
      "headerRow": 0
    },
    {
      "rows": [
        {
          "rowIndex": 0,
          "strings": [
            "Label",
            "Title",
            "Type",
            "BundlePath",
            "FileName",
            "IntroTime",
            "Volume",
            "Comment"
          ],
          "isEmpty": 0,
          "isCommentOut": 0
        },
        {
          "rowIndex": 1,
          "strings": [
            "ADV通常",
            "",
            "Bgm",
            "sound/bgm/adventure/bgm_adv_general",
            "bgm_adv_general.wav",
            ""
          ],
          "isEmpty": 0,
          "isCommentOut": 0
        },
        {
          "rowIndex": 2,
          "strings": [
            "鼓動音",
            "",
            "Se",
            "sound/se/adventure/se_heart_sound",
            "se_heart_sound.wav",
            ""
          ],
          "isEmpty": 0,
          "isCommentOut": 0
        },
        {
          "rowIndex": 3,
          "strings": [
            "疑惑",
            "",
            "Bgm",
            "sound/bgm/adventure/bgm_suspiction",
            "bgm_suspiction.wav",
            ""
          ],
          "isEmpty": 0,
          "isCommentOut": 0
        },
        {
          "rowIndex": 4,
          "strings": [
            "女神化音",
            "",
            "Se",
            "sound/se/adventure/se_transform",
            "se_transform.wav",
            ""
          ],
          "isEmpty": 0,
          "isCommentOut": 0
        },
        {
          "rowIndex": 5,
          "strings": [
            "おどろおどろしい音",
            "",
            "Se",
            "sound/se/adventure/se_awesome",
            "se_awesome.wav",
            ""
          ],
          "isEmpty": 0,
          "isCommentOut": 0
        },
        {
          "rowIndex": 6,
          "strings": [
            "緊張感",
            "",
            "Bgm",
            "sound/bgm/adventure/bgm_nervous",
            "bgm_nervous.wav",
            ""
          ],
          "isEmpty": 0,
          "isCommentOut": 0
        },
        {
          "rowIndex": 7,
          "strings": [
            "疾走音",
            "",
            "Se",
            "sound/se/adventure/se_sprint",
            "se_sprint.wav",
            ""
          ],
          "isEmpty": 0,
          "isCommentOut": 0
        },
        {
          "rowIndex": 8,
          "strings": [
            "爆発音",
            "",
            "Se",
            "sound/se/adventure/se_explosion",
            "se_explosion.wav",
            ""
          ],
          "isEmpty": 0,
          "isCommentOut": 0
        },
        {
          "rowIndex": 9,
          "strings": [
            "未来へ",
            "",
            "Bgm",
            "sound/bgm/adventure/bgm_tomorrow",
            "bgm_tomorrow.wav",
            ""
          ],
          "isEmpty": 0,
          "isCommentOut": 0
        },
        {
          "rowIndex": 10,
          "strings": [
            "D.D.D.",
            "",
            "Bgm",
            "sound/bgm/bgm_battle02",
            "bgm_battle02.wav",
            ""
          ],
          "isEmpty": 0,
          "isCommentOut": 0
        },
        {
          "rowIndex": 11,
          "strings": [
            "物が折れる音",
            "",
            "Se",
            "sound/se/adventure/se_breaking",
            "se_breaking.wav",
            ""
          ],
          "isEmpty": 0,
          "isCommentOut": 0
        },
        {
          "rowIndex": 12,
          "strings": [
            "魔法チャージ音",
            "",
            "Se",
            "sound/se/adventure/se_magic_charge",
            "se_magic_charge.wav",
            ""
          ],
          "isEmpty": 0,
          "isCommentOut": 0
        },
        {
          "rowIndex": 13,
          "strings": [
            "魔法陣展開",
            "",
            "Se",
            "sound/se/adventure/se_magic_circle",
            "se_magic_circle.wav",
            ""
          ],
          "isEmpty": 0,
          "isCommentOut": 0
        },
        {
          "rowIndex": 14,
          "strings": [
            "エナジー集中",
            "",
            "Se",
            "sound/se/adventure/se_energy_focus",
            "se_energy_focus.wav",
            ""
          ],
          "isEmpty": 0,
          "isCommentOut": 0
        },
        {
          "rowIndex": 15,
          "strings": [
            "斬撃1",
            "",
            "Se",
            "sound/se/adventure/se_slashing_sin",
            "se_slashing_sin.wav",
            ""
          ],
          "isEmpty": 0,
          "isCommentOut": 0
        },
        {
          "rowIndex": 16,
          "strings": [
            "ピンチ",
            "",
            "Bgm",
            "sound/bgm/adventure/bgm_pinch",
            "bgm_pinch.wav",
            ""
          ],
          "isEmpty": 0,
          "isCommentOut": 0
        },
        {
          "rowIndex": 17,
          "strings": [
            "爆音",
            "",
            "Se",
            "sound/se/adventure/se_impact",
            "se_impact.wav",
            ""
          ],
          "isEmpty": 0,
          "isCommentOut": 0
        },
        {
          "rowIndex": 18,
          "strings": [
            "物を投げる音",
            "",
            "Se",
            "sound/se/adventure/se_throwing",
            "se_throwing.wav",
            ""
          ],
          "isEmpty": 0,
          "isCommentOut": 0
        },
        {
          "rowIndex": 19,
          "strings": [
            "コミカル",
            "",
            "Bgm",
            "sound/bgm/adventure/bgm_comical",
            "bgm_comical.wav",
            ""
          ],
          "isEmpty": 0,
          "isCommentOut": 0
        },
        {
          "rowIndex": 20,
          "strings": [
            "明るいテーマ",
            "",
            "Bgm",
            "sound/bgm/adventure/bgm_bright",
            "bgm_bright.wav",
            ""
          ],
          "isEmpty": 0,
          "isCommentOut": 0
        },
        {
          "rowIndex": 21,
          "strings": [
            "メガミラ勝利ジングル",
            "",
            "Se",
            "sound/se/adventure/se_game_win",
            "se_game_win.wav",
            ""
          ],
          "isEmpty": 0,
          "isCommentOut": 0
        }
      ],
      "name": "Assets/test/adv_201404.xls:Sound",
      "type": 1,
      "textLength": 1190,
      "headerRow": 0
    },
    {
      "rows": [
        {
          "rowIndex": 0,
          "strings": [
            "LayerName",
            "Type",
            "X",
            "Y",
            "Order",
            "LayerMask",
            "ScaleX",
            "ScaleY",
            "FlipX",
            "FlipY",
            "Width",
            "Height",
            "BorderLeft",
            "BorderRight",
            "BorderTop",
            "BorderBottom",
            "Align"
          ],
          "isEmpty": 0,
          "isCommentOut": 0
        },
        {
          "rowIndex": 1,
          "strings": [
            "キャラ中央",
            "Character",
            "0",
            "0",
            "2",
            "",
            "",
            "",
            "",
            "",
            "",
            "",
            "",
            "",
            "",
            "0"
          ],
          "isEmpty": 0,
          "isCommentOut": 0
        },
        {
          "rowIndex": 2,
          "strings": [
            "キャラ左",
            "Character",
            "-350",
            "0",
            "3",
            "",
            "",
            "",
            "",
            "",
            "",
            "",
            "",
            "",
            "",
            "0"
          ],
          "isEmpty": 0,
          "isCommentOut": 0
        },
        {
          "rowIndex": 3,
          "strings": [
            "キャラ右",
            "Character",
            "350",
            "0",
            "4",
            "",
            "",
            "",
            "",
            "",
            "",
            "",
            "",
            "",
            "",
            "0"
          ],
          "isEmpty": 0,
          "isCommentOut": 0
        },
        {
          "rowIndex": 4,
          "strings": [
            "背景",
            "Bg",
            "0",
            "0",
            "0"
          ],
          "isEmpty": 0,
          "isCommentOut": 0
        },
        {
          "rowIndex": 5,
          "strings": [],
          "isEmpty": 1,
          "isCommentOut": 0
        },
        {
          "rowIndex": 6,
          "strings": [
            "キャラ背面",
            "Sprite",
            "0",
            "0",
            "1"
          ],
          "isEmpty": 0,
          "isCommentOut": 0
        },
        {
          "rowIndex": 7,
          "strings": [
            "フェードレイヤー",
            "Sprite",
            "0",
            "0",
            "150"
          ],
          "isEmpty": 0,
          "isCommentOut": 0
        },
        {
          "rowIndex": 8,
          "strings": [
            "スプライトレイヤー",
            "Sprite",
            "0",
            "0",
            "151"
          ],
          "isEmpty": 0,
          "isCommentOut": 0
        },
        {
          "rowIndex": 9,
          "strings": [
            "キャプチャ画像レイヤー",
            "Sprite",
            "0",
            "0",
            "500"
          ],
          "isEmpty": 0,
          "isCommentOut": 0
        },
        {
          "rowIndex": 10,
          "strings": [],
          "isEmpty": 1,
          "isCommentOut": 0
        },
        {
          "rowIndex": 11,
          "strings": [
            "キャラ中央左",
            "Character",
            "-225",
            "0",
            "5"
          ],
          "isEmpty": 0,
          "isCommentOut": 0
        },
        {
          "rowIndex": 12,
          "strings": [
            "キャラ中央右",
            "Character",
            "225",
            "0",
            "6"
          ],
          "isEmpty": 0,
          "isCommentOut": 0
        }
      ],
      "name": "Assets/test/adv_201404.xls:Layer",
      "type": 1,
      "textLength": 289,
      "headerRow": 0
    },
    {
      "rows": [
        {
          "rowIndex": 0,
          "strings": [
            "Label",
            "Type",
            "Value",
            "FileType"
          ],
          "isEmpty": 0,
          "isCommentOut": 0
        },
        {
          "rowIndex": 1,
          "strings": [
            "player_name",
            "String",
            "アルト"
          ],
          "isEmpty": 0,
          "isCommentOut": 0
        },
        {
          "rowIndex": 2,
          "strings": [
            "is_heroine",
            "Bool",
            "FALSE"
          ],
          "isEmpty": 0,
          "isCommentOut": 0
        }
      ],
      "name": "Assets/test/adv_201404.xls:Param",
      "type": 1,
      "textLength": 61,
      "headerRow": 0
    }
  ]
}