{
  "m_GameObject": {
    "m_FileID": 0,
    "m_PathID": -8091088288588211111
  },
  "m_Enabled": 1,
  "m_Script": {
    "m_FileID": 0,
    "m_PathID": -1247748226983267122
  },
  "m_Name": "",
  "TableMaterial": [
    {
      "m_FileID": 0,
      "m_PathID": -4684051108724845078
    },
    {
      "m_FileID": 0,
      "m_PathID": -6806346283049856329
    },
    {
      "m_FileID": 0,
      "m_PathID": 7758093533675877093
    },
    {
      "m_FileID": 0,
      "m_PathID": -5827128220764469121
    },
    {
      "m_FileID": 0,
      "m_PathID": 5194078209763778551
    },
    {
      "m_FileID": 0,
      "m_PathID": -7449124667757294881
    },
    {
      "m_FileID": 0,
      "m_PathID": -6959907079192238871
    },
    {
      "m_FileID": 0,
      "m_PathID": -1224689157544832603
    },
    {
      "m_FileID": 0,
      "m_PathID": -1408545355486215720
    },
    {
      "m_FileID": 0,
      "m_PathID": -1825301656406141607
    },
    {
      "m_FileID": 0,
      "m_PathID": 1265466148579834515
    },
    {
      "m_FileID": 0,
      "m_PathID": 430336253430193185
    },
    {
      "m_FileID": 0,
      "m_PathID": 1883514336571514171
    },
    {
      "m_FileID": 0,
      "m_PathID": -2810634371377606776
    },
    {
      "m_FileID": 0,
      "m_PathID": -8956151274067318113
    },
    {
      "m_FileID": 0,
      "m_PathID": 2625878150134080209
    },
    {
      "m_FileID": 0,
      "m_PathID": 3280685493484911341
    },
    {
      "m_FileID": 0,
      "m_PathID": 1437100104850269851
    },
    {
      "m_FileID": 0,
      "m_PathID": -1520987183850177575
    },
    {
      "m_FileID": 0,
      "m_PathID": -2900148031440161131
    }
  ],
  "DataCellMap": {
    "m_FileID": 0,
    "m_PathID": 6212841953257299195
  },
  "InstanceRootParent": {
    "m_FileID": 0,
    "m_PathID": 0
  },
  "InstanceGameObjectControl": {
    "m_FileID": 0,
    "m_PathID": 0
  },
  "FlagHideForce": 0,
  "DataAnimation": {
    "m_FileID": 0,
    "m_PathID": -2995686284341696638
  },
  "LimitTrack": 0,
  "TableInformationPlay": [
    {
      "DataAnimation": {
        "m_FileID": 0,
        "m_PathID": 0
      },
      "FlagSetInitial": 1,
      "FlagStopInitial": 0,
      "NameAnimation": "atk_1",
      "FlagPingPong": 0,
      "LabelStart": "",
      "FrameOffsetStart": 0,
      "LabelEnd": "",
      "FrameOffsetEnd": 0,
      "Frame": 0,
      "TimesPlay": 0,
      "RateTime": 1.0
    }
  ],
  "TableControlParts": [
    {
      "InstanceGameObject": {
        "m_FileID": 0,
        "m_PathID": -8091088288588211111
      },
      "PrefabUnderControl": {
        "m_FileID": 0,
        "m_PathID": 0
      },
      "InstanceGameObjectUnderControl": {
        "m_FileID": 0,
        "m_PathID": 0
      },
      "InstanceScriptCollider": {
        "m_FileID": 0,
        "m_PathID": 0
      }
    },
    {
      "InstanceGameObject": {
        "m_FileID": 0,
        "m_PathID": -3275962175114418055
      },
      "PrefabUnderControl": {
        "m_FileID": 0,
        "m_PathID": 0
      },
      "InstanceGameObjectUnderControl": {
        "m_FileID": 0,
        "m_PathID": 0
      },
      "InstanceScriptCollider": {
        "m_FileID": 0,
        "m_PathID": 0
      }
    },
    {
      "InstanceGameObject": {
        "m_FileID": 0,
        "m_PathID": -6216516764404095144
      },
      "PrefabUnderControl": {
        "m_FileID": 0,
        "m_PathID": 0
      },
      "InstanceGameObjectUnderControl": {
        "m_FileID": 0,
        "m_PathID": 0
      },
      "InstanceScriptCollider": {
        "m_FileID": 0,
        "m_PathID": 0
      }
    },
    {
      "InstanceGameObject": {
        "m_FileID": 0,
        "m_PathID": -2461510829031372026
      },
      "PrefabUnderControl": {
        "m_FileID": 0,
        "m_PathID": 0
      },
      "InstanceGameObjectUnderControl": {
        "m_FileID": 0,
        "m_PathID": 0
      },
      "InstanceScriptCollider": {
        "m_FileID": 0,
        "m_PathID": 0
      }
    },
    {
      "InstanceGameObject": {
        "m_FileID": 0,
        "m_PathID": -184971559572143227
      },
      "PrefabUnderControl": {
        "m_FileID": 0,
        "m_PathID": 0
      },
      "InstanceGameObjectUnderControl": {
        "m_FileID": 0,
        "m_PathID": 0
      },
      "InstanceScriptCollider": {
        "m_FileID": 0,
        "m_PathID": 0
      }
    },
    {
      "InstanceGameObject": {
        "m_FileID": 0,
        "m_PathID": -3653752284297258869
      },
      "PrefabUnderControl": {
        "m_FileID": 0,
        "m_PathID": 0
      },
      "InstanceGameObjectUnderControl": {
        "m_FileID": 0,
        "m_PathID": 0
      },
      "InstanceScriptCollider": {
        "m_FileID": 0,
        "m_PathID": 0
      }
    },
    {
      "InstanceGameObject": {
        "m_FileID": 0,
        "m_PathID": 3425460435400561725
      },
      "PrefabUnderControl": {
        "m_FileID": 0,
        "m_PathID": 0
      },
      "InstanceGameObjectUnderControl": {
        "m_FileID": 0,
        "m_PathID": 0
      },
      "InstanceScriptCollider": {
        "m_FileID": 0,
        "m_PathID": 0
      }
    },
    {
      "InstanceGameObject": {
        "m_FileID": 0,
        "m_PathID": 1509116699436438931
      },
      "PrefabUnderControl": {
        "m_FileID": 0,
        "m_PathID": 0
      },
      "InstanceGameObjectUnderControl": {
        "m_FileID": 0,
        "m_PathID": 0
      },
      "InstanceScriptCollider": {
        "m_FileID": 0,
        "m_PathID": 0
      }
    },
    {
      "InstanceGameObject": {
        "m_FileID": 0,
        "m_PathID": 2453796265610801655
      },
      "PrefabUnderControl": {
        "m_FileID": 0,
        "m_PathID": 0
      },
      "InstanceGameObjectUnderControl": {
        "m_FileID": 0,
        "m_PathID": 0
      },
      "InstanceScriptCollider": {
        "m_FileID": 0,
        "m_PathID": 0
      }
    },
    {
      "InstanceGameObject": {
        "m_FileID": 0,
        "m_PathID": 3340746301966089016
      },
      "PrefabUnderControl": {
        "m_FileID": 0,
        "m_PathID": 0
      },
      "InstanceGameObjectUnderControl": {
        "m_FileID": 0,
        "m_PathID": 0
      },
      "InstanceScriptCollider": {
        "m_FileID": 0,
        "m_PathID": 0
      }
    },
    {
      "InstanceGameObject": {
        "m_FileID": 0,
        "m_PathID": -575377094343928564
      },
      "PrefabUnderControl": {
        "m_FileID": 0,
        "m_PathID": 0
      },
      "InstanceGameObjectUnderControl": {
        "m_FileID": 0,
        "m_PathID": 0
      },
      "InstanceScriptCollider": {
        "m_FileID": 0,
        "m_PathID": 0
      }
    },
    {
      "InstanceGameObject": {
        "m_FileID": 0,
        "m_PathID": -3809190575855902400
      },
      "PrefabUnderControl": {
        "m_FileID": 0,
        "m_PathID": 0
      },
      "InstanceGameObjectUnderControl": {
        "m_FileID": 0,
        "m_PathID": 0
      },
      "InstanceScriptCollider": {
        "m_FileID": 0,
        "m_PathID": 0
      }
    },
    {
      "InstanceGameObject": {
        "m_FileID": 0,
        "m_PathID": -184174025470337555
      },
      "PrefabUnderControl": {
        "m_FileID": 0,
        "m_PathID": 0
      },
      "InstanceGameObjectUnderControl": {
        "m_FileID": 0,
        "m_PathID": 0
      },
      "InstanceScriptCollider": {
        "m_FileID": 0,
        "m_PathID": 0
      }
    },
    {
      "InstanceGameObject": {
        "m_FileID": 0,
        "m_PathID": 2958874797494896759
      },
      "PrefabUnderControl": {
        "m_FileID": 0,
        "m_PathID": 0
      },
      "InstanceGameObjectUnderControl": {
        "m_FileID": 0,
        "m_PathID": 0
      },
      "InstanceScriptCollider": {
        "m_FileID": 0,
        "m_PathID": 0
      }
    },
    {
      "InstanceGameObject": {
        "m_FileID": 0,
        "m_PathID": 7545800593370615795
      },
      "PrefabUnderControl": {
        "m_FileID": 0,
        "m_PathID": 0
      },
      "InstanceGameObjectUnderControl": {
        "m_FileID": 0,
        "m_PathID": 0
      },
      "InstanceScriptCollider": {
        "m_FileID": 0,
        "m_PathID": 0
      }
    },
    {
      "InstanceGameObject": {
        "m_FileID": 0,
        "m_PathID": -8288590229034493300
      },
      "PrefabUnderControl": {
        "m_FileID": 0,
        "m_PathID": 0
      },
      "InstanceGameObjectUnderControl": {
        "m_FileID": 0,
        "m_PathID": 0
      },
      "InstanceScriptCollider": {
        "m_FileID": 0,
        "m_PathID": 0
      }
    },
    {
      "InstanceGameObject": {
        "m_FileID": 0,
        "m_PathID": 8802797611637176181
      },
      "PrefabUnderControl": {
        "m_FileID": 0,
        "m_PathID": 0
      },
      "InstanceGameObjectUnderControl": {
        "m_FileID": 0,
        "m_PathID": 0
      },
      "InstanceScriptCollider": {
        "m_FileID": 0,
        "m_PathID": 0
      }
    },
    {
      "InstanceGameObject": {
        "m_FileID": 0,
        "m_PathID": 1392075038884555971
      },
      "PrefabUnderControl": {
        "m_FileID": 0,
        "m_PathID": 0
      },
      "InstanceGameObjectUnderControl": {
        "m_FileID": 0,
        "m_PathID": 0
      },
      "InstanceScriptCollider": {
        "m_FileID": 0,
        "m_PathID": 0
      }
    },
    {
      "InstanceGameObject": {
        "m_FileID": 0,
        "m_PathID": -4639184903350776139
      },
      "PrefabUnderControl": {
        "m_FileID": 0,
        "m_PathID": 0
      },
      "InstanceGameObjectUnderControl": {
        "m_FileID": 0,
        "m_PathID": 0
      },
      "InstanceScriptCollider": {
        "m_FileID": 0,
        "m_PathID": 0
      }
    },
    {
      "InstanceGameObject": {
        "m_FileID": 0,
        "m_PathID": -5575205735865065255
      },
      "PrefabUnderControl": {
        "m_FileID": 0,
        "m_PathID": 0
      },
      "InstanceGameObjectUnderControl": {
        "m_FileID": 0,
        "m_PathID": 0
      },
      "InstanceScriptCollider": {
        "m_FileID": 0,
        "m_PathID": 0
      }
    },
    {
      "InstanceGameObject": {
        "m_FileID": 0,
        "m_PathID": -275382042134919291
      },
      "PrefabUnderControl": {
        "m_FileID": 0,
        "m_PathID": 0
      },
      "InstanceGameObjectUnderControl": {
        "m_FileID": 0,
        "m_PathID": 0
      },
      "InstanceScriptCollider": {
        "m_FileID": 0,
        "m_PathID": 0
      }
    },
    {
      "InstanceGameObject": {
        "m_FileID": 0,
        "m_PathID": -9094066873862488805
      },
      "PrefabUnderControl": {
        "m_FileID": 0,
        "m_PathID": 0
      },
      "InstanceGameObjectUnderControl": {
        "m_FileID": 0,
        "m_PathID": 0
      },
      "InstanceScriptCollider": {
        "m_FileID": 0,
        "m_PathID": 0
      }
    },
    {
      "InstanceGameObject": {
        "m_FileID": 0,
        "m_PathID": 7268012494712894125
      },
      "PrefabUnderControl": {
        "m_FileID": 0,
        "m_PathID": 0
      },
      "InstanceGameObjectUnderControl": {
        "m_FileID": 0,
        "m_PathID": 0
      },
      "InstanceScriptCollider": {
        "m_FileID": 0,
        "m_PathID": 0
      }
    },
    {
      "InstanceGameObject": {
        "m_FileID": 0,
        "m_PathID": -8590723596856047394
      },
      "PrefabUnderControl": {
        "m_FileID": 0,
        "m_PathID": 0
      },
      "InstanceGameObjectUnderControl": {
        "m_FileID": 0,
        "m_PathID": 0
      },
      "InstanceScriptCollider": {
        "m_FileID": 0,
        "m_PathID": 0
      }
    },
    {
      "InstanceGameObject": {
        "m_FileID": 0,
        "m_PathID": 8620027174943817999
      },
      "PrefabUnderControl": {
        "m_FileID": 0,
        "m_PathID": 0
      },
      "InstanceGameObjectUnderControl": {
        "m_FileID": 0,
        "m_PathID": 0
      },
      "InstanceScriptCollider": {
        "m_FileID": 0,
        "m_PathID": 0
      }
    },
    {
      "InstanceGameObject": {
        "m_FileID": 0,
        "m_PathID": 4173402813466759266
      },
      "PrefabUnderControl": {
        "m_FileID": 0,
        "m_PathID": 0
      },
      "InstanceGameObjectUnderControl": {
        "m_FileID": 0,
        "m_PathID": 0
      },
      "InstanceScriptCollider": {
        "m_FileID": 0,
        "m_PathID": 0
      }
    },
    {
      "InstanceGameObject": {
        "m_FileID": 0,
        "m_PathID": -6731885953024847763
      },
      "PrefabUnderControl": {
        "m_FileID": 0,
        "m_PathID": 0
      },
      "InstanceGameObjectUnderControl": {
        "m_FileID": 0,
        "m_PathID": 0
      },
      "InstanceScriptCollider": {
        "m_FileID": 0,
        "m_PathID": 0
      }
    },
    {
      "InstanceGameObject": {
        "m_FileID": 0,
        "m_PathID": -4514268576210611958
      },
      "PrefabUnderControl": {
        "m_FileID": 0,
        "m_PathID": 0
      },
      "InstanceGameObjectUnderControl": {
        "m_FileID": 0,
        "m_PathID": 0
      },
      "InstanceScriptCollider": {
        "m_FileID": 0,
        "m_PathID": 0
      }
    },
    {
      "InstanceGameObject": {
        "m_FileID": 0,
        "m_PathID": 1050396894623898361
      },
      "PrefabUnderControl": {
        "m_FileID": 0,
        "m_PathID": 0
      },
      "InstanceGameObjectUnderControl": {
        "m_FileID": 0,
        "m_PathID": 0
      },
      "InstanceScriptCollider": {
        "m_FileID": 0,
        "m_PathID": 0
      }
    },
    {
      "InstanceGameObject": {
        "m_FileID": 0,
        "m_PathID": 1390104251080476929
      },
      "PrefabUnderControl": {
        "m_FileID": 0,
        "m_PathID": 0
      },
      "InstanceGameObjectUnderControl": {
        "m_FileID": 0,
        "m_PathID": 0
      },
      "InstanceScriptCollider": {
        "m_FileID": 0,
        "m_PathID": 0
      }
    },
    {
      "InstanceGameObject": {
        "m_FileID": 0,
        "m_PathID": -1425644252414680615
      },
      "PrefabUnderControl": {
        "m_FileID": 0,
        "m_PathID": 0
      },
      "InstanceGameObjectUnderControl": {
        "m_FileID": 0,
        "m_PathID": 0
      },
      "InstanceScriptCollider": {
        "m_FileID": 0,
        "m_PathID": 0
      }
    },
    {
      "InstanceGameObject": {
        "m_FileID": 0,
        "m_PathID": -1253059266109195744
      },
      "PrefabUnderControl": {
        "m_FileID": 0,
        "m_PathID": 0
      },
      "InstanceGameObjectUnderControl": {
        "m_FileID": 0,
        "m_PathID": 0
      },
      "InstanceScriptCollider": {
        "m_FileID": 0,
        "m_PathID": 0
      }
    },
    {
      "InstanceGameObject": {
        "m_FileID": 0,
        "m_PathID": 4064651743958229040
      },
      "PrefabUnderControl": {
        "m_FileID": 0,
        "m_PathID": 0
      },
      "InstanceGameObjectUnderControl": {
        "m_FileID": 0,
        "m_PathID": 0
      },
      "InstanceScriptCollider": {
        "m_FileID": 0,
        "m_PathID": 0
      }
    },
    {
      "InstanceGameObject": {
        "m_FileID": 0,
        "m_PathID": -7049695163106724370
      },
      "PrefabUnderControl": {
        "m_FileID": 0,
        "m_PathID": 0
      },
      "InstanceGameObjectUnderControl": {
        "m_FileID": 0,
        "m_PathID": 0
      },
      "InstanceScriptCollider": {
        "m_FileID": 0,
        "m_PathID": 0
      }
    },
    {
      "InstanceGameObject": {
        "m_FileID": 0,
        "m_PathID": -5601881666763007966
      },
      "PrefabUnderControl": {
        "m_FileID": 0,
        "m_PathID": 0
      },
      "InstanceGameObjectUnderControl": {
        "m_FileID": 0,
        "m_PathID": 0
      },
      "InstanceScriptCollider": {
        "m_FileID": 0,
        "m_PathID": 0
      }
    },
    {
      "InstanceGameObject": {
        "m_FileID": 0,
        "m_PathID": -465576123439466080
      },
      "PrefabUnderControl": {
        "m_FileID": 0,
        "m_PathID": 0
      },
      "InstanceGameObjectUnderControl": {
        "m_FileID": 0,
        "m_PathID": 0
      },
      "InstanceScriptCollider": {
        "m_FileID": 0,
        "m_PathID": 0
      }
    },
    {
      "InstanceGameObject": {
        "m_FileID": 0,
        "m_PathID": -9219818009528365269
      },
      "PrefabUnderControl": {
        "m_FileID": 0,
        "m_PathID": 0
      },
      "InstanceGameObjectUnderControl": {
        "m_FileID": 0,
        "m_PathID": 0
      },
      "InstanceScriptCollider": {
        "m_FileID": 0,
        "m_PathID": 0
      }
    },
    {
      "InstanceGameObject": {
        "m_FileID": 0,
        "m_PathID": 8010534817327909008
      },
      "PrefabUnderControl": {
        "m_FileID": 0,
        "m_PathID": 0
      },
      "InstanceGameObjectUnderControl": {
        "m_FileID": 0,
        "m_PathID": 0
      },
      "InstanceScriptCollider": {
        "m_FileID": 0,
        "m_PathID": 0
      }
    },
    {
      "InstanceGameObject": {
        "m_FileID": 0,
        "m_PathID": 850131274464618499
      },
      "PrefabUnderControl": {
        "m_FileID": 0,
        "m_PathID": 0
      },
      "InstanceGameObjectUnderControl": {
        "m_FileID": 0,
        "m_PathID": 0
      },
      "InstanceScriptCollider": {
        "m_FileID": 0,
        "m_PathID": 0
      }
    },
    {
      "InstanceGameObject": {
        "m_FileID": 0,
        "m_PathID": 5793765588234082126
      },
      "PrefabUnderControl": {
        "m_FileID": 0,
        "m_PathID": 0
      },
      "InstanceGameObjectUnderControl": {
        "m_FileID": 0,
        "m_PathID": 0
      },
      "InstanceScriptCollider": {
        "m_FileID": 0,
        "m_PathID": 0
      }
    },
    {
      "InstanceGameObject": {
        "m_FileID": 0,
        "m_PathID": -8374563988698252090
      },
      "PrefabUnderControl": {
        "m_FileID": 0,
        "m_PathID": 0
      },
      "InstanceGameObjectUnderControl": {
        "m_FileID": 0,
        "m_PathID": 0
      },
      "InstanceScriptCollider": {
        "m_FileID": 0,
        "m_PathID": 0
      }
    },
    {
      "InstanceGameObject": {
        "m_FileID": 0,
        "m_PathID": 7584680660348903439
      },
      "PrefabUnderControl": {
        "m_FileID": 0,
        "m_PathID": 0
      },
      "InstanceGameObjectUnderControl": {
        "m_FileID": 0,
        "m_PathID": 0
      },
      "InstanceScriptCollider": {
        "m_FileID": 0,
        "m_PathID": 0
      }
    },
    {
      "InstanceGameObject": {
        "m_FileID": 0,
        "m_PathID": 8027435327308912493
      },
      "PrefabUnderControl": {
        "m_FileID": 0,
        "m_PathID": 0
      },
      "InstanceGameObjectUnderControl": {
        "m_FileID": 0,
        "m_PathID": 0
      },
      "InstanceScriptCollider": {
        "m_FileID": 0,
        "m_PathID": 0
      }
    },
    {
      "InstanceGameObject": {
        "m_FileID": 0,
        "m_PathID": 8281468110083953957
      },
      "PrefabUnderControl": {
        "m_FileID": 0,
        "m_PathID": 0
      },
      "InstanceGameObjectUnderControl": {
        "m_FileID": 0,
        "m_PathID": 0
      },
      "InstanceScriptCollider": {
        "m_FileID": 0,
        "m_PathID": 0
      }
    },
    {
      "InstanceGameObject": {
        "m_FileID": 0,
        "m_PathID": 3448136320230248443
      },
      "PrefabUnderControl": {
        "m_FileID": 0,
        "m_PathID": 0
      },
      "InstanceGameObjectUnderControl": {
        "m_FileID": 0,
        "m_PathID": 0
      },
      "InstanceScriptCollider": {
        "m_FileID": 0,
        "m_PathID": 0
      }
    },
    {
      "InstanceGameObject": {
        "m_FileID": 0,
        "m_PathID": -5127620468044056071
      },
      "PrefabUnderControl": {
        "m_FileID": 0,
        "m_PathID": 0
      },
      "InstanceGameObjectUnderControl": {
        "m_FileID": 0,
        "m_PathID": 0
      },
      "InstanceScriptCollider": {
        "m_FileID": 0,
        "m_PathID": 0
      }
    },
    {
      "InstanceGameObject": {
        "m_FileID": 0,
        "m_PathID": -4270095029911628549
      },
      "PrefabUnderControl": {
        "m_FileID": 0,
        "m_PathID": 0
      },
      "InstanceGameObjectUnderControl": {
        "m_FileID": 0,
        "m_PathID": 0
      },
      "InstanceScriptCollider": {
        "m_FileID": 0,
        "m_PathID": 0
      }
    },
    {
      "InstanceGameObject": {
        "m_FileID": 0,
        "m_PathID": -3648206882433044690
      },
      "PrefabUnderControl": {
        "m_FileID": 0,
        "m_PathID": 0
      },
      "InstanceGameObjectUnderControl": {
        "m_FileID": 0,
        "m_PathID": 0
      },
      "InstanceScriptCollider": {
        "m_FileID": 0,
        "m_PathID": 0
      }
    },
    {
      "InstanceGameObject": {
        "m_FileID": 0,
        "m_PathID": 1837893058439950248
      },
      "PrefabUnderControl": {
        "m_FileID": 0,
        "m_PathID": 0
      },
      "InstanceGameObjectUnderControl": {
        "m_FileID": 0,
        "m_PathID": 0
      },
      "InstanceScriptCollider": {
        "m_FileID": 0,
        "m_PathID": 0
      }
    },
    {
      "InstanceGameObject": {
        "m_FileID": 0,
        "m_PathID": 4861028223288189159
      },
      "PrefabUnderControl": {
        "m_FileID": 0,
        "m_PathID": 0
      },
      "InstanceGameObjectUnderControl": {
        "m_FileID": 0,
        "m_PathID": 0
      },
      "InstanceScriptCollider": {
        "m_FileID": 0,
        "m_PathID": 0
      }
    },
    {
      "InstanceGameObject": {
        "m_FileID": 0,
        "m_PathID": 8368546592083460460
      },
      "PrefabUnderControl": {
        "m_FileID": 0,
        "m_PathID": 0
      },
      "InstanceGameObjectUnderControl": {
        "m_FileID": 0,
        "m_PathID": 0
      },
      "InstanceScriptCollider": {
        "m_FileID": 0,
        "m_PathID": 0
      }
    },
    {
      "InstanceGameObject": {
        "m_FileID": 0,
        "m_PathID": 8930442210135854447
      },
      "PrefabUnderControl": {
        "m_FileID": 0,
        "m_PathID": 0
      },
      "InstanceGameObjectUnderControl": {
        "m_FileID": 0,
        "m_PathID": 0
      },
      "InstanceScriptCollider": {
        "m_FileID": 0,
        "m_PathID": 0
      }
    },
    {
      "InstanceGameObject": {
        "m_FileID": 0,
        "m_PathID": 4735002904100445814
      },
      "PrefabUnderControl": {
        "m_FileID": 0,
        "m_PathID": 0
      },
      "InstanceGameObjectUnderControl": {
        "m_FileID": 0,
        "m_PathID": 0
      },
      "InstanceScriptCollider": {
        "m_FileID": 0,
        "m_PathID": 0
      }
    },
    {
      "InstanceGameObject": {
        "m_FileID": 0,
        "m_PathID": 4896125019641113236
      },
      "PrefabUnderControl": {
        "m_FileID": 0,
        "m_PathID": 0
      },
      "InstanceGameObjectUnderControl": {
        "m_FileID": 0,
        "m_PathID": 0
      },
      "InstanceScriptCollider": {
        "m_FileID": 0,
        "m_PathID": 0
      }
    },
    {
      "InstanceGameObject": {
        "m_FileID": 0,
        "m_PathID": 6509388346122039575
      },
      "PrefabUnderControl": {
        "m_FileID": 0,
        "m_PathID": 0
      },
      "InstanceGameObjectUnderControl": {
        "m_FileID": 0,
        "m_PathID": 0
      },
      "InstanceScriptCollider": {
        "m_FileID": 0,
        "m_PathID": 0
      }
    },
    {
      "InstanceGameObject": {
        "m_FileID": 0,
        "m_PathID": -2630442732367581111
      },
      "PrefabUnderControl": {
        "m_FileID": 0,
        "m_PathID": 0
      },
      "InstanceGameObjectUnderControl": {
        "m_FileID": 0,
        "m_PathID": 0
      },
      "InstanceScriptCollider": {
        "m_FileID": 0,
        "m_PathID": 0
      }
    },
    {
      "InstanceGameObject": {
        "m_FileID": 0,
        "m_PathID": 4640524676293563055
      },
      "PrefabUnderControl": {
        "m_FileID": 0,
        "m_PathID": 0
      },
      "InstanceGameObjectUnderControl": {
        "m_FileID": 0,
        "m_PathID": 0
      },
      "InstanceScriptCollider": {
        "m_FileID": 0,
        "m_PathID": 0
      }
    },
    {
      "InstanceGameObject": {
        "m_FileID": 0,
        "m_PathID": -8765902381942037473
      },
      "PrefabUnderControl": {
        "m_FileID": 0,
        "m_PathID": 0
      },
      "InstanceGameObjectUnderControl": {
        "m_FileID": 0,
        "m_PathID": 0
      },
      "InstanceScriptCollider": {
        "m_FileID": 0,
        "m_PathID": 0
      }
    },
    {
      "InstanceGameObject": {
        "m_FileID": 0,
        "m_PathID": 1809267681941116438
      },
      "PrefabUnderControl": {
        "m_FileID": 0,
        "m_PathID": 0
      },
      "InstanceGameObjectUnderControl": {
        "m_FileID": 0,
        "m_PathID": 0
      },
      "InstanceScriptCollider": {
        "m_FileID": 0,
        "m_PathID": 0
      }
    },
    {
      "InstanceGameObject": {
        "m_FileID": 0,
        "m_PathID": 8178999420322491220
      },
      "PrefabUnderControl": {
        "m_FileID": 0,
        "m_PathID": 0
      },
      "InstanceGameObjectUnderControl": {
        "m_FileID": 0,
        "m_PathID": 0
      },
      "InstanceScriptCollider": {
        "m_FileID": 0,
        "m_PathID": 0
      }
    },
    {
      "InstanceGameObject": {
        "m_FileID": 0,
        "m_PathID": 8823617947592048681
      },
      "PrefabUnderControl": {
        "m_FileID": 0,
        "m_PathID": 0
      },
      "InstanceGameObjectUnderControl": {
        "m_FileID": 0,
        "m_PathID": 0
      },
      "InstanceScriptCollider": {
        "m_FileID": 0,
        "m_PathID": 0
      }
    },
    {
      "InstanceGameObject": {
        "m_FileID": 0,
        "m_PathID": -8736672244533869705
      },
      "PrefabUnderControl": {
        "m_FileID": 0,
        "m_PathID": 0
      },
      "InstanceGameObjectUnderControl": {
        "m_FileID": 0,
        "m_PathID": 0
      },
      "InstanceScriptCollider": {
        "m_FileID": 0,
        "m_PathID": 0
      }
    },
    {
      "InstanceGameObject": {
        "m_FileID": 0,
        "m_PathID": -6039290001804467085
      },
      "PrefabUnderControl": {
        "m_FileID": 0,
        "m_PathID": 0
      },
      "InstanceGameObjectUnderControl": {
        "m_FileID": 0,
        "m_PathID": 0
      },
      "InstanceScriptCollider": {
        "m_FileID": 0,
        "m_PathID": 0
      }
    },
    {
      "InstanceGameObject": {
        "m_FileID": 0,
        "m_PathID": 6761075770355006327
      },
      "PrefabUnderControl": {
        "m_FileID": 0,
        "m_PathID": 0
      },
      "InstanceGameObjectUnderControl": {
        "m_FileID": 0,
        "m_PathID": 0
      },
      "InstanceScriptCollider": {
        "m_FileID": 0,
        "m_PathID": 0
      }
    },
    {
      "InstanceGameObject": {
        "m_FileID": 0,
        "m_PathID": 7414698202545335568
      },
      "PrefabUnderControl": {
        "m_FileID": 0,
        "m_PathID": 0
      },
      "InstanceGameObjectUnderControl": {
        "m_FileID": 0,
        "m_PathID": 0
      },
      "InstanceScriptCollider": {
        "m_FileID": 0,
        "m_PathID": 0
      }
    },
    {
      "InstanceGameObject": {
        "m_FileID": 0,
        "m_PathID": -5558665372134030502
      },
      "PrefabUnderControl": {
        "m_FileID": 0,
        "m_PathID": 0
      },
      "InstanceGameObjectUnderControl": {
        "m_FileID": 0,
        "m_PathID": 0
      },
      "InstanceScriptCollider": {
        "m_FileID": 0,
        "m_PathID": 0
      }
    },
    {
      "InstanceGameObject": {
        "m_FileID": 0,
        "m_PathID": 3592376971595059640
      },
      "PrefabUnderControl": {
        "m_FileID": 0,
        "m_PathID": 0
      },
      "InstanceGameObjectUnderControl": {
        "m_FileID": 0,
        "m_PathID": 0
      },
      "InstanceScriptCollider": {
        "m_FileID": 0,
        "m_PathID": 0
      }
    },
    {
      "InstanceGameObject": {
        "m_FileID": 0,
        "m_PathID": -8316903909349138285
      },
      "PrefabUnderControl": {
        "m_FileID": 0,
        "m_PathID": 0
      },
      "InstanceGameObjectUnderControl": {
        "m_FileID": 0,
        "m_PathID": 0
      },
      "InstanceScriptCollider": {
        "m_FileID": 0,
        "m_PathID": 0
      }
    },
    {
      "InstanceGameObject": {
        "m_FileID": 0,
        "m_PathID": -2404793870840111744
      },
      "PrefabUnderControl": {
        "m_FileID": 0,
        "m_PathID": 0
      },
      "InstanceGameObjectUnderControl": {
        "m_FileID": 0,
        "m_PathID": 0
      },
      "InstanceScriptCollider": {
        "m_FileID": 0,
        "m_PathID": 0
      }
    },
    {
      "InstanceGameObject": {
        "m_FileID": 0,
        "m_PathID": -6099413030853536209
      },
      "PrefabUnderControl": {
        "m_FileID": 0,
        "m_PathID": 0
      },
      "InstanceGameObjectUnderControl": {
        "m_FileID": 0,
        "m_PathID": 0
      },
      "InstanceScriptCollider": {
        "m_FileID": 0,
        "m_PathID": 0
      }
    },
    {
      "InstanceGameObject": {
        "m_FileID": 0,
        "m_PathID": -3243642413038988997
      },
      "PrefabUnderControl": {
        "m_FileID": 0,
        "m_PathID": 0
      },
      "InstanceGameObjectUnderControl": {
        "m_FileID": 0,
        "m_PathID": 0
      },
      "InstanceScriptCollider": {
        "m_FileID": 0,
        "m_PathID": 0
      }
    },
    {
      "InstanceGameObject": {
        "m_FileID": 0,
        "m_PathID": 7000967295319764647
      },
      "PrefabUnderControl": {
        "m_FileID": 0,
        "m_PathID": 0
      },
      "InstanceGameObjectUnderControl": {
        "m_FileID": 0,
        "m_PathID": 0
      },
      "InstanceScriptCollider": {
        "m_FileID": 0,
        "m_PathID": 0
      }
    },
    {
      "InstanceGameObject": {
        "m_FileID": 0,
        "m_PathID": -5893796442072051053
      },
      "PrefabUnderControl": {
        "m_FileID": 0,
        "m_PathID": 0
      },
      "InstanceGameObjectUnderControl": {
        "m_FileID": 0,
        "m_PathID": 0
      },
      "InstanceScriptCollider": {
        "m_FileID": 0,
        "m_PathID": 0
      }
    },
    {
      "InstanceGameObject": {
        "m_FileID": 0,
        "m_PathID": 6135152016782497078
      },
      "PrefabUnderControl": {
        "m_FileID": 0,
        "m_PathID": 0
      },
      "InstanceGameObjectUnderControl": {
        "m_FileID": 0,
        "m_PathID": 0
      },
      "InstanceScriptCollider": {
        "m_FileID": 0,
        "m_PathID": 0
      }
    },
    {
      "InstanceGameObject": {
        "m_FileID": 0,
        "m_PathID": -2988568291884045711
      },
      "PrefabUnderControl": {
        "m_FileID": 0,
        "m_PathID": 0
      },
      "InstanceGameObjectUnderControl": {
        "m_FileID": 0,
        "m_PathID": 0
      },
      "InstanceScriptCollider": {
        "m_FileID": 0,
        "m_PathID": 0
      }
    },
    {
      "InstanceGameObject": {
        "m_FileID": 0,
        "m_PathID": 2375098743004545623
      },
      "PrefabUnderControl": {
        "m_FileID": 0,
        "m_PathID": 0
      },
      "InstanceGameObjectUnderControl": {
        "m_FileID": 0,
        "m_PathID": 0
      },
      "InstanceScriptCollider": {
        "m_FileID": 0,
        "m_PathID": 0
      }
    },
    {
      "InstanceGameObject": {
        "m_FileID": 0,
        "m_PathID": -8455038132895188613
      },
      "PrefabUnderControl": {
        "m_FileID": 0,
        "m_PathID": 0
      },
      "InstanceGameObjectUnderControl": {
        "m_FileID": 0,
        "m_PathID": 0
      },
      "InstanceScriptCollider": {
        "m_FileID": 0,
        "m_PathID": 0
      }
    },
    {
      "InstanceGameObject": {
        "m_FileID": 0,
        "m_PathID": 1643224631249355417
      },
      "PrefabUnderControl": {
        "m_FileID": 0,
        "m_PathID": 0
      },
      "InstanceGameObjectUnderControl": {
        "m_FileID": 0,
        "m_PathID": 0
      },
      "InstanceScriptCollider": {
        "m_FileID": 0,
        "m_PathID": 0
      }
    },
    {
      "InstanceGameObject": {
        "m_FileID": 0,
        "m_PathID": 1421383800628902235
      },
      "PrefabUnderControl": {
        "m_FileID": 0,
        "m_PathID": 0
      },
      "InstanceGameObjectUnderControl": {
        "m_FileID": 0,
        "m_PathID": 0
      },
      "InstanceScriptCollider": {
        "m_FileID": 0,
        "m_PathID": 0
      }
    },
    {
      "InstanceGameObject": {
        "m_FileID": 0,
        "m_PathID": 1813395003661542886
      },
      "PrefabUnderControl": {
        "m_FileID": 0,
        "m_PathID": 0
      },
      "InstanceGameObjectUnderControl": {
        "m_FileID": 0,
        "m_PathID": 0
      },
      "InstanceScriptCollider": {
        "m_FileID": 0,
        "m_PathID": 0
      }
    }
  ]
}