{
  "m_GameObject": {
    "m_FileID": 0,
    "m_PathID": 0
  },
  "m_Enabled": 1,
  "m_Script": {
    "m_FileID": 0,
    "m_PathID": 2773386506308366186
  },
  "m_Name": "1061500_stand",
  "cellSize": 64,
  "padding": 3,
  "atlasTextures": [
    {
      "m_FileID": 0,
      "m_PathID": -8059842685419093600
    }
  ],
  "textureDataList": [
    {
      "name": "1061500_stand_01",
      "atlasName": "1061500_stand_Atlas0",
      "width": 1024,
      "height": 720,
      "cellIndexList": [
        0,
        0,
        0,
        0,
        1,
        2,
        3,
        4,
        5,
        6,
        7,
        8,
        9,
        0,
        0,
        0,
        0,
        0,
        0,
        0,
        0,
        0,
        10,
        11,
        12,
        13,
        14,
        15,
        16,
        17,
        18,
        0,
        0,
        0,
        0,
        0,
        0,
        0,
        0,
        0,
        19,
        20,
        21,
        22,
        23,
        24,
        25,
        26,
        27,
        0,
        0,
        0,
        0,
        0,
        0,
        0,
        0,
        0,
        0,
        28,
        29,
        30,
        31,
        32,
        33,
        34,
        0,
        0,
        0,
        0,
        0,
        0,
        0,
        0,
        0,
        0,
        0,
        35,
        36,
        37,
        38,
        39,
        40,
        41,
        42,
        0,
        0,
        0,
        0,
        0,
        0,
        0,
        0,
        0,
        0,
        43,
        44,
        45,
        46,
        47,
        48,
        49,
        50,
        51,
        0,
        0,
        0,
        0,
        0,
        0,
        0,
        0,
        52,
        53,
        54,
        55,
        56,
        57,
        58,
        59,
        60,
        61,
        62,
        0,
        0,
        0,
        0,
        0,
        0,
        0,
        63,
        64,
        65,
        66,
        67,
        68,
        69,
        70,
        71,
        0,
        0,
        0,
        0,
        0,
        0,
        0,
        0,
        0,
        0,
        72,
        73,
        74,
        75,
        76,
        77,
        78,
        79,
        0,
        0,
        0,
        0,
        0,
        0,
        0,
        0,
        0,
        0,
        80,
        81,
        82,
        83,
        84,
        85,
        86,
        0,
        0,
        0,
        0,
        0,
        0,
        0,
        0,
        0,
        0,
        0,
        0,
        87,
        88,
        89,
        90,
        91,
        92,
        0,
        0,
        0,
        0,
        0,
        0,
        0,
        0,
        0,
        0,
        0,
        0,
        0,
        93,
        94,
        95,
        96,
        97,
        0,
        0,
        0,
        0,
        0,
        0,
        0,
        0,
        0,
        0,
        0,
        0,
        0,
        0,
        0,
        0,
        0,
        0,
        0,
        0,
        0,
        0,
        0,
        0
      ],
      "transparentIndex": 0
    },
    {
      "name": "1061500_stand_02",
      "atlasName": "1061500_stand_Atlas0",
      "width": 1024,
      "height": 720,
      "cellIndexList": [
        0,
        0,
        0,
        0,
        1,
        2,
        3,
        4,
        5,
        6,
        7,
        8,
        9,
        0,
        0,
        0,
        0,
        0,
        0,
        0,
        0,
        0,
        10,
        11,
        12,
        13,
        14,
        15,
        16,
        17,
        18,
        0,
        0,
        0,
        0,
        0,
        0,
        0,
        0,
        0,
        19,
        20,
        21,
        22,
        23,
        24,
        25,
        26,
        27,
        0,
        0,
        0,
        0,
        0,
        0,
        0,
        0,
        0,
        0,
        28,
        29,
        30,
        31,
        32,
        33,
        34,
        0,
        0,
        0,
        0,
        0,
        0,
        0,
        0,
        0,
        0,
        0,
        35,
        36,
        37,
        38,
        39,
        40,
        41,
        42,
        0,
        0,
        0,
        0,
        0,
        0,
        0,
        0,
        0,
        0,
        43,
        44,
        45,
        46,
        47,
        48,
        49,
        50,
        51,
        0,
        0,
        0,
        0,
        0,
        0,
        0,
        0,
        52,
        53,
        54,
        55,
        56,
        57,
        58,
        59,
        60,
        61,
        62,
        0,
        0,
        0,
        0,
        0,
        0,
        0,
        63,
        64,
        65,
        66,
        67,
        68,
        69,
        70,
        71,
        0,
        0,
        0,
        0,
        0,
        0,
        0,
        0,
        0,
        0,
        72,
        73,
        74,
        75,
        76,
        77,
        78,
        79,
        0,
        0,
        0,
        0,
        0,
        0,
        0,
        0,
        0,
        0,
        80,
        81,
        98,
        99,
        100,
        85,
        86,
        0,
        0,
        0,
        0,
        0,
        0,
        0,
        0,
        0,
        0,
        0,
        0,
        87,
        88,
        101,
        102,
        91,
        92,
        0,
        0,
        0,
        0,
        0,
        0,
        0,
        0,
        0,
        0,
        0,
        0,
        0,
        93,
        94,
        95,
        96,
        97,
        0,
        0,
        0,
        0,
        0,
        0,
        0,
        0,
        0,
        0,
        0,
        0,
        0,
        0,
        0,
        0,
        0,
        0,
        0,
        0,
        0,
        0,
        0,
        0
      ],
      "transparentIndex": 0
    },
    {
      "name": "1061500_stand_03",
      "atlasName": "1061500_stand_Atlas0",
      "width": 1024,
      "height": 720,
      "cellIndexList": [
        0,
        0,
        0,
        0,
        1,
        2,
        3,
        4,
        5,
        6,
        7,
        8,
        9,
        0,
        0,
        0,
        0,
        0,
        0,
        0,
        0,
        0,
        10,
        11,
        12,
        13,
        14,
        15,
        16,
        17,
        18,
        0,
        0,
        0,
        0,
        0,
        0,
        0,
        0,
        0,
        19,
        20,
        21,
        22,
        23,
        24,
        25,
        26,
        27,
        0,
        0,
        0,
        0,
        0,
        0,
        0,
        0,
        0,
        0,
        28,
        29,
        30,
        31,
        32,
        33,
        34,
        0,
        0,
        0,
        0,
        0,
        0,
        0,
        0,
        0,
        0,
        0,
        35,
        36,
        37,
        38,
        39,
        40,
        41,
        42,
        0,
        0,
        0,
        0,
        0,
        0,
        0,
        0,
        0,
        0,
        43,
        44,
        45,
        46,
        47,
        48,
        49,
        50,
        51,
        0,
        0,
        0,
        0,
        0,
        0,
        0,
        0,
        52,
        53,
        54,
        55,
        56,
        57,
        58,
        59,
        60,
        61,
        62,
        0,
        0,
        0,
        0,
        0,
        0,
        0,
        63,
        64,
        65,
        66,
        67,
        68,
        69,
        70,
        71,
        0,
        0,
        0,
        0,
        0,
        0,
        0,
        0,
        0,
        0,
        72,
        73,
        74,
        75,
        76,
        77,
        78,
        79,
        0,
        0,
        0,
        0,
        0,
        0,
        0,
        0,
        0,
        0,
        80,
        81,
        103,
        104,
        105,
        85,
        86,
        0,
        0,
        0,
        0,
        0,
        0,
        0,
        0,
        0,
        0,
        0,
        0,
        87,
        106,
        107,
        108,
        91,
        92,
        0,
        0,
        0,
        0,
        0,
        0,
        0,
        0,
        0,
        0,
        0,
        0,
        0,
        93,
        94,
        95,
        96,
        97,
        0,
        0,
        0,
        0,
        0,
        0,
        0,
        0,
        0,
        0,
        0,
        0,
        0,
        0,
        0,
        0,
        0,
        0,
        0,
        0,
        0,
        0,
        0,
        0
      ],
      "transparentIndex": 0
    },
    {
      "name": "1061500_stand_04",
      "atlasName": "1061500_stand_Atlas0",
      "width": 1024,
      "height": 720,
      "cellIndexList": [
        0,
        0,
        0,
        0,
        1,
        2,
        3,
        4,
        5,
        6,
        7,
        8,
        9,
        0,
        0,
        0,
        0,
        0,
        0,
        0,
        0,
        0,
        10,
        11,
        12,
        13,
        14,
        15,
        16,
        17,
        18,
        0,
        0,
        0,
        0,
        0,
        0,
        0,
        0,
        0,
        19,
        20,
        21,
        22,
        23,
        24,
        25,
        26,
        27,
        0,
        0,
        0,
        0,
        0,
        0,
        0,
        0,
        0,
        0,
        28,
        29,
        30,
        31,
        32,
        33,
        34,
        0,
        0,
        0,
        0,
        0,
        0,
        0,
        0,
        0,
        0,
        0,
        35,
        36,
        37,
        38,
        39,
        40,
        41,
        42,
        0,
        0,
        0,
        0,
        0,
        0,
        0,
        0,
        0,
        0,
        43,
        44,
        45,
        46,
        47,
        48,
        49,
        50,
        51,
        0,
        0,
        0,
        0,
        0,
        0,
        0,
        0,
        52,
        53,
        54,
        55,
        56,
        57,
        58,
        59,
        60,
        61,
        62,
        0,
        0,
        0,
        0,
        0,
        0,
        0,
        63,
        64,
        65,
        66,
        67,
        68,
        69,
        70,
        71,
        0,
        0,
        0,
        0,
        0,
        0,
        0,
        0,
        0,
        0,
        72,
        73,
        74,
        109,
        110,
        77,
        78,
        79,
        0,
        0,
        0,
        0,
        0,
        0,
        0,
        0,
        0,
        0,
        80,
        81,
        111,
        112,
        113,
        85,
        86,
        0,
        0,
        0,
        0,
        0,
        0,
        0,
        0,
        0,
        0,
        0,
        0,
        87,
        88,
        101,
        102,
        91,
        92,
        0,
        0,
        0,
        0,
        0,
        0,
        0,
        0,
        0,
        0,
        0,
        0,
        0,
        93,
        94,
        95,
        96,
        97,
        0,
        0,
        0,
        0,
        0,
        0,
        0,
        0,
        0,
        0,
        0,
        0,
        0,
        0,
        0,
        0,
        0,
        0,
        0,
        0,
        0,
        0,
        0,
        0
      ],
      "transparentIndex": 0
    },
    {
      "name": "1061500_stand_05",
      "atlasName": "1061500_stand_Atlas0",
      "width": 1024,
      "height": 720,
      "cellIndexList": [
        0,
        0,
        0,
        0,
        1,
        2,
        3,
        4,
        5,
        6,
        7,
        8,
        9,
        0,
        0,
        0,
        0,
        0,
        0,
        0,
        0,
        0,
        10,
        11,
        12,
        13,
        14,
        15,
        16,
        17,
        18,
        0,
        0,
        0,
        0,
        0,
        0,
        0,
        0,
        0,
        19,
        20,
        21,
        22,
        23,
        24,
        25,
        26,
        27,
        0,
        0,
        0,
        0,
        0,
        0,
        0,
        0,
        0,
        0,
        28,
        29,
        30,
        31,
        32,
        33,
        34,
        0,
        0,
        0,
        0,
        0,
        0,
        0,
        0,
        0,
        0,
        0,
        35,
        36,
        37,
        38,
        39,
        40,
        41,
        42,
        0,
        0,
        0,
        0,
        0,
        0,
        0,
        0,
        0,
        0,
        43,
        44,
        45,
        46,
        47,
        48,
        49,
        50,
        51,
        0,
        0,
        0,
        0,
        0,
        0,
        0,
        0,
        52,
        53,
        54,
        55,
        56,
        57,
        58,
        59,
        60,
        61,
        62,
        0,
        0,
        0,
        0,
        0,
        0,
        0,
        63,
        64,
        65,
        66,
        67,
        68,
        69,
        70,
        71,
        0,
        0,
        0,
        0,
        0,
        0,
        0,
        0,
        0,
        0,
        72,
        73,
        74,
        75,
        76,
        77,
        78,
        79,
        0,
        0,
        0,
        0,
        0,
        0,
        0,
        0,
        0,
        0,
        80,
        81,
        114,
        115,
        84,
        85,
        86,
        0,
        0,
        0,
        0,
        0,
        0,
        0,
        0,
        0,
        0,
        0,
        0,
        87,
        116,
        117,
        118,
        91,
        92,
        0,
        0,
        0,
        0,
        0,
        0,
        0,
        0,
        0,
        0,
        0,
        0,
        0,
        93,
        94,
        95,
        96,
        97,
        0,
        0,
        0,
        0,
        0,
        0,
        0,
        0,
        0,
        0,
        0,
        0,
        0,
        0,
        0,
        0,
        0,
        0,
        0,
        0,
        0,
        0,
        0,
        0
      ],
      "transparentIndex": 0
    },
    {
      "name": "1061500_stand_06",
      "atlasName": "1061500_stand_Atlas0",
      "width": 1024,
      "height": 720,
      "cellIndexList": [
        0,
        0,
        0,
        0,
        1,
        2,
        3,
        4,
        5,
        6,
        7,
        8,
        9,
        0,
        0,
        0,
        0,
        0,
        0,
        0,
        0,
        0,
        10,
        11,
        12,
        13,
        14,
        15,
        16,
        17,
        18,
        0,
        0,
        0,
        0,
        0,
        0,
        0,
        0,
        0,
        19,
        20,
        21,
        22,
        23,
        24,
        25,
        26,
        27,
        0,
        0,
        0,
        0,
        0,
        0,
        0,
        0,
        0,
        0,
        28,
        29,
        30,
        31,
        32,
        33,
        34,
        0,
        0,
        0,
        0,
        0,
        0,
        0,
        0,
        0,
        0,
        0,
        35,
        36,
        37,
        38,
        39,
        40,
        41,
        42,
        0,
        0,
        0,
        0,
        0,
        0,
        0,
        0,
        0,
        0,
        43,
        44,
        45,
        46,
        47,
        48,
        49,
        50,
        51,
        0,
        0,
        0,
        0,
        0,
        0,
        0,
        0,
        52,
        53,
        54,
        55,
        56,
        57,
        58,
        59,
        60,
        61,
        62,
        0,
        0,
        0,
        0,
        0,
        0,
        0,
        63,
        64,
        65,
        66,
        67,
        68,
        69,
        70,
        71,
        0,
        0,
        0,
        0,
        0,
        0,
        0,
        0,
        0,
        0,
        72,
        73,
        74,
        119,
        110,
        77,
        78,
        79,
        0,
        0,
        0,
        0,
        0,
        0,
        0,
        0,
        0,
        0,
        80,
        81,
        114,
        120,
        121,
        85,
        86,
        0,
        0,
        0,
        0,
        0,
        0,
        0,
        0,
        0,
        0,
        0,
        0,
        87,
        116,
        117,
        118,
        91,
        92,
        0,
        0,
        0,
        0,
        0,
        0,
        0,
        0,
        0,
        0,
        0,
        0,
        0,
        93,
        94,
        95,
        96,
        97,
        0,
        0,
        0,
        0,
        0,
        0,
        0,
        0,
        0,
        0,
        0,
        0,
        0,
        0,
        0,
        0,
        0,
        0,
        0,
        0,
        0,
        0,
        0,
        0
      ],
      "transparentIndex": 0
    },
    {
      "name": "1061500_stand_07",
      "atlasName": "1061500_stand_Atlas0",
      "width": 1024,
      "height": 720,
      "cellIndexList": [
        0,
        0,
        0,
        0,
        1,
        2,
        3,
        4,
        5,
        6,
        7,
        8,
        9,
        0,
        0,
        0,
        0,
        0,
        0,
        0,
        0,
        0,
        10,
        11,
        12,
        13,
        14,
        15,
        16,
        17,
        18,
        0,
        0,
        0,
        0,
        0,
        0,
        0,
        0,
        0,
        19,
        20,
        21,
        22,
        23,
        24,
        25,
        26,
        27,
        0,
        0,
        0,
        0,
        0,
        0,
        0,
        0,
        0,
        0,
        28,
        29,
        30,
        31,
        32,
        33,
        34,
        0,
        0,
        0,
        0,
        0,
        0,
        0,
        0,
        0,
        0,
        0,
        35,
        36,
        37,
        38,
        39,
        40,
        41,
        42,
        0,
        0,
        0,
        0,
        0,
        0,
        0,
        0,
        0,
        0,
        43,
        44,
        45,
        46,
        47,
        48,
        49,
        50,
        51,
        0,
        0,
        0,
        0,
        0,
        0,
        0,
        0,
        52,
        53,
        54,
        55,
        56,
        57,
        58,
        59,
        60,
        61,
        62,
        0,
        0,
        0,
        0,
        0,
        0,
        0,
        63,
        64,
        65,
        66,
        67,
        68,
        69,
        70,
        71,
        0,
        0,
        0,
        0,
        0,
        0,
        0,
        0,
        0,
        0,
        72,
        73,
        74,
        122,
        123,
        77,
        78,
        79,
        0,
        0,
        0,
        0,
        0,
        0,
        0,
        0,
        0,
        0,
        80,
        81,
        124,
        125,
        126,
        85,
        86,
        0,
        0,
        0,
        0,
        0,
        0,
        0,
        0,
        0,
        0,
        0,
        0,
        87,
        127,
        128,
        129,
        91,
        92,
        0,
        0,
        0,
        0,
        0,
        0,
        0,
        0,
        0,
        0,
        0,
        0,
        0,
        93,
        94,
        95,
        96,
        97,
        0,
        0,
        0,
        0,
        0,
        0,
        0,
        0,
        0,
        0,
        0,
        0,
        0,
        0,
        0,
        0,
        0,
        0,
        0,
        0,
        0,
        0,
        0,
        0
      ],
      "transparentIndex": 0
    }
  ]
}