{
  "m_GameObject": {
    "m_FileID": 0,
    "m_PathID": 0
  },
  "m_Enabled": 1,
  "m_Script": {
    "m_FileID": 0,
    "m_PathID": 2773386506308366186
  },
  "m_Name": "1140500_stand",
  "cellSize": 64,
  "padding": 3,
  "atlasTextures": [
    {
      "m_FileID": 0,
      "m_PathID": -4408736981905514490
    }
  ],
  "textureDataList": [
    {
      "name": "1140500_stand_01",
      "atlasName": "1140500_stand_Atlas0",
      "width": 1024,
      "height": 824,
      "cellIndexList": [
        0,
        1,
        2,
        3,
        4,
        5,
        6,
        7,
        8,
        9,
        10,
        11,
        12,
        13,
        14,
        0,
        0,
        0,
        0,
        15,
        16,
        17,
        18,
        19,
        20,
        21,
        22,
        23,
        24,
        25,
        26,
        27,
        28,
        0,
        0,
        0,
        0,
        29,
        30,
        31,
        32,
        33,
        34,
        35,
        36,
        37,
        38,
        39,
        40,
        41,
        42,
        43,
        0,
        0,
        0,
        44,
        45,
        46,
        47,
        48,
        49,
        50,
        51,
        52,
        53,
        54,
        55,
        56,
        57,
        58,
        0,
        0,
        0,
        0,
        59,
        60,
        61,
        62,
        63,
        64,
        65,
        66,
        67,
        68,
        69,
        70,
        71,
        0,
        0,
        0,
        0,
        0,
        0,
        72,
        73,
        74,
        75,
        76,
        77,
        78,
        79,
        80,
        81,
        82,
        83,
        0,
        0,
        0,
        0,
        0,
        0,
        84,
        85,
        86,
        87,
        88,
        89,
        90,
        91,
        92,
        93,
        94,
        95,
        0,
        0,
        0,
        0,
        0,
        0,
        96,
        97,
        98,
        99,
        100,
        101,
        102,
        103,
        104,
        105,
        106,
        107,
        0,
        0,
        0,
        0,
        0,
        0,
        108,
        109,
        110,
        111,
        112,
        113,
        114,
        115,
        116,
        117,
        118,
        119,
        0,
        0,
        0,
        0,
        0,
        0,
        120,
        121,
        122,
        123,
        124,
        125,
        126,
        127,
        128,
        129,
        130,
        131,
        0,
        0,
        0,
        0,
        0,
        0,
        0,
        132,
        133,
        134,
        135,
        136,
        137,
        138,
        139,
        140,
        0,
        0,
        0,
        0,
        0,
        0,
        0,
        0,
        0,
        0,
        141,
        142,
        143,
        144,
        145,
        146,
        147,
        148,
        0,
        0,
        0,
        0,
        0,
        0,
        0,
        0,
        0,
        0,
        149,
        150,
        151,
        152,
        153,
        154,
        155,
        0,
        0,
        0,
        0,
        0,
        0,
        0,
        0,
        0,
        0,
        0,
        0,
        0,
        156,
        157,
        158,
        0,
        0,
        0,
        0,
        0,
        0,
        0,
        0,
        0,
        0,
        0,
        0,
        0,
        0,
        0,
        0,
        159,
        0,
        0,
        0,
        0,
        0,
        0,
        0,
        0,
        0
      ],
      "transparentIndex": 0
    },
    {
      "name": "1140500_stand_02",
      "atlasName": "1140500_stand_Atlas0",
      "width": 1024,
      "height": 824,
      "cellIndexList": [
        0,
        1,
        2,
        3,
        4,
        5,
        6,
        7,
        8,
        9,
        10,
        11,
        12,
        13,
        14,
        0,
        0,
        0,
        0,
        15,
        16,
        17,
        18,
        19,
        20,
        21,
        22,
        23,
        24,
        25,
        26,
        27,
        28,
        0,
        0,
        0,
        0,
        29,
        30,
        31,
        32,
        33,
        34,
        35,
        36,
        37,
        38,
        39,
        40,
        41,
        42,
        43,
        0,
        0,
        0,
        44,
        45,
        46,
        47,
        48,
        49,
        50,
        51,
        52,
        53,
        54,
        55,
        56,
        57,
        58,
        0,
        0,
        0,
        0,
        59,
        60,
        61,
        62,
        63,
        64,
        65,
        66,
        67,
        68,
        69,
        70,
        71,
        0,
        0,
        0,
        0,
        0,
        0,
        72,
        73,
        74,
        75,
        76,
        77,
        78,
        79,
        80,
        81,
        82,
        83,
        0,
        0,
        0,
        0,
        0,
        0,
        84,
        85,
        86,
        87,
        88,
        89,
        90,
        91,
        92,
        93,
        94,
        95,
        0,
        0,
        0,
        0,
        0,
        0,
        96,
        97,
        98,
        99,
        100,
        101,
        102,
        103,
        104,
        105,
        106,
        107,
        0,
        0,
        0,
        0,
        0,
        0,
        108,
        109,
        110,
        111,
        112,
        160,
        161,
        115,
        116,
        117,
        118,
        119,
        0,
        0,
        0,
        0,
        0,
        0,
        120,
        121,
        122,
        123,
        162,
        163,
        164,
        127,
        128,
        129,
        130,
        131,
        0,
        0,
        0,
        0,
        0,
        0,
        0,
        132,
        133,
        134,
        165,
        166,
        167,
        138,
        139,
        140,
        0,
        0,
        0,
        0,
        0,
        0,
        0,
        0,
        0,
        0,
        141,
        142,
        143,
        144,
        145,
        146,
        147,
        148,
        0,
        0,
        0,
        0,
        0,
        0,
        0,
        0,
        0,
        0,
        149,
        150,
        151,
        152,
        153,
        154,
        155,
        0,
        0,
        0,
        0,
        0,
        0,
        0,
        0,
        0,
        0,
        0,
        0,
        0,
        156,
        157,
        158,
        0,
        0,
        0,
        0,
        0,
        0,
        0,
        0,
        0,
        0,
        0,
        0,
        0,
        0,
        0,
        0,
        159,
        0,
        0,
        0,
        0,
        0,
        0,
        0,
        0,
        0
      ],
      "transparentIndex": 0
    },
    {
      "name": "1140500_stand_03",
      "atlasName": "1140500_stand_Atlas0",
      "width": 1024,
      "height": 824,
      "cellIndexList": [
        0,
        1,
        2,
        3,
        4,
        5,
        6,
        7,
        8,
        9,
        10,
        11,
        12,
        13,
        14,
        0,
        0,
        0,
        0,
        15,
        16,
        17,
        18,
        19,
        20,
        21,
        22,
        23,
        24,
        25,
        26,
        27,
        28,
        0,
        0,
        0,
        0,
        29,
        30,
        31,
        32,
        33,
        34,
        35,
        36,
        37,
        38,
        39,
        40,
        41,
        42,
        43,
        0,
        0,
        0,
        44,
        45,
        46,
        47,
        48,
        49,
        50,
        51,
        52,
        53,
        54,
        55,
        56,
        57,
        58,
        0,
        0,
        0,
        0,
        59,
        60,
        61,
        62,
        63,
        64,
        65,
        66,
        67,
        68,
        69,
        70,
        71,
        0,
        0,
        0,
        0,
        0,
        0,
        72,
        73,
        74,
        75,
        76,
        77,
        78,
        79,
        80,
        81,
        82,
        83,
        0,
        0,
        0,
        0,
        0,
        0,
        84,
        85,
        86,
        87,
        88,
        89,
        90,
        91,
        92,
        93,
        94,
        95,
        0,
        0,
        0,
        0,
        0,
        0,
        96,
        97,
        98,
        99,
        100,
        101,
        102,
        103,
        104,
        105,
        106,
        107,
        0,
        0,
        0,
        0,
        0,
        0,
        108,
        109,
        110,
        111,
        112,
        113,
        114,
        115,
        116,
        117,
        118,
        119,
        0,
        0,
        0,
        0,
        0,
        0,
        120,
        121,
        122,
        123,
        168,
        169,
        170,
        127,
        128,
        129,
        130,
        131,
        0,
        0,
        0,
        0,
        0,
        0,
        0,
        132,
        133,
        134,
        171,
        172,
        173,
        138,
        139,
        140,
        0,
        0,
        0,
        0,
        0,
        0,
        0,
        0,
        0,
        0,
        141,
        142,
        143,
        144,
        145,
        146,
        147,
        148,
        0,
        0,
        0,
        0,
        0,
        0,
        0,
        0,
        0,
        0,
        149,
        150,
        151,
        152,
        153,
        154,
        155,
        0,
        0,
        0,
        0,
        0,
        0,
        0,
        0,
        0,
        0,
        0,
        0,
        0,
        156,
        157,
        158,
        0,
        0,
        0,
        0,
        0,
        0,
        0,
        0,
        0,
        0,
        0,
        0,
        0,
        0,
        0,
        0,
        159,
        0,
        0,
        0,
        0,
        0,
        0,
        0,
        0,
        0
      ],
      "transparentIndex": 0
    },
    {
      "name": "1140500_stand_04",
      "atlasName": "1140500_stand_Atlas0",
      "width": 1024,
      "height": 824,
      "cellIndexList": [
        0,
        1,
        2,
        3,
        4,
        5,
        6,
        7,
        8,
        9,
        10,
        11,
        12,
        13,
        14,
        0,
        0,
        0,
        0,
        15,
        16,
        17,
        18,
        19,
        20,
        21,
        22,
        23,
        24,
        25,
        26,
        27,
        28,
        0,
        0,
        0,
        0,
        29,
        30,
        31,
        32,
        33,
        34,
        35,
        36,
        37,
        38,
        39,
        40,
        41,
        42,
        43,
        0,
        0,
        0,
        44,
        45,
        46,
        47,
        48,
        49,
        50,
        51,
        52,
        53,
        54,
        55,
        56,
        57,
        58,
        0,
        0,
        0,
        0,
        59,
        60,
        61,
        62,
        63,
        64,
        65,
        66,
        67,
        68,
        69,
        70,
        71,
        0,
        0,
        0,
        0,
        0,
        0,
        72,
        73,
        74,
        75,
        76,
        77,
        78,
        79,
        80,
        81,
        82,
        83,
        0,
        0,
        0,
        0,
        0,
        0,
        84,
        85,
        86,
        87,
        88,
        89,
        90,
        91,
        92,
        93,
        94,
        95,
        0,
        0,
        0,
        0,
        0,
        0,
        96,
        97,
        98,
        99,
        100,
        101,
        102,
        103,
        104,
        105,
        106,
        107,
        0,
        0,
        0,
        0,
        0,
        0,
        108,
        109,
        110,
        111,
        112,
        174,
        175,
        115,
        116,
        117,
        118,
        119,
        0,
        0,
        0,
        0,
        0,
        0,
        120,
        121,
        122,
        123,
        176,
        177,
        178,
        127,
        128,
        129,
        130,
        131,
        0,
        0,
        0,
        0,
        0,
        0,
        0,
        132,
        133,
        134,
        179,
        180,
        181,
        138,
        139,
        140,
        0,
        0,
        0,
        0,
        0,
        0,
        0,
        0,
        0,
        0,
        141,
        142,
        143,
        144,
        145,
        146,
        147,
        148,
        0,
        0,
        0,
        0,
        0,
        0,
        0,
        0,
        0,
        0,
        149,
        150,
        151,
        152,
        153,
        154,
        155,
        0,
        0,
        0,
        0,
        0,
        0,
        0,
        0,
        0,
        0,
        0,
        0,
        0,
        156,
        157,
        158,
        0,
        0,
        0,
        0,
        0,
        0,
        0,
        0,
        0,
        0,
        0,
        0,
        0,
        0,
        0,
        0,
        159,
        0,
        0,
        0,
        0,
        0,
        0,
        0,
        0,
        0
      ],
      "transparentIndex": 0
    },
    {
      "name": "1140500_stand_05",
      "atlasName": "1140500_stand_Atlas0",
      "width": 1024,
      "height": 824,
      "cellIndexList": [
        0,
        1,
        2,
        3,
        4,
        5,
        6,
        7,
        8,
        9,
        10,
        11,
        12,
        13,
        14,
        0,
        0,
        0,
        0,
        15,
        16,
        17,
        18,
        19,
        20,
        21,
        22,
        23,
        24,
        25,
        26,
        27,
        28,
        0,
        0,
        0,
        0,
        29,
        30,
        31,
        32,
        33,
        34,
        35,
        36,
        37,
        38,
        39,
        40,
        41,
        42,
        43,
        0,
        0,
        0,
        44,
        45,
        46,
        47,
        48,
        49,
        50,
        51,
        52,
        53,
        54,
        55,
        56,
        57,
        58,
        0,
        0,
        0,
        0,
        59,
        60,
        61,
        62,
        63,
        64,
        65,
        66,
        67,
        68,
        69,
        70,
        71,
        0,
        0,
        0,
        0,
        0,
        0,
        72,
        73,
        74,
        75,
        76,
        77,
        78,
        79,
        80,
        81,
        82,
        83,
        0,
        0,
        0,
        0,
        0,
        0,
        84,
        85,
        86,
        87,
        88,
        89,
        90,
        91,
        92,
        93,
        94,
        95,
        0,
        0,
        0,
        0,
        0,
        0,
        96,
        97,
        98,
        99,
        100,
        101,
        102,
        103,
        104,
        105,
        106,
        107,
        0,
        0,
        0,
        0,
        0,
        0,
        108,
        109,
        110,
        111,
        112,
        182,
        183,
        115,
        116,
        117,
        118,
        119,
        0,
        0,
        0,
        0,
        0,
        0,
        120,
        121,
        122,
        123,
        184,
        185,
        186,
        127,
        128,
        129,
        130,
        131,
        0,
        0,
        0,
        0,
        0,
        0,
        0,
        132,
        133,
        134,
        187,
        188,
        189,
        138,
        139,
        140,
        0,
        0,
        0,
        0,
        0,
        0,
        0,
        0,
        0,
        0,
        141,
        142,
        143,
        144,
        145,
        146,
        147,
        148,
        0,
        0,
        0,
        0,
        0,
        0,
        0,
        0,
        0,
        0,
        149,
        150,
        151,
        152,
        153,
        154,
        155,
        0,
        0,
        0,
        0,
        0,
        0,
        0,
        0,
        0,
        0,
        0,
        0,
        0,
        156,
        157,
        158,
        0,
        0,
        0,
        0,
        0,
        0,
        0,
        0,
        0,
        0,
        0,
        0,
        0,
        0,
        0,
        0,
        159,
        0,
        0,
        0,
        0,
        0,
        0,
        0,
        0,
        0
      ],
      "transparentIndex": 0
    },
    {
      "name": "1140500_stand_06",
      "atlasName": "1140500_stand_Atlas0",
      "width": 1024,
      "height": 824,
      "cellIndexList": [
        0,
        1,
        2,
        3,
        4,
        5,
        6,
        7,
        8,
        9,
        10,
        11,
        12,
        13,
        14,
        0,
        0,
        0,
        0,
        15,
        16,
        17,
        18,
        19,
        20,
        21,
        22,
        23,
        24,
        25,
        26,
        27,
        28,
        0,
        0,
        0,
        0,
        29,
        30,
        31,
        32,
        33,
        34,
        35,
        36,
        37,
        38,
        39,
        40,
        41,
        42,
        43,
        0,
        0,
        0,
        44,
        45,
        46,
        47,
        48,
        49,
        50,
        51,
        52,
        53,
        54,
        55,
        56,
        57,
        58,
        0,
        0,
        0,
        0,
        59,
        60,
        61,
        62,
        63,
        64,
        65,
        66,
        67,
        68,
        69,
        70,
        71,
        0,
        0,
        0,
        0,
        0,
        0,
        72,
        73,
        74,
        75,
        76,
        77,
        78,
        79,
        80,
        81,
        82,
        83,
        0,
        0,
        0,
        0,
        0,
        0,
        84,
        85,
        86,
        87,
        88,
        89,
        90,
        91,
        92,
        93,
        94,
        95,
        0,
        0,
        0,
        0,
        0,
        0,
        96,
        97,
        98,
        99,
        100,
        101,
        102,
        103,
        104,
        105,
        106,
        107,
        0,
        0,
        0,
        0,
        0,
        0,
        108,
        109,
        110,
        111,
        112,
        190,
        191,
        115,
        116,
        117,
        118,
        119,
        0,
        0,
        0,
        0,
        0,
        0,
        120,
        121,
        122,
        123,
        192,
        193,
        194,
        127,
        128,
        129,
        130,
        131,
        0,
        0,
        0,
        0,
        0,
        0,
        0,
        132,
        133,
        134,
        195,
        196,
        197,
        138,
        139,
        140,
        0,
        0,
        0,
        0,
        0,
        0,
        0,
        0,
        0,
        0,
        141,
        142,
        143,
        144,
        145,
        146,
        147,
        148,
        0,
        0,
        0,
        0,
        0,
        0,
        0,
        0,
        0,
        0,
        149,
        150,
        151,
        152,
        153,
        154,
        155,
        0,
        0,
        0,
        0,
        0,
        0,
        0,
        0,
        0,
        0,
        0,
        0,
        0,
        156,
        157,
        158,
        0,
        0,
        0,
        0,
        0,
        0,
        0,
        0,
        0,
        0,
        0,
        0,
        0,
        0,
        0,
        0,
        159,
        0,
        0,
        0,
        0,
        0,
        0,
        0,
        0,
        0
      ],
      "transparentIndex": 0
    },
    {
      "name": "1140500_stand_07",
      "atlasName": "1140500_stand_Atlas0",
      "width": 1024,
      "height": 824,
      "cellIndexList": [
        0,
        1,
        2,
        3,
        4,
        5,
        6,
        7,
        8,
        9,
        10,
        11,
        12,
        13,
        14,
        0,
        0,
        0,
        0,
        15,
        16,
        17,
        18,
        19,
        20,
        21,
        22,
        23,
        24,
        25,
        26,
        27,
        28,
        0,
        0,
        0,
        0,
        29,
        30,
        31,
        32,
        33,
        34,
        35,
        36,
        37,
        38,
        39,
        40,
        41,
        42,
        43,
        0,
        0,
        0,
        44,
        45,
        46,
        47,
        48,
        49,
        50,
        51,
        52,
        53,
        54,
        55,
        56,
        57,
        58,
        0,
        0,
        0,
        0,
        59,
        60,
        61,
        62,
        63,
        64,
        65,
        66,
        67,
        68,
        69,
        70,
        71,
        0,
        0,
        0,
        0,
        0,
        0,
        72,
        73,
        74,
        75,
        76,
        77,
        78,
        79,
        80,
        81,
        82,
        83,
        0,
        0,
        0,
        0,
        0,
        0,
        84,
        85,
        86,
        87,
        88,
        89,
        90,
        91,
        92,
        93,
        94,
        95,
        0,
        0,
        0,
        0,
        0,
        0,
        96,
        97,
        98,
        99,
        100,
        101,
        102,
        103,
        104,
        105,
        106,
        107,
        0,
        0,
        0,
        0,
        0,
        0,
        108,
        109,
        110,
        111,
        112,
        198,
        114,
        115,
        116,
        117,
        118,
        119,
        0,
        0,
        0,
        0,
        0,
        0,
        120,
        121,
        122,
        123,
        199,
        200,
        201,
        127,
        128,
        129,
        130,
        131,
        0,
        0,
        0,
        0,
        0,
        0,
        0,
        132,
        133,
        134,
        202,
        203,
        204,
        138,
        139,
        140,
        0,
        0,
        0,
        0,
        0,
        0,
        0,
        0,
        0,
        0,
        141,
        142,
        143,
        144,
        145,
        146,
        147,
        148,
        0,
        0,
        0,
        0,
        0,
        0,
        0,
        0,
        0,
        0,
        149,
        150,
        151,
        152,
        153,
        154,
        155,
        0,
        0,
        0,
        0,
        0,
        0,
        0,
        0,
        0,
        0,
        0,
        0,
        0,
        156,
        157,
        158,
        0,
        0,
        0,
        0,
        0,
        0,
        0,
        0,
        0,
        0,
        0,
        0,
        0,
        0,
        0,
        0,
        159,
        0,
        0,
        0,
        0,
        0,
        0,
        0,
        0,
        0
      ],
      "transparentIndex": 0
    }
  ]
}