{
  "m_GameObject": {
    "m_FileID": 0,
    "m_PathID": 0
  },
  "m_Enabled": 1,
  "m_Script": {
    "m_FileID": 0,
    "m_PathID": 2773386506308366186
  },
  "m_Name": "1151400_stand",
  "cellSize": 64,
  "padding": 3,
  "atlasTextures": [
    {
      "m_FileID": 0,
      "m_PathID": -1312901187068440287
    }
  ],
  "textureDataList": [
    {
      "name": "1151400_stand_01",
      "atlasName": "1151400_stand_Atlas0",
      "width": 1024,
      "height": 720,
      "cellIndexList": [
        0,
        0,
        0,
        0,
        0,
        1,
        2,
        3,
        4,
        5,
        6,
        7,
        0,
        0,
        0,
        0,
        0,
        0,
        0,
        0,
        0,
        0,
        0,
        8,
        9,
        10,
        11,
        12,
        13,
        14,
        0,
        0,
        0,
        0,
        0,
        0,
        0,
        0,
        0,
        0,
        0,
        15,
        16,
        17,
        18,
        19,
        20,
        0,
        0,
        0,
        0,
        0,
        0,
        0,
        0,
        0,
        0,
        0,
        0,
        0,
        21,
        22,
        23,
        24,
        25,
        0,
        0,
        0,
        0,
        0,
        0,
        0,
        0,
        0,
        0,
        0,
        0,
        26,
        27,
        28,
        29,
        30,
        31,
        0,
        0,
        0,
        0,
        0,
        0,
        0,
        0,
        0,
        0,
        0,
        0,
        32,
        33,
        34,
        35,
        36,
        37,
        0,
        0,
        0,
        0,
        0,
        0,
        0,
        0,
        0,
        0,
        0,
        0,
        38,
        39,
        40,
        41,
        42,
        43,
        0,
        0,
        0,
        0,
        0,
        0,
        0,
        0,
        0,
        0,
        0,
        0,
        0,
        44,
        45,
        46,
        47,
        48,
        0,
        0,
        0,
        0,
        0,
        0,
        0,
        0,
        0,
        0,
        0,
        0,
        0,
        49,
        50,
        51,
        52,
        53,
        0,
        0,
        0,
        0,
        0,
        0,
        0,
        0,
        0,
        0,
        0,
        0,
        0,
        54,
        55,
        56,
        57,
        58,
        0,
        0,
        0,
        0,
        0,
        0,
        0,
        0,
        0,
        0,
        0,
        0,
        0,
        59,
        60,
        61,
        62,
        63,
        0,
        0,
        0,
        0,
        0,
        0,
        0,
        0,
        0,
        0,
        0,
        0,
        0,
        64,
        65,
        66,
        67,
        0,
        0,
        0,
        0,
        0,
        0,
        0,
        0,
        0,
        0,
        0,
        0,
        0,
        0,
        0,
        0,
        68,
        69,
        0,
        0,
        0,
        0,
        0,
        0,
        0,
        0
      ],
      "transparentIndex": 0
    },
    {
      "name": "1151400_stand_02",
      "atlasName": "1151400_stand_Atlas0",
      "width": 1024,
      "height": 720,
      "cellIndexList": [
        0,
        0,
        0,
        0,
        0,
        1,
        2,
        3,
        4,
        5,
        6,
        7,
        0,
        0,
        0,
        0,
        0,
        0,
        0,
        0,
        0,
        0,
        0,
        8,
        9,
        10,
        11,
        12,
        13,
        14,
        0,
        0,
        0,
        0,
        0,
        0,
        0,
        0,
        0,
        0,
        0,
        15,
        16,
        17,
        18,
        19,
        20,
        0,
        0,
        0,
        0,
        0,
        0,
        0,
        0,
        0,
        0,
        0,
        0,
        0,
        21,
        22,
        23,
        24,
        25,
        0,
        0,
        0,
        0,
        0,
        0,
        0,
        0,
        0,
        0,
        0,
        0,
        26,
        27,
        28,
        29,
        30,
        31,
        0,
        0,
        0,
        0,
        0,
        0,
        0,
        0,
        0,
        0,
        0,
        0,
        32,
        33,
        34,
        35,
        36,
        37,
        0,
        0,
        0,
        0,
        0,
        0,
        0,
        0,
        0,
        0,
        0,
        0,
        38,
        39,
        40,
        41,
        42,
        43,
        0,
        0,
        0,
        0,
        0,
        0,
        0,
        0,
        0,
        0,
        0,
        0,
        0,
        44,
        45,
        46,
        47,
        48,
        0,
        0,
        0,
        0,
        0,
        0,
        0,
        0,
        0,
        0,
        0,
        0,
        0,
        49,
        50,
        70,
        71,
        53,
        0,
        0,
        0,
        0,
        0,
        0,
        0,
        0,
        0,
        0,
        0,
        0,
        0,
        54,
        55,
        72,
        73,
        58,
        0,
        0,
        0,
        0,
        0,
        0,
        0,
        0,
        0,
        0,
        0,
        0,
        0,
        59,
        60,
        61,
        62,
        63,
        0,
        0,
        0,
        0,
        0,
        0,
        0,
        0,
        0,
        0,
        0,
        0,
        0,
        64,
        65,
        66,
        67,
        0,
        0,
        0,
        0,
        0,
        0,
        0,
        0,
        0,
        0,
        0,
        0,
        0,
        0,
        0,
        0,
        68,
        69,
        0,
        0,
        0,
        0,
        0,
        0,
        0,
        0
      ],
      "transparentIndex": 0
    },
    {
      "name": "1151400_stand_03",
      "atlasName": "1151400_stand_Atlas0",
      "width": 1024,
      "height": 720,
      "cellIndexList": [
        0,
        0,
        0,
        0,
        0,
        1,
        2,
        3,
        4,
        5,
        6,
        7,
        0,
        0,
        0,
        0,
        0,
        0,
        0,
        0,
        0,
        0,
        0,
        8,
        9,
        10,
        11,
        12,
        13,
        14,
        0,
        0,
        0,
        0,
        0,
        0,
        0,
        0,
        0,
        0,
        0,
        15,
        16,
        17,
        18,
        19,
        20,
        0,
        0,
        0,
        0,
        0,
        0,
        0,
        0,
        0,
        0,
        0,
        0,
        0,
        21,
        22,
        23,
        24,
        25,
        0,
        0,
        0,
        0,
        0,
        0,
        0,
        0,
        0,
        0,
        0,
        0,
        26,
        27,
        28,
        29,
        30,
        31,
        0,
        0,
        0,
        0,
        0,
        0,
        0,
        0,
        0,
        0,
        0,
        0,
        32,
        33,
        34,
        35,
        36,
        37,
        0,
        0,
        0,
        0,
        0,
        0,
        0,
        0,
        0,
        0,
        0,
        0,
        38,
        39,
        40,
        41,
        42,
        43,
        0,
        0,
        0,
        0,
        0,
        0,
        0,
        0,
        0,
        0,
        0,
        0,
        0,
        44,
        45,
        46,
        47,
        48,
        0,
        0,
        0,
        0,
        0,
        0,
        0,
        0,
        0,
        0,
        0,
        0,
        0,
        49,
        50,
        51,
        52,
        53,
        0,
        0,
        0,
        0,
        0,
        0,
        0,
        0,
        0,
        0,
        0,
        0,
        0,
        54,
        55,
        74,
        75,
        58,
        0,
        0,
        0,
        0,
        0,
        0,
        0,
        0,
        0,
        0,
        0,
        0,
        0,
        59,
        60,
        76,
        77,
        63,
        0,
        0,
        0,
        0,
        0,
        0,
        0,
        0,
        0,
        0,
        0,
        0,
        0,
        64,
        65,
        66,
        67,
        0,
        0,
        0,
        0,
        0,
        0,
        0,
        0,
        0,
        0,
        0,
        0,
        0,
        0,
        0,
        0,
        68,
        69,
        0,
        0,
        0,
        0,
        0,
        0,
        0,
        0
      ],
      "transparentIndex": 0
    },
    {
      "name": "1151400_stand_04",
      "atlasName": "1151400_stand_Atlas0",
      "width": 1024,
      "height": 720,
      "cellIndexList": [
        0,
        0,
        0,
        0,
        0,
        1,
        2,
        3,
        4,
        5,
        6,
        7,
        0,
        0,
        0,
        0,
        0,
        0,
        0,
        0,
        0,
        0,
        0,
        8,
        9,
        10,
        11,
        12,
        13,
        14,
        0,
        0,
        0,
        0,
        0,
        0,
        0,
        0,
        0,
        0,
        0,
        15,
        16,
        17,
        18,
        19,
        20,
        0,
        0,
        0,
        0,
        0,
        0,
        0,
        0,
        0,
        0,
        0,
        0,
        0,
        21,
        22,
        23,
        24,
        25,
        0,
        0,
        0,
        0,
        0,
        0,
        0,
        0,
        0,
        0,
        0,
        0,
        26,
        27,
        28,
        29,
        30,
        31,
        0,
        0,
        0,
        0,
        0,
        0,
        0,
        0,
        0,
        0,
        0,
        0,
        32,
        33,
        34,
        35,
        36,
        37,
        0,
        0,
        0,
        0,
        0,
        0,
        0,
        0,
        0,
        0,
        0,
        0,
        38,
        39,
        40,
        41,
        42,
        43,
        0,
        0,
        0,
        0,
        0,
        0,
        0,
        0,
        0,
        0,
        0,
        0,
        0,
        44,
        45,
        46,
        47,
        48,
        0,
        0,
        0,
        0,
        0,
        0,
        0,
        0,
        0,
        0,
        0,
        0,
        0,
        49,
        50,
        78,
        79,
        53,
        0,
        0,
        0,
        0,
        0,
        0,
        0,
        0,
        0,
        0,
        0,
        0,
        0,
        54,
        55,
        80,
        81,
        58,
        0,
        0,
        0,
        0,
        0,
        0,
        0,
        0,
        0,
        0,
        0,
        0,
        0,
        59,
        60,
        82,
        83,
        63,
        0,
        0,
        0,
        0,
        0,
        0,
        0,
        0,
        0,
        0,
        0,
        0,
        0,
        64,
        65,
        66,
        67,
        0,
        0,
        0,
        0,
        0,
        0,
        0,
        0,
        0,
        0,
        0,
        0,
        0,
        0,
        0,
        0,
        68,
        69,
        0,
        0,
        0,
        0,
        0,
        0,
        0,
        0
      ],
      "transparentIndex": 0
    },
    {
      "name": "1151400_stand_05",
      "atlasName": "1151400_stand_Atlas0",
      "width": 1024,
      "height": 720,
      "cellIndexList": [
        0,
        0,
        0,
        0,
        0,
        1,
        2,
        3,
        4,
        5,
        6,
        7,
        0,
        0,
        0,
        0,
        0,
        0,
        0,
        0,
        0,
        0,
        0,
        8,
        9,
        10,
        11,
        12,
        13,
        14,
        0,
        0,
        0,
        0,
        0,
        0,
        0,
        0,
        0,
        0,
        0,
        15,
        16,
        17,
        18,
        19,
        20,
        0,
        0,
        0,
        0,
        0,
        0,
        0,
        0,
        0,
        0,
        0,
        0,
        0,
        21,
        22,
        23,
        24,
        25,
        0,
        0,
        0,
        0,
        0,
        0,
        0,
        0,
        0,
        0,
        0,
        0,
        26,
        27,
        28,
        29,
        30,
        31,
        0,
        0,
        0,
        0,
        0,
        0,
        0,
        0,
        0,
        0,
        0,
        0,
        32,
        33,
        34,
        35,
        36,
        37,
        0,
        0,
        0,
        0,
        0,
        0,
        0,
        0,
        0,
        0,
        0,
        0,
        38,
        39,
        40,
        41,
        42,
        43,
        0,
        0,
        0,
        0,
        0,
        0,
        0,
        0,
        0,
        0,
        0,
        0,
        0,
        44,
        45,
        46,
        47,
        48,
        0,
        0,
        0,
        0,
        0,
        0,
        0,
        0,
        0,
        0,
        0,
        0,
        0,
        49,
        50,
        84,
        85,
        53,
        0,
        0,
        0,
        0,
        0,
        0,
        0,
        0,
        0,
        0,
        0,
        0,
        0,
        54,
        55,
        86,
        87,
        58,
        0,
        0,
        0,
        0,
        0,
        0,
        0,
        0,
        0,
        0,
        0,
        0,
        0,
        59,
        60,
        88,
        89,
        63,
        0,
        0,
        0,
        0,
        0,
        0,
        0,
        0,
        0,
        0,
        0,
        0,
        0,
        64,
        65,
        66,
        67,
        0,
        0,
        0,
        0,
        0,
        0,
        0,
        0,
        0,
        0,
        0,
        0,
        0,
        0,
        0,
        0,
        68,
        69,
        0,
        0,
        0,
        0,
        0,
        0,
        0,
        0
      ],
      "transparentIndex": 0
    },
    {
      "name": "1151400_stand_06",
      "atlasName": "1151400_stand_Atlas0",
      "width": 1024,
      "height": 720,
      "cellIndexList": [
        0,
        0,
        0,
        0,
        0,
        1,
        2,
        3,
        4,
        5,
        6,
        7,
        0,
        0,
        0,
        0,
        0,
        0,
        0,
        0,
        0,
        0,
        0,
        8,
        9,
        10,
        11,
        12,
        13,
        14,
        0,
        0,
        0,
        0,
        0,
        0,
        0,
        0,
        0,
        0,
        0,
        15,
        16,
        17,
        18,
        19,
        20,
        0,
        0,
        0,
        0,
        0,
        0,
        0,
        0,
        0,
        0,
        0,
        0,
        0,
        21,
        22,
        23,
        24,
        25,
        0,
        0,
        0,
        0,
        0,
        0,
        0,
        0,
        0,
        0,
        0,
        0,
        26,
        27,
        28,
        29,
        30,
        31,
        0,
        0,
        0,
        0,
        0,
        0,
        0,
        0,
        0,
        0,
        0,
        0,
        32,
        33,
        34,
        35,
        36,
        37,
        0,
        0,
        0,
        0,
        0,
        0,
        0,
        0,
        0,
        0,
        0,
        0,
        38,
        39,
        40,
        41,
        42,
        43,
        0,
        0,
        0,
        0,
        0,
        0,
        0,
        0,
        0,
        0,
        0,
        0,
        0,
        44,
        45,
        46,
        47,
        48,
        0,
        0,
        0,
        0,
        0,
        0,
        0,
        0,
        0,
        0,
        0,
        0,
        0,
        49,
        50,
        90,
        91,
        53,
        0,
        0,
        0,
        0,
        0,
        0,
        0,
        0,
        0,
        0,
        0,
        0,
        0,
        54,
        55,
        92,
        93,
        58,
        0,
        0,
        0,
        0,
        0,
        0,
        0,
        0,
        0,
        0,
        0,
        0,
        0,
        59,
        60,
        94,
        95,
        63,
        0,
        0,
        0,
        0,
        0,
        0,
        0,
        0,
        0,
        0,
        0,
        0,
        0,
        64,
        65,
        66,
        67,
        0,
        0,
        0,
        0,
        0,
        0,
        0,
        0,
        0,
        0,
        0,
        0,
        0,
        0,
        0,
        0,
        68,
        69,
        0,
        0,
        0,
        0,
        0,
        0,
        0,
        0
      ],
      "transparentIndex": 0
    },
    {
      "name": "1151400_stand_07",
      "atlasName": "1151400_stand_Atlas0",
      "width": 1024,
      "height": 720,
      "cellIndexList": [
        0,
        0,
        0,
        0,
        0,
        1,
        2,
        3,
        4,
        5,
        6,
        7,
        0,
        0,
        0,
        0,
        0,
        0,
        0,
        0,
        0,
        0,
        0,
        8,
        9,
        10,
        11,
        12,
        13,
        14,
        0,
        0,
        0,
        0,
        0,
        0,
        0,
        0,
        0,
        0,
        0,
        15,
        16,
        17,
        18,
        19,
        20,
        0,
        0,
        0,
        0,
        0,
        0,
        0,
        0,
        0,
        0,
        0,
        0,
        0,
        21,
        22,
        23,
        24,
        25,
        0,
        0,
        0,
        0,
        0,
        0,
        0,
        0,
        0,
        0,
        0,
        0,
        26,
        27,
        28,
        29,
        30,
        31,
        0,
        0,
        0,
        0,
        0,
        0,
        0,
        0,
        0,
        0,
        0,
        0,
        32,
        33,
        34,
        35,
        36,
        37,
        0,
        0,
        0,
        0,
        0,
        0,
        0,
        0,
        0,
        0,
        0,
        0,
        38,
        39,
        40,
        41,
        42,
        43,
        0,
        0,
        0,
        0,
        0,
        0,
        0,
        0,
        0,
        0,
        0,
        0,
        0,
        44,
        45,
        46,
        47,
        48,
        0,
        0,
        0,
        0,
        0,
        0,
        0,
        0,
        0,
        0,
        0,
        0,
        0,
        49,
        50,
        96,
        97,
        53,
        0,
        0,
        0,
        0,
        0,
        0,
        0,
        0,
        0,
        0,
        0,
        0,
        0,
        54,
        55,
        98,
        99,
        58,
        0,
        0,
        0,
        0,
        0,
        0,
        0,
        0,
        0,
        0,
        0,
        0,
        0,
        59,
        60,
        100,
        101,
        63,
        0,
        0,
        0,
        0,
        0,
        0,
        0,
        0,
        0,
        0,
        0,
        0,
        0,
        64,
        65,
        66,
        67,
        0,
        0,
        0,
        0,
        0,
        0,
        0,
        0,
        0,
        0,
        0,
        0,
        0,
        0,
        0,
        0,
        68,
        69,
        0,
        0,
        0,
        0,
        0,
        0,
        0,
        0
      ],
      "transparentIndex": 0
    }
  ]
}