{
  "m_GameObject": {
    "m_FileID": 0,
    "m_PathID": 0
  },
  "m_Enabled": 1,
  "m_Script": {
    "m_FileID": 0,
    "m_PathID": 2773386506308366186
  },
  "m_Name": "1200500_stand",
  "cellSize": 64,
  "padding": 3,
  "atlasTextures": [
    {
      "m_FileID": 0,
      "m_PathID": 8005339613186493408
    }
  ],
  "textureDataList": [
    {
      "name": "1200500_stand_01",
      "atlasName": "1200500_stand_Atlas0",
      "width": 1024,
      "height": 752,
      "cellIndexList": [
        0,
        0,
        0,
        0,
        1,
        2,
        3,
        4,
        5,
        6,
        7,
        8,
        9,
        10,
        0,
        0,
        0,
        0,
        0,
        0,
        0,
        0,
        11,
        12,
        13,
        14,
        15,
        16,
        17,
        18,
        19,
        20,
        0,
        0,
        0,
        0,
        0,
        0,
        0,
        0,
        21,
        22,
        23,
        24,
        25,
        26,
        27,
        28,
        29,
        30,
        0,
        0,
        0,
        0,
        0,
        0,
        0,
        0,
        31,
        32,
        33,
        34,
        35,
        36,
        37,
        38,
        39,
        40,
        0,
        0,
        0,
        0,
        0,
        0,
        0,
        0,
        41,
        42,
        43,
        44,
        45,
        46,
        47,
        48,
        49,
        50,
        0,
        0,
        0,
        0,
        0,
        0,
        0,
        0,
        51,
        52,
        53,
        54,
        55,
        56,
        57,
        58,
        59,
        60,
        0,
        0,
        0,
        0,
        0,
        0,
        0,
        0,
        0,
        61,
        62,
        63,
        64,
        65,
        66,
        67,
        68,
        0,
        0,
        0,
        0,
        0,
        0,
        0,
        0,
        0,
        0,
        69,
        70,
        71,
        72,
        73,
        74,
        75,
        76,
        0,
        0,
        0,
        0,
        0,
        0,
        0,
        0,
        0,
        0,
        77,
        78,
        79,
        80,
        81,
        82,
        83,
        0,
        0,
        0,
        0,
        0,
        0,
        0,
        0,
        0,
        0,
        0,
        0,
        84,
        85,
        86,
        87,
        88,
        89,
        0,
        0,
        0,
        0,
        0,
        0,
        0,
        0,
        0,
        0,
        0,
        90,
        91,
        92,
        93,
        94,
        95,
        96,
        0,
        0,
        0,
        0,
        0,
        0,
        0,
        0,
        0,
        0,
        0,
        97,
        98,
        99,
        100,
        101,
        102,
        103,
        0,
        0,
        0,
        0,
        0,
        0,
        0,
        0,
        0,
        0,
        0,
        0,
        104,
        105,
        106,
        107,
        108,
        0,
        0,
        0,
        0,
        0,
        0,
        0
      ],
      "transparentIndex": 0
    },
    {
      "name": "1200500_stand_02",
      "atlasName": "1200500_stand_Atlas0",
      "width": 1024,
      "height": 752,
      "cellIndexList": [
        0,
        0,
        0,
        0,
        1,
        2,
        3,
        4,
        5,
        6,
        7,
        8,
        9,
        10,
        0,
        0,
        0,
        0,
        0,
        0,
        0,
        0,
        11,
        12,
        13,
        14,
        15,
        16,
        17,
        18,
        19,
        20,
        0,
        0,
        0,
        0,
        0,
        0,
        0,
        0,
        21,
        22,
        23,
        24,
        25,
        26,
        27,
        28,
        29,
        30,
        0,
        0,
        0,
        0,
        0,
        0,
        0,
        0,
        31,
        32,
        33,
        34,
        35,
        36,
        37,
        38,
        39,
        40,
        0,
        0,
        0,
        0,
        0,
        0,
        0,
        0,
        41,
        42,
        43,
        44,
        45,
        46,
        47,
        48,
        49,
        50,
        0,
        0,
        0,
        0,
        0,
        0,
        0,
        0,
        51,
        52,
        53,
        54,
        55,
        56,
        57,
        58,
        59,
        60,
        0,
        0,
        0,
        0,
        0,
        0,
        0,
        0,
        0,
        61,
        62,
        63,
        64,
        65,
        66,
        67,
        68,
        0,
        0,
        0,
        0,
        0,
        0,
        0,
        0,
        0,
        0,
        69,
        70,
        71,
        72,
        73,
        74,
        75,
        76,
        0,
        0,
        0,
        0,
        0,
        0,
        0,
        0,
        0,
        0,
        77,
        78,
        79,
        80,
        81,
        82,
        83,
        0,
        0,
        0,
        0,
        0,
        0,
        0,
        0,
        0,
        0,
        0,
        0,
        84,
        109,
        110,
        111,
        88,
        89,
        0,
        0,
        0,
        0,
        0,
        0,
        0,
        0,
        0,
        0,
        0,
        90,
        91,
        92,
        112,
        113,
        95,
        96,
        0,
        0,
        0,
        0,
        0,
        0,
        0,
        0,
        0,
        0,
        0,
        97,
        98,
        99,
        100,
        101,
        102,
        103,
        0,
        0,
        0,
        0,
        0,
        0,
        0,
        0,
        0,
        0,
        0,
        0,
        104,
        105,
        106,
        107,
        108,
        0,
        0,
        0,
        0,
        0,
        0,
        0
      ],
      "transparentIndex": 0
    },
    {
      "name": "1200500_stand_03",
      "atlasName": "1200500_stand_Atlas0",
      "width": 1024,
      "height": 752,
      "cellIndexList": [
        0,
        0,
        0,
        0,
        1,
        2,
        3,
        4,
        5,
        6,
        7,
        8,
        9,
        10,
        0,
        0,
        0,
        0,
        0,
        0,
        0,
        0,
        11,
        12,
        13,
        14,
        15,
        16,
        17,
        18,
        19,
        20,
        0,
        0,
        0,
        0,
        0,
        0,
        0,
        0,
        21,
        22,
        23,
        24,
        25,
        26,
        27,
        28,
        29,
        30,
        0,
        0,
        0,
        0,
        0,
        0,
        0,
        0,
        31,
        32,
        33,
        34,
        35,
        36,
        37,
        38,
        39,
        40,
        0,
        0,
        0,
        0,
        0,
        0,
        0,
        0,
        41,
        42,
        43,
        44,
        45,
        46,
        47,
        48,
        49,
        50,
        0,
        0,
        0,
        0,
        0,
        0,
        0,
        0,
        51,
        52,
        53,
        54,
        55,
        56,
        57,
        58,
        59,
        60,
        0,
        0,
        0,
        0,
        0,
        0,
        0,
        0,
        0,
        61,
        62,
        63,
        64,
        65,
        66,
        67,
        68,
        0,
        0,
        0,
        0,
        0,
        0,
        0,
        0,
        0,
        0,
        69,
        70,
        71,
        72,
        73,
        74,
        75,
        76,
        0,
        0,
        0,
        0,
        0,
        0,
        0,
        0,
        0,
        0,
        77,
        78,
        79,
        114,
        115,
        82,
        83,
        0,
        0,
        0,
        0,
        0,
        0,
        0,
        0,
        0,
        0,
        0,
        0,
        84,
        85,
        116,
        117,
        88,
        89,
        0,
        0,
        0,
        0,
        0,
        0,
        0,
        0,
        0,
        0,
        0,
        90,
        91,
        118,
        119,
        120,
        95,
        96,
        0,
        0,
        0,
        0,
        0,
        0,
        0,
        0,
        0,
        0,
        0,
        97,
        98,
        99,
        100,
        101,
        102,
        103,
        0,
        0,
        0,
        0,
        0,
        0,
        0,
        0,
        0,
        0,
        0,
        0,
        104,
        105,
        106,
        107,
        108,
        0,
        0,
        0,
        0,
        0,
        0,
        0
      ],
      "transparentIndex": 0
    },
    {
      "name": "1200500_stand_04",
      "atlasName": "1200500_stand_Atlas0",
      "width": 1024,
      "height": 752,
      "cellIndexList": [
        0,
        0,
        0,
        0,
        1,
        2,
        3,
        4,
        5,
        6,
        7,
        8,
        9,
        10,
        0,
        0,
        0,
        0,
        0,
        0,
        0,
        0,
        11,
        12,
        13,
        14,
        15,
        16,
        17,
        18,
        19,
        20,
        0,
        0,
        0,
        0,
        0,
        0,
        0,
        0,
        21,
        22,
        23,
        24,
        25,
        26,
        27,
        28,
        29,
        30,
        0,
        0,
        0,
        0,
        0,
        0,
        0,
        0,
        31,
        32,
        33,
        34,
        35,
        36,
        37,
        38,
        39,
        40,
        0,
        0,
        0,
        0,
        0,
        0,
        0,
        0,
        41,
        42,
        43,
        44,
        45,
        46,
        47,
        48,
        49,
        50,
        0,
        0,
        0,
        0,
        0,
        0,
        0,
        0,
        51,
        52,
        53,
        54,
        55,
        56,
        57,
        58,
        59,
        60,
        0,
        0,
        0,
        0,
        0,
        0,
        0,
        0,
        0,
        61,
        62,
        63,
        64,
        65,
        66,
        67,
        68,
        0,
        0,
        0,
        0,
        0,
        0,
        0,
        0,
        0,
        0,
        69,
        70,
        71,
        72,
        73,
        74,
        75,
        76,
        0,
        0,
        0,
        0,
        0,
        0,
        0,
        0,
        0,
        0,
        77,
        78,
        79,
        121,
        122,
        82,
        83,
        0,
        0,
        0,
        0,
        0,
        0,
        0,
        0,
        0,
        0,
        0,
        0,
        84,
        85,
        123,
        124,
        88,
        89,
        0,
        0,
        0,
        0,
        0,
        0,
        0,
        0,
        0,
        0,
        0,
        90,
        91,
        92,
        93,
        94,
        95,
        96,
        0,
        0,
        0,
        0,
        0,
        0,
        0,
        0,
        0,
        0,
        0,
        97,
        98,
        99,
        100,
        101,
        102,
        103,
        0,
        0,
        0,
        0,
        0,
        0,
        0,
        0,
        0,
        0,
        0,
        0,
        104,
        105,
        106,
        107,
        108,
        0,
        0,
        0,
        0,
        0,
        0,
        0
      ],
      "transparentIndex": 0
    },
    {
      "name": "1200500_stand_05",
      "atlasName": "1200500_stand_Atlas0",
      "width": 1024,
      "height": 752,
      "cellIndexList": [
        0,
        0,
        0,
        0,
        1,
        2,
        3,
        4,
        5,
        6,
        7,
        8,
        9,
        10,
        0,
        0,
        0,
        0,
        0,
        0,
        0,
        0,
        11,
        12,
        13,
        14,
        15,
        16,
        17,
        18,
        19,
        20,
        0,
        0,
        0,
        0,
        0,
        0,
        0,
        0,
        21,
        22,
        23,
        24,
        25,
        26,
        27,
        28,
        29,
        30,
        0,
        0,
        0,
        0,
        0,
        0,
        0,
        0,
        31,
        32,
        33,
        34,
        35,
        36,
        37,
        38,
        39,
        40,
        0,
        0,
        0,
        0,
        0,
        0,
        0,
        0,
        41,
        42,
        43,
        44,
        45,
        46,
        47,
        48,
        49,
        50,
        0,
        0,
        0,
        0,
        0,
        0,
        0,
        0,
        51,
        52,
        53,
        54,
        55,
        56,
        57,
        58,
        59,
        60,
        0,
        0,
        0,
        0,
        0,
        0,
        0,
        0,
        0,
        61,
        62,
        63,
        64,
        65,
        66,
        67,
        68,
        0,
        0,
        0,
        0,
        0,
        0,
        0,
        0,
        0,
        0,
        69,
        70,
        71,
        72,
        73,
        74,
        75,
        76,
        0,
        0,
        0,
        0,
        0,
        0,
        0,
        0,
        0,
        0,
        77,
        78,
        79,
        80,
        81,
        82,
        83,
        0,
        0,
        0,
        0,
        0,
        0,
        0,
        0,
        0,
        0,
        0,
        0,
        84,
        125,
        126,
        127,
        88,
        89,
        0,
        0,
        0,
        0,
        0,
        0,
        0,
        0,
        0,
        0,
        0,
        90,
        91,
        128,
        129,
        130,
        95,
        96,
        0,
        0,
        0,
        0,
        0,
        0,
        0,
        0,
        0,
        0,
        0,
        97,
        98,
        99,
        100,
        101,
        102,
        103,
        0,
        0,
        0,
        0,
        0,
        0,
        0,
        0,
        0,
        0,
        0,
        0,
        104,
        105,
        106,
        107,
        108,
        0,
        0,
        0,
        0,
        0,
        0,
        0
      ],
      "transparentIndex": 0
    },
    {
      "name": "1200500_stand_06",
      "atlasName": "1200500_stand_Atlas0",
      "width": 1024,
      "height": 752,
      "cellIndexList": [
        0,
        0,
        0,
        0,
        1,
        2,
        3,
        4,
        5,
        6,
        7,
        8,
        9,
        10,
        0,
        0,
        0,
        0,
        0,
        0,
        0,
        0,
        11,
        12,
        13,
        14,
        15,
        16,
        17,
        18,
        19,
        20,
        0,
        0,
        0,
        0,
        0,
        0,
        0,
        0,
        21,
        22,
        23,
        24,
        25,
        26,
        27,
        28,
        29,
        30,
        0,
        0,
        0,
        0,
        0,
        0,
        0,
        0,
        31,
        32,
        33,
        34,
        35,
        36,
        37,
        38,
        39,
        40,
        0,
        0,
        0,
        0,
        0,
        0,
        0,
        0,
        41,
        42,
        43,
        44,
        45,
        46,
        47,
        48,
        49,
        50,
        0,
        0,
        0,
        0,
        0,
        0,
        0,
        0,
        51,
        52,
        53,
        54,
        55,
        56,
        57,
        58,
        59,
        60,
        0,
        0,
        0,
        0,
        0,
        0,
        0,
        0,
        0,
        61,
        62,
        63,
        64,
        65,
        66,
        67,
        68,
        0,
        0,
        0,
        0,
        0,
        0,
        0,
        0,
        0,
        0,
        69,
        70,
        71,
        72,
        73,
        74,
        75,
        76,
        0,
        0,
        0,
        0,
        0,
        0,
        0,
        0,
        0,
        0,
        77,
        78,
        79,
        80,
        81,
        82,
        83,
        0,
        0,
        0,
        0,
        0,
        0,
        0,
        0,
        0,
        0,
        0,
        0,
        84,
        131,
        132,
        133,
        88,
        89,
        0,
        0,
        0,
        0,
        0,
        0,
        0,
        0,
        0,
        0,
        0,
        90,
        91,
        128,
        129,
        130,
        95,
        96,
        0,
        0,
        0,
        0,
        0,
        0,
        0,
        0,
        0,
        0,
        0,
        97,
        98,
        99,
        100,
        101,
        102,
        103,
        0,
        0,
        0,
        0,
        0,
        0,
        0,
        0,
        0,
        0,
        0,
        0,
        104,
        105,
        106,
        107,
        108,
        0,
        0,
        0,
        0,
        0,
        0,
        0
      ],
      "transparentIndex": 0
    },
    {
      "name": "1200500_stand_07",
      "atlasName": "1200500_stand_Atlas0",
      "width": 1024,
      "height": 752,
      "cellIndexList": [
        0,
        0,
        0,
        0,
        1,
        2,
        3,
        4,
        5,
        6,
        7,
        8,
        9,
        10,
        0,
        0,
        0,
        0,
        0,
        0,
        0,
        0,
        11,
        12,
        13,
        14,
        15,
        16,
        17,
        18,
        19,
        20,
        0,
        0,
        0,
        0,
        0,
        0,
        0,
        0,
        21,
        22,
        23,
        24,
        25,
        26,
        27,
        28,
        29,
        30,
        0,
        0,
        0,
        0,
        0,
        0,
        0,
        0,
        31,
        32,
        33,
        34,
        35,
        36,
        37,
        38,
        39,
        40,
        0,
        0,
        0,
        0,
        0,
        0,
        0,
        0,
        41,
        42,
        43,
        44,
        45,
        46,
        47,
        48,
        49,
        50,
        0,
        0,
        0,
        0,
        0,
        0,
        0,
        0,
        51,
        52,
        53,
        54,
        55,
        56,
        57,
        58,
        59,
        60,
        0,
        0,
        0,
        0,
        0,
        0,
        0,
        0,
        0,
        61,
        62,
        63,
        64,
        65,
        66,
        67,
        68,
        0,
        0,
        0,
        0,
        0,
        0,
        0,
        0,
        0,
        0,
        69,
        70,
        71,
        72,
        73,
        74,
        75,
        76,
        0,
        0,
        0,
        0,
        0,
        0,
        0,
        0,
        0,
        0,
        77,
        78,
        79,
        134,
        135,
        82,
        83,
        0,
        0,
        0,
        0,
        0,
        0,
        0,
        0,
        0,
        0,
        0,
        0,
        84,
        136,
        137,
        138,
        88,
        89,
        0,
        0,
        0,
        0,
        0,
        0,
        0,
        0,
        0,
        0,
        0,
        90,
        91,
        139,
        140,
        141,
        95,
        96,
        0,
        0,
        0,
        0,
        0,
        0,
        0,
        0,
        0,
        0,
        0,
        97,
        98,
        99,
        100,
        101,
        102,
        103,
        0,
        0,
        0,
        0,
        0,
        0,
        0,
        0,
        0,
        0,
        0,
        0,
        104,
        105,
        106,
        107,
        108,
        0,
        0,
        0,
        0,
        0,
        0,
        0
      ],
      "transparentIndex": 0
    },
    {
      "name": "1200500_stand_08",
      "atlasName": "1200500_stand_Atlas0",
      "width": 1024,
      "height": 752,
      "cellIndexList": [
        0,
        0,
        0,
        0,
        1,
        2,
        3,
        4,
        5,
        6,
        7,
        8,
        9,
        10,
        0,
        0,
        0,
        0,
        0,
        0,
        0,
        0,
        11,
        12,
        13,
        14,
        15,
        16,
        17,
        18,
        19,
        20,
        0,
        0,
        0,
        0,
        0,
        0,
        0,
        0,
        21,
        22,
        23,
        24,
        25,
        26,
        27,
        28,
        29,
        30,
        0,
        0,
        0,
        0,
        0,
        0,
        0,
        0,
        31,
        32,
        33,
        34,
        35,
        36,
        37,
        38,
        39,
        40,
        0,
        0,
        0,
        0,
        0,
        0,
        0,
        0,
        41,
        42,
        43,
        44,
        45,
        46,
        47,
        48,
        49,
        50,
        0,
        0,
        0,
        0,
        0,
        0,
        0,
        0,
        51,
        52,
        53,
        54,
        55,
        56,
        57,
        58,
        59,
        60,
        0,
        0,
        0,
        0,
        0,
        0,
        0,
        0,
        0,
        61,
        62,
        63,
        64,
        65,
        66,
        67,
        68,
        0,
        0,
        0,
        0,
        0,
        0,
        0,
        0,
        0,
        0,
        69,
        70,
        71,
        72,
        73,
        74,
        75,
        76,
        0,
        0,
        0,
        0,
        0,
        0,
        0,
        0,
        0,
        0,
        77,
        78,
        79,
        121,
        122,
        82,
        83,
        0,
        0,
        0,
        0,
        0,
        0,
        0,
        0,
        0,
        0,
        0,
        0,
        84,
        142,
        143,
        144,
        88,
        89,
        0,
        0,
        0,
        0,
        0,
        0,
        0,
        0,
        0,
        0,
        0,
        90,
        91,
        92,
        112,
        113,
        95,
        96,
        0,
        0,
        0,
        0,
        0,
        0,
        0,
        0,
        0,
        0,
        0,
        97,
        98,
        99,
        100,
        101,
        102,
        103,
        0,
        0,
        0,
        0,
        0,
        0,
        0,
        0,
        0,
        0,
        0,
        0,
        104,
        105,
        106,
        107,
        108,
        0,
        0,
        0,
        0,
        0,
        0,
        0
      ],
      "transparentIndex": 0
    }
  ]
}