{
  "m_GameObject": {
    "m_FileID": 0,
    "m_PathID": 0
  },
  "m_Enabled": 1,
  "m_Script": {
    "m_FileID": 0,
    "m_PathID": 2773386506308366186
  },
  "m_Name": "3000300_stand",
  "cellSize": 64,
  "padding": 3,
  "atlasTextures": [
    {
      "m_FileID": 0,
      "m_PathID": -6709179462904620164
    }
  ],
  "textureDataList": [
    {
      "name": "3000300_stand_01",
      "atlasName": "3000300_stand_Atlas0",
      "width": 1024,
      "height": 720,
      "cellIndexList": [
        0,
        0,
        0,
        0,
        0,
        0,
        1,
        2,
        3,
        4,
        5,
        0,
        0,
        0,
        0,
        0,
        0,
        0,
        0,
        0,
        0,
        0,
        0,
        0,
        6,
        7,
        8,
        9,
        10,
        0,
        0,
        0,
        0,
        0,
        0,
        0,
        0,
        0,
        0,
        0,
        0,
        0,
        11,
        12,
        13,
        14,
        15,
        16,
        17,
        0,
        0,
        0,
        0,
        0,
        0,
        0,
        0,
        0,
        18,
        19,
        20,
        21,
        22,
        23,
        24,
        25,
        26,
        27,
        0,
        0,
        0,
        0,
        0,
        0,
        0,
        0,
        28,
        29,
        30,
        31,
        32,
        33,
        34,
        35,
        36,
        0,
        0,
        0,
        0,
        0,
        0,
        0,
        0,
        0,
        0,
        37,
        38,
        39,
        40,
        41,
        42,
        43,
        44,
        0,
        0,
        0,
        0,
        0,
        0,
        0,
        0,
        0,
        0,
        0,
        45,
        46,
        47,
        48,
        49,
        50,
        0,
        0,
        0,
        0,
        0,
        0,
        0,
        0,
        0,
        0,
        0,
        0,
        51,
        52,
        53,
        54,
        55,
        0,
        0,
        0,
        0,
        0,
        0,
        0,
        0,
        0,
        0,
        0,
        0,
        0,
        56,
        57,
        58,
        59,
        60,
        61,
        0,
        0,
        0,
        0,
        0,
        0,
        0,
        0,
        0,
        0,
        0,
        0,
        62,
        63,
        64,
        65,
        66,
        67,
        0,
        0,
        0,
        0,
        0,
        0,
        0,
        0,
        0,
        0,
        0,
        0,
        68,
        69,
        70,
        71,
        72,
        73,
        0,
        0,
        0,
        0,
        0,
        0,
        0,
        0,
        0,
        0,
        0,
        0,
        0,
        74,
        75,
        76,
        77,
        0,
        0,
        0,
        0,
        0,
        0,
        0,
        0,
        0,
        0,
        0,
        0,
        0,
        0,
        0,
        0,
        0,
        0,
        0,
        0,
        0,
        0,
        0,
        0,
        0
      ],
      "transparentIndex": 0
    },
    {
      "name": "3000300_stand_03",
      "atlasName": "3000300_stand_Atlas0",
      "width": 1024,
      "height": 720,
      "cellIndexList": [
        0,
        0,
        0,
        0,
        0,
        0,
        1,
        2,
        3,
        4,
        5,
        0,
        0,
        0,
        0,
        0,
        0,
        0,
        0,
        0,
        0,
        0,
        0,
        0,
        6,
        7,
        8,
        9,
        10,
        0,
        0,
        0,
        0,
        0,
        0,
        0,
        0,
        0,
        0,
        0,
        0,
        0,
        11,
        12,
        13,
        14,
        15,
        16,
        17,
        0,
        0,
        0,
        0,
        0,
        0,
        0,
        0,
        0,
        18,
        19,
        20,
        21,
        22,
        23,
        24,
        25,
        26,
        27,
        0,
        0,
        0,
        0,
        0,
        0,
        0,
        0,
        28,
        29,
        30,
        31,
        32,
        33,
        34,
        35,
        36,
        0,
        0,
        0,
        0,
        0,
        0,
        0,
        0,
        0,
        0,
        37,
        38,
        39,
        40,
        41,
        42,
        43,
        44,
        0,
        0,
        0,
        0,
        0,
        0,
        0,
        0,
        0,
        0,
        0,
        45,
        46,
        47,
        48,
        49,
        50,
        0,
        0,
        0,
        0,
        0,
        0,
        0,
        0,
        0,
        0,
        0,
        0,
        51,
        52,
        53,
        54,
        55,
        0,
        0,
        0,
        0,
        0,
        0,
        0,
        0,
        0,
        0,
        0,
        0,
        0,
        56,
        57,
        58,
        59,
        60,
        61,
        0,
        0,
        0,
        0,
        0,
        0,
        0,
        0,
        0,
        0,
        0,
        0,
        62,
        63,
        64,
        65,
        66,
        67,
        0,
        0,
        0,
        0,
        0,
        0,
        0,
        0,
        0,
        0,
        0,
        0,
        68,
        78,
        79,
        80,
        72,
        73,
        0,
        0,
        0,
        0,
        0,
        0,
        0,
        0,
        0,
        0,
        0,
        0,
        0,
        74,
        75,
        76,
        77,
        0,
        0,
        0,
        0,
        0,
        0,
        0,
        0,
        0,
        0,
        0,
        0,
        0,
        0,
        0,
        0,
        0,
        0,
        0,
        0,
        0,
        0,
        0,
        0,
        0
      ],
      "transparentIndex": 0
    },
    {
      "name": "3000300_stand_04",
      "atlasName": "3000300_stand_Atlas0",
      "width": 1024,
      "height": 720,
      "cellIndexList": [
        0,
        0,
        0,
        0,
        0,
        0,
        1,
        2,
        3,
        4,
        5,
        0,
        0,
        0,
        0,
        0,
        0,
        0,
        0,
        0,
        0,
        0,
        0,
        0,
        6,
        7,
        8,
        9,
        10,
        0,
        0,
        0,
        0,
        0,
        0,
        0,
        0,
        0,
        0,
        0,
        0,
        0,
        11,
        12,
        13,
        14,
        15,
        16,
        17,
        0,
        0,
        0,
        0,
        0,
        0,
        0,
        0,
        0,
        18,
        19,
        20,
        21,
        22,
        23,
        24,
        25,
        26,
        27,
        0,
        0,
        0,
        0,
        0,
        0,
        0,
        0,
        28,
        29,
        30,
        31,
        32,
        33,
        34,
        35,
        36,
        0,
        0,
        0,
        0,
        0,
        0,
        0,
        0,
        0,
        0,
        37,
        38,
        39,
        40,
        41,
        42,
        43,
        44,
        0,
        0,
        0,
        0,
        0,
        0,
        0,
        0,
        0,
        0,
        0,
        45,
        46,
        47,
        48,
        49,
        50,
        0,
        0,
        0,
        0,
        0,
        0,
        0,
        0,
        0,
        0,
        0,
        0,
        51,
        52,
        53,
        54,
        55,
        0,
        0,
        0,
        0,
        0,
        0,
        0,
        0,
        0,
        0,
        0,
        0,
        0,
        56,
        57,
        81,
        82,
        60,
        61,
        0,
        0,
        0,
        0,
        0,
        0,
        0,
        0,
        0,
        0,
        0,
        0,
        62,
        83,
        84,
        85,
        66,
        67,
        0,
        0,
        0,
        0,
        0,
        0,
        0,
        0,
        0,
        0,
        0,
        0,
        68,
        69,
        86,
        87,
        72,
        73,
        0,
        0,
        0,
        0,
        0,
        0,
        0,
        0,
        0,
        0,
        0,
        0,
        0,
        74,
        75,
        76,
        77,
        0,
        0,
        0,
        0,
        0,
        0,
        0,
        0,
        0,
        0,
        0,
        0,
        0,
        0,
        0,
        0,
        0,
        0,
        0,
        0,
        0,
        0,
        0,
        0,
        0
      ],
      "transparentIndex": 0
    },
    {
      "name": "3000300_stand_05",
      "atlasName": "3000300_stand_Atlas0",
      "width": 1024,
      "height": 720,
      "cellIndexList": [
        0,
        0,
        0,
        0,
        0,
        0,
        1,
        2,
        3,
        4,
        5,
        0,
        0,
        0,
        0,
        0,
        0,
        0,
        0,
        0,
        0,
        0,
        0,
        0,
        6,
        7,
        8,
        9,
        10,
        0,
        0,
        0,
        0,
        0,
        0,
        0,
        0,
        0,
        0,
        0,
        0,
        0,
        11,
        12,
        13,
        14,
        15,
        16,
        17,
        0,
        0,
        0,
        0,
        0,
        0,
        0,
        0,
        0,
        18,
        19,
        20,
        21,
        22,
        23,
        24,
        25,
        26,
        27,
        0,
        0,
        0,
        0,
        0,
        0,
        0,
        0,
        28,
        29,
        30,
        31,
        32,
        33,
        34,
        35,
        36,
        0,
        0,
        0,
        0,
        0,
        0,
        0,
        0,
        0,
        0,
        37,
        38,
        39,
        40,
        41,
        42,
        43,
        44,
        0,
        0,
        0,
        0,
        0,
        0,
        0,
        0,
        0,
        0,
        0,
        45,
        46,
        47,
        48,
        49,
        50,
        0,
        0,
        0,
        0,
        0,
        0,
        0,
        0,
        0,
        0,
        0,
        0,
        51,
        52,
        53,
        54,
        55,
        0,
        0,
        0,
        0,
        0,
        0,
        0,
        0,
        0,
        0,
        0,
        0,
        0,
        56,
        57,
        58,
        59,
        60,
        61,
        0,
        0,
        0,
        0,
        0,
        0,
        0,
        0,
        0,
        0,
        0,
        0,
        62,
        63,
        64,
        65,
        66,
        67,
        0,
        0,
        0,
        0,
        0,
        0,
        0,
        0,
        0,
        0,
        0,
        0,
        68,
        88,
        89,
        90,
        72,
        73,
        0,
        0,
        0,
        0,
        0,
        0,
        0,
        0,
        0,
        0,
        0,
        0,
        0,
        74,
        75,
        76,
        77,
        0,
        0,
        0,
        0,
        0,
        0,
        0,
        0,
        0,
        0,
        0,
        0,
        0,
        0,
        0,
        0,
        0,
        0,
        0,
        0,
        0,
        0,
        0,
        0,
        0
      ],
      "transparentIndex": 0
    },
    {
      "name": "3000300_stand_06",
      "atlasName": "3000300_stand_Atlas0",
      "width": 1024,
      "height": 720,
      "cellIndexList": [
        0,
        0,
        0,
        0,
        0,
        0,
        1,
        2,
        3,
        4,
        5,
        0,
        0,
        0,
        0,
        0,
        0,
        0,
        0,
        0,
        0,
        0,
        0,
        0,
        6,
        7,
        8,
        9,
        10,
        0,
        0,
        0,
        0,
        0,
        0,
        0,
        0,
        0,
        0,
        0,
        0,
        0,
        11,
        12,
        13,
        14,
        15,
        16,
        17,
        0,
        0,
        0,
        0,
        0,
        0,
        0,
        0,
        0,
        18,
        19,
        20,
        21,
        22,
        23,
        24,
        25,
        26,
        27,
        0,
        0,
        0,
        0,
        0,
        0,
        0,
        0,
        28,
        29,
        30,
        31,
        32,
        33,
        34,
        35,
        36,
        0,
        0,
        0,
        0,
        0,
        0,
        0,
        0,
        0,
        0,
        37,
        38,
        39,
        40,
        41,
        42,
        43,
        44,
        0,
        0,
        0,
        0,
        0,
        0,
        0,
        0,
        0,
        0,
        0,
        45,
        46,
        47,
        48,
        49,
        50,
        0,
        0,
        0,
        0,
        0,
        0,
        0,
        0,
        0,
        0,
        0,
        0,
        51,
        52,
        53,
        54,
        55,
        0,
        0,
        0,
        0,
        0,
        0,
        0,
        0,
        0,
        0,
        0,
        0,
        0,
        56,
        57,
        91,
        92,
        60,
        61,
        0,
        0,
        0,
        0,
        0,
        0,
        0,
        0,
        0,
        0,
        0,
        0,
        62,
        93,
        94,
        95,
        66,
        67,
        0,
        0,
        0,
        0,
        0,
        0,
        0,
        0,
        0,
        0,
        0,
        0,
        68,
        88,
        89,
        90,
        72,
        73,
        0,
        0,
        0,
        0,
        0,
        0,
        0,
        0,
        0,
        0,
        0,
        0,
        0,
        74,
        75,
        76,
        77,
        0,
        0,
        0,
        0,
        0,
        0,
        0,
        0,
        0,
        0,
        0,
        0,
        0,
        0,
        0,
        0,
        0,
        0,
        0,
        0,
        0,
        0,
        0,
        0,
        0
      ],
      "transparentIndex": 0
    },
    {
      "name": "3000300_stand_07",
      "atlasName": "3000300_stand_Atlas0",
      "width": 1024,
      "height": 720,
      "cellIndexList": [
        0,
        0,
        0,
        0,
        0,
        0,
        1,
        2,
        3,
        4,
        5,
        0,
        0,
        0,
        0,
        0,
        0,
        0,
        0,
        0,
        0,
        0,
        0,
        0,
        6,
        7,
        8,
        9,
        10,
        0,
        0,
        0,
        0,
        0,
        0,
        0,
        0,
        0,
        0,
        0,
        0,
        0,
        11,
        12,
        13,
        14,
        15,
        16,
        17,
        0,
        0,
        0,
        0,
        0,
        0,
        0,
        0,
        0,
        18,
        19,
        20,
        21,
        22,
        23,
        24,
        25,
        26,
        27,
        0,
        0,
        0,
        0,
        0,
        0,
        0,
        0,
        28,
        29,
        30,
        31,
        32,
        33,
        34,
        35,
        36,
        0,
        0,
        0,
        0,
        0,
        0,
        0,
        0,
        0,
        0,
        37,
        38,
        39,
        40,
        41,
        42,
        43,
        44,
        0,
        0,
        0,
        0,
        0,
        0,
        0,
        0,
        0,
        0,
        0,
        45,
        46,
        47,
        48,
        49,
        50,
        0,
        0,
        0,
        0,
        0,
        0,
        0,
        0,
        0,
        0,
        0,
        0,
        51,
        52,
        53,
        54,
        55,
        0,
        0,
        0,
        0,
        0,
        0,
        0,
        0,
        0,
        0,
        0,
        0,
        0,
        56,
        57,
        96,
        97,
        60,
        61,
        0,
        0,
        0,
        0,
        0,
        0,
        0,
        0,
        0,
        0,
        0,
        0,
        62,
        98,
        99,
        100,
        66,
        67,
        0,
        0,
        0,
        0,
        0,
        0,
        0,
        0,
        0,
        0,
        0,
        0,
        68,
        101,
        102,
        103,
        72,
        73,
        0,
        0,
        0,
        0,
        0,
        0,
        0,
        0,
        0,
        0,
        0,
        0,
        0,
        74,
        75,
        76,
        77,
        0,
        0,
        0,
        0,
        0,
        0,
        0,
        0,
        0,
        0,
        0,
        0,
        0,
        0,
        0,
        0,
        0,
        0,
        0,
        0,
        0,
        0,
        0,
        0,
        0
      ],
      "transparentIndex": 0
    }
  ]
}