{
  "m_GameObject": {
    "m_FileID": 0,
    "m_PathID": 0
  },
  "m_Enabled": 1,
  "m_Script": {
    "m_FileID": 0,
    "m_PathID": 949422448092228541
  },
  "m_Name": "10108_voice_text",
  "m_TextDict": {
    "m_keys": [
      "_join",
      "_start",
      "_waiting1",
      "_waiting2",
      "_touch1",
      "_touch2",
      "_touch3",
      "_touch4",
      "_affection1_touch1",
      "_affection1_touch2",
      "_affection1_touch3",
      "_affection3_touch1",
      "_affection3_touch2",
      "_affection3_touch3",
      "_affection5_touch1",
      "_affection5_touch2",
      "_introduction",
      "_power_up1",
      "_power_up2",
      "_power_up3",
      "_level_up",
      "_affection_up1",
      "_affection_up2",
      "_affection_up3",
      "_affection_up4",
      "_party_join1",
      "_party_join2",
      "_start_battle1",
      "_start_battle2",
      "_get_item",
      "_start_boss_battle1",
      "_start_boss_battle2",
      "_turn_start1",
      "_turn_start2",
      "_attack1",
      "_attack2",
      "_counter1",
      "_counter2",
      "_skill1",
      "_skill2",
      "_skill3",
      "_special1",
      "_small_damage1",
      "_small_damage2",
      "_mid_damage",
      "_heavy_damage",
      "_knock_out",
      "_enemy_defeat1",
      "_enemy_defeat2",
      "_result_win1",
      "_result_win2",
      "_narrow_win",
      "_boss_win",
      "_withdrawal"
    ],
    "m_values": [
      "この戦いにわたくしの力が必要、\nということですわね。さぁ、行きますわよ",
      "お待ちしておりましたわ。\nあなたがいないと始まりませんわね",
      "……放置プレイ、ということですわね。\n紅茶でも淹れて気長に待ちますわ",
      "退屈ですわ……\nこういう時こそクエスト消化ですわね",
      "うふふ、甘えん坊さんですわね",
      "このユニットは外しちゃダメですわよ？",
      "紅茶はお好きかしら？　よろしければ、\nわたくしのオススメを紹介いたしますわ",
      "わたくしにご用かしら？",
      "まったく、仕方のない人ですわね",
      "何か期待していることでもあるのでしょうか？\nそんなことないですわよね",
      "うふふ、あなたの視線を釘付けですわね",
      "うふふ。あなたが考えていることが\nなんとなくわかるようですわ",
      "ちょうど肩が凝っていたとこですわ\nありがとうございます。気が利きますわね",
      "どうぞ好きなだけおさわりになって\nうふふ、冗談ですわ",
      "きゃっ！　……イタズラが過ぎますわね。\nでも、そんなあなたも嫌いじゃありませんわ",
      "うふふ、大胆ですわね。\nあなたのお気持ちが伝わってきますわ",
      "リーンボックスの女神、グリーンハート。\nわたくしがお相手いたしますわ",
      "大きいことこそジャスティスですわ",
      "わたくしの美しさに見惚れていましたわね？",
      "わたくしはこの程度で満足しませんわ",
      "この力はわたくしのためにありますわね",
      "親交を深める秘訣？　そうですわね……\nこれから教えて差し上げますわ",
      "美しい？　うふふふ、改めて言われますと\nくすぐったいですわ。ありがとうございます",
      "あなたへの協力は惜しみませんわ。\nさ、遠慮なさらず仰ってください",
      "あなたから頼りにされて光栄ですわ\nこれからもよろしくお願いします",
      "お任せください",
      "力を貸しますわ",
      "わたくしの相手に相応しいのかしら？",
      "一瞬で終わらせますわ",
      "おめでとうございます。\nわたくしも嬉しいですわ",
      "女神という肩書きが、\n飾りではないところを見せてあげますわ",
      "仲間を……みんなを、守ってみせますわ",
      "全力で行きますわ",
      "わたくしがお相手しますわ",
      "そこ！",
      "やあっ！",
      "まだですわ",
      "やりましたわね？",
      "これでお終いですわ",
      "さぁ、ここからが本番ですわ",
      "これで元気になって……",
      "あなたには、ここで果てていただきますわ",
      "あんっ",
      "この程度ですの？",
      "っく！",
      "きゃぁーッ！",
      "もっと他に、やれることがあったはず……",
      "チェックメイトですわ",
      "楽しませていただきましたわ",
      "当然の結果ですわ",
      "さようならですわ。うふふ",
      "わたくしが苦戦を強いられるなんて…",
      "美しき勝利ですわ！",
      "引き際も大事ですわ"
    ]
  },
  "m_FaceDict": {
    "m_keys": [
      "_join",
      "_start",
      "_waiting1",
      "_waiting2",
      "_touch1",
      "_touch2",
      "_touch3",
      "_touch4",
      "_affection1_touch1",
      "_affection1_touch2",
      "_affection1_touch3",
      "_affection3_touch1",
      "_affection3_touch2",
      "_affection3_touch3",
      "_affection5_touch1",
      "_affection5_touch2",
      "_introduction",
      "_power_up1",
      "_power_up2",
      "_power_up3",
      "_level_up",
      "_affection_up1",
      "_affection_up2",
      "_affection_up3",
      "_affection_up4",
      "_party_join1",
      "_party_join2",
      "_start_battle1",
      "_start_battle2",
      "_get_item",
      "_start_boss_battle1",
      "_start_boss_battle2",
      "_turn_start1",
      "_turn_start2",
      "_attack1",
      "_attack2",
      "_counter1",
      "_counter2",
      "_skill1",
      "_skill2",
      "_skill3",
      "_special1",
      "_small_damage1",
      "_small_damage2",
      "_mid_damage",
      "_heavy_damage",
      "_knock_out",
      "_enemy_defeat1",
      "_enemy_defeat2",
      "_result_win1",
      "_result_win2",
      "_narrow_win",
      "_boss_win",
      "_withdrawal"
    ],
    "m_values": [
      0,
      4,
      2,
      5,
      6,
      4,
      4,
      4,
      5,
      5,
      6,
      6,
      4,
      4,
      6,
      4,
      0,
      0,
      0,
      0,
      0,
      0,
      0,
      0,
      0,
      0,
      0,
      0,
      0,
      0,
      0,
      0,
      0,
      0,
      0,
      0,
      0,
      0,
      0,
      0,
      0,
      0,
      0,
      0,
      0,
      0,
      0,
      0,
      0,
      0,
      0,
      0,
      0,
      0
    ]
  }
}