{
  "m_GameObject": {
    "m_FileID": 0,
    "m_PathID": 0
  },
  "m_Enabled": 1,
  "m_Script": {
    "m_FileID": 0,
    "m_PathID": 949422448092228541
  },
  "m_Name": "10103_voice_text",
  "m_TextDict": {
    "m_keys": [
      "_join",
      "_start",
      "_waiting1",
      "_waiting2",
      "_touch1",
      "_touch2",
      "_touch3",
      "_touch4",
      "_affection1_touch1",
      "_affection1_touch2",
      "_affection1_touch3",
      "_affection3_touch1",
      "_affection3_touch2",
      "_affection3_touch3",
      "_affection5_touch1",
      "_affection5_touch2",
      "_introduction",
      "_power_up1",
      "_power_up2",
      "_power_up3",
      "_level_up",
      "_affection_up1",
      "_affection_up2",
      "_affection_up3",
      "_affection_up4",
      "_party_join1",
      "_party_join2",
      "_start_battle1",
      "_start_battle2",
      "_get_item",
      "_start_boss_battle1",
      "_start_boss_battle2",
      "_turn_start1",
      "_turn_start2",
      "_attack1",
      "_attack2",
      "_counter1",
      "_counter2",
      "_skill1",
      "_skill2",
      "_skill3",
      "_special1",
      "_small_damage1",
      "_small_damage2",
      "_mid_damage",
      "_heavy_damage",
      "_knock_out",
      "_enemy_defeat1",
      "_enemy_defeat2",
      "_result_win1",
      "_result_win2",
      "_narrow_win",
      "_boss_win",
      "_withdrawal"
    ],
    "m_values": [
      "わたしの力を借りたいの？\nいいわよ、一緒に戦いましょ",
      "ようやく来たわね。\n準備は出来ているわ",
      "喋りたくないなら、それでもいい。\n私はあなたの隣で本を読むだけだから",
      "まさか、私の存在を忘れてる……？",
      "どんな風に反応されたいの？",
      "今読んでる本は何かって？\n異世界転生もののライトノベルよ",
      "トイレに行った後、手を洗った？",
      "何か用？今ちょうどいいところだから後にして",
      "ちょっと、くすぐったい……ふふっ",
      "そんなことをするなんて、\nもしかして、暇なの？",
      "あなたの手、あたたかいのね",
      "わたしも……つんつん。\nいや、楽しいのかと思って真似しただけ",
      "小説を書いていたの。\n最初に読ませてあげるからまだ見ないで",
      "以前書いたわたしの小説が面白かったって……\nありが……や、やっぱりなんでもないわ",
      "ちょっと背中を貸してくれる？\nしばらく本を読みたいの",
      "んっ……ふふっ。くすぐったい。\nあなたといると時間が緩やかに感じる。不思議ね",
      "ルウィーの守護女神、ブランよ。\nあなたに勝利を授けるわ",
      "おお……胸が少し大きく……\nなってない。くそっ",
      "力が湧いてくる",
      "この力……実戦で試したいわ",
      "まだまだよ。もっと強くならないと…",
      "名前を覚える程度には、仲良くしてもいいわよ",
      "わたしが書いた小説、読んでもいいわよ",
      "あなたといると、落ち着かなくなるわ。\nこんな気持ちは、初めて",
      "あなた、なかなか優秀なのね。\nこの戦い終わったらルウィーに……な、なんでもない",
      "ようやく出番が来たわね",
      "わたしに任せて",
      "あなたの好きにはさせない",
      "跡形もなく片付けるのみ",
      "面白いものでも手に入ったの？",
      "これでおしまいにするわ",
      "覚悟はできてるかしら？",
      "邪魔よ",
      "今度はわたしの番",
      "ふんっ",
      "失せなさい",
      "やったわね……",
      "ここで負けるわけにはっ",
      "これでも喰らいなさい",
      "理論上はこれで行けるはず",
      "連係プレイが勝利の鍵よ",
      "命乞いをしても無駄よ",
      "この程度、効かないわよっ",
      "いたっ",
      "雑魚相手にっ、くっ",
      "やるじゃねぇか",
      "少し、侮っていたみたい……",
      "これで終わりよ",
      "無様な姿ね",
      "少し、物足りない",
      "みんなのお陰で勝てたのね",
      "ようやく幕引きね。疲れた",
      "わたしがいる限り、負けることはないわ。\n勝因はそれだけよ",
      "一旦、引きましょう"
    ]
  },
  "m_FaceDict": {
    "m_keys": [
      "_join",
      "_start",
      "_waiting1",
      "_waiting2",
      "_touch1",
      "_touch2",
      "_touch3",
      "_touch4",
      "_affection1_touch1",
      "_affection1_touch2",
      "_affection1_touch3",
      "_affection3_touch1",
      "_affection3_touch2",
      "_affection3_touch3",
      "_affection5_touch1",
      "_affection5_touch2",
      "_introduction",
      "_power_up1",
      "_power_up2",
      "_power_up3",
      "_level_up",
      "_affection_up1",
      "_affection_up2",
      "_affection_up3",
      "_affection_up4",
      "_party_join1",
      "_party_join2",
      "_start_battle1",
      "_start_battle2",
      "_get_item",
      "_start_boss_battle1",
      "_start_boss_battle2",
      "_turn_start1",
      "_turn_start2",
      "_attack1",
      "_attack2",
      "_counter1",
      "_counter2",
      "_skill1",
      "_skill2",
      "_skill3",
      "_special1",
      "_small_damage1",
      "_small_damage2",
      "_mid_damage",
      "_heavy_damage",
      "_knock_out",
      "_enemy_defeat1",
      "_enemy_defeat2",
      "_result_win1",
      "_result_win2",
      "_narrow_win",
      "_boss_win",
      "_withdrawal"
    ],
    "m_values": [
      0,
      1,
      1,
      5,
      1,
      1,
      1,
      3,
      4,
      1,
      4,
      6,
      1,
      6,
      4,
      6,
      0,
      0,
      0,
      0,
      0,
      0,
      0,
      0,
      0,
      0,
      0,
      0,
      0,
      0,
      0,
      0,
      0,
      0,
      0,
      0,
      0,
      0,
      0,
      0,
      0,
      0,
      0,
      0,
      0,
      0,
      0,
      0,
      0,
      0,
      0,
      0,
      0,
      0
    ]
  }
}