{
  "m_GameObject": {
    "m_FileID": 0,
    "m_PathID": 0
  },
  "m_Enabled": 1,
  "m_Script": {
    "m_FileID": 0,
    "m_PathID": 949422448092228541
  },
  "m_Name": "10117_voice_text",
  "m_TextDict": {
    "m_keys": [
      "_join",
      "_start",
      "_waiting1",
      "_waiting2",
      "_touch1",
      "_touch2",
      "_touch3",
      "_touch4",
      "_affection1_touch1",
      "_affection1_touch2",
      "_affection1_touch3",
      "_affection3_touch1",
      "_affection3_touch2",
      "_affection3_touch3",
      "_affection5_touch1",
      "_affection5_touch2",
      "_introduction",
      "_power_up1",
      "_power_up2",
      "_power_up3",
      "_level_up",
      "_affection_up1",
      "_affection_up2",
      "_affection_up3",
      "_affection_up4",
      "_party_join1",
      "_party_join2",
      "_start_battle1",
      "_start_battle2",
      "_get_item",
      "_start_boss_battle1",
      "_start_boss_battle2",
      "_turn_start1",
      "_turn_start2",
      "_attack1",
      "_attack2",
      "_counter1",
      "_counter2",
      "_skill1",
      "_skill2",
      "_skill3",
      "_special1",
      "_small_damage1",
      "_small_damage2",
      "_mid_damage",
      "_heavy_damage",
      "_knock_out",
      "_enemy_defeat1",
      "_enemy_defeat2",
      "_result_win1",
      "_result_win2",
      "_narrow_win",
      "_boss_win",
      "_withdrawal"
    ],
    "m_values": [
      "こんな格好のまま連れて行くつもり？\n……あなた、なかなかの性格をしているわね",
      "目一杯遊びましょ。わ、わたしだって\nこんなに綺麗な海を前にしたら遊びたくなるわよ",
      "なんて綺麗な海……\nわたしの仕事場、ここに持ってこようかしら",
      "わたしを呼び寄せておいて放置するなんて……。\nでも、静かでいいわね",
      "ねえ見て、海が透き通ってる。\n泳いでいる魚まで見えるなんて凄いわね",
      "せっかく来たんだから、楽しんでいきたいわ",
      "なにしてるの？　早く海に入りましょう",
      "この水鉄砲は今回のために設計したものなの。\n狙いは外さないわ",
      "せっかくのバカンスだし、\n今日くらい思いっきり楽しみましょ",
      "水面がキラキラ輝いているわ。\n雪がキラキラしているのとはまた別の美しさね",
      "どこを触ってるのかしら。\n言いたいことがあるならはっきり言いなさい",
      "水着、似合ってるって……？\nあ、ああ……ありが……とう……",
      "いくら水着でも、隙はないわ。\nいつ敵が襲ってきても負けないんだから",
      "ひゃっ？　ななな、なんで脇腹を突いたの！？",
      "夏の日差しって不思議ね。\n普段より、大胆な気持ちになるみたい",
      "いつもよりはしゃいで疲れてしまったわ。\n向こうのパラソルで、一緒に休まない？",
      "ルウィーの守護女神、ブランよ。せっかくバカンスに\n来たのだから、存分に楽しませてもらうわ",
      "水が気持ちいいわ",
      "いつもより体が軽いわ",
      "一緒に泳ぎましょう？",
      "水着、似合ってるかしら",
      "肌がヒリヒリしてきたみたい。\nこれが日焼けというものなの？",
      "水鉄砲ぴゅぴゅーっ！　ふふふふっ！\n……は、はしゃいでなんかいないわよ",
      "泳ぎで勝負？　それもいいけれど、\nせっかくだしあなたとのんびりしたい……な",
      "ロムやラムと遊んで楽しかったわ。\n少し疲れたから、その……向こうで休憩しない？",
      "さあ、早く行きましょう",
      "今日のために新調したの",
      "行きましょう",
      "試し撃ちがしたいわ",
      "おめでとう。素敵な思い出になったわね",
      "水鉄砲で撃ってやる",
      "撃ちまくるわ",
      "覚悟して",
      "わたしを止められると思うの？",
      "びゅーっ！",
      "いっけー！",
      "お返しよ",
      "負けないわ",
      "邪魔をしないで",
      "いつでも一緒よ",
      "応援するわ",
      "バカンスを邪魔する奴は海に沈めてやる！",
      "あっ",
      "くっ",
      "やめてっ",
      "きゃああああっ",
      "気を緩めすぎたわね……",
      "さようなら",
      "バカンスを邪魔するからよ",
      "勝ちは勝ち",
      "早くシャワーを浴びたいわ",
      "バカンスで油断してしまったかしら",
      "なかなか歯ごたえがあって楽しかったわ",
      "トロピカルジュースでも飲んで再戦よ"
    ]
  },
  "m_FaceDict": {
    "m_keys": [
      "_join",
      "_start",
      "_waiting1",
      "_waiting2",
      "_touch1",
      "_touch2",
      "_touch3",
      "_touch4",
      "_affection1_touch1",
      "_affection1_touch2",
      "_affection1_touch3",
      "_affection3_touch1",
      "_affection3_touch2",
      "_affection3_touch3",
      "_affection5_touch1",
      "_affection5_touch2",
      "_introduction",
      "_power_up1",
      "_power_up2",
      "_power_up3",
      "_level_up",
      "_affection_up1",
      "_affection_up2",
      "_affection_up3",
      "_affection_up4",
      "_party_join1",
      "_party_join2",
      "_start_battle1",
      "_start_battle2",
      "_get_item",
      "_start_boss_battle1",
      "_start_boss_battle2",
      "_turn_start1",
      "_turn_start2",
      "_attack1",
      "_attack2",
      "_counter1",
      "_counter2",
      "_skill1",
      "_skill2",
      "_skill3",
      "_special1",
      "_small_damage1",
      "_small_damage2",
      "_mid_damage",
      "_heavy_damage",
      "_knock_out",
      "_enemy_defeat1",
      "_enemy_defeat2",
      "_result_win1",
      "_result_win2",
      "_narrow_win",
      "_boss_win",
      "_withdrawal"
    ],
    "m_values": [
      0,
      4,
      4,
      3,
      4,
      4,
      5,
      3,
      4,
      4,
      7,
      6,
      3,
      6,
      6,
      2,
      0,
      0,
      0,
      0,
      0,
      0,
      0,
      0,
      0,
      0,
      0,
      0,
      0,
      0,
      0,
      0,
      0,
      0,
      0,
      0,
      0,
      0,
      0,
      0,
      0,
      0,
      0,
      0,
      0,
      0,
      0,
      0,
      0,
      0,
      0,
      0,
      0,
      0
    ]
  }
}