{
  "m_GameObject": {
    "m_FileID": 0,
    "m_PathID": 0
  },
  "m_Enabled": 1,
  "m_Script": {
    "m_FileID": 0,
    "m_PathID": 949422448092228541
  },
  "m_Name": "10118_voice_text",
  "m_TextDict": {
    "m_keys": [
      "_join",
      "_start",
      "_waiting1",
      "_waiting2",
      "_touch1",
      "_touch2",
      "_touch3",
      "_touch4",
      "_affection1_touch1",
      "_affection1_touch2",
      "_affection1_touch3",
      "_affection3_touch1",
      "_affection3_touch2",
      "_affection3_touch3",
      "_affection5_touch1",
      "_affection5_touch2",
      "_introduction",
      "_power_up1",
      "_power_up2",
      "_power_up3",
      "_level_up",
      "_affection_up1",
      "_affection_up2",
      "_affection_up3",
      "_affection_up4",
      "_party_join1",
      "_party_join2",
      "_start_battle1",
      "_start_battle2",
      "_get_item",
      "_start_boss_battle1",
      "_start_boss_battle2",
      "_turn_start1",
      "_turn_start2",
      "_attack1",
      "_attack2",
      "_counter1",
      "_counter2",
      "_skill1",
      "_skill2",
      "_skill3",
      "_special1",
      "_small_damage1",
      "_small_damage2",
      "_mid_damage",
      "_heavy_damage",
      "_knock_out",
      "_enemy_defeat1",
      "_enemy_defeat2",
      "_result_win1",
      "_result_win2",
      "_narrow_win",
      "_boss_win",
      "_withdrawal"
    ],
    "m_values": [
      "わたくしこそがビーチの主役に相応しいですわ",
      "ふふっ、\nわたくしに見惚れてしまうのは仕方ありませんわね",
      "ギラギラした太陽の下で放置されるなんて。み、水……",
      "こうしてビーチで\nのんびり海を眺めるのもいいものですわね",
      "なんだか視線を感じますわね。\nそんなに刺激的な格好ではありませんのに",
      "オイルを塗って下さる？\nお返しにわたくしも塗って差し上げますわ",
      "ふふっ、この姿を見せるのは、\nあなただけの特別サービスですわよ",
      "せっかくですし、\n夏のバカンスを一緒に楽しみましょう",
      "ハァ、暑いですわね……まぁ、冷たい飲み物を\nわたくしに？　気が利きますわね。感謝いたしますわ",
      "わかっていますわ。\nわたくしのパラソルに入りたいんですわよね？",
      "何かが足りないと思ったら、ビーチを楽しむ\nかわいい子たちが足りない……これは死活問題ですわ！",
      "あなたとバカンスを過ごすのも悪くありませんわ。\n誰にも邪魔されないことを祈りますわ",
      "せっかく二人で過ごしているのですから\nもっと近くに来てくださいませ",
      "どうして水着なのかって？\nあなたを誘惑するため……と言ったらどうします？",
      "うふふっ、こんな格好なのですもの、\n触れたくなってしまう気持ちもわかりますわ",
      "あなたと過ごすこの時間……\nわたくしにとってかけがえのないものですわ",
      "リーンボックスの守護女神、グリーンハートですわ。\nわたくしとのバカンスを楽しみましょう",
      "いいですわね",
      "わたくしに相応しい力ですわね",
      "ますます視線が集まりそうですわね",
      "胸がさらに大きくなった気分ですわ",
      "わたくしへの何か特別な視線を感じますわ。\nふふっ、隠していてもバレていますわよ",
      "わたくしほど水着が似合う女性もいませんわね。\nそう思うでしょう？　……照れ隠しと受け取りますわ",
      "大人の女性の魅力が溢れすぎている？\n当然ですわ、女神たるものこうでないと",
      "体の火照りは日に当たっていたせいかしら。\nそれとも、あなたがそばにいるから……？",
      "装備は違えど、女神の力は変わりませんわよ",
      "ビーチの主役の座は譲りませんわ",
      "準備運動といきましょうか",
      "打ちのめしてあげますわ",
      "良いものを手に入れましたわね",
      "ウォーミングアップは十分ですわ",
      "覚悟は出来ていて？",
      "参りますわよ",
      "余裕ですわね",
      "そこ！",
      "はああっ",
      "まだまだですわ",
      "わたくし相手にやりますわね",
      "少し本気を出しますわ",
      "どうなさったの？",
      "手がかかりますわね",
      "美しいだけではありませんわ！",
      "ぁん！",
      "うっ",
      "なんですって……",
      "っく、想定外でしたわ……",
      "不覚でしたわ……",
      "手加減をした方がよろしかったかしら？",
      "良い運動でしたわ",
      "この後、皆さんでビーチバレーをいたしましょう",
      "当然の結果ですわ",
      "わたくしがここまで追い詰められるなんて",
      "勝つことに意味がある。そうでしょう？",
      "撤退は恥ずかしいことではありませんわ"
    ]
  },
  "m_FaceDict": {
    "m_keys": [
      "_join",
      "_start",
      "_waiting1",
      "_waiting2",
      "_touch1",
      "_touch2",
      "_touch3",
      "_touch4",
      "_affection1_touch1",
      "_affection1_touch2",
      "_affection1_touch3",
      "_affection3_touch1",
      "_affection3_touch2",
      "_affection3_touch3",
      "_affection5_touch1",
      "_affection5_touch2",
      "_introduction",
      "_power_up1",
      "_power_up2",
      "_power_up3",
      "_level_up",
      "_affection_up1",
      "_affection_up2",
      "_affection_up3",
      "_affection_up4",
      "_party_join1",
      "_party_join2",
      "_start_battle1",
      "_start_battle2",
      "_get_item",
      "_start_boss_battle1",
      "_start_boss_battle2",
      "_turn_start1",
      "_turn_start2",
      "_attack1",
      "_attack2",
      "_counter1",
      "_counter2",
      "_skill1",
      "_skill2",
      "_skill3",
      "_special1",
      "_small_damage1",
      "_small_damage2",
      "_mid_damage",
      "_heavy_damage",
      "_knock_out",
      "_enemy_defeat1",
      "_enemy_defeat2",
      "_result_win1",
      "_result_win2",
      "_narrow_win",
      "_boss_win",
      "_withdrawal"
    ],
    "m_values": [
      0,
      4,
      5,
      1,
      5,
      6,
      4,
      4,
      5,
      4,
      5,
      4,
      6,
      6,
      6,
      6,
      0,
      0,
      0,
      0,
      0,
      0,
      0,
      0,
      0,
      0,
      0,
      0,
      0,
      0,
      0,
      0,
      0,
      0,
      0,
      0,
      0,
      0,
      0,
      0,
      0,
      0,
      0,
      0,
      0,
      0,
      0,
      0,
      0,
      0,
      0,
      0,
      0,
      0
    ]
  }
}