{
  "m_GameObject": {
    "m_FileID": 0,
    "m_PathID": 0
  },
  "m_Enabled": 1,
  "m_Script": {
    "m_FileID": 0,
    "m_PathID": 949422448092228541
  },
  "m_Name": "10408_voice_text",
  "m_TextDict": {
    "m_keys": [
      "_join",
      "_start",
      "_waiting1",
      "_waiting2",
      "_touch1",
      "_touch2",
      "_touch3",
      "_touch4",
      "_affection1_touch1",
      "_affection1_touch2",
      "_affection1_touch3",
      "_affection3_touch1",
      "_affection3_touch2",
      "_affection3_touch3",
      "_affection5_touch1",
      "_affection5_touch2",
      "_introduction",
      "_power_up1",
      "_power_up2",
      "_power_up3",
      "_level_up",
      "_affection_up1",
      "_affection_up2",
      "_affection_up3",
      "_affection_up4",
      "_party_join1",
      "_party_join2",
      "_start_battle1",
      "_start_battle2",
      "_get_item",
      "_start_boss_battle1",
      "_start_boss_battle2",
      "_turn_start1",
      "_turn_start2",
      "_attack1",
      "_attack2",
      "_counter1",
      "_counter2",
      "_skill1",
      "_skill2",
      "_skill3",
      "_special1",
      "_small_damage1",
      "_small_damage2",
      "_mid_damage",
      "_heavy_damage",
      "_knock_out",
      "_enemy_defeat1",
      "_enemy_defeat2",
      "_result_win1",
      "_result_win2",
      "_narrow_win",
      "_boss_win",
      "_withdrawal"
    ],
    "m_values": [
      "ゴールドサァドの一人、シーシャよ。前から、キミと\n手合わせしたいと思ってたんだ。さあ、始めようか！",
      "アタシより強いやつに会いにいこう！",
      "……はっ……ふうっ……。\nあと５回で……スクワット１００回……！！",
      "ご飯もういらないの？\nそれじゃ、残りは全部アタシが食べちゃうね",
      "ごめん、後にしてくれる？\n今は焼肉に集中したいんだ……！！",
      "アタシ、ハンターのライセンス持ってるんだ。\nモンスター退治とか、クエストも受けたりもしてるよ",
      "やっぱり仲間は四人がちょうどいいよね。\nクエスト成功率も跳ね上がるわ",
      "ただ勝てばいいってものじゃない。\nセクシーでスタイリッシュにキメないと",
      "どう？　このスタイリッシュなプロポーション！\n日々のトレーニングの賜物よ。キミも鍛えよう！",
      "今まで倒した敵の数？　さあね。分かんない。\n途中で数えるの止めたから",
      "ねえ、後ろががら空き。ぼんやりしてたら、\nモンスターに襲われるよ？　気をつけて",
      "キミの腕、けっこう筋肉がついてきたね。\nお腹も引き締まってるし、とってもいい感じ！",
      "この間、赤と白の傘を買ったんだ。雨が降ったら、\n一緒に入ろうよ。……え？　怖い？　なんで",
      "ルウィーに凶暴なモンスターが増えた原因が、\nアタシにあるとしたら……キミはどう思う？",
      "参った、アタシの負けだ。キミの前に立つと、\nつい気がゆるんでしまう。これじゃあ勝負にならないよ",
      "いいお肉をゲットしたから、今日は焼肉パーティと\nいこう！　もちろん「異議なし！」だよね……！",
      "ルウィーを統治しているゴールドサァドよ。でも\n政治には興味ないから、モンスター退治ばかりしてるわ",
      "痺れるわ",
      "食べた分だけ強くなれる",
      "ここはあくまでも通過点よ",
      "自分の信じた道を進む。ただそれだけ",
      "キミ、いい食べっぷりだね。見てて気持ちいいよ。\nお肉もっと焼くから、じゃんじゃん食べて！",
      "アタシ、上手く焼けマスターの称号を持ってるんだ。\nお肉の焼き方には、人一倍こだわりがあるの",
      "キミのように、アタシも運命に立ち向かわないとな。\nこのお肉食べ終わったら、ルウィーの国民と向き合うよ",
      "キミがくれた勇気。そのお陰で、アタシは何倍も\n強くなれた。ありがとう。感謝してるよ……！！",
      "ひと狩りいくわよ",
      "お肉、食べた？",
      "拳と拳で語り合おう！",
      "まとめてかかってこい！",
      "いつか使う時がくるよ",
      "待たせたね！！",
      "決着をつけようか",
      "アーユーレディ？",
      "どっちが先に倒れるか、勝負だ",
      "はあっ！",
      "くらえ！",
      "ロックオン！",
      "もらったァ！",
      "ここから先はR指定だ",
      "顔を上げろ！",
      "自分に負けるな！",
      "これが黄金の力だ！",
      "うっ",
      "くっ",
      "な、なんだと！？",
      "うわあああああああっ！！",
      "アタシより強いやつが、ここにいた……",
      "これが実力の差だ",
      "キミは弱い。だから負けたんだ",
      "ＫＯ勝ちだ。おめでとう",
      "戦いの道はまだまだ続くよ",
      "お腹が空いて力が出なかった……",
      "チームワークの勝利だな",
      "コンティニューは……ないのか……"
    ]
  },
  "m_FaceDict": {
    "m_keys": [
      "_join",
      "_start",
      "_waiting1",
      "_waiting2",
      "_touch1",
      "_touch2",
      "_touch3",
      "_touch4",
      "_affection1_touch1",
      "_affection1_touch2",
      "_affection1_touch3",
      "_affection3_touch1",
      "_affection3_touch2",
      "_affection3_touch3",
      "_affection5_touch1",
      "_affection5_touch2",
      "_introduction",
      "_power_up1",
      "_power_up2",
      "_power_up3",
      "_level_up",
      "_affection_up1",
      "_affection_up2",
      "_affection_up3",
      "_affection_up4",
      "_party_join1",
      "_party_join2",
      "_start_battle1",
      "_start_battle2",
      "_get_item",
      "_start_boss_battle1",
      "_start_boss_battle2",
      "_turn_start1",
      "_turn_start2",
      "_attack1",
      "_attack2",
      "_counter1",
      "_counter2",
      "_skill1",
      "_skill2",
      "_skill3",
      "_special1",
      "_small_damage1",
      "_small_damage2",
      "_mid_damage",
      "_heavy_damage",
      "_knock_out",
      "_enemy_defeat1",
      "_enemy_defeat2",
      "_result_win1",
      "_result_win2",
      "_narrow_win",
      "_boss_win",
      "_withdrawal"
    ],
    "m_values": [
      0,
      4,
      3,
      4,
      3,
      4,
      4,
      6,
      4,
      5,
      5,
      4,
      6,
      5,
      6,
      4,
      0,
      0,
      0,
      0,
      0,
      0,
      0,
      0,
      0,
      0,
      0,
      0,
      0,
      0,
      0,
      0,
      0,
      0,
      0,
      0,
      0,
      0,
      0,
      0,
      0,
      0,
      0,
      0,
      0,
      0,
      0,
      0,
      0,
      0,
      0,
      0,
      0,
      0
    ]
  }
}