{
  "m_GameObject": {
    "m_FileID": 0,
    "m_PathID": 0
  },
  "m_Enabled": 1,
  "m_Script": {
    "m_FileID": 0,
    "m_PathID": 949422448092228541
  },
  "m_Name": "10414_voice_text",
  "m_TextDict": {
    "m_keys": [
      "_join",
      "_start",
      "_waiting1",
      "_waiting2",
      "_touch1",
      "_touch2",
      "_touch3",
      "_touch4",
      "_affection1_touch1",
      "_affection1_touch2",
      "_affection1_touch3",
      "_affection3_touch1",
      "_affection3_touch2",
      "_affection3_touch3",
      "_affection5_touch1",
      "_affection5_touch2",
      "_introduction",
      "_power_up1",
      "_power_up2",
      "_power_up3",
      "_level_up",
      "_affection_up1",
      "_affection_up2",
      "_affection_up3",
      "_affection_up4",
      "_party_join1",
      "_party_join2",
      "_start_battle1",
      "_start_battle2",
      "_get_item",
      "_start_boss_battle1",
      "_start_boss_battle2",
      "_turn_start1",
      "_turn_start2",
      "_attack1",
      "_attack2",
      "_counter1",
      "_counter2",
      "_skill1",
      "_skill2",
      "_skill3",
      "_special1",
      "_small_damage1",
      "_small_damage2",
      "_mid_damage",
      "_heavy_damage",
      "_knock_out",
      "_enemy_defeat1",
      "_enemy_defeat2",
      "_result_win1",
      "_result_win2",
      "_narrow_win",
      "_boss_win",
      "_withdrawal"
    ],
    "m_values": [
      "トリックオアトリート！　ネプテューヌだよ。\n今日は魔女になりたい気分なんだ♪",
      "さあ、お菓子をもらいに行こう！",
      "わっ、帽子がずれちゃった！　ちょっとタイム～",
      "ぱぴぴぷぺぽ～～～！　ねぇねぇ、どう？\n今すぐ喋りたくなる魔法をかけたんだけど……",
      "ハロウィンのマストアイテムと言えば、\nカボチャだよね。ナスじゃなくて本当によかった",
      "トリックオアトリートって言うだけで、\nお菓子が貰えるお祭りを毎日やればいいのにねー",
      "魔女のわたしは、大っきなキャンディーで戦うよ！\nいざとなったら非常食になるしね",
      "クロちゃんには、黒猫のコスプレをしてもらおう！",
      "あれ～。今気づいたんだけど、この格好、ちょっと\nマジェコンヌと被ってる？　そんなことないかな？",
      "ねぷ的あるあるエピソード、そのいち～！\n珍しい虫だと思ったら、妖精だった～！",
      "イタズラしちゃう？　お菓子はもう品切れだよ",
      "お腹空いてる？　キャンディー舐めちゃう？",
      "小さい頃、ホウキに乗って空を飛ぶのが夢だったな。\nもし夢が叶ったら、後ろに乗せてあげるよ",
      "誰かと仲直りしたい時は、あの呪文を叫ぼう。\nせーの！　ごめんなさーい！　やっぱり大好きー！",
      "魔女と魔女っこ。どっちがいいかな？\nキミに決めてほしいな",
      "キミの笑顔は、みんなを元気する究極の魔法だよ",
      "世界を股にかける昆虫ハンター……は今日はお休み。\n一日限定、カボチャの魔女が参上だよ",
      "くっくっくっ！",
      "レベルアーップ！",
      "実力だよん",
      "このまま大魔女になっちゃおっかな",
      "のど飴はお菓子に入るのかな？\nお菓子とおやつって、何か違うのかな？　むむむ",
      "おやつって、食事と食事の間に食べるもののこと\nなんだって！　甘くなくても入るらしいよっ",
      "カボチャを使ったお菓子って美味しいよね。\nいくつ食べても飽きないよ。もぐもぐ……",
      "ハロウィンが終わっても、こうやって\n二人並んでお菓子を食べようね。約束だよ",
      "また一緒に戦えるなんて嬉しいな",
      "オッケー、任せて！",
      "勝負だー！",
      "準備できてる？",
      "煮たり焼いたりしよう！",
      "みんなと一緒なら、きっと勝てるよ！",
      "絶対に、負けないんだから！",
      "わたしの番だね",
      "いってみよー！",
      "えいっ",
      "そこだよっ",
      "ここが正念場だよ！",
      "負っけないよー！",
      "一気に倒しちゃおう",
      "これで流れを変えよう",
      "無理しないで！",
      "必殺魔法！　ねぷねぷマジック！",
      "いたっ",
      "きゃ",
      "やったなー",
      "きゃああああ！",
      "……ごめんね",
      "まだまだ、次―！",
      "よーし、標本にしちゃうぞー！　なんてね",
      "勝利のファンファーレを鳴らそう",
      "お腹空いたー。おやつ食べよう！",
      "危なかったぁ。ドキドキしたね",
      "もうおかしなことしちゃダメだよ",
      "いちからやり直そう！"
    ]
  },
  "m_FaceDict": {
    "m_keys": [
      "_join",
      "_start",
      "_waiting1",
      "_waiting2",
      "_touch1",
      "_touch2",
      "_touch3",
      "_touch4",
      "_affection1_touch1",
      "_affection1_touch2",
      "_affection1_touch3",
      "_affection3_touch1",
      "_affection3_touch2",
      "_affection3_touch3",
      "_affection5_touch1",
      "_affection5_touch2",
      "_introduction",
      "_power_up1",
      "_power_up2",
      "_power_up3",
      "_level_up",
      "_affection_up1",
      "_affection_up2",
      "_affection_up3",
      "_affection_up4",
      "_party_join1",
      "_party_join2",
      "_start_battle1",
      "_start_battle2",
      "_get_item",
      "_start_boss_battle1",
      "_start_boss_battle2",
      "_turn_start1",
      "_turn_start2",
      "_attack1",
      "_attack2",
      "_counter1",
      "_counter2",
      "_skill1",
      "_skill2",
      "_skill3",
      "_special1",
      "_small_damage1",
      "_small_damage2",
      "_mid_damage",
      "_heavy_damage",
      "_knock_out",
      "_enemy_defeat1",
      "_enemy_defeat2",
      "_result_win1",
      "_result_win2",
      "_narrow_win",
      "_boss_win",
      "_withdrawal"
    ],
    "m_values": [
      0,
      4,
      5,
      7,
      4,
      7,
      4,
      4,
      5,
      7,
      4,
      4,
      4,
      4,
      4,
      6,
      0,
      0,
      0,
      0,
      0,
      0,
      0,
      0,
      0,
      0,
      0,
      0,
      0,
      0,
      0,
      0,
      0,
      0,
      0,
      0,
      0,
      0,
      0,
      0,
      0,
      0,
      0,
      0,
      0,
      0,
      0,
      0,
      0,
      0,
      0,
      0,
      0,
      0
    ]
  }
}