{
  "m_GameObject": {
    "m_FileID": 0,
    "m_PathID": 0
  },
  "m_Enabled": 1,
  "m_Script": {
    "m_FileID": 0,
    "m_PathID": 949422448092228541
  },
  "m_Name": "10601_voice_text",
  "m_TextDict": {
    "m_keys": [
      "_join",
      "_start",
      "_waiting1",
      "_waiting2",
      "_touch1",
      "_touch2",
      "_touch3",
      "_touch4",
      "_affection1_touch1",
      "_affection1_touch2",
      "_affection1_touch3",
      "_affection3_touch1",
      "_affection3_touch2",
      "_affection3_touch3",
      "_affection5_touch1",
      "_affection5_touch2",
      "_introduction",
      "_power_up1",
      "_power_up2",
      "_power_up3",
      "_level_up",
      "_affection_up1",
      "_affection_up2",
      "_affection_up3",
      "_affection_up4",
      "_party_join1",
      "_party_join2",
      "_start_battle1",
      "_start_battle2",
      "_get_item",
      "_start_boss_battle1",
      "_start_boss_battle2",
      "_turn_start1",
      "_turn_start2",
      "_attack1",
      "_attack2",
      "_counter1",
      "_counter2",
      "_skill1",
      "_skill2",
      "_skill3",
      "_special1",
      "_small_damage1",
      "_small_damage2",
      "_mid_damage",
      "_heavy_damage",
      "_knock_out",
      "_enemy_defeat1",
      "_enemy_defeat2",
      "_result_win1",
      "_result_win2",
      "_narrow_win",
      "_boss_win",
      "_withdrawal"
    ],
    "m_values": [
      "あたしは、アリン。フューリーという\n妖聖武器に宿る命よ。これからよろしく！",
      "やっと来たわね！待ってたわよ！",
      "……はぁ、丼いっぱいのイクラが食べたい",
      "こら、起きなさい。まだ話は終わってないわ！",
      "武器の手入れは終わった？\nどの子もピカピカになるまで磨いてあげてね",
      "フューリーを扱うフェンサーとあたしたちは対等なの。\nそこに主従関係は存在しないわ",
      "フューリーは、全部で百本あるの。\nその中のひとつが、あたしなのよ",
      "全てのフューリーを集め、邪神と共に封印された女神を\n復活させれば、願いが叶うのよ",
      "実はあたし、記憶がないの。女神を復活させないと\nいけないことは分かるんだけど……",
      "ねぇ、あたしと一緒にフューリー探しに行かない？\n出発までまだ時間あるでしょ？",
      "あなたって騙されやすそうよね。ティアラに\n紅茶を薦められても、すぐに飲んじゃダメよ？",
      "あれ？　鼻水出てるわよ。\nティッシュあるから拭いてあげる。はい、チーン",
      "見られたり、触られたりするのって恥ずかしい……\nでも、あなたなら……いいよ……",
      "記憶が戻っても、戻らなくても、\nあなたへの想いは変わらない。そんな気がするわ",
      "あなたが人混みに紛れ込んでも、見失ったりしない。\nすぐに探し出してあげるわ",
      "好きな人のためなら、きっとどこまでも強くなれる。\n愛は剣よりも強し。……なんてね",
      "フューリーという妖聖武器に宿る命、それがあたし。\nあたしたちは『妖聖』と呼ばれているわ",
      "パワーアップ！",
      "あたしってすごくない？",
      "また強くなっちゃった",
      "あたしが最強の武器よ！　なんてね",
      "あなたって、どんな道具も大切に使ってるのね。\nとってもいいことだわ",
      "フューリー以外の武器や道具にも、魂が宿ってるの。\nだから大事にしてあげてね",
      "いつもみんなのために頑張ってくれてありがとう。\nお礼に、肩を揉んであげる。もみもみ♪",
      "その、好き……よ。あなたの人生のパートナーに\nなれたらいいなって、思ってる……",
      "冒険の旅に出ましょう",
      "あたしに任せなさい！",
      "来るよ！　みんな気をつけて！",
      "あたしに勝てると思ってるの？",
      "『ものは使いよう』よ",
      "へぇ、結構強そうな相手じゃない！",
      "みんな、構えて！",
      "あたしがいれば楽勝よ！",
      "あんたたちに勝ち目はないわ",
      "そこよ！",
      "見えた！",
      "馬鹿ね",
      "負けないわよ！",
      "さあ、行くわよ！",
      "助けにきたわ",
      "これで良し！",
      "一撃必殺！",
      "きゃ！",
      "うっ！",
      "やったわね……！",
      "嫌あぁぁぁっ！！",
      "心も体も折れちゃった……",
      "もう降参？　情けないわねぇ",
      "あたしにできないことはない！",
      "おめでとう！　あなた、筋がいいわね！",
      "次はもっと手応えのある相手と戦いたいわ！",
      "あたしとしたことが、危なかったわ……",
      "お疲れさま！　その、すごく格好よかったわ！",
      "了解！　ここはいったん引きましょ！"
    ]
  },
  "m_FaceDict": {
    "m_keys": [
      "_join",
      "_start",
      "_waiting1",
      "_waiting2",
      "_touch1",
      "_touch2",
      "_touch3",
      "_touch4",
      "_affection1_touch1",
      "_affection1_touch2",
      "_affection1_touch3",
      "_affection3_touch1",
      "_affection3_touch2",
      "_affection3_touch3",
      "_affection5_touch1",
      "_affection5_touch2",
      "_introduction",
      "_power_up1",
      "_power_up2",
      "_power_up3",
      "_level_up",
      "_affection_up1",
      "_affection_up2",
      "_affection_up3",
      "_affection_up4",
      "_party_join1",
      "_party_join2",
      "_start_battle1",
      "_start_battle2",
      "_get_item",
      "_start_boss_battle1",
      "_start_boss_battle2",
      "_turn_start1",
      "_turn_start2",
      "_attack1",
      "_attack2",
      "_counter1",
      "_counter2",
      "_skill1",
      "_skill2",
      "_skill3",
      "_special1",
      "_small_damage1",
      "_small_damage2",
      "_mid_damage",
      "_heavy_damage",
      "_knock_out",
      "_enemy_defeat1",
      "_enemy_defeat2",
      "_result_win1",
      "_result_win2",
      "_narrow_win",
      "_boss_win",
      "_withdrawal"
    ],
    "m_values": [
      0,
      4,
      5,
      3,
      4,
      1,
      4,
      1,
      5,
      4,
      7,
      4,
      6,
      4,
      4,
      6,
      0,
      0,
      0,
      0,
      0,
      0,
      0,
      0,
      0,
      0,
      0,
      0,
      0,
      0,
      0,
      0,
      0,
      0,
      0,
      0,
      0,
      0,
      0,
      0,
      0,
      0,
      0,
      0,
      0,
      0,
      0,
      0,
      0,
      0,
      0,
      0,
      0,
      0
    ]
  }
}