{
  "m_GameObject": {
    "m_FileID": 0,
    "m_PathID": 0
  },
  "m_Enabled": 1,
  "m_Script": {
    "m_FileID": 0,
    "m_PathID": 949422448092228541
  },
  "m_Name": "10620_voice_text",
  "m_TextDict": {
    "m_keys": [
      "_join",
      "_start",
      "_waiting1",
      "_waiting2",
      "_touch1",
      "_touch2",
      "_touch3",
      "_touch4",
      "_affection1_touch1",
      "_affection1_touch2",
      "_affection1_touch3",
      "_affection3_touch1",
      "_affection3_touch2",
      "_affection3_touch3",
      "_affection5_touch1",
      "_affection5_touch2",
      "_introduction",
      "_power_up1",
      "_power_up2",
      "_power_up3",
      "_level_up",
      "_affection_up1",
      "_affection_up2",
      "_affection_up3",
      "_affection_up4",
      "_party_join1",
      "_party_join2",
      "_start_battle1",
      "_start_battle2",
      "_get_item",
      "_start_boss_battle1",
      "_start_boss_battle2",
      "_turn_start1",
      "_turn_start2",
      "_attack1",
      "_attack2",
      "_counter1",
      "_counter2",
      "_skill1",
      "_skill2",
      "_skill3",
      "_special1",
      "_small_damage1",
      "_small_damage2",
      "_mid_damage",
      "_heavy_damage",
      "_knock_out",
      "_enemy_defeat1",
      "_enemy_defeat2",
      "_result_win1",
      "_result_win2",
      "_narrow_win",
      "_boss_win",
      "_withdrawal"
    ],
    "m_values": [
      "ティアラですわ。先攻と後攻どちらが良いでしょう。\nでは、羽根つき三本勝負、始めますわよ！",
      "羽根つきをしたいなら、いつでも相手になりますわよ",
      "今日は特別に、まぶたの上に目を描いてあげますわ。\nこのまま動かないでくださいね……うふふふ",
      "動乱の渦中にいるのに、ずいぶんのん気ですわね。\nそのポジティブ思考が少し羨ましいですわ",
      "ただ羽根突きをしても大して面白くありません。\nなので、とっておきの罰ゲームを用意しましたわ",
      "謹賀新年。今年も宜しくお願いしますわ。\nあら、普通のご挨拶ではご不満ですの？",
      "はぁ……退屈。正月特有のまったりした雰囲気にも\n飽きてきましたわね。もっと刺激が欲しいですわ……",
      "初詣？　私は行きませんわ。\nなぜなら神よりも自分を信じているからですわ！",
      "スマッシュ！　ふふ、一試合目は、私の勝ちですわね。\n次の勝負もいただきますわ……！",
      "ぷっ、まだ落書きしてないのに、\nあなたの真剣な顔を見るとつい笑ってしまいます",
      "振り袖は動きにくいですね。でも、いつもの服だと\nすぐに勝負がつきそうなので、このまま続けましょう",
      "くっ、二試合目は、私の負けですわね……。\n次の勝負で、白黒つけましょう……！！",
      "フューリーではなく、羽根を追いかけるのも、\nなかなか楽しいものですわね",
      "羽根つきの音って、子気味良いですわね。\nいつまでも聞いていたいです",
      "あ、上を見てくださいませ！　この隙にスマッシュ！\nあら、騙される方が悪いのですわ",
      "さあ、あなたの顔にどんな落書きをしましょうか。\n私のモノという印をつけておくというのはどうかしら？",
      "装いもあらたに、私の登場ですわ。\nお正月ですもの、少しはのんびりいたしましょう",
      "晴れ晴れとした気分です",
      "体が温まってきました",
      "前途洋々ですわね",
      "どんな羽根も打ち返しますわ",
      "落書きもいいですけど、お正月ですし、書初めも\nしましょうか。もちろん顔ではなく紙に書きますわよ",
      "書いてほしい言葉はありますか。\n特別に、あなたのリクエストに応えてあげますわ",
      "私に書いて欲しい言葉は、決まりましたか？\nあなたに贈る言葉を書いてほしい？　分かりました……",
      "笑門来福。笑う門には福来るという意味です。\nあなたはそうやって、いつまでも笑っていてくださいな",
      "墨の準備はできています",
      "冷たく、賢く、腹黒く",
      "羽根つきで勝負いたします？",
      "今年もボコって差し上げますわ",
      "中の上というところでしょうか",
      "大きなキャンバスですわね",
      "強敵が現れましたわ",
      "心の準備はできてます？",
      "真剣に遊びましょう",
      "それ！",
      "えい！",
      "まだ終わってません",
      "しっぺ返しですわ",
      "この羽根が見えます？",
      "一息入れましょう",
      "援護しますわ",
      "この一球で、風を切る！",
      "うっ",
      "あっ",
      "卑怯ですわよ！",
      "何ですってえええええっ！？",
      "打ちのめされましたわ……",
      "額に豚と書いてあげますわ",
      "次はなんて書こうかしら？",
      "年が明けても、結果は変わりません",
      "水で洗えば墨はすぐ落ちますわ",
      "額に腹黒と書かれるところでした",
      "墨ではなく油性ペンで描きましょう",
      "正月の悪夢ですわね……"
    ]
  },
  "m_FaceDict": {
    "m_keys": [
      "_join",
      "_start",
      "_waiting1",
      "_waiting2",
      "_touch1",
      "_touch2",
      "_touch3",
      "_touch4",
      "_affection1_touch1",
      "_affection1_touch2",
      "_affection1_touch3",
      "_affection3_touch1",
      "_affection3_touch2",
      "_affection3_touch3",
      "_affection5_touch1",
      "_affection5_touch2",
      "_introduction",
      "_power_up1",
      "_power_up2",
      "_power_up3",
      "_level_up",
      "_affection_up1",
      "_affection_up2",
      "_affection_up3",
      "_affection_up4",
      "_party_join1",
      "_party_join2",
      "_start_battle1",
      "_start_battle2",
      "_get_item",
      "_start_boss_battle1",
      "_start_boss_battle2",
      "_turn_start1",
      "_turn_start2",
      "_attack1",
      "_attack2",
      "_counter1",
      "_counter2",
      "_skill1",
      "_skill2",
      "_skill3",
      "_special1",
      "_small_damage1",
      "_small_damage2",
      "_mid_damage",
      "_heavy_damage",
      "_knock_out",
      "_enemy_defeat1",
      "_enemy_defeat2",
      "_result_win1",
      "_result_win2",
      "_narrow_win",
      "_boss_win",
      "_withdrawal"
    ],
    "m_values": [
      0,
      4,
      4,
      7,
      2,
      4,
      7,
      7,
      3,
      4,
      5,
      5,
      4,
      4,
      7,
      4,
      0,
      0,
      0,
      0,
      0,
      0,
      0,
      0,
      0,
      0,
      0,
      0,
      0,
      0,
      0,
      0,
      0,
      0,
      0,
      0,
      0,
      0,
      0,
      0,
      0,
      0,
      0,
      0,
      0,
      0,
      0,
      0,
      0,
      0,
      0,
      0,
      0,
      0
    ]
  }
}