{
  "m_GameObject": {
    "m_FileID": 0,
    "m_PathID": 0
  },
  "m_Enabled": 1,
  "m_Script": {
    "m_FileID": 0,
    "m_PathID": 949422448092228541
  },
  "m_Name": "10815_voice_text",
  "m_TextDict": {
    "m_keys": [
      "_join",
      "_start",
      "_waiting1",
      "_waiting2",
      "_touch1",
      "_touch2",
      "_touch3",
      "_touch4",
      "_affection1_touch1",
      "_affection1_touch2",
      "_affection1_touch3",
      "_affection3_touch1",
      "_affection3_touch2",
      "_affection3_touch3",
      "_affection5_touch1",
      "_affection5_touch2",
      "_introduction",
      "_power_up1",
      "_power_up2",
      "_power_up3",
      "_level_up",
      "_affection_up1",
      "_affection_up2",
      "_affection_up3",
      "_affection_up4",
      "_party_join1",
      "_party_join2",
      "_start_battle1",
      "_start_battle2",
      "_get_item",
      "_start_boss_battle1",
      "_start_boss_battle2",
      "_turn_start1",
      "_turn_start2",
      "_attack1",
      "_attack2",
      "_counter1",
      "_counter2",
      "_skill1",
      "_skill2",
      "_skill3",
      "_special1",
      "_small_damage1",
      "_small_damage2",
      "_mid_damage",
      "_heavy_damage",
      "_knock_out",
      "_enemy_defeat1",
      "_enemy_defeat2",
      "_result_win1",
      "_result_win2",
      "_narrow_win",
      "_boss_win",
      "_withdrawal"
    ],
    "m_values": [
      "ワタシは、コボルトです。\nこの耳は、作りものではありまセンよ！",
      "ヤリますよ",
      "眠いんデスか？\n眠気覚ましに、脳天カチ割ってあげまショウか？",
      "無視デスか？　イタズラしちゃいマスよ？",
      "ワタシの耳は犬耳とは限りまセン。\nもしかしたら、猫耳かもデス",
      "金属元素のコバルトは、ワタシの名前が\n由来になってるんデスよ。知ってマシた？",
      "キノコニョッキ林の王者とは、ワタシのことデス。\n甘く見ると、痛い目みますヨ？",
      "ワタシとお喋りする時は、しゃがんでくだサイね",
      "くんくん……アナタ、ミルクのにおいがしマス。\nとてもいい匂いデス……くんくん",
      "はふぅ、ゾクゾクします……。アナタ、もしかして、\nこすりマスターさんデスか？",
      "ブルマ？　体操服？　いいえ、違いマス。\nこれは、コボルトの民族衣装デスよ！",
      "あっ、今、他の女の子見てマシたね？\nオシオキに、脳天カチ割ってあげまショウ",
      "アナタに頭を撫でられると、\n胸がキュンキュンしマス……",
      "ワタシ、アナタに甘えたい気分デス……\nあの……抱っこしてくれまセンか？",
      "ん、やめないで……もっとこすってほしいデス。\nやだ……ワタシったらはしたないデス……！",
      "その……アナタのお家、散らかってマセンか？\nミルクくれたら、片付けてあげマスよ？",
      "モンスター娘のコボルトデス！\nそこら辺のヤラレ役とは違いマスよっ",
      "こんなに大きくなりマシた",
      "ドンドン成長しマスよー",
      "膨らんできマシた",
      "身長も伸びたカモです",
      "恋愛小説がスキです。\nワタシもいつか、燃えるような恋がしたいデス……",
      "アナタは今、恋してマスか？\n恥ずかしがらないで、教えてくだサイ……！",
      "もしかして、アナタは……ワタシの運命のヒト？\nそんな気がするのは……ワタシだけ……？",
      "やっぱりアナタは、ワタシの運命のヒトです。種族の\n壁を乗り越えて、２人で幸せになりまショウ！",
      "ここにいマスよ！",
      "一緒に行くデス",
      "イキましょう",
      "イッちゃいマスよ",
      "ここほれワンワンデス",
      "奥歯ガタガタ言わせてやるデス",
      "脳天カチ割ってヤリます",
      "敵のミナサン、お祈りは済みましたか？",
      "敵のミナサン、後悔してももう遅いデスよ",
      "やあっ！",
      "それっ！",
      "ヤッちゃいマス",
      "スキありデス",
      "痛いデスヨ？",
      "あとでミルクくだサイね",
      "お助けしマス",
      "ワタシだって、ホントはすごいんデスよ！",
      "ひゃっ",
      "んあっ",
      "お、思ったより、ヤリますね……",
      "窮鼠、猫を噛みまくり……デス……",
      "ヤラレてしまいました……うう……",
      "これがワタシの実力デス！",
      "小さくても、強いんデス！",
      "ヤリましたね！　おめでとうございマス！",
      "ワタシたちだって、ヤレばできるのデス！",
      "危うく負けるところデシた……",
      "コボルトは、ヤラレ役ではないのデス！",
      "逃げるんデスか！？\nうう……分かりました……"
    ]
  },
  "m_FaceDict": {
    "m_keys": [
      "_join",
      "_start",
      "_waiting1",
      "_waiting2",
      "_touch1",
      "_touch2",
      "_touch3",
      "_touch4",
      "_affection1_touch1",
      "_affection1_touch2",
      "_affection1_touch3",
      "_affection3_touch1",
      "_affection3_touch2",
      "_affection3_touch3",
      "_affection5_touch1",
      "_affection5_touch2",
      "_introduction",
      "_power_up1",
      "_power_up2",
      "_power_up3",
      "_level_up",
      "_affection_up1",
      "_affection_up2",
      "_affection_up3",
      "_affection_up4",
      "_party_join1",
      "_party_join2",
      "_start_battle1",
      "_start_battle2",
      "_get_item",
      "_start_boss_battle1",
      "_start_boss_battle2",
      "_turn_start1",
      "_turn_start2",
      "_attack1",
      "_attack2",
      "_counter1",
      "_counter2",
      "_skill1",
      "_skill2",
      "_skill3",
      "_special1",
      "_small_damage1",
      "_small_damage2",
      "_mid_damage",
      "_heavy_damage",
      "_knock_out",
      "_enemy_defeat1",
      "_enemy_defeat2",
      "_result_win1",
      "_result_win2",
      "_narrow_win",
      "_boss_win",
      "_withdrawal"
    ],
    "m_values": [
      0,
      4,
      4,
      3,
      1,
      4,
      1,
      4,
      6,
      6,
      4,
      3,
      6,
      6,
      6,
      4,
      0,
      0,
      0,
      0,
      0,
      0,
      0,
      0,
      0,
      0,
      0,
      0,
      0,
      0,
      0,
      0,
      0,
      0,
      0,
      0,
      0,
      0,
      0,
      0,
      0,
      0,
      0,
      0,
      0,
      0,
      0,
      0,
      0,
      0,
      0,
      0,
      0,
      0
    ]
  }
}