{
  "m_GameObject": {
    "m_FileID": 0,
    "m_PathID": 0
  },
  "m_Enabled": 1,
  "m_Script": {
    "m_FileID": 0,
    "m_PathID": 949422448092228541
  },
  "m_Name": "10822_voice_text",
  "m_TextDict": {
    "m_keys": [
      "_join",
      "_start",
      "_waiting1",
      "_waiting2",
      "_touch1",
      "_touch2",
      "_touch3",
      "_touch4",
      "_affection1_touch1",
      "_affection1_touch2",
      "_affection1_touch3",
      "_affection3_touch1",
      "_affection3_touch2",
      "_affection3_touch3",
      "_affection5_touch1",
      "_affection5_touch2",
      "_introduction",
      "_power_up1",
      "_power_up2",
      "_power_up3",
      "_level_up",
      "_affection_up1",
      "_affection_up2",
      "_affection_up3",
      "_affection_up4",
      "_party_join1",
      "_party_join2",
      "_start_battle1",
      "_start_battle2",
      "_get_item",
      "_start_boss_battle1",
      "_start_boss_battle2",
      "_turn_start1",
      "_turn_start2",
      "_attack1",
      "_attack2",
      "_counter1",
      "_counter2",
      "_skill1",
      "_skill2",
      "_skill3",
      "_special1",
      "_small_damage1",
      "_small_damage2",
      "_mid_damage",
      "_heavy_damage",
      "_knock_out",
      "_enemy_defeat1",
      "_enemy_defeat2",
      "_result_win1",
      "_result_win2",
      "_narrow_win",
      "_boss_win",
      "_withdrawal"
    ],
    "m_values": [
      "貴方、いい目をしていますわね。\n神の国に興味があるなら、ご案内しますわよ？",
      "貴方のお越しを、お待ちしていましたわ",
      "戦士には、ひと時の休息が必要ですわ。\nそっとしておいてあげましょう……",
      "あら、眠いのですか？それならわたくしが、\n子守唄を歌って差し上げましょう。らら～♪",
      "神の国では、毎日宴会が開かれています。連日、\n飲めや歌えやの大騒ぎで、とても賑やかですわ",
      "わたくしの好物は、ヘルシーな料理ですわね。武人の\nように肉料理ばかり食べているわけではありませんわ",
      "貴方は、デュラハンをご存じですか？\n彼女とはお茶のみ友達ですの",
      "人間の赤ちゃんは、コウノトリが運んでくると\n聞きました。その瞬間を、一度見てみたいものです",
      "ひゃっ！？　大きな声を出してすみません。\n身体に触られるのは苦手ですの……乙女ですから",
      "戦場で傷ついた人を見ると、己の役目を忘れて癒して\nあげたくなる時があります。……神には内緒ですけど",
      "実はわたくし、白鳥に変身することができるのです。\n今度、お見せしますわね。ふふっ……",
      "貴方と話していると、とても幸せな気持ちになります。\nわたくしも皆に幸せを与えられるようになりたいですわ",
      "んっ、そ、そんな所を触るなんて、恥ずかしいです……\nでも、貴方ならいいです。許しますわ……",
      "わたくしは戦場の乙女。ですから、戦い以外のことには\n疎いんですの。特に、恋愛関係の知識はゼロです……",
      "今夜、貴方をわたくしの部屋に案内しますわ。神も\n英雄も招いた事のない場所で、二人で楽しみましょう",
      "恋をすると世界が変わる。……貴方に出会って、\nわたくしはこの言葉の意味がようやく分かりました",
      "戦死者の中から英雄を選び、神の国へ案内します。\nわたくしに選ばれるのは、大変栄誉な事なのですよ",
      "んっ、身体が疼きます……っ",
      "これでより多くの英雄を、もてなす事ができますわ",
      "わたくし自身が英雄になれそうですわね",
      "わたくしの新たな力を、戦場で披露しましょう",
      "貴方は、わたくしが選んできたどの英雄とも違う\n特別な何かを持っている……。そんな気がしますわ",
      "こんなにも貴方に惹かれるのは、どうしてでしょう。\n自分でも分からなくて……歯がゆいですわ",
      "貴方に惹かれる理由、何となく分かりました。でも、\n恥ずかしくて言葉にできません。……乙女ですから",
      "そ、その、きょ、今日は、勇気を出して、貴方に\n告白します。わ、わたくしは、貴方が大好きです！",
      "貴方の戦いぶり、しっかり観察させていただきます",
      "まあ、わたくしを？　選ばれるのって、嬉しいですわね",
      "戦場に着きました。さあ、思う存分、戦いましょう！",
      "悪事を働く者を、見逃すわけにはまいりません！",
      "神のお恵みですね",
      "この不届きな輩を、今日は特別に\nわたくしがニヴルヘイムにお連れしますわ！",
      "この愚かな者達を倒せば、わたくしたちは\n死ななくても英雄になれますわ……！",
      "わたくしたちの行く手を塞ぎましたわね。\nその蛮行、万死に値しますわ",
      "わたくしが直々にお相手してあげましょう。\n光栄に思いなさい",
      "せいっ！",
      "やあっ！",
      "どこを見てるのです？",
      "油断大敵ですわよ？",
      "観念なさい！",
      "戦友を見捨てたりしません",
      "安心なさい、もう大丈夫ですわ",
      "乙女の力、とくとご覧なさい！",
      "くっ",
      "まだまだ",
      "意外とやりますわね。楽しくなってきましたわ",
      "一瞬、死ぬかと思いましたわ……。\nふふっ、わたくしもそろそろ本気になりますか",
      "わ、わたくしとしたことが、汚されてしまいました……",
      "これが戦場の乙女の力です",
      "貴方を神の国へ連れて行くことはできません",
      "おめでとうございます。素晴らしい戦いぶりでしたわ",
      "自ら率先して戦うというのも、意外と楽しいですわね",
      "あんな敵に手こずるなんて。もっと鍛錬が必要ですわね",
      "よくやりましたね。貴方は生きた英雄ですわ。\nわたくしが認めます",
      "逃げるが勝ち、ですわね……"
    ]
  },
  "m_FaceDict": {
    "m_keys": [
      "_join",
      "_start",
      "_waiting1",
      "_waiting2",
      "_touch1",
      "_touch2",
      "_touch3",
      "_touch4",
      "_affection1_touch1",
      "_affection1_touch2",
      "_affection1_touch3",
      "_affection3_touch1",
      "_affection3_touch2",
      "_affection3_touch3",
      "_affection5_touch1",
      "_affection5_touch2",
      "_introduction",
      "_power_up1",
      "_power_up2",
      "_power_up3",
      "_level_up",
      "_affection_up1",
      "_affection_up2",
      "_affection_up3",
      "_affection_up4",
      "_party_join1",
      "_party_join2",
      "_start_battle1",
      "_start_battle2",
      "_get_item",
      "_start_boss_battle1",
      "_start_boss_battle2",
      "_turn_start1",
      "_turn_start2",
      "_attack1",
      "_attack2",
      "_counter1",
      "_counter2",
      "_skill1",
      "_skill2",
      "_skill3",
      "_special1",
      "_small_damage1",
      "_small_damage2",
      "_mid_damage",
      "_heavy_damage",
      "_knock_out",
      "_enemy_defeat1",
      "_enemy_defeat2",
      "_result_win1",
      "_result_win2",
      "_narrow_win",
      "_boss_win",
      "_withdrawal"
    ],
    "m_values": [
      0,
      4,
      1,
      4,
      4,
      4,
      4,
      4,
      6,
      1,
      4,
      4,
      6,
      5,
      6,
      4,
      0,
      0,
      0,
      0,
      0,
      0,
      0,
      0,
      0,
      0,
      0,
      0,
      0,
      0,
      0,
      0,
      0,
      0,
      0,
      0,
      0,
      0,
      0,
      0,
      0,
      0,
      0,
      0,
      0,
      0,
      0,
      0,
      0,
      0,
      0,
      0,
      0,
      0
    ]
  }
}