{
  "m_GameObject": {
    "m_FileID": 0,
    "m_PathID": 0
  },
  "m_Enabled": 1,
  "m_Script": {
    "m_FileID": 0,
    "m_PathID": 949422448092228541
  },
  "m_Name": "10820_voice_text",
  "m_TextDict": {
    "m_keys": [
      "_join",
      "_start",
      "_waiting1",
      "_waiting2",
      "_touch1",
      "_touch2",
      "_touch3",
      "_touch4",
      "_affection1_touch1",
      "_affection1_touch2",
      "_affection1_touch3",
      "_affection3_touch1",
      "_affection3_touch2",
      "_affection3_touch3",
      "_affection5_touch1",
      "_affection5_touch2",
      "_introduction",
      "_power_up1",
      "_power_up2",
      "_power_up3",
      "_level_up",
      "_affection_up1",
      "_affection_up2",
      "_affection_up3",
      "_affection_up4",
      "_party_join1",
      "_party_join2",
      "_start_battle1",
      "_start_battle2",
      "_get_item",
      "_start_boss_battle1",
      "_start_boss_battle2",
      "_turn_start1",
      "_turn_start2",
      "_attack1",
      "_attack2",
      "_counter1",
      "_counter2",
      "_skill1",
      "_skill2",
      "_skill3",
      "_special1",
      "_small_damage1",
      "_small_damage2",
      "_mid_damage",
      "_heavy_damage",
      "_knock_out",
      "_enemy_defeat1",
      "_enemy_defeat2",
      "_result_win1",
      "_result_win2",
      "_narrow_win",
      "_boss_win",
      "_withdrawal"
    ],
    "m_values": [
      "私はデュラハン。首なし騎士とも言われているわ。\nちょっと、ビビらないでよ！私は死期を予告するだけよ",
      "首を長くして待ってたわ",
      "ちょっと、どうして動かないの？\nお迎えにはまだ早いでしょ……？",
      "はぁ……視界が広いって素敵。\n仮面は置いてきて正解だったかも",
      "首があってもなくても、私は首なし騎士なの！\nなんか文句ある……！？",
      "お前の死ぬ日？さあ、いつかしらね。\n少なくともこの先１年は生きてるわよ。良かったわね",
      "仮面はどうしたのか、ですって？こ、今回は置いて\nきたのよ。肩こりに悩まされたとかじゃないから！",
      "私の趣味？　強いて言うなら、お洒落……かしら。\n新作の化粧品チェックは欠かしたことがないわ",
      "どこ触ってるのよ。斬るわよ？",
      "私は死期を予告するけど、人を怖がらせるのは\n嫌いなの。あくまでも真実を伝えているだけよ",
      "お前、馬は好き？もし興味があるなら、\n私の馬に乗せてあげるわよ。",
      "ねえ、バナナ食べる？\n私が胸の谷間で、皮を剥いてあげるわよ",
      "今夜、お前の部屋に行っていい？　たらいに\n入った血を浴びせたりしないから、安心して……",
      "あ、あんまり触らないで、恥ずかしいから。\nああもう、こんな時は仮面がほしいわ……",
      "か、仮面がないと、わた、私、恥ずかしくて……\nで、でも、お前には、ありのままの私を見てほしいの",
      "わ、私の顔、すごく熱い……\n触ったら、火傷しちゃうかもよ……？",
      "世間では死神みたいな扱いを受けてるわね。いい気分は\nしないけど、気にしても仕方ないし無視してるわ",
      "はぁっ、気持ちよくて、鳥肌が立っちゃう",
      "私はもっと強くなれるわ。これは予言よ",
      "これで内気な性格も克服できればいいんだけど……",
      "ねっ、だから言ったでしょう？\n私はもっと強くなれる、って",
      "お前は私を見ても全然ビビらなくなったわね。\nちょっと馴れ馴れしい気もするけど、嬉しいわ",
      "お前と一緒にいると、なぜか顔が熱くなるの。\n仮面をかぶっていた時でも、こんなことなかった……",
      "仮面を置いてきてよかったと思うわ。\nその……あなたの顔がよく見られるから",
      "な、な何よ！？　仮面を取った理由が知りたいの？\nな、ら言ってあげる！　お、お前が好きだからよ！",
      "お、お前たちの死期を予告しに\n来たわけじゃないわよ！？",
      "馬車を用意しなさい！",
      "騎士として、正々堂々と戦うわ",
      "性質の悪い輩がいるわね。追い払うわよ！",
      "あら？首でも落ちてたの？",
      "強敵が現れたわね。\nヘマこいて死ぬんじゃないわよ！",
      "どうやらコイツらがこの一帯を仕切ってるようね。\nひとり残らず狩りつくすわよ……！",
      "川を渡って逃げるなら今のうちよ",
      "今日がお前の命日よ",
      "やあっ！",
      "斬る！",
      "血をぶっかけてあげる！",
      "近寄るんじゃないわよ！",
      "お前の目を潰してあげる！",
      "お前は長生きするわ",
      "力を分けてあげる",
      "私の顔を見るなあああああ！",
      "くっ……",
      "全然効かないわ",
      "た、楯で防いでなかったら、危なかったわ……",
      "はぁっ……く、首の皮一枚繋がったわね……",
      "ううっ、最低……。ほんと、最低よ……！",
      "運命には逆らえないのよ",
      "扉を開けなければ、助かったかもね",
      "敵の首？そ、そんなのいらないわ！\n持ち主に返して！",
      "ふう、汗かいたわね。\n早く鎧を脱いで、シャワーを浴びたいわ",
      "今日はたまたま調子が悪かっただけよ。\n気にすることないわ！",
      "いつもは死期の予告をしてるけど、\n今回はお前に勝利を言い渡すわ。おめでとう",
      "く、首を洗って待ってなさい……！"
    ]
  },
  "m_FaceDict": {
    "m_keys": [
      "_join",
      "_start",
      "_waiting1",
      "_waiting2",
      "_touch1",
      "_touch2",
      "_touch3",
      "_touch4",
      "_affection1_touch1",
      "_affection1_touch2",
      "_affection1_touch3",
      "_affection3_touch1",
      "_affection3_touch2",
      "_affection3_touch3",
      "_affection5_touch1",
      "_affection5_touch2",
      "_introduction",
      "_power_up1",
      "_power_up2",
      "_power_up3",
      "_level_up",
      "_affection_up1",
      "_affection_up2",
      "_affection_up3",
      "_affection_up4",
      "_party_join1",
      "_party_join2",
      "_start_battle1",
      "_start_battle2",
      "_get_item",
      "_start_boss_battle1",
      "_start_boss_battle2",
      "_turn_start1",
      "_turn_start2",
      "_attack1",
      "_attack2",
      "_counter1",
      "_counter2",
      "_skill1",
      "_skill2",
      "_skill3",
      "_special1",
      "_small_damage1",
      "_small_damage2",
      "_mid_damage",
      "_heavy_damage",
      "_knock_out",
      "_enemy_defeat1",
      "_enemy_defeat2",
      "_result_win1",
      "_result_win2",
      "_narrow_win",
      "_boss_win",
      "_withdrawal"
    ],
    "m_values": [
      0,
      4,
      5,
      4,
      3,
      4,
      6,
      4,
      3,
      3,
      4,
      6,
      1,
      6,
      6,
      6,
      0,
      0,
      0,
      0,
      0,
      0,
      0,
      0,
      0,
      0,
      0,
      0,
      0,
      0,
      0,
      0,
      0,
      0,
      0,
      0,
      0,
      0,
      0,
      0,
      0,
      0,
      0,
      0,
      0,
      0,
      0,
      0,
      0,
      0,
      0,
      0,
      0,
      0
    ]
  }
}