{
  "m_GameObject": {
    "m_FileID": 0,
    "m_PathID": 0
  },
  "m_Enabled": 1,
  "m_Script": {
    "m_FileID": 0,
    "m_PathID": 949422448092228541
  },
  "m_Name": "10901_voice_text",
  "m_TextDict": {
    "m_keys": [
      "_join",
      "_start",
      "_waiting1",
      "_waiting2",
      "_touch1",
      "_touch2",
      "_touch3",
      "_touch4",
      "_affection1_touch1",
      "_affection1_touch2",
      "_affection1_touch3",
      "_affection3_touch1",
      "_affection3_touch2",
      "_affection3_touch3",
      "_affection5_touch1",
      "_affection5_touch2",
      "_introduction",
      "_power_up1",
      "_power_up2",
      "_power_up3",
      "_level_up",
      "_affection_up1",
      "_affection_up2",
      "_affection_up3",
      "_affection_up4",
      "_party_join1",
      "_party_join2",
      "_start_battle1",
      "_start_battle2",
      "_get_item",
      "_start_boss_battle1",
      "_start_boss_battle2",
      "_turn_start1",
      "_turn_start2",
      "_attack1",
      "_attack2",
      "_counter1",
      "_counter2",
      "_skill1",
      "_skill2",
      "_skill3",
      "_special1",
      "_small_damage1",
      "_small_damage2",
      "_mid_damage",
      "_heavy_damage",
      "_knock_out",
      "_enemy_defeat1",
      "_enemy_defeat2",
      "_result_win1",
      "_result_win2",
      "_narrow_win",
      "_boss_win",
      "_withdrawal"
    ],
    "m_values": [
      "ルアンナよ。\n大切なものを守るために、剣を取って戦おう！",
      "お仕事頑張ろうね！",
      "ねえ、今何考えてるの？　わたしに教えてよ。\n誰にも言わないし、笑わないから",
      "……もし結婚したら、新居は青い屋根のお家が\nいいな。子供は２人、いや、３人かな",
      "蛇は大の苦手なの。昔、お尻を噛まれた事が\nあって……。あの時のことは、黒歴史かも",
      "わたしの特技？\nこの鍛えた太ももに、人参を挟んで折ることよ！",
      "ペガサスのモンスター娘は、とても足が速いのよ。\nもちろん、わたしもね！",
      "大神殿の巫女、ルルシィ様を知ってる？\nわたしもあんな風になりたかったな……",
      "実はわたし、巫女になりたかったのよね。\nでも試験に落ちて、大神殿の衛士になったの",
      "わたしが巫女試験に落ちた理由？\nそ、それは……また今度教えてあげる！",
      "大神殿の近くに、サンドウィッチの美味しいお店が\nあるの。今度、一緒に行こう♪",
      "わたしが巫女試験に落ちた理由？　それは……\n心の内に不純なものを抱えてるから、だって……",
      "心が不純でも、悪い事は考えてないわよ？\n他の人より、想像力が逞しいだけなの……！",
      "ね、手を繋いでいい？　や、やっぱり、いい！\nこんな時に、浮かれちゃダメよね！",
      "はぁ、旅人と衛士の恋愛小説が読みたい。\nもしないなら、自分で書いてみようかな……",
      "あなたが今、わたしの目の前にいる……\nああっ、嬉しいっ、幸せすぎてどうしよう！",
      "ペガサスのモンスター娘よ。大神殿の衛士を\n務めてるの。皆からは真面目だってよく言われるわ",
      "身体がふわふわする",
      "大神殿のみんなは、わたしが守るよ",
      "わたし、勇者になれるかも？　なんてね",
      "ゴールはまだまだ先だよ。これからも一緒に走ろうね！",
      "あなたって強いのね。もしかして、どこかの衛士なの？\nもっと詳しく教えて！",
      "わたし、脱ぐわ！\nあ、今のは、一肌脱ぐって事だから！",
      "あなたを見てると、妄想が捗るわ……\nって、ううん、何でもない！今のは忘れて！",
      "わたし、衛士になって良かった。だって、\nあなたと一緒に戦うことができるから……",
      "大神殿の衛士の力、見せてあげるわ",
      "まさか、デートのお誘い！？　って、違うよね！",
      "敵襲だよ！　雑魚っぽいけど、油断しないでね！",
      "敵をやっつけないと、先に進めないみたいだね",
      "いいもの見つけたね",
      "こいつら倒して、ゴールテープを切ろう！",
      "みんなの笑顔を奪った罪は重いよ！",
      "自分の役目は、きっちり果たすわ",
      "これがわたしの選んだ道。迷いはないわ！",
      "そこだ！",
      "くらえ！",
      "逃がさない！",
      "遅い！",
      "瞬き禁止！",
      "援護するわね！",
      "後ろ盾になるわ",
      "世界を守る！　それがわたしの使命！",
      "くっ",
      "うっ",
      "ま、まだまだっ！",
      "きゃぁあああっ！？",
      "こんな所で負けるなんて……衛士失格ね……",
      "世界が平和になるその日まで、わたしは戦う！",
      "わたしは皆の命を守る衛士。\nだから、あなたの命まで奪いはしないわ",
      "おめでとう！　いい汗かいたね！",
      "このままゴールまで突っ走っちゃおう！",
      "危なかったわね。気を引き締めましょう！",
      "ゴールおめでとう！　みんなでお祝いしましょう！",
      "あなたが決めたことなら、従うよ……"
    ]
  },
  "m_FaceDict": {
    "m_keys": [
      "_join",
      "_start",
      "_waiting1",
      "_waiting2",
      "_touch1",
      "_touch2",
      "_touch3",
      "_touch4",
      "_affection1_touch1",
      "_affection1_touch2",
      "_affection1_touch3",
      "_affection3_touch1",
      "_affection3_touch2",
      "_affection3_touch3",
      "_affection5_touch1",
      "_affection5_touch2",
      "_introduction",
      "_power_up1",
      "_power_up2",
      "_power_up3",
      "_level_up",
      "_affection_up1",
      "_affection_up2",
      "_affection_up3",
      "_affection_up4",
      "_party_join1",
      "_party_join2",
      "_start_battle1",
      "_start_battle2",
      "_get_item",
      "_start_boss_battle1",
      "_start_boss_battle2",
      "_turn_start1",
      "_turn_start2",
      "_attack1",
      "_attack2",
      "_counter1",
      "_counter2",
      "_skill1",
      "_skill2",
      "_skill3",
      "_special1",
      "_small_damage1",
      "_small_damage2",
      "_mid_damage",
      "_heavy_damage",
      "_knock_out",
      "_enemy_defeat1",
      "_enemy_defeat2",
      "_result_win1",
      "_result_win2",
      "_narrow_win",
      "_boss_win",
      "_withdrawal"
    ],
    "m_values": [
      0,
      4,
      4,
      6,
      5,
      1,
      4,
      7,
      7,
      6,
      4,
      5,
      6,
      6,
      7,
      6,
      0,
      0,
      0,
      0,
      0,
      0,
      0,
      0,
      0,
      0,
      0,
      0,
      0,
      0,
      0,
      0,
      0,
      0,
      0,
      0,
      0,
      0,
      0,
      0,
      0,
      0,
      0,
      0,
      0,
      0,
      0,
      0,
      0,
      0,
      0,
      0,
      0,
      0
    ]
  }
}