{
  "m_GameObject": {
    "m_FileID": 0,
    "m_PathID": 0
  },
  "m_Enabled": 1,
  "m_Script": {
    "m_FileID": 0,
    "m_PathID": 949422448092228541
  },
  "m_Name": "11006_voice_text",
  "m_TextDict": {
    "m_keys": [
      "_join",
      "_start",
      "_waiting1",
      "_waiting2",
      "_touch1",
      "_touch2",
      "_touch3",
      "_touch4",
      "_affection1_touch1",
      "_affection1_touch2",
      "_affection1_touch3",
      "_affection3_touch1",
      "_affection3_touch2",
      "_affection3_touch3",
      "_affection5_touch1",
      "_affection5_touch2",
      "_introduction",
      "_power_up1",
      "_power_up2",
      "_power_up3",
      "_level_up",
      "_affection_up1",
      "_affection_up2",
      "_affection_up3",
      "_affection_up4",
      "_party_join1",
      "_party_join2",
      "_start_battle1",
      "_start_battle2",
      "_get_item",
      "_start_boss_battle1",
      "_start_boss_battle2",
      "_turn_start1",
      "_turn_start2",
      "_attack1",
      "_attack2",
      "_counter1",
      "_counter2",
      "_skill1",
      "_skill2",
      "_skill3",
      "_special1",
      "_small_damage1",
      "_small_damage2",
      "_mid_damage",
      "_heavy_damage",
      "_knock_out",
      "_enemy_defeat1",
      "_enemy_defeat2",
      "_result_win1",
      "_result_win2",
      "_narrow_win",
      "_boss_win",
      "_withdrawal"
    ],
    "m_values": [
      "あんたが雇い主とはね。\nけど、契約を結んだ以上は、力を貸すよ",
      "出立の準備は出来てるわ。さあ、命令してちょうだい",
      "あたしを放置してるんじゃないでしょうね？\n雇い主とはいえマウント取るなんて酷いわ",
      "単独行動の方が性に合ってるわね。\nエフォールに振り回されっぱなしだもの",
      "帝国と言えば悪いイメージ、\n反乱軍と言えば正義のイメージよね！",
      "武器は肌身離さず持っているのは傭兵の基本よ。\nこの世界、闇討ちも多いからね",
      "あ、赤い閃光って呼ぶな！\nそれ、恥ずかしいのよっ",
      "目の前のことをやっていたら、いつの間にか\n少し名の知れた傭兵になっていたの",
      "許可もなくツンツンするな。\nそれ以上すると、敵と見なすわよ",
      "誰！？　……ッ！　危ない、\nもう少しであんたを殺すところだったわ",
      "割と隙が多いように見えるけど、\nあんた、よく生きてこれてるわね……？",
      "あんた、本当に特別な力持ってるの？\n……どうしてもそんな風には見えないわ",
      "な、なによ、くすぐったいわね！　危うく手が\n滑って、あんたの手を斬り落とすところだったわ",
      "いい匂いがする……コンパが焼いたパンケーキ？\n……じゅるり。わ、こっちを見るな！",
      "あんた、実は正義の味方ってやつでしょ。\nあたしの目は誤魔化されないわよ",
      "……独りよりも、あんたと一緒にいたいわ",
      "傭兵のスカーレットよ。どの軍にも正義はあるだろう。\nけど破ってはいけないルールもあることを忘れないで",
      "いいわね",
      "ほう？",
      "いける！",
      "はーっはっはっはっ！",
      "いい加減な奴かと思ってたけど、\n意外と真面目よね、あんた",
      "傭兵生活が長いせいか、ずっと独り身よ。悪かったわね",
      "あたしだっていつかは、れ、恋愛したいと\n思ってるけど……うう、顔が熱くなってきた",
      "うわわわ、近づくな、恥ずかしいでしょ！\nでも、あんたが相手なら嫌じゃない……かも",
      "準備はできてるわ",
      "報酬分の仕事はするわ",
      "倒す！",
      "正義の味方、参上！",
      "良かったじゃない。\nもらえるものは、もらっておくべきだわ",
      "スカーレット・リヴァが成敗してくれる！",
      "あたしの正義は、強いよ！",
      "悪行は許さない",
      "あんたは悪だ",
      "ハッ！",
      "タアアッ！",
      "やるわね",
      "この程度？",
      "こういうのはどうかしら",
      "大丈夫？",
      "支援するわ",
      "肉を切らせて骨を断つ！",
      "うっ",
      "ぐっ",
      "ぐはあっ",
      "やめなさいっ！",
      "初歩的なミスでやられるなんて……あたしのばかばか！",
      "深追いはしない",
      "これ以上傷つけるのは、流儀に反する",
      "正義の勝利よ",
      "あんたも強かったよ",
      "頭がフラフラするわ……少し休憩させて",
      "あたしたちの正義の方が勝っていたようね",
      "覚えてなさい！　って、これじゃ悪者っぽい！？"
    ]
  },
  "m_FaceDict": {
    "m_keys": [
      "_join",
      "_start",
      "_waiting1",
      "_waiting2",
      "_touch1",
      "_touch2",
      "_touch3",
      "_touch4",
      "_affection1_touch1",
      "_affection1_touch2",
      "_affection1_touch3",
      "_affection3_touch1",
      "_affection3_touch2",
      "_affection3_touch3",
      "_affection5_touch1",
      "_affection5_touch2",
      "_introduction",
      "_power_up1",
      "_power_up2",
      "_power_up3",
      "_level_up",
      "_affection_up1",
      "_affection_up2",
      "_affection_up3",
      "_affection_up4",
      "_party_join1",
      "_party_join2",
      "_start_battle1",
      "_start_battle2",
      "_get_item",
      "_start_boss_battle1",
      "_start_boss_battle2",
      "_turn_start1",
      "_turn_start2",
      "_attack1",
      "_attack2",
      "_counter1",
      "_counter2",
      "_skill1",
      "_skill2",
      "_skill3",
      "_special1",
      "_small_damage1",
      "_small_damage2",
      "_mid_damage",
      "_heavy_damage",
      "_knock_out",
      "_enemy_defeat1",
      "_enemy_defeat2",
      "_result_win1",
      "_result_win2",
      "_narrow_win",
      "_boss_win",
      "_withdrawal"
    ],
    "m_values": [
      0,
      4,
      3,
      5,
      1,
      3,
      6,
      1,
      3,
      3,
      7,
      5,
      6,
      6,
      4,
      6,
      0,
      0,
      0,
      0,
      0,
      0,
      0,
      0,
      0,
      0,
      0,
      0,
      0,
      0,
      0,
      0,
      0,
      0,
      0,
      0,
      0,
      0,
      0,
      0,
      0,
      0,
      0,
      0,
      0,
      0,
      0,
      0,
      0,
      0,
      0,
      0,
      0,
      0
    ]
  }
}