{
  "m_GameObject": {
    "m_FileID": 0,
    "m_PathID": 0
  },
  "m_Enabled": 1,
  "m_Script": {
    "m_FileID": 0,
    "m_PathID": 949422448092228541
  },
  "m_Name": "11001_voice_text",
  "m_TextDict": {
    "m_keys": [
      "_join",
      "_start",
      "_waiting1",
      "_waiting2",
      "_touch1",
      "_touch2",
      "_touch3",
      "_touch4",
      "_affection1_touch1",
      "_affection1_touch2",
      "_affection1_touch3",
      "_affection3_touch1",
      "_affection3_touch2",
      "_affection3_touch3",
      "_affection5_touch1",
      "_affection5_touch2",
      "_introduction",
      "_power_up1",
      "_power_up2",
      "_power_up3",
      "_level_up",
      "_affection_up1",
      "_affection_up2",
      "_affection_up3",
      "_affection_up4",
      "_party_join1",
      "_party_join2",
      "_start_battle1",
      "_start_battle2",
      "_get_item",
      "_start_boss_battle1",
      "_start_boss_battle2",
      "_turn_start1",
      "_turn_start2",
      "_attack1",
      "_attack2",
      "_counter1",
      "_counter2",
      "_skill1",
      "_skill2",
      "_skill3",
      "_special1",
      "_small_damage1",
      "_small_damage2",
      "_mid_damage",
      "_heavy_damage",
      "_knock_out",
      "_enemy_defeat1",
      "_enemy_defeat2",
      "_result_win1",
      "_result_win2",
      "_narrow_win",
      "_boss_win",
      "_withdrawal"
    ],
    "m_values": [
      "私は、アイリス・ライン・ガレスティアです。\nよろしくお願いいたします",
      "さあ、行きましょうか",
      "お父様、お母様……\nどうか無事でいて……",
      "あの…あの、私、このままジッと\nしていればよいのでしょうか……？",
      "だ、大丈夫です、どうぞ……",
      "優しく、お願いします……",
      "ひゃっ！？　そんなとこ、触らないで下さい！\nお嫁に行けなくなってしまいます～！",
      "趣味は特にありません。\nでも、社交ダンスは、先生によく褒められました",
      "私、あなたとはいいお友達になれそうな気がします",
      "あなたは、物知りですね。\n私に一般常識というものを教えてくれませんか？",
      "恋とはどんなものなんでしょう。私には\n経験がないので、どういうものかわかりませんので",
      "とっても、ドキドキします……っ",
      "だ、大丈夫です、どうぞ……\nさわ…触ってください……",
      "あ、あの、そっちは……\nあうう、恥ずかしい……っ",
      "その、満足されましたか？\nほ、ほら、必要なことですから……",
      "少しで、いいから……その、ぎゅっとしてください",
      "私は、アイリス・ライン・ガレスティア、\nガレスティア帝国の皇女です",
      "力が…少しずつ……",
      "なるほど…この力ならきっと……！",
      "使いこなせるよう努力いたします",
      "はあ…ビリビリとしたものが……",
      "ありがとうございます。\nやっぱりあなたに相談して良かったです",
      "守ってもらうだけではダメなのです。自分の\nことですから。……ですから、やります。私も戦います",
      "あの、今晩空いてますか？\n私の特訓に付き合ってください……！",
      "あなたのお陰でいろいろと学べました。本当に感謝して\nいます。これからもよろしくお願いいたします……",
      "はいっ！　がんばります！",
      "私が戦います！",
      "よ、よろしくお願いします！",
      "アイリス・ライン・ガレスティア！\n行きます！！",
      "何かありました！！",
      "頑張りましょうね、皆さん……！",
      "この戦い、勝ってみせます！",
      "行きます！",
      "私が！",
      "えい！",
      "はあ！",
      "ごめんなさい！",
      "お覚悟を！",
      "やります……！",
      "この一撃で……！",
      "終わりです！！",
      "負けられません！",
      "あぅっ！",
      "っくぅ！",
      "いや……っ！",
      "きゃうっ！",
      "申し訳、ありま、せ……",
      "倒しました！",
      "お許しを……！",
      "大勝利ですね！",
      "次も頑張りましょう",
      "ふう、勝てましたね",
      "勝てて、ホッとしました",
      "ここで……撤退なのですね……"
    ]
  },
  "m_FaceDict": {
    "m_keys": [
      "_join",
      "_start",
      "_waiting1",
      "_waiting2",
      "_touch1",
      "_touch2",
      "_touch3",
      "_touch4",
      "_affection1_touch1",
      "_affection1_touch2",
      "_affection1_touch3",
      "_affection3_touch1",
      "_affection3_touch2",
      "_affection3_touch3",
      "_affection5_touch1",
      "_affection5_touch2",
      "_introduction",
      "_power_up1",
      "_power_up2",
      "_power_up3",
      "_level_up",
      "_affection_up1",
      "_affection_up2",
      "_affection_up3",
      "_affection_up4",
      "_party_join1",
      "_party_join2",
      "_start_battle1",
      "_start_battle2",
      "_get_item",
      "_start_boss_battle1",
      "_start_boss_battle2",
      "_turn_start1",
      "_turn_start2",
      "_attack1",
      "_attack2",
      "_counter1",
      "_counter2",
      "_skill1",
      "_skill2",
      "_skill3",
      "_special1",
      "_small_damage1",
      "_small_damage2",
      "_mid_damage",
      "_heavy_damage",
      "_knock_out",
      "_enemy_defeat1",
      "_enemy_defeat2",
      "_result_win1",
      "_result_win2",
      "_narrow_win",
      "_boss_win",
      "_withdrawal"
    ],
    "m_values": [
      0,
      4,
      5,
      5,
      6,
      6,
      6,
      4,
      4,
      1,
      1,
      6,
      6,
      6,
      6,
      6,
      0,
      0,
      0,
      0,
      0,
      0,
      0,
      0,
      0,
      0,
      0,
      0,
      0,
      0,
      0,
      0,
      0,
      0,
      0,
      0,
      0,
      0,
      0,
      0,
      0,
      0,
      0,
      0,
      0,
      0,
      0,
      0,
      0,
      0,
      0,
      0,
      0,
      0
    ]
  }
}