{
  "m_GameObject": {
    "m_FileID": 0,
    "m_PathID": 0
  },
  "m_Enabled": 1,
  "m_Script": {
    "m_FileID": 0,
    "m_PathID": 949422448092228541
  },
  "m_Name": "11101_voice_text",
  "m_TextDict": {
    "m_keys": [
      "_join",
      "_start",
      "_waiting1",
      "_waiting2",
      "_touch1",
      "_touch2",
      "_touch3",
      "_touch4",
      "_affection1_touch1",
      "_affection1_touch2",
      "_affection1_touch3",
      "_affection3_touch1",
      "_affection3_touch2",
      "_affection3_touch3",
      "_affection5_touch1",
      "_affection5_touch2",
      "_introduction",
      "_power_up1",
      "_power_up2",
      "_power_up3",
      "_level_up",
      "_affection_up1",
      "_affection_up2",
      "_affection_up3",
      "_affection_up4",
      "_party_join1",
      "_party_join2",
      "_start_battle1",
      "_start_battle2",
      "_get_item",
      "_start_boss_battle1",
      "_start_boss_battle2",
      "_turn_start1",
      "_turn_start2",
      "_attack1",
      "_attack2",
      "_counter1",
      "_counter2",
      "_skill1",
      "_skill2",
      "_skill3",
      "_special1",
      "_small_damage1",
      "_small_damage2",
      "_mid_damage",
      "_heavy_damage",
      "_knock_out",
      "_enemy_defeat1",
      "_enemy_defeat2",
      "_result_win1",
      "_result_win2",
      "_narrow_win",
      "_boss_win",
      "_withdrawal"
    ],
    "m_values": [
      "新人詠巫女だけど、精一杯がんばるねっ！\nあなたの力になれるといいな！　えへへ",
      "今、歌の練習をしていたところなんだ。\n聴いてくれる？　あーあーあー♪",
      "暇になっちゃったなぁ。\nこんな時は……一人でカラオケだー！",
      "誰もいないし、大声出しても構わないよね。\nすぅぅ……どこか行くなら連れてってー！",
      "詠巫女の力は、ｂｅｅｐに有効だけど、\nこの世界でも通用すると思うんだ",
      "この世界はたくさんの人がいるんだね。\nみんなにわたしの歌を届けたいな",
      "精神を浸食されていない人たちにも、\nわたしの歌を聴いてもらいたいな",
      "元の世界にも、仲間がいるんだよ。\nわたしと同じ力を持つ、特別な女の子たちが……",
      "この衣装可愛い？　えへへ、ありがとう！\nそう言ってもらえるの嬉しいな！",
      "歌は大好きだよ。気分が良くなるし、\n人の心を癒やすことが出来るもん",
      "難しいステップを覚えるときは、\n鏡を見ながら何度も練習するんだ",
      "わっ、ごめん！　振り付けの練習してたら\nぶつかっちゃった！",
      "歌の練習に付き合ってくれる？\nららら～……あれ、次なんだっけ……？",
      "ステップを覚えたから見てて……うわわ！\n足がもつれて、あなたにぶつかっちゃった",
      "あなたは歌好き？　好きなら一緒に歌おうよ！\nダメなら手拍子でも大丈夫！",
      "歌の練習しようと思ったけど、見られてると\nちょっと照れるかも……恋の歌だからかな",
      "新人詠巫女のオトハだよ！\nわたしの歌で、敵をバンバンやっつけちゃうよ！",
      "パワーアップ！",
      "素敵なメロディーだね",
      "ハートに響いてくるよ",
      "歌がもっと好きになっちゃった",
      "まだまだ新人っぽさが抜けなくて\n失敗しちゃうこともあるけど、これからも頑張るね！",
      "この世界で歌うことに慣れてきたみたい。\nあなたが傍にいてくれるおかげかな？",
      "あなたがいると勇気を持って歌えるよ。\nキミはわたしにとって特別な人だね",
      "あなたと一緒だと、わたしの歌が、\nこの世界中に響くような気がする。気持ちいい－！",
      "一緒に歌おう！",
      "発声練習はしておいたよ！",
      "わたしの歌を聴いてね！",
      "あなたに響きますように！",
      "わあ～！　新しいアイテムだ！\nのど飴だと嬉しいな～",
      "どんな相手でも、やることは変わらないよ",
      "あなたの暗闇を打ち破ってみせる！",
      "あーあーあー",
      "準備オッケー！",
      "素敵でしょう？",
      "届け！",
      "こ、これくらいっ",
      "届いて！",
      "インパクトあるでしょ？",
      "サポートするよ！",
      "コーラスに回るよ！",
      "わたしの歌よ、この世界に響け！",
      "きゃっ",
      "うー",
      "いたたっ",
      "きゃあああああっ！",
      "これじゃ、歌えないよ……",
      "やったね！",
      "アンコール？",
      "最後まで聴いてくれてありがとう！",
      "もうちょっと大人しく聴いてくれると良かったかな",
      "歌いすぎて、声がかすれてきちゃった……",
      "えっへん！　これが詠巫女の力だよ！",
      "一旦戻って、喉を潤したいな"
    ]
  },
  "m_FaceDict": {
    "m_keys": [
      "_join",
      "_start",
      "_waiting1",
      "_waiting2",
      "_touch1",
      "_touch2",
      "_touch3",
      "_touch4",
      "_affection1_touch1",
      "_affection1_touch2",
      "_affection1_touch3",
      "_affection3_touch1",
      "_affection3_touch2",
      "_affection3_touch3",
      "_affection5_touch1",
      "_affection5_touch2",
      "_introduction",
      "_power_up1",
      "_power_up2",
      "_power_up3",
      "_level_up",
      "_affection_up1",
      "_affection_up2",
      "_affection_up3",
      "_affection_up4",
      "_party_join1",
      "_party_join2",
      "_start_battle1",
      "_start_battle2",
      "_get_item",
      "_start_boss_battle1",
      "_start_boss_battle2",
      "_turn_start1",
      "_turn_start2",
      "_attack1",
      "_attack2",
      "_counter1",
      "_counter2",
      "_skill1",
      "_skill2",
      "_skill3",
      "_special1",
      "_small_damage1",
      "_small_damage2",
      "_mid_damage",
      "_heavy_damage",
      "_knock_out",
      "_enemy_defeat1",
      "_enemy_defeat2",
      "_result_win1",
      "_result_win2",
      "_narrow_win",
      "_boss_win",
      "_withdrawal"
    ],
    "m_values": [
      0,
      4,
      4,
      4,
      1,
      4,
      4,
      6,
      4,
      4,
      3,
      6,
      7,
      5,
      4,
      6,
      0,
      0,
      0,
      0,
      0,
      0,
      0,
      0,
      0,
      0,
      0,
      0,
      0,
      0,
      0,
      0,
      0,
      0,
      0,
      0,
      0,
      0,
      0,
      0,
      0,
      0,
      0,
      0,
      0,
      0,
      0,
      0,
      0,
      0,
      0,
      0,
      0,
      0
    ]
  }
}