{
  "m_GameObject": {
    "m_FileID": 0,
    "m_PathID": 0
  },
  "m_Enabled": 1,
  "m_Script": {
    "m_FileID": 0,
    "m_PathID": 949422448092228541
  },
  "m_Name": "11106_voice_text",
  "m_TextDict": {
    "m_keys": [
      "_join",
      "_start",
      "_waiting1",
      "_waiting2",
      "_touch1",
      "_touch2",
      "_touch3",
      "_touch4",
      "_affection1_touch1",
      "_affection1_touch2",
      "_affection1_touch3",
      "_affection3_touch1",
      "_affection3_touch2",
      "_affection3_touch3",
      "_affection5_touch1",
      "_affection5_touch2",
      "_introduction",
      "_power_up1",
      "_power_up2",
      "_power_up3",
      "_level_up",
      "_affection_up1",
      "_affection_up2",
      "_affection_up3",
      "_affection_up4",
      "_party_join1",
      "_party_join2",
      "_start_battle1",
      "_start_battle2",
      "_get_item",
      "_start_boss_battle1",
      "_start_boss_battle2",
      "_turn_start1",
      "_turn_start2",
      "_attack1",
      "_attack2",
      "_counter1",
      "_counter2",
      "_skill1",
      "_skill2",
      "_skill3",
      "_special1",
      "_small_damage1",
      "_small_damage2",
      "_mid_damage",
      "_heavy_damage",
      "_knock_out",
      "_enemy_defeat1",
      "_enemy_defeat2",
      "_result_win1",
      "_result_win2",
      "_narrow_win",
      "_boss_win",
      "_withdrawal"
    ],
    "m_values": [
      "モモカよ。尻の青いガキんちょどもを、\nビシバシ鍛えてあげるわ。覚悟しなさい",
      "あたしについてきなさい！",
      "ううっ、頭がクラクラする。\n昨日飲み過ぎたかも……",
      "ボーっとしてないで、椅子持ってきなさいよ。\nあたしをいつまで立たせとくつもり？",
      "あたしが詠巫女になって、もう十数年か。\n色々あったけど、あっという間だったわ",
      "どんなに調子が悪くても、ファンの前では\n笑顔をキープする。それがプロってもんよ",
      "カナデコって知ってる？あいつ、筋はいいけど、\n年上に対する態度が全然なってないの",
      "キョウカの師匠は、あたしの同期よ。\n普段は高飛車なくせに打たれ弱いのよねえ",
      "はぁーいっ！おっはようございまーす！\n……って、あんたか。どしたの？",
      "ミントの香りがするって？\nそれって多分、あたしの湿布の匂い……何でもないわ！",
      "あんたの顔、ぴちぴちのたまご肌ね。\nあ、あたしだって、負けてないわよ！",
      "叶えたい夢があるなら、誰よりも必死になんなさい。\nそれが夢への近道よ",
      "正直、引退を考える日もあるわ。でも、後輩の詠巫女に\n無茶させないためにも、１日でも長く続けたいの",
      "はぁっ、んんっ、ああっ、気持ちいい……！\nあんたにマッサージ頼んで良かったわ……",
      "ねえ、歳の差カップルってどう思う？\nあんたは１０歳以上年上の人と付き合える……？",
      "歳なんて関係ない。あたしはこれからも\n詠巫女道を突っ走るわ。ちゃぁんと見ててね☆",
      "現役最年長のベテラン詠巫女よ。\nあたしの歳？言うわけないでしょ、バカ！",
      "もっと強くなるわよ",
      "あたしを誰だと思ってるの？",
      "やっぴー☆",
      "あんたたちも、頑張んなさいよね！",
      "ふむ……声も顔もそこそこ良いし、\nあんたは磨けば光るタイプかもね",
      "あたしの語録集をあげるわ。\nこれ読んで戦いの心構えを勉強しなさい",
      "頑張ってるみたいね。\nその調子で精進しなさい。応援してるわ",
      "最近、あんたがキラキラ輝いて見えるわ。\nあたしの目に狂いはなかったようね",
      "おっまたせー！",
      "任せなさい！",
      "雑魚だからって、手を抜くんじゃないわよ",
      "さっさと倒すわよ！",
      "拾いなさい",
      "ここでドジ踏んだら、あたしたちの人生お終いよ！",
      "親玉をぶっ叩くわよ！",
      "あつーい声援、よっろしっくねー☆",
      "みんな、盛り上がってくよー！",
      "えいっ☆",
      "くそがぁー！",
      "どりゃあっ！",
      "ボケっとしてんじゃないわよ！",
      "みんな、注目ーっ！",
      "仕事に集中しなさい！",
      "しっかりしろー！",
      "あたしの手で終わらせてやる！",
      "いたっ☆",
      "ふぇっ！？",
      "げほっ、ごほっ",
      "ぜえ、ぜえっ、し、しんど……！！",
      "スタミナ切れだわ……くそがぁーっ……",
      "これくらい、あたしにかかればイチコロなんだから☆",
      "ベテランアイドル舐めんじゃないわよ！",
      "みんな、応援ありがとー☆",
      "はぁ、喉乾いた。ドリンク持ってきて！",
      "明日は筋肉痛間違いなしだわ……",
      "大活躍だったじゃない。褒めてあげるわ！",
      "準備不足だったようね。まあ、こんな日もあるわ"
    ]
  },
  "m_FaceDict": {
    "m_keys": [
      "_join",
      "_start",
      "_waiting1",
      "_waiting2",
      "_touch1",
      "_touch2",
      "_touch3",
      "_touch4",
      "_affection1_touch1",
      "_affection1_touch2",
      "_affection1_touch3",
      "_affection3_touch1",
      "_affection3_touch2",
      "_affection3_touch3",
      "_affection5_touch1",
      "_affection5_touch2",
      "_introduction",
      "_power_up1",
      "_power_up2",
      "_power_up3",
      "_level_up",
      "_affection_up1",
      "_affection_up2",
      "_affection_up3",
      "_affection_up4",
      "_party_join1",
      "_party_join2",
      "_start_battle1",
      "_start_battle2",
      "_get_item",
      "_start_boss_battle1",
      "_start_boss_battle2",
      "_turn_start1",
      "_turn_start2",
      "_attack1",
      "_attack2",
      "_counter1",
      "_counter2",
      "_skill1",
      "_skill2",
      "_skill3",
      "_special1",
      "_small_damage1",
      "_small_damage2",
      "_mid_damage",
      "_heavy_damage",
      "_knock_out",
      "_enemy_defeat1",
      "_enemy_defeat2",
      "_result_win1",
      "_result_win2",
      "_narrow_win",
      "_boss_win",
      "_withdrawal"
    ],
    "m_values": [
      0,
      4,
      5,
      7,
      1,
      4,
      3,
      5,
      7,
      7,
      5,
      4,
      3,
      6,
      6,
      4,
      0,
      0,
      0,
      0,
      0,
      0,
      0,
      0,
      0,
      0,
      0,
      0,
      0,
      0,
      0,
      0,
      0,
      0,
      0,
      0,
      0,
      0,
      0,
      0,
      0,
      0,
      0,
      0,
      0,
      0,
      0,
      0,
      0,
      0,
      0,
      0,
      0,
      0
    ]
  }
}