{
  "m_GameObject": {
    "m_FileID": 0,
    "m_PathID": 0
  },
  "m_Enabled": 1,
  "m_Script": {
    "m_FileID": 0,
    "m_PathID": 949422448092228541
  },
  "m_Name": "11104_voice_text",
  "m_TextDict": {
    "m_keys": [
      "_join",
      "_start",
      "_waiting1",
      "_waiting2",
      "_touch1",
      "_touch2",
      "_touch3",
      "_touch4",
      "_affection1_touch1",
      "_affection1_touch2",
      "_affection1_touch3",
      "_affection3_touch1",
      "_affection3_touch2",
      "_affection3_touch3",
      "_affection5_touch1",
      "_affection5_touch2",
      "_introduction",
      "_power_up1",
      "_power_up2",
      "_power_up3",
      "_level_up",
      "_affection_up1",
      "_affection_up2",
      "_affection_up3",
      "_affection_up4",
      "_party_join1",
      "_party_join2",
      "_start_battle1",
      "_start_battle2",
      "_get_item",
      "_start_boss_battle1",
      "_start_boss_battle2",
      "_turn_start1",
      "_turn_start2",
      "_attack1",
      "_attack2",
      "_counter1",
      "_counter2",
      "_skill1",
      "_skill2",
      "_skill3",
      "_special1",
      "_small_damage1",
      "_small_damage2",
      "_mid_damage",
      "_heavy_damage",
      "_knock_out",
      "_enemy_defeat1",
      "_enemy_defeat2",
      "_result_win1",
      "_result_win2",
      "_narrow_win",
      "_boss_win",
      "_withdrawal"
    ],
    "m_values": [
      "あなたには、強そうな仲間がいっぱいいるんだね。\nあの、私の代わりに戦って……っていうのはダメかな？",
      "お、置いてかないでー！",
      "今日はもうお仕事終わりかな……？\n何もないといいな",
      "うう、踊りすぎて全身筋肉痛だよ。\n詠巫女って、やっぱりハードワークだなぁ",
      "カナちゃん……あ、カナデコちゃんを知ってる？\n私達は同じ施設で育ったんだよ",
      "詠巫女は、歌や踊りの力でbeepっていう悪者？\nみたいなのをやっつけることができるの",
      "詠巫女の力は年齢と共に失われていくの。\nモモカさんは例外中の例外だよ。たまに息切れしてるけど",
      "あの、あなた、銃に興味ない？\nコツを覚えるまで大変だけど、すごくいいよ！",
      "私の武器は、距離を置いて一方的に攻撃できるし\n非力でも十分な殺傷力が出せるんだよ",
      "詠巫女をやってる間は、\n合法的に銃が撃てるんだよね……ふふふ",
      "あっ、おでこにニキビがある……\nこれ、テレビに映っちゃうかな……？",
      "ねえ、これ持ってみて。……うん、思った通り！\nあなたにはバズーカが似合うね！",
      "あなたの周りには、強くて可愛い子が沢山いるね。\nライバルが多くて、ちょっと落ち込むなぁ……",
      "弾帯巻いて、\n銃弾をたくさんバラまいたら気持ちよさそう……",
      "あ、あのね……\n私だけの特別なファンになってくれたら嬉しいな",
      "今夜、私の部屋に来ない？\nブービートラップを外して、待ってるね",
      "詠巫女として活動してるよ。\n知名度はあんまりないけどね",
      "体がジンジンするぅ……",
      "強くなれたのかな……？",
      "はぁ、ふう、最高♪",
      "トップを目指そうかな。じ、冗談だよ",
      "君はどんな武器を使ってるの？\nもし良かったら、見せてくれないかな",
      "私が銃の話題で興奮しておかしなこと言っても、\nあなたは真剣に聞いてくれるんだね。嬉しいな",
      "あなたの側にいるとホッとするなぁ……\nこんな気持ちになるの、カナちゃんと一緒にいる時くらいだよ",
      "ほんとはね、人前で歌ったり踊ったりするのは苦手なの。\nでも、あなたのためなら頑張れる気がする",
      "私でいいの？他にも強い子いっぱいいるのに……",
      "失敗しないように頑張るね",
      "そ、そこ通してくれないかな……？",
      "わわっ、こないでー！",
      "拾っちゃうね",
      "強そう……に、逃げちゃダメかな……！",
      "敵を撃ち放題……うふふ",
      "自信ないけど、頑張るから……！",
      "どの武器を使おうかな？",
      "やっ",
      "はっ",
      "捕まえた！",
      "残念！",
      "こここ、こっち来ないで……！",
      "私の分までがんばって……！",
      "私がいるよ",
      "蜂の巣にしてあげる！",
      "わわっ！？",
      "えぇ……",
      "そ、そんなぁ",
      "ひ、ひどいよぉ……！",
      "わ、私、もう無理……",
      "はぁっ、硝煙のにおいがする♪",
      "仕留めたっ！",
      "怖かったけど、楽しかったな",
      "ファンのみんなもきっと喜んでるよね",
      "もっと殺傷力のある強い武器を用意しなきゃ……！",
      "的が大きかったから、すごく狙いやすかったよ♪",
      "もう戻るの？嬉しいけど、ちょっと残念"
    ]
  },
  "m_FaceDict": {
    "m_keys": [
      "_join",
      "_start",
      "_waiting1",
      "_waiting2",
      "_touch1",
      "_touch2",
      "_touch3",
      "_touch4",
      "_affection1_touch1",
      "_affection1_touch2",
      "_affection1_touch3",
      "_affection3_touch1",
      "_affection3_touch2",
      "_affection3_touch3",
      "_affection5_touch1",
      "_affection5_touch2",
      "_introduction",
      "_power_up1",
      "_power_up2",
      "_power_up3",
      "_level_up",
      "_affection_up1",
      "_affection_up2",
      "_affection_up3",
      "_affection_up4",
      "_party_join1",
      "_party_join2",
      "_start_battle1",
      "_start_battle2",
      "_get_item",
      "_start_boss_battle1",
      "_start_boss_battle2",
      "_turn_start1",
      "_turn_start2",
      "_attack1",
      "_attack2",
      "_counter1",
      "_counter2",
      "_skill1",
      "_skill2",
      "_skill3",
      "_special1",
      "_small_damage1",
      "_small_damage2",
      "_mid_damage",
      "_heavy_damage",
      "_knock_out",
      "_enemy_defeat1",
      "_enemy_defeat2",
      "_result_win1",
      "_result_win2",
      "_narrow_win",
      "_boss_win",
      "_withdrawal"
    ],
    "m_values": [
      0,
      7,
      4,
      5,
      4,
      4,
      1,
      6,
      4,
      4,
      5,
      4,
      5,
      4,
      6,
      6,
      0,
      0,
      0,
      0,
      0,
      0,
      0,
      0,
      0,
      0,
      0,
      0,
      0,
      0,
      0,
      0,
      0,
      0,
      0,
      0,
      0,
      0,
      0,
      0,
      0,
      0,
      0,
      0,
      0,
      0,
      0,
      0,
      0,
      0,
      0,
      0,
      0,
      0
    ]
  }
}