{
  "m_GameObject": {
    "m_FileID": 0,
    "m_PathID": 0
  },
  "m_Enabled": 1,
  "m_Script": {
    "m_FileID": 0,
    "m_PathID": 949422448092228541
  },
  "m_Name": "11207_voice_text",
  "m_TextDict": {
    "m_keys": [
      "_join",
      "_start",
      "_waiting1",
      "_waiting2",
      "_touch1",
      "_touch2",
      "_touch3",
      "_touch4",
      "_affection1_touch1",
      "_affection1_touch2",
      "_affection1_touch3",
      "_affection3_touch1",
      "_affection3_touch2",
      "_affection3_touch3",
      "_affection5_touch1",
      "_affection5_touch2",
      "_introduction",
      "_power_up1",
      "_power_up2",
      "_power_up3",
      "_level_up",
      "_affection_up1",
      "_affection_up2",
      "_affection_up3",
      "_affection_up4",
      "_party_join1",
      "_party_join2",
      "_start_battle1",
      "_start_battle2",
      "_get_item",
      "_start_boss_battle1",
      "_start_boss_battle2",
      "_turn_start1",
      "_turn_start2",
      "_attack1",
      "_attack2",
      "_counter1",
      "_counter2",
      "_skill1",
      "_skill2",
      "_skill3",
      "_special1",
      "_small_damage1",
      "_small_damage2",
      "_mid_damage",
      "_heavy_damage",
      "_knock_out",
      "_enemy_defeat1",
      "_enemy_defeat2",
      "_result_win1",
      "_result_win2",
      "_narrow_win",
      "_boss_win",
      "_withdrawal"
    ],
    "m_values": [
      "殺したい奴っている？教えてくれたら、\nアタシが代わりにヤッてあげるわよぉ♪",
      "イッちゃいましょぉ",
      "あぁん、そんなにジロジロ見ないでぇ……",
      "……お胸の谷間が気になるのぉ？\n良い子ちゃんって、ムッツリスケベ？",
      "悪い子ちゃんの断末魔を聞くと、\n体の奥が熱くなってゾクゾクするのよねぇ！",
      "戦場でもベッドの上でも、いつだって全力投球よぉ？\n試してみる？",
      "戦場にはまだ行かないのぉ？\n早く一緒にイキましょうよぉ",
      "アナタはとっても良い子ちゃんねぇ。\nだって、アタシを戦いに誘ってくれるんだものぉ",
      "あんっ、そんなとこ摘まんじゃだめよぉ。\nもぉ……せっかちなんだからぁ♪",
      "ダンスは得意よぉ。\n男をトリコにする、セクシーなダンスがねぇ♪",
      "はぁ、良いわぁ。魔界アングラ文庫の恋愛小説……\nアタシもこんな恋がしたぁい……",
      "戦いにエクスタシーを感じるせいで\n痴女扱いされてるけど……本当は純情なのよ？",
      "セフィロトの木の下で愛を誓った２人は、\n永遠に結ばれるんですって。素敵よねぇ♪",
      "新作の香水をつけてみたんだけど、どうかしらぁ？\nもっと近くに来て確かめてよぉ",
      "今夜、良い子ちゃんの布団を温めに行ってあげる……\n初めてだから、優しくしてねぇ？",
      "んんっ、恥ずかしい。でも、良い子ちゃんなら\nいいわ……アタシの全部をあげる♪",
      "魔界の火山を統括してるのよぉ。\n灼熱の炎に巻かれたかったら、来てねぇ♪",
      "体が熱ぅい。でもそれも、快・感……！",
      "頭がボーっとしてきちゃったわぁ♪",
      "そこそこぉっ、みなぎってきたわぁ！",
      "この力があれば、どんな敵もお仕置きできるわぁ",
      "良い子ちゃんの事をもっと知りたいわぁ。\n恥ずかしがらずに、奥の奥まで見せてねぇ♪",
      "良い子ちゃんって、人気者なのねぇ。\nアタシだけのモノにしたいわぁ……♪",
      "良い子ちゃんの笑顔を見ると、ゾクゾクするぅ。\nアタシにこんな性癖があったなんてねぇ",
      "良い子ちゃんといると、最高のエクスタシーを\n感じるのぉ。これが愛というモノかしらん",
      "楽しみましょぉ♪",
      "悪い子ちゃんのお仕置きは、アタシに任せてぇ♪",
      "はぁっ、興奮してきたわぁ♪",
      "あら、アタシとヤリたいのぉ？",
      "見つけたわよぉ",
      "早くヤリましょ。アタシもう待ちきれない！",
      "さっさとなぶり殺しにしましょぉ♪",
      "どんな断末魔を上げるのかしら？ゾクゾクするわぁ",
      "苦痛に歪んだ顔を早く見せてぇ！",
      "えいっ",
      "それぇ",
      "遅いわん♪",
      "こっちからもイクわよぉ！！",
      "木っ端微塵にしてあげる♪",
      "まだイッちゃダメよぉ？",
      "肩の力を抜いてぇ？",
      "この昂り、受け取って頂戴っ！！！！",
      "あん♪",
      "痛ぁい♪",
      "血が出てる……。フフフ、素敵ぃ！",
      "あらぁ、とぉってもスリリング♪",
      "あぁん、イッちゃう……",
      "今の悲鳴、すごく良かったわぁ！もっと聞きたぁい",
      "ああん！その苦痛に歪んだ顔が見たかったのよぉ！",
      "あっと言う間に勝っちゃったわねぇ。\n断末魔の叫びをもっと聞きたかったわぁ",
      "悪い子ちゃんの首を持ち帰って部屋に飾ろうかしらぁ♪",
      "とぉっても刺激的だったわぁ。こういうのも良いわねぇ",
      "誰も敵わなかった子を八つ裂きにするのって、\n最ッ高だわぁ♪もっとヤリたぁい♪",
      "あらぁ、アタシを焦らすなんて悪い子ねぇ……"
    ]
  },
  "m_FaceDict": {
    "m_keys": [
      "_join",
      "_start",
      "_waiting1",
      "_waiting2",
      "_touch1",
      "_touch2",
      "_touch3",
      "_touch4",
      "_affection1_touch1",
      "_affection1_touch2",
      "_affection1_touch3",
      "_affection3_touch1",
      "_affection3_touch2",
      "_affection3_touch3",
      "_affection5_touch1",
      "_affection5_touch2",
      "_introduction",
      "_power_up1",
      "_power_up2",
      "_power_up3",
      "_level_up",
      "_affection_up1",
      "_affection_up2",
      "_affection_up3",
      "_affection_up4",
      "_party_join1",
      "_party_join2",
      "_start_battle1",
      "_start_battle2",
      "_get_item",
      "_start_boss_battle1",
      "_start_boss_battle2",
      "_turn_start1",
      "_turn_start2",
      "_attack1",
      "_attack2",
      "_counter1",
      "_counter2",
      "_skill1",
      "_skill2",
      "_skill3",
      "_special1",
      "_small_damage1",
      "_small_damage2",
      "_mid_damage",
      "_heavy_damage",
      "_knock_out",
      "_enemy_defeat1",
      "_enemy_defeat2",
      "_result_win1",
      "_result_win2",
      "_narrow_win",
      "_boss_win",
      "_withdrawal"
    ],
    "m_values": [
      0,
      7,
      6,
      6,
      7,
      4,
      6,
      6,
      6,
      4,
      6,
      5,
      6,
      6,
      6,
      6,
      0,
      0,
      0,
      0,
      0,
      0,
      0,
      0,
      0,
      0,
      0,
      0,
      0,
      0,
      0,
      0,
      0,
      0,
      0,
      0,
      0,
      0,
      0,
      0,
      0,
      0,
      0,
      0,
      0,
      0,
      0,
      0,
      0,
      0,
      0,
      0,
      0,
      0
    ]
  }
}