{
  "m_GameObject": {
    "m_FileID": 0,
    "m_PathID": 0
  },
  "m_Enabled": 1,
  "m_Script": {
    "m_FileID": 0,
    "m_PathID": 949422448092228541
  },
  "m_Name": "11313_voice_text",
  "m_TextDict": {
    "m_keys": [
      "_join",
      "_start",
      "_waiting1",
      "_waiting2",
      "_touch1",
      "_touch2",
      "_touch3",
      "_touch4",
      "_affection1_touch1",
      "_affection1_touch2",
      "_affection1_touch3",
      "_affection3_touch1",
      "_affection3_touch2",
      "_affection3_touch3",
      "_affection5_touch1",
      "_affection5_touch2",
      "_introduction",
      "_power_up1",
      "_power_up2",
      "_power_up3",
      "_level_up",
      "_affection_up1",
      "_affection_up2",
      "_affection_up3",
      "_affection_up4",
      "_party_join1",
      "_party_join2",
      "_start_battle1",
      "_start_battle2",
      "_get_item",
      "_start_boss_battle1",
      "_start_boss_battle2",
      "_turn_start1",
      "_turn_start2",
      "_attack1",
      "_attack2",
      "_counter1",
      "_counter2",
      "_skill1",
      "_skill2",
      "_skill3",
      "_special1",
      "_small_damage1",
      "_small_damage2",
      "_mid_damage",
      "_heavy_damage",
      "_knock_out",
      "_enemy_defeat1",
      "_enemy_defeat2",
      "_result_win1",
      "_result_win2",
      "_narrow_win",
      "_boss_win",
      "_withdrawal"
    ],
    "m_values": [
      "私の名はファウスト。\n……名前以外に何も話すことはないわ",
      "待っていたわ。さあ、行きましょう",
      "裏切りの罪は一生消えない……\nごめん、なさい……",
      "貴方……どうしたの？\n何か……辛いことでも思い出したの？",
      "私にはチカラが必要なの。\nもう誰も失わないためにも……",
      "誰もが生まれた瞬間から死へと\n緩やかに落下している。だから皆、抗うの",
      "貴方は後悔しないように、生きるといいわ。\n全てを失ってからでは遅いのよ",
      "私の許可なく触れるなんて、いい度胸ね。\n一度痛い目に合わせようかしら？",
      "最近なぜか、異様に感情が高ぶる時があるの。\nこれもカオス化の影響かしら……？",
      "死ねば何もかもが終わりよ。\nだから、生き恥を曝してでも生き残るのよ",
      "貴方……暇そうね。\n良かったら私の実験を手伝ってくれる？",
      "カオス化してから以前よりもチカラが増したわ。\nけど、まだ理想には全然足りないわ",
      "あまり過去のことを話したくはないわ。\nそれよりもこれからの事について考えたほうがいいわ",
      "今度、私の実験に付き合ってくれないかしら？\nもちろん、お礼はするわ",
      "二度も私はかけがえのない居場所を失ってしまったの。\nだから……これ以上誰にも私の居場所を奪わせないわ",
      "私は一生を懸けても償えない罪を犯したわ。\nそれでも貴方は仲間と言ってくれるの？――ありがとう",
      "ファウストよ。カオス化しても\n私であることに変わりはないわ",
      "まだ……力が足りないわ",
      "実験成功よ。また魔力が上昇したわ",
      "もっと……もっと、もっと、もっと！！",
      "見ていることしかできなかった頃の私ではないわ",
      "私にはチカラが必要なの。\n誰にも奪わせることはできない、圧倒的なチカラが――",
      "いつからか、同じ夢を繰り返し見るようになったの。\nそれは、絶対に忘れてはいけない、私の罪――",
      "目的のためなら、私自身の魂すら捧げるわ。\nそれまではどんな手段を取ってでも生き残ってみせる",
      "貴方は私の希望――\n未来へ進むきっかけをくれたこと、感謝しているわ",
      "実験の成果を披露するわ",
      "カオス化したチカラを見せてあげるわ",
      "落ち着いていきましょう",
      "余計なことを考える必要はないわ",
      "貴方が使うといいわ",
      "どんな相手にも弱点はあるわ",
      "強敵に勝つために私はチカラを得たのよ",
      "効率よく倒していきましょう",
      "相手の行動をよく見て",
      "壊す！",
      "消えろ！",
      "その行動は予測済みよ",
      "甘いわ！",
      "諦めなければ勝機はあるのよ！",
      "手助けするわ",
      "諦めてはいけないわ",
      "もう誰にも負けられないのよ！！",
      "この程度？",
      "それが全力？",
      "やってくれたわね！",
      "この程度で倒れるわけにはいかないのよ！",
      "まだ……チカラが足りないの？",
      "眠りなさい、永遠に……",
      "貴方も強かったわ",
      "戦闘終了。\n無事に勝利することができたわね",
      "私のチカラはこんなものではないわ、\n出直してきなさい",
      "まだ、チカラが足りないわ。\nもっと強くならないと……",
      "以前よりも私は強くなれたわ",
      "撤退よ。諦めなければいつか必ず勝てるわ"
    ]
  },
  "m_FaceDict": {
    "m_keys": [
      "_join",
      "_start",
      "_waiting1",
      "_waiting2",
      "_touch1",
      "_touch2",
      "_touch3",
      "_touch4",
      "_affection1_touch1",
      "_affection1_touch2",
      "_affection1_touch3",
      "_affection3_touch1",
      "_affection3_touch2",
      "_affection3_touch3",
      "_affection5_touch1",
      "_affection5_touch2",
      "_introduction",
      "_power_up1",
      "_power_up2",
      "_power_up3",
      "_level_up",
      "_affection_up1",
      "_affection_up2",
      "_affection_up3",
      "_affection_up4",
      "_party_join1",
      "_party_join2",
      "_start_battle1",
      "_start_battle2",
      "_get_item",
      "_start_boss_battle1",
      "_start_boss_battle2",
      "_turn_start1",
      "_turn_start2",
      "_attack1",
      "_attack2",
      "_counter1",
      "_counter2",
      "_skill1",
      "_skill2",
      "_skill3",
      "_special1",
      "_small_damage1",
      "_small_damage2",
      "_mid_damage",
      "_heavy_damage",
      "_knock_out",
      "_enemy_defeat1",
      "_enemy_defeat2",
      "_result_win1",
      "_result_win2",
      "_narrow_win",
      "_boss_win",
      "_withdrawal"
    ],
    "m_values": [
      0,
      4,
      5,
      5,
      3,
      3,
      5,
      3,
      5,
      5,
      1,
      5,
      5,
      4,
      5,
      5,
      0,
      0,
      0,
      0,
      0,
      0,
      0,
      0,
      0,
      0,
      0,
      0,
      0,
      0,
      0,
      0,
      0,
      0,
      0,
      0,
      0,
      0,
      0,
      0,
      0,
      0,
      0,
      0,
      0,
      0,
      0,
      0,
      0,
      0,
      0,
      0,
      0,
      0
    ]
  }
}