{
  "m_GameObject": {
    "m_FileID": 0,
    "m_PathID": 0
  },
  "m_Enabled": 1,
  "m_Script": {
    "m_FileID": 0,
    "m_PathID": 949422448092228541
  },
  "m_Name": "11604_voice_text",
  "m_TextDict": {
    "m_keys": [
      "_join",
      "_start",
      "_waiting1",
      "_waiting2",
      "_touch1",
      "_touch2",
      "_touch3",
      "_touch4",
      "_affection1_touch1",
      "_affection1_touch2",
      "_affection1_touch3",
      "_affection3_touch1",
      "_affection3_touch2",
      "_affection3_touch3",
      "_affection5_touch1",
      "_affection5_touch2",
      "_introduction",
      "_power_up1",
      "_power_up2",
      "_power_up3",
      "_level_up",
      "_affection_up1",
      "_affection_up2",
      "_affection_up3",
      "_affection_up4",
      "_party_join1",
      "_party_join2",
      "_start_battle1",
      "_start_battle2",
      "_get_item",
      "_start_boss_battle1",
      "_start_boss_battle2",
      "_turn_start1",
      "_turn_start2",
      "_attack1",
      "_attack2",
      "_counter1",
      "_counter2",
      "_skill1",
      "_skill2",
      "_skill3",
      "_special1",
      "_small_damage1",
      "_small_damage2",
      "_mid_damage",
      "_heavy_damage",
      "_knock_out",
      "_enemy_defeat1",
      "_enemy_defeat2",
      "_result_win1",
      "_result_win2",
      "_narrow_win",
      "_boss_win",
      "_withdrawal"
    ],
    "m_values": [
      "マユラだ。\n私は誰にも縛られない、自由な存在になる……",
      "始めようか",
      "美しいものだな……\n月は見る者の心を癒してくれる",
      "魔族が人間に生まれ変わるなど、\n所詮は叶わぬ夢なのだろうか……",
      "強大な魔力も、私にとっては邪魔なだけだ。\n邪な奴らに利用されるだけだからな",
      "氷結呪文は得意だ。\nネバーランドでは『氷の魔女』と呼ばれていた",
      "キース同盟軍の長となったのは、人間になる秘術を\n教えてもらうためだ。大義名分などない",
      "幼い頃、母に導かれ『ガジュウ』を宿した。\nこれを体内に宿すと、その力を自由に操れるのだ",
      "古い時代の終わりは、新しい時代の始まり。\n無限の可能性を秘めた新しい時代のな……",
      "髪は魔力の源と言われている。だから魔族は切らない。\n私は例外中の例外だ。フフ……",
      "人間にとって、冷えは万病の元らしい。\nお前もそうなのか？",
      "１４歳の頃、母を殺した。……後悔はしていない。\nだが、今でも時々悲しくなるよ",
      "この私が共にあるのだ。\nなにも恐れることなどない",
      "つぶらな瞳が愛らしいな。\n昔収集していたモンスターを思い出すよ",
      "人間の少女に会う前に、お前と会っていたら……\n私は人間ではなく、お前に憧れていたかもな……",
      "今日は暑いな。……お前といるからだろうか。\n……気にするな。冗談だ",
      "魔族の少女。強大な魔力を持つ実力者。\n同族から非難されつつも、人間になる方法を探している",
      "まだ強くなるのか……",
      "こんな力、邪魔だ……",
      "身体が熱い……",
      "フフ、人間になる夢から遠ざかったな",
      "お前は、人間でも魔族でもないそうだな。\nなかなか面白い存在だ……フフ",
      "もしなれるとしたら、魔族と人間、どちらになりたい？\nお前の考えを聞かせてくれ",
      "人間は親しい友人と、お揃いのアイテムを持つらしい。\n私達もやってみないか……？",
      "お前の力になれるなら、魔族であるこの身も、\nあながち悪くないと思えるよ",
      "お前は何を求めて戦う？",
      "リーダーはお前だ。分かったな",
      "私と一戦交えるかい？",
      "どうした？　怖気づいたか？",
      "お前にやろう",
      "強大な魔力を感じる。少しは楽しめそうだな",
      "こいつが親玉か。哀れなほど醜いな……",
      "さあ、自分の場所へと帰るんだ",
      "己の罪を認めて、潔く散れ…！",
      "せいっ！",
      "はあっ！",
      "遅いな",
      "甘い",
      "茶番は終わりだ！",
      "サポートしよう",
      "負けるな",
      "戦いはね、これからが本番だ！",
      "ちっ……！",
      "くっ……",
      "フフ、面白い",
      "ばかなっ！？",
      "少し、眠らせてくれないか……",
      "その目を閉じろ。これ以上、誇りを汚すな",
      "こうなることは、始めから分かっていたんだ",
      "この程度で喜ぶとは、呑気なものだ。フフ……",
      "呆気なかったな。さっさと次に行こう",
      "敵もやるな。楽しくなってきたぞ",
      "お前はよくやったよ。素直に誉めてやろう",
      "わかった。一旦戻って、頭を冷やそう"
    ]
  },
  "m_FaceDict": {
    "m_keys": [
      "_join",
      "_start",
      "_waiting1",
      "_waiting2",
      "_touch1",
      "_touch2",
      "_touch3",
      "_touch4",
      "_affection1_touch1",
      "_affection1_touch2",
      "_affection1_touch3",
      "_affection3_touch1",
      "_affection3_touch2",
      "_affection3_touch3",
      "_affection5_touch1",
      "_affection5_touch2",
      "_introduction",
      "_power_up1",
      "_power_up2",
      "_power_up3",
      "_level_up",
      "_affection_up1",
      "_affection_up2",
      "_affection_up3",
      "_affection_up4",
      "_party_join1",
      "_party_join2",
      "_start_battle1",
      "_start_battle2",
      "_get_item",
      "_start_boss_battle1",
      "_start_boss_battle2",
      "_turn_start1",
      "_turn_start2",
      "_attack1",
      "_attack2",
      "_counter1",
      "_counter2",
      "_skill1",
      "_skill2",
      "_skill3",
      "_special1",
      "_small_damage1",
      "_small_damage2",
      "_mid_damage",
      "_heavy_damage",
      "_knock_out",
      "_enemy_defeat1",
      "_enemy_defeat2",
      "_result_win1",
      "_result_win2",
      "_narrow_win",
      "_boss_win",
      "_withdrawal"
    ],
    "m_values": [
      0,
      2,
      4,
      5,
      5,
      3,
      3,
      3,
      4,
      4,
      5,
      5,
      4,
      4,
      6,
      6,
      0,
      0,
      0,
      0,
      0,
      0,
      0,
      0,
      0,
      0,
      0,
      0,
      0,
      0,
      0,
      0,
      0,
      0,
      0,
      0,
      0,
      0,
      0,
      0,
      0,
      0,
      0,
      0,
      0,
      0,
      0,
      0,
      0,
      0,
      0,
      0,
      0,
      0
    ]
  }
}