{
  "m_GameObject": {
    "m_FileID": 0,
    "m_PathID": 0
  },
  "m_Enabled": 1,
  "m_Script": {
    "m_FileID": 0,
    "m_PathID": 949422448092228541
  },
  "m_Name": "11602_voice_text",
  "m_TextDict": {
    "m_keys": [
      "_join",
      "_start",
      "_waiting1",
      "_waiting2",
      "_touch1",
      "_touch2",
      "_touch3",
      "_touch4",
      "_affection1_touch1",
      "_affection1_touch2",
      "_affection1_touch3",
      "_affection3_touch1",
      "_affection3_touch2",
      "_affection3_touch3",
      "_affection5_touch1",
      "_affection5_touch2",
      "_introduction",
      "_power_up1",
      "_power_up2",
      "_power_up3",
      "_level_up",
      "_affection_up1",
      "_affection_up2",
      "_affection_up3",
      "_affection_up4",
      "_party_join1",
      "_party_join2",
      "_start_battle1",
      "_start_battle2",
      "_get_item",
      "_start_boss_battle1",
      "_start_boss_battle2",
      "_turn_start1",
      "_turn_start2",
      "_attack1",
      "_attack2",
      "_counter1",
      "_counter2",
      "_skill1",
      "_skill2",
      "_skill3",
      "_special1",
      "_small_damage1",
      "_small_damage2",
      "_mid_damage",
      "_heavy_damage",
      "_knock_out",
      "_enemy_defeat1",
      "_enemy_defeat2",
      "_result_win1",
      "_result_win2",
      "_narrow_win",
      "_boss_win",
      "_withdrawal"
    ],
    "m_values": [
      "ロゼよ。虐げられた者達を解放するため、\n共に戦いましょう……！",
      "会えて嬉しいわ。一緒に頑張りましょう",
      "……復讐。それが本当に正しい方法か、\nまだ、よく分からないけど……",
      "魔族は虐げられる種族なの……？\nいいえ、これはきっと一部の人間の思惑なのよ……",
      "暴力は嫌いよ。\nでも『力』でしか解決できない事もあるわ……",
      "復讐と戦争は別よ。いくら義妹の仇を討つと言っても、\nただの人殺しにはなりたくない",
      "わたしの義妹は、人間の迫害を受けて、\n命を落としてしまったの……",
      "機織りは得意よ。義母が亡くなってからは、\nこの特技で生計を立てていたの",
      "わたしは、魔族と人間のハーフで、捨て子なの。\n人間の義母が、大切に育ててくれたわ",
      "ヒロ様を知ってる？彼女は、かつての支配者、\n大魔王の娘にしてその正当なる後継者よ",
      "この世で最も忌むべきもの。\nそれは、人間の醜い心ね……",
      "えっ、お風呂を沸かしてくれたの？\n貴方って、気が利くのね！",
      "戦いに明け暮れているせいかしら。\n安らかな生活というものに憧れるわ",
      "貴方って、同じような服ばかり着てるわね。\nわたしの織った布で、新しい服を仕立ててあげる",
      "何もかも終わったら、わたしと一緒に暮らさない？\n貴方とふたりなら、きっと楽しいわ",
      "あら、急に抱きついてきてどうしたの？\n貴方って、意外と甘えん坊なのね。ふふ",
      "ネバーランド大陸の住人よ。人間に迫害を受けた魔族を\n救うため『魔皇軍』を率いて戦っているわ",
      "力がみなぎってくる……",
      "はぁっ、体が熱い……",
      "もっと強くならないと……",
      "これが、新しいわたしなのね……",
      "貴方は何のために戦ってるの？\n誰かを守るため？それとも、別の理由……？",
      "もしも大切な人を殺されたらどうする？\n温厚なあなたでも、復讐を考えるのかしら",
      "義妹の仇は討ちたいわ。でも、わたしの目的は、\n人間を滅ぼすことじゃないわ……",
      "貴方に話を聞いてもらって、心が落ち着いた。\n復讐以外の道がないか、考えてみるわ……",
      "今こそ立ち上がる時です！",
      "戦の準備はできてるの？",
      "敵の言いなりにはなりません！",
      "邪魔する連中は、潰す！",
      "きっと役に立つわ",
      "恐れないで。わたし達なら勝てるわ！",
      "暴君には、死の報いを……！",
      "辛い冬の時代に、ピリオドを打ちましょう",
      "魔族を虐げる者に、正義の鉄槌を下します",
      "いきます",
      "はあっ",
      "そこです！",
      "お返しです！",
      "黙りなさい",
      "援護します",
      "共に戦いましょう",
      "この、下衆が！",
      "くっ",
      "うっ",
      "やるわね……",
      "そ、そんなっ……！！",
      "みなさん、すみません……",
      "命までは取らないわ。このまま、どこへでも行きなさい",
      "己の過ちを認めて、改心しなさい",
      "わたし達の力で、世界を変えていきましょう",
      "立ち止まってる暇はないわ。先を急ぎましょう",
      "敵もやるわね。くれぐれも油断しないで",
      "平和な世界に、一歩近づいたわね",
      "勝算のない戦いは避けるべきだわ。撤退しましょう"
    ]
  },
  "m_FaceDict": {
    "m_keys": [
      "_join",
      "_start",
      "_waiting1",
      "_waiting2",
      "_touch1",
      "_touch2",
      "_touch3",
      "_touch4",
      "_affection1_touch1",
      "_affection1_touch2",
      "_affection1_touch3",
      "_affection3_touch1",
      "_affection3_touch2",
      "_affection3_touch3",
      "_affection5_touch1",
      "_affection5_touch2",
      "_introduction",
      "_power_up1",
      "_power_up2",
      "_power_up3",
      "_level_up",
      "_affection_up1",
      "_affection_up2",
      "_affection_up3",
      "_affection_up4",
      "_party_join1",
      "_party_join2",
      "_start_battle1",
      "_start_battle2",
      "_get_item",
      "_start_boss_battle1",
      "_start_boss_battle2",
      "_turn_start1",
      "_turn_start2",
      "_attack1",
      "_attack2",
      "_counter1",
      "_counter2",
      "_skill1",
      "_skill2",
      "_skill3",
      "_special1",
      "_small_damage1",
      "_small_damage2",
      "_mid_damage",
      "_heavy_damage",
      "_knock_out",
      "_enemy_defeat1",
      "_enemy_defeat2",
      "_result_win1",
      "_result_win2",
      "_narrow_win",
      "_boss_win",
      "_withdrawal"
    ],
    "m_values": [
      0,
      4,
      2,
      5,
      3,
      2,
      5,
      6,
      1,
      1,
      7,
      4,
      5,
      4,
      4,
      6,
      0,
      0,
      0,
      0,
      0,
      0,
      0,
      0,
      0,
      0,
      0,
      0,
      0,
      0,
      0,
      0,
      0,
      0,
      0,
      0,
      0,
      0,
      0,
      0,
      0,
      0,
      0,
      0,
      0,
      0,
      0,
      0,
      0,
      0,
      0,
      0,
      0,
      0
    ]
  }
}