{
  "m_GameObject": {
    "m_FileID": 0,
    "m_PathID": 0
  },
  "m_Enabled": 1,
  "m_Script": {
    "m_FileID": 0,
    "m_PathID": 949422448092228541
  },
  "m_Name": "11705_voice_text",
  "m_TextDict": {
    "m_keys": [
      "_join",
      "_start",
      "_waiting1",
      "_waiting2",
      "_touch1",
      "_touch2",
      "_touch3",
      "_touch4",
      "_affection1_touch1",
      "_affection1_touch2",
      "_affection1_touch3",
      "_affection3_touch1",
      "_affection3_touch2",
      "_affection3_touch3",
      "_affection5_touch1",
      "_affection5_touch2",
      "_introduction",
      "_power_up1",
      "_power_up2",
      "_power_up3",
      "_level_up",
      "_affection_up1",
      "_affection_up2",
      "_affection_up3",
      "_affection_up4",
      "_party_join1",
      "_party_join2",
      "_start_battle1",
      "_start_battle2",
      "_get_item",
      "_start_boss_battle1",
      "_start_boss_battle2",
      "_turn_start1",
      "_turn_start2",
      "_attack1",
      "_attack2",
      "_counter1",
      "_counter2",
      "_skill1",
      "_skill2",
      "_skill3",
      "_special1",
      "_small_damage1",
      "_small_damage2",
      "_mid_damage",
      "_heavy_damage",
      "_knock_out",
      "_enemy_defeat1",
      "_enemy_defeat2",
      "_result_win1",
      "_result_win2",
      "_narrow_win",
      "_boss_win",
      "_withdrawal"
    ],
    "m_values": [
      "わたくしがあなたを完璧にお世話してあげます。\nたくさん甘えていいのよ！",
      "今日も元気にプッシュスタート！頑張っていきましょう",
      "空いている時間でゲームのイベント周回しておきましょ",
      "二人分の魅力を持ち合わせているわたくしを、\n放置するなんて……",
      "ゲームのお誘い？ありがとう",
      "わたくしに興味を持ってくれて嬉しいわ",
      "ひゃっ……ごめんなさい、ちょっと居眠りしてたみたい",
      "相談ならいつでも乗るよ。隣に座って座って。\nあ、お茶飲む？　お腹すいてない？　膝枕する？",
      "おすすめゲームを一緒にしない？他意はないわよ～",
      "わたくしが薦めた作品に沼ってしまった？\nふふふ、作戦通りね",
      "健康食ばかり食べてそうって言われるのは、\n名前のせいかしら？",
      "あなたの推しキャラＴＯＰ３に、わたくしは入ってる？",
      "わたくしが変態だって？\n当然じゃない。むしろ褒め言葉だわ",
      "こっちは強気受け……こちらはヘタレ受け……ううっ、\n拗らせると全て受けに見えてしまう…き、聞いてたの？",
      "ふふっ、なあに？　甘えたいの？\nしょうがないんだから",
      "わたくしはあなたが望んだから生まれたのよ。\nだから、ずっと側にいるわ",
      "フュージョン・フォースの力で生まれた、\n姉力抜群のベルシーよ。ご奉仕しちゃうんだから",
      "力が上がったみたい",
      "もっとあなたの力になれそう",
      "包容力もアップしたわ",
      "わたしの推しはあなただけよ",
      "あなたのことをもっと教えて？\n例えばこれまでのゲーム遍歴とか",
      "最近ハマった作品を教えてくれない？\nあなたのことを深く知りたいの",
      "はー……エモいエモい。ふふ、あなたのことよ",
      "ねぇ、一緒に沼ろっか。\n大丈夫、一生面倒見てあげるわ",
      "チーターを倒しに行きましょ！",
      "頑張っていきましょ！",
      "サポートしちゃう",
      "これはゲームじゃないんだから！",
      "あら、おめでとう～",
      "腐ってる者の力を思い知りなさい！",
      "あなたの中のバグを修正するわ",
      "付いてきて",
      "行くわよ",
      "任せて",
      "チーターはＮＧよ",
      "この程度の傷っ",
      "なんて反抗的な",
      "許してあげない",
      "もう大丈夫",
      "安心して、身を任せて",
      "とっておきのご奉仕をしてあげる",
      "きゃっ",
      "あっ",
      "回復が必要だわっ",
      "大ダメージよ……",
      "ハングアップ発生……",
      "当然の結果ね",
      "バグは消滅したわ",
      "勝利のVポーズ……決め！　なんてね",
      "溢れる姉力の勝利ね",
      "手強い相手だったわ",
      "これで心置きなくゲームができるわ",
      "コンティニューしてもう一度頑張りましょう"
    ]
  },
  "m_FaceDict": {
    "m_keys": [
      "_join",
      "_start",
      "_waiting1",
      "_waiting2",
      "_touch1",
      "_touch2",
      "_touch3",
      "_touch4",
      "_affection1_touch1",
      "_affection1_touch2",
      "_affection1_touch3",
      "_affection3_touch1",
      "_affection3_touch2",
      "_affection3_touch3",
      "_affection5_touch1",
      "_affection5_touch2",
      "_introduction",
      "_power_up1",
      "_power_up2",
      "_power_up3",
      "_level_up",
      "_affection_up1",
      "_affection_up2",
      "_affection_up3",
      "_affection_up4",
      "_party_join1",
      "_party_join2",
      "_start_battle1",
      "_start_battle2",
      "_get_item",
      "_start_boss_battle1",
      "_start_boss_battle2",
      "_turn_start1",
      "_turn_start2",
      "_attack1",
      "_attack2",
      "_counter1",
      "_counter2",
      "_skill1",
      "_skill2",
      "_skill3",
      "_special1",
      "_small_damage1",
      "_small_damage2",
      "_mid_damage",
      "_heavy_damage",
      "_knock_out",
      "_enemy_defeat1",
      "_enemy_defeat2",
      "_result_win1",
      "_result_win2",
      "_narrow_win",
      "_boss_win",
      "_withdrawal"
    ],
    "m_values": [
      0,
      4,
      4,
      5,
      4,
      4,
      5,
      4,
      4,
      4,
      2,
      6,
      4,
      5,
      6,
      6,
      0,
      0,
      0,
      0,
      0,
      0,
      0,
      0,
      0,
      0,
      0,
      0,
      0,
      0,
      0,
      0,
      0,
      0,
      0,
      0,
      0,
      0,
      0,
      0,
      0,
      0,
      0,
      0,
      0,
      0,
      0,
      0,
      0,
      0,
      0,
      0,
      0,
      0
    ]
  }
}