{
  "m_GameObject": {
    "m_FileID": 0,
    "m_PathID": 0
  },
  "m_Enabled": 1,
  "m_Script": {
    "m_FileID": 0,
    "m_PathID": 949422448092228541
  },
  "m_Name": "11706_voice_text",
  "m_TextDict": {
    "m_keys": [
      "_join",
      "_start",
      "_waiting1",
      "_waiting2",
      "_touch1",
      "_touch2",
      "_touch3",
      "_touch4",
      "_affection1_touch1",
      "_affection1_touch2",
      "_affection1_touch3",
      "_affection3_touch1",
      "_affection3_touch2",
      "_affection3_touch3",
      "_affection5_touch1",
      "_affection5_touch2",
      "_introduction",
      "_power_up1",
      "_power_up2",
      "_power_up3",
      "_level_up",
      "_affection_up1",
      "_affection_up2",
      "_affection_up3",
      "_affection_up4",
      "_party_join1",
      "_party_join2",
      "_start_battle1",
      "_start_battle2",
      "_get_item",
      "_start_boss_battle1",
      "_start_boss_battle2",
      "_turn_start1",
      "_turn_start2",
      "_attack1",
      "_attack2",
      "_counter1",
      "_counter2",
      "_skill1",
      "_skill2",
      "_skill3",
      "_special1",
      "_small_damage1",
      "_small_damage2",
      "_mid_damage",
      "_heavy_damage",
      "_knock_out",
      "_enemy_defeat1",
      "_enemy_defeat2",
      "_result_win1",
      "_result_win2",
      "_narrow_win",
      "_boss_win",
      "_withdrawal"
    ],
    "m_values": [
      "内包する矛盾。それが、わたし。\n世の中の矛盾をさらけ出して差し上げましょう",
      "今日はどちらにお出かけでしたの？\nわたしより気に入った子がいるわけではないでしょうに",
      "放置されている。その状況だけでゾクゾクするわ",
      "放置した罰として、あの方が帰ってきたら、\nこの非力な腕で締め上げてあげましょう",
      "直接触れられたときだけ、一人じゃないと感じるの",
      "赤の他人でも、血の繋がった者より仲良くなることは\n出来るのかしら……",
      "冒険へ出発かしら？　まだ？　そうですか……",
      "ボロボロの羽でも飛べるんですよ。\nどこまでも、遠くまで……",
      "こうして二人きりになっても、どのような話を\nすればいいか分からないんです。ごめんなさい",
      "戦いを有利に運ぶには、まず家族を人質に取って\n……え？　おほほ、ジョークですよ",
      "因果応報という言葉は、\n矛盾とは対になる言葉だと思いませんか？",
      "作戦会議なんてしていましたか？\nあなたの顔を見ていたから、聞いていませんでした",
      "わたしとあなたで矛盾の渦を巻き起こしましょう",
      "今、一人でばば抜きをしていたところです。\nこの寂しさがたまらないんじゃないですか……フフフ",
      "矛盾という言葉がある限り、この世に絶対はないのです\n……でも、あなたを想う気持ちは不変かも",
      "孤独を愛するわたしが、あなたに触れられて喜ぶなんて\n……これこそ最高の矛盾ですね",
      "あなたの力で生まれたワルティアよ。\nわたしがすべて挽肉にしてあげます♪",
      "あらら、うふふ",
      "向かうところ敵なしですね",
      "あなたと関わることでわたしは強くなる",
      "わたしの槍が全てを貫いてしまいますね",
      "誰かと仲良くなるのがそんなに嬉しいのですか？\nわたしは一人の方が気楽ですけど",
      "いつも冒険に連れ回すのね。\n常に一緒にいたいなんて、ストーカーさんなのかしら",
      "あなたなら、わたしが生きる意味を教えてくれるかしら",
      "あなたの周りはいつも賑やか。わたしは、一人。\n一人は寂しい。だから、あなたの傍にいさせてください",
      "わたしを呼びましたか？",
      "誰かと行動を共にするのは慣れませんね",
      "準備は万端です",
      "挽肉にしましょう",
      "良かったですね",
      "素晴らしい戦いにしましょう",
      "戦場に血の雨を降らせましょう",
      "誰からいこうかしら",
      "どのように痛めつけようかしら",
      "そこです",
      "えいっ",
      "痛みには痛みを",
      "これで、さようならです",
      "いきます",
      "守りましょう",
      "助けましょう",
      "さあ、命乞いをなさいませ！　",
      "あっ",
      "うっ",
      "やめてくださいっ",
      "いやあああっ",
      "わたしが誰かに迷惑をかけるなんて",
      "脆い、ですわね",
      "ソロでもいけたかしら",
      "まあ、こんなものでしょう",
      "白黒ハッキリさせては楽しくないでしょう",
      "正義とは、決して清らかな白ではないということです",
      "強さと脆さ……よい矛盾でしたわ",
      "負けではなく撤退……フフフ、矛盾してますね"
    ]
  },
  "m_FaceDict": {
    "m_keys": [
      "_join",
      "_start",
      "_waiting1",
      "_waiting2",
      "_touch1",
      "_touch2",
      "_touch3",
      "_touch4",
      "_affection1_touch1",
      "_affection1_touch2",
      "_affection1_touch3",
      "_affection3_touch1",
      "_affection3_touch2",
      "_affection3_touch3",
      "_affection5_touch1",
      "_affection5_touch2",
      "_introduction",
      "_power_up1",
      "_power_up2",
      "_power_up3",
      "_level_up",
      "_affection_up1",
      "_affection_up2",
      "_affection_up3",
      "_affection_up4",
      "_party_join1",
      "_party_join2",
      "_start_battle1",
      "_start_battle2",
      "_get_item",
      "_start_boss_battle1",
      "_start_boss_battle2",
      "_turn_start1",
      "_turn_start2",
      "_attack1",
      "_attack2",
      "_counter1",
      "_counter2",
      "_skill1",
      "_skill2",
      "_skill3",
      "_special1",
      "_small_damage1",
      "_small_damage2",
      "_mid_damage",
      "_heavy_damage",
      "_knock_out",
      "_enemy_defeat1",
      "_enemy_defeat2",
      "_result_win1",
      "_result_win2",
      "_narrow_win",
      "_boss_win",
      "_withdrawal"
    ],
    "m_values": [
      0,
      5,
      7,
      7,
      2,
      5,
      1,
      4,
      5,
      7,
      6,
      1,
      6,
      7,
      6,
      6,
      0,
      0,
      0,
      0,
      0,
      0,
      0,
      0,
      0,
      0,
      0,
      0,
      0,
      0,
      0,
      0,
      0,
      0,
      0,
      0,
      0,
      0,
      0,
      0,
      0,
      0,
      0,
      0,
      0,
      0,
      0,
      0,
      0,
      0,
      0,
      0,
      0,
      0
    ]
  }
}