{
  "m_GameObject": {
    "m_FileID": 0,
    "m_PathID": 0
  },
  "m_Enabled": 1,
  "m_Script": {
    "m_FileID": 0,
    "m_PathID": 949422448092228541
  },
  "m_Name": "12011_voice_text",
  "m_TextDict": {
    "m_keys": [
      "_join",
      "_start",
      "_waiting1",
      "_waiting2",
      "_touch1",
      "_touch2",
      "_touch3",
      "_touch4",
      "_affection1_touch1",
      "_affection1_touch2",
      "_affection1_touch3",
      "_affection3_touch1",
      "_affection3_touch2",
      "_affection3_touch3",
      "_affection5_touch1",
      "_affection5_touch2",
      "_introduction",
      "_power_up1",
      "_power_up2",
      "_power_up3",
      "_level_up",
      "_affection_up1",
      "_affection_up2",
      "_affection_up3",
      "_affection_up4",
      "_party_join1",
      "_party_join2",
      "_start_battle1",
      "_start_battle2",
      "_get_item",
      "_start_boss_battle1",
      "_start_boss_battle2",
      "_turn_start1",
      "_turn_start2",
      "_attack1",
      "_attack2",
      "_counter1",
      "_counter2",
      "_skill1",
      "_skill2",
      "_skill3",
      "_special1",
      "_small_damage1",
      "_small_damage2",
      "_mid_damage",
      "_heavy_damage",
      "_knock_out",
      "_enemy_defeat1",
      "_enemy_defeat2",
      "_result_win1",
      "_result_win2",
      "_narrow_win",
      "_boss_win",
      "_withdrawal"
    ],
    "m_values": [
      "私は、園神凜祢。よろしくね。\n……なんて、少し気が引けちゃうな",
      "この夢は終わらせない。\nそれだけは、許されないの",
      "彼の幸せだけが、私の生きる意味。\n他には何も望まない",
      "見守ってるね。これからも、ずっといつまでも……",
      "私の識別名は＜ルーラー＞。\n精霊であって、精霊ではない存在",
      "＜凶禍楽園＞での幸福な日々を、\n守り続けなければならない……",
      "たとえ私と結ばれなくとも\n彼が満たされているのなら、それでいいの",
      "幼馴染み……\nなんだか、懐かしい響き",
      "今日は何を作ってあげようかな",
      "目で見て、耳で聞いたものしか知ることができない。\n不便だけど、だからこそ彼は一生懸命なんだね",
      "もっとたくさんのことを勉強しなくちゃ。\n私はまだ知らないことばかりだから",
      "時間の縛りも老いもなく、永遠に大事な人と\n生きられる……それは幸せなことだと思わない？",
      "私の世界は間違っていない\n……そう言ってほしいな",
      "大切な人の隣にいられる。それだけでいいの",
      "君は私のことわかってくれる？\nそうだとしたら、嬉しいな",
      "私は彼の幸せを守る。\n本当にそれだけでよかったの",
      "始原の精霊の霊力が意志を持った存在。それが、私",
      "ひとつ賢くなったね",
      "幸先いいね",
      "うん、いけるよ",
      "この力で、彼の世界を護る",
      "君は、どんな世界を旅してきたの？\n話してほしいな",
      "幸せの形は、それぞれ違うと思う。\nどれも正しくて、どれも美しくて……どれも残酷なの",
      "大事な人には、辛い目に遭ってほしくない。\nだから今、私は私の手で……",
      "もし、万が一、この世界が閉じる時が来ても、\n私のことを覚えていてくれると嬉しいな",
      "彼の幸せに繋がるのなら",
      "がんばってみるね",
      "大丈夫、私も戦えるよ",
      "不幸の芽は摘んでおかないと",
      "これは君が使って",
      "夕飯までに帰れるかな",
      "彼のために、消えて",
      "世界の秩序を護ろう",
      "さあ、始めようか",
      "それ",
      "えいっ",
      "どう？",
      "こっちだよ",
      "終わりにしようか",
      "頑張れ",
      "君ならできる",
      "頼んだよ、私の凶禍楽園",
      "へぇ",
      "ふうん",
      "うっ……",
      "まずい、な……",
      "上手くいくと思ったのに……",
      "順当な結果だね",
      "私は、守る",
      "やったね。君のおかげだよ",
      "正義のヒーローってこんな気分なのかな",
      "危機一髪だったね",
      "君となら勝てると思ったよ",
      "やりなおせるかな……"
    ]
  },
  "m_FaceDict": {
    "m_keys": [
      "_join",
      "_start",
      "_waiting1",
      "_waiting2",
      "_touch1",
      "_touch2",
      "_touch3",
      "_touch4",
      "_affection1_touch1",
      "_affection1_touch2",
      "_affection1_touch3",
      "_affection3_touch1",
      "_affection3_touch2",
      "_affection3_touch3",
      "_affection5_touch1",
      "_affection5_touch2",
      "_introduction",
      "_power_up1",
      "_power_up2",
      "_power_up3",
      "_level_up",
      "_affection_up1",
      "_affection_up2",
      "_affection_up3",
      "_affection_up4",
      "_party_join1",
      "_party_join2",
      "_start_battle1",
      "_start_battle2",
      "_get_item",
      "_start_boss_battle1",
      "_start_boss_battle2",
      "_turn_start1",
      "_turn_start2",
      "_attack1",
      "_attack2",
      "_counter1",
      "_counter2",
      "_skill1",
      "_skill2",
      "_skill3",
      "_special1",
      "_small_damage1",
      "_small_damage2",
      "_mid_damage",
      "_heavy_damage",
      "_knock_out",
      "_enemy_defeat1",
      "_enemy_defeat2",
      "_result_win1",
      "_result_win2",
      "_narrow_win",
      "_boss_win",
      "_withdrawal"
    ],
    "m_values": [
      0,
      2,
      4,
      4,
      2,
      3,
      4,
      4,
      4,
      2,
      3,
      4,
      5,
      4,
      6,
      4,
      0,
      0,
      0,
      0,
      0,
      0,
      0,
      0,
      0,
      0,
      0,
      0,
      0,
      0,
      0,
      0,
      0,
      0,
      0,
      0,
      0,
      0,
      0,
      0,
      0,
      0,
      0,
      0,
      0,
      0,
      0,
      0,
      0,
      0,
      0,
      0,
      0,
      0
    ]
  }
}