{
  "m_GameObject": {
    "m_FileID": 0,
    "m_PathID": 0
  },
  "m_Enabled": 1,
  "m_Script": {
    "m_FileID": 0,
    "m_PathID": 8527011069456626154
  },
  "m_Name": "adv_201101_path",
  "advPathList": [
    {
      "assetName": "",
      "assetPath": "texture/character/stand/1040100_stand",
      "resourcePath": "Texture/Character/1040100_stand.asset"
    },
    {
      "assetName": "",
      "assetPath": "texture/character/stand/1030800_stand",
      "resourcePath": "Texture/Character/1030800_stand.asset"
    },
    {
      "assetName": "",
      "assetPath": "texture/character/stand/1011900_stand",
      "resourcePath": "Texture/Character/1011900_stand.asset"
    },
    {
      "assetName": "",
      "assetPath": "texture/character/stand/1021300_stand",
      "resourcePath": "Texture/Character/1021300_stand.asset"
    },
    {
      "assetName": "",
      "assetPath": "texture/character/stand/1150900_stand",
      "resourcePath": "Texture/Character/1150900_stand.asset"
    },
    {
      "assetName": "",
      "assetPath": "texture/background/bg_007_ll",
      "resourcePath": "Texture/BG/bg_007_LL.png"
    },
    {
      "assetName": "",
      "assetPath": "texture/background/bg_022_ll",
      "resourcePath": "Texture/BG/bg_022_LL.png"
    },
    {
      "assetName": "",
      "assetPath": "texture/background/bg_080_ll",
      "resourcePath": "Texture/BG/bg_080_LL.png"
    },
    {
      "assetName": "",
      "assetPath": "sound/bgm/adventure/bgm_adv_general",
      "resourcePath": "Sound/BGM/bgm_adv_general.wav"
    },
    {
      "assetName": "",
      "assetPath": "sound/bgm/adventure/bgm_comical",
      "resourcePath": "Sound/BGM/bgm_comical.wav"
    },
    {
      "assetName": "",
      "assetPath": "sound/se/adventure/se_down",
      "resourcePath": "Sound/SE/se_down.wav"
    },
    {
      "assetName": "",
      "assetPath": "data/adventure/event/story2011/adv_201101.scenarios",
      "resourcePath": "adv_201101.scenarios.asset"
    }
  ]
}