{
  "m_GameObject": {
    "m_FileID": 0,
    "m_PathID": 0
  },
  "m_Enabled": 1,
  "m_Script": {
    "m_FileID": 0,
    "m_PathID": 8527011069456626154
  },
  "m_Name": "adv_201107_path",
  "advPathList": [
    {
      "assetName": "",
      "assetPath": "texture/character/stand/1011900_stand",
      "resourcePath": "Texture/Character/1011900_stand.asset"
    },
    {
      "assetName": "",
      "assetPath": "texture/character/stand/1020200_stand",
      "resourcePath": "Texture/Character/1020200_stand.asset"
    },
    {
      "assetName": "",
      "assetPath": "texture/background/bg_007_ll",
      "resourcePath": "Texture/BG/bg_007_LL.png"
    },
    {
      "assetName": "",
      "assetPath": "texture/background/bg_022_ll",
      "resourcePath": "Texture/BG/bg_022_LL.png"
    },
    {
      "assetName": "",
      "assetPath": "texture/background/bg_079_ll",
      "resourcePath": "Texture/BG/bg_079_LL.png"
    },
    {
      "assetName": "",
      "assetPath": "texture/background/bg_080_ll",
      "resourcePath": "Texture/BG/bg_080_LL.png"
    },
    {
      "assetName": "",
      "assetPath": "sound/bgm/adventure/bgm_bright",
      "resourcePath": "Sound/BGM/bgm_bright.wav"
    },
    {
      "assetName": "",
      "assetPath": "sound/bgm/adventure/bgm_comical",
      "resourcePath": "Sound/BGM/bgm_comical.wav"
    },
    {
      "assetName": "",
      "assetPath": "sound/bgm/bgm_rest",
      "resourcePath": "Sound/BGM/bgm_rest.wav"
    },
    {
      "assetName": "",
      "assetPath": "sound/se/adventure/se_open_door_church",
      "resourcePath": "Sound/SE/se_open_door_church.wav"
    },
    {
      "assetName": "",
      "assetPath": "sound/se/adventure/se_depression",
      "resourcePath": "Sound/SE/se_depression.wav"
    },
    {
      "assetName": "",
      "assetPath": "sound/se/adventure/se_correct_answer",
      "resourcePath": "Sound/SE/se_correct_answer.wav"
    },
    {
      "assetName": "",
      "assetPath": "prefabs/effect/adventure/eff_040/eff_040",
      "resourcePath": "Particle/eff_040.prefab"
    },
    {
      "assetName": "",
      "assetPath": "data/adventure/event/story2011/adv_201107.scenarios",
      "resourcePath": "adv_201107.scenarios.asset"
    }
  ]
}