{
  "m_GameObject": {
    "m_FileID": 0,
    "m_PathID": 0
  },
  "m_Enabled": 1,
  "m_Script": {
    "m_FileID": 0,
    "m_PathID": 8527011069456626154
  },
  "m_Name": "adv_201106_path",
  "advPathList": [
    {
      "assetName": "",
      "assetPath": "texture/character/stand/1040100_stand",
      "resourcePath": "Texture/Character/1040100_stand.asset"
    },
    {
      "assetName": "",
      "assetPath": "texture/character/stand/1030800_stand",
      "resourcePath": "Texture/Character/1030800_stand.asset"
    },
    {
      "assetName": "",
      "assetPath": "texture/character/stand/1011900_stand",
      "resourcePath": "Texture/Character/1011900_stand.asset"
    },
    {
      "assetName": "",
      "assetPath": "texture/character/stand/1021300_stand",
      "resourcePath": "Texture/Character/1021300_stand.asset"
    },
    {
      "assetName": "",
      "assetPath": "texture/character/stand/1150900_stand",
      "resourcePath": "Texture/Character/1150900_stand.asset"
    },
    {
      "assetName": "",
      "assetPath": "texture/character/stand/1160300_stand",
      "resourcePath": "Texture/Character/1160300_stand.asset"
    },
    {
      "assetName": "",
      "assetPath": "texture/background/bg_007_ll",
      "resourcePath": "Texture/BG/bg_007_LL.png"
    },
    {
      "assetName": "",
      "assetPath": "texture/background/bg_022_ll",
      "resourcePath": "Texture/BG/bg_022_LL.png"
    },
    {
      "assetName": "",
      "assetPath": "texture/background/bg_076_ll",
      "resourcePath": "Texture/BG/bg_076_LL.png"
    },
    {
      "assetName": "",
      "assetPath": "texture/background/bg_048_ll",
      "resourcePath": "Texture/BG/bg_048_LL.png"
    },
    {
      "assetName": "",
      "assetPath": "sound/bgm/adventure/bgm_adv_general",
      "resourcePath": "Sound/BGM/bgm_adv_general.wav"
    },
    {
      "assetName": "",
      "assetPath": "sound/bgm/bgm_rest",
      "resourcePath": "Sound/BGM/bgm_rest.wav"
    },
    {
      "assetName": "",
      "assetPath": "sound/se/adventure/se_call_end",
      "resourcePath": "Sound/SE/se_call_end.wav"
    },
    {
      "assetName": "",
      "assetPath": "sound/se/adventure/se_depression",
      "resourcePath": "Sound/SE/se_depression.wav"
    },
    {
      "assetName": "",
      "assetPath": "sound/se/adventure/se_game_lose",
      "resourcePath": "Sound/SE/se_game_lose.wav"
    },
    {
      "assetName": "",
      "assetPath": "sound/se/adventure/se_game_win",
      "resourcePath": "Sound/SE/se_game_win.wav"
    },
    {
      "assetName": "",
      "assetPath": "prefabs/effect/adventure/eff_040/eff_040",
      "resourcePath": "Particle/eff_040.prefab"
    },
    {
      "assetName": "",
      "assetPath": "data/adventure/event/story2011/adv_201106.scenarios",
      "resourcePath": "adv_201106.scenarios.asset"
    }
  ]
}