{
  "m_GameObject": {
    "m_FileID": 0,
    "m_PathID": 0
  },
  "m_Enabled": 1,
  "m_Script": {
    "m_FileID": 0,
    "m_PathID": -2767099076474933927
  },
  "m_Name": "dc_2000500_sd",
  "Version": 65537,
  "TableCellMap": [
    {
      "Name": "2000500_sd",
      "SizeOriginal": {
        "x": 1024.0,
        "y": 1024.0
      },
      "TableCell": [
        {
          "Name": "weapon_r_1",
          "Rectangle": {
            "x": 488.0,
            "y": 579.0,
            "width": 116.0,
            "height": 72.0
          },
          "Pivot": {
            "x": 109.0,
            "y": 53.260273
          },
          "Mesh": {
            "TableCoordinate": [],
            "TableIndexVertex": []
          }
        },
        {
          "Name": "weapon_r_2",
          "Rectangle": {
            "x": 610.0,
            "y": 678.0,
            "width": 319.0,
            "height": 270.0
          },
          "Pivot": {
            "x": 309.0,
            "y": 32.9999962
          },
          "Mesh": {
            "TableCoordinate": [
              {
                "x": 28.0,
                "y": 271.0
              },
              {
                "x": 12.0,
                "y": 271.0
              },
              {
                "x": -2.0,
                "y": 224.0
              },
              {
                "x": 48.0,
                "y": 225.0
              },
              {
                "x": -2.0,
                "y": 177.0
              },
              {
                "x": 58.0,
                "y": 179.0
              },
              {
                "x": 23.0,
                "y": 156.0
              },
              {
                "x": 56.0,
                "y": 138.0
              },
              {
                "x": 13.0,
                "y": 114.0
              },
              {
                "x": 56.0,
                "y": 102.0
              },
              {
                "x": 57.0,
                "y": 71.0
              },
              {
                "x": 92.0,
                "y": 66.0
              },
              {
                "x": 112.0,
                "y": 106.0
              },
              {
                "x": 99.0,
                "y": 122.0
              },
              {
                "x": 105.0,
                "y": 137.0
              },
              {
                "x": 127.0,
                "y": 63.0
              },
              {
                "x": 163.0,
                "y": 61.0
              },
              {
                "x": 146.0,
                "y": 27.0
              },
              {
                "x": 107.0,
                "y": 23.0
              },
              {
                "x": 163.0,
                "y": 3.0
              },
              {
                "x": 205.0,
                "y": 15.0
              },
              {
                "x": 188.0,
                "y": -1.0
              },
              {
                "x": 237.0,
                "y": -2.0
              },
              {
                "x": 211.0,
                "y": 51.0
              },
              {
                "x": 268.0,
                "y": 19.0
              },
              {
                "x": 265.0,
                "y": 54.0
              },
              {
                "x": 320.0,
                "y": 19.0
              },
              {
                "x": 320.0,
                "y": 59.0
              },
              {
                "x": 304.0,
                "y": 5.0
              }
            ],
            "TableIndexVertex": [
              0,
              1,
              2,
              3,
              0,
              2,
              4,
              3,
              2,
              5,
              3,
              4,
              5,
              4,
              6,
              6,
              7,
              5,
              6,
              8,
              7,
              4,
              8,
              6,
              8,
              9,
              7,
              9,
              8,
              10,
              9,
              10,
              11,
              12,
              9,
              11,
              13,
              9,
              12,
              7,
              9,
              13,
              14,
              7,
              13,
              14,
              5,
              7,
              12,
              11,
              15,
              12,
              15,
              16,
              15,
              17,
              16,
              15,
              18,
              17,
              11,
              18,
              15,
              11,
              10,
              18,
              17,
              18,
              19,
              19,
              20,
              17,
              20,
              19,
              21,
              20,
              21,
              22,
              23,
              20,
              22,
              16,
              20,
              23,
              16,
              17,
              20,
              23,
              22,
              24,
              25,
              23,
              24,
              26,
              25,
              24,
              27,
              25,
              26,
              24,
              28,
              26,
              24,
              22,
              28
            ]
          }
        },
        {
          "Name": "shoulder_r",
          "Rectangle": {
            "x": 4.0,
            "y": 392.0,
            "width": 131.0,
            "height": 283.0
          },
          "Pivot": {
            "x": 82.0,
            "y": 241.0
          },
          "Mesh": {
            "TableCoordinate": [],
            "TableIndexVertex": []
          }
        },
        {
          "Name": "head",
          "Rectangle": {
            "x": 914.0,
            "y": 4.0,
            "width": 105.0,
            "height": 347.0
          },
          "Pivot": {
            "x": 43.0,
            "y": 276.0
          },
          "Mesh": {
            "TableCoordinate": [],
            "TableIndexVertex": []
          }
        },
        {
          "Name": "hand_l_1",
          "Rectangle": {
            "x": 680.0,
            "y": 4.0,
            "width": 100.0,
            "height": 132.0
          },
          "Pivot": {
            "x": 88.0,
            "y": 29.0
          },
          "Mesh": {
            "TableCoordinate": [],
            "TableIndexVertex": []
          }
        },
        {
          "Name": "hand_l_2",
          "Rectangle": {
            "x": 780.0,
            "y": 4.0,
            "width": 133.0,
            "height": 220.0
          },
          "Pivot": {
            "x": 112.0,
            "y": 56.0
          },
          "Mesh": {
            "TableCoordinate": [],
            "TableIndexVertex": []
          }
        },
        {
          "Name": "hand_l_3",
          "Rectangle": {
            "x": 434.0,
            "y": 104.0,
            "width": 160.0,
            "height": 144.0
          },
          "Pivot": {
            "x": 143.0,
            "y": 13.9999981
          },
          "Mesh": {
            "TableCoordinate": [],
            "TableIndexVertex": []
          }
        },
        {
          "Name": "hand_r",
          "Rectangle": {
            "x": 4.0,
            "y": 180.0,
            "width": 259.0,
            "height": 211.0
          },
          "Pivot": {
            "x": 45.0000038,
            "y": 33.8396225
          },
          "Mesh": {
            "TableCoordinate": [],
            "TableIndexVertex": []
          }
        },
        {
          "Name": "arm_r",
          "Rectangle": {
            "x": 134.0,
            "y": 4.0,
            "width": 116.0,
            "height": 112.0
          },
          "Pivot": {
            "x": 99.0,
            "y": 13.0
          },
          "Mesh": {
            "TableCoordinate": [],
            "TableIndexVertex": []
          }
        },
        {
          "Name": "body",
          "Rectangle": {
            "x": 250.0,
            "y": 4.0,
            "width": 184.0,
            "height": 176.0
          },
          "Pivot": {
            "x": 78.0,
            "y": 167.0
          },
          "Mesh": {
            "TableCoordinate": [],
            "TableIndexVertex": []
          }
        },
        {
          "Name": "shoulder_r2",
          "Rectangle": {
            "x": 136.0,
            "y": 392.0,
            "width": 169.0,
            "height": 300.0
          },
          "Pivot": {
            "x": 84.5,
            "y": 150.0
          },
          "Mesh": {
            "TableCoordinate": [],
            "TableIndexVertex": []
          }
        },
        {
          "Name": "shoulder_l",
          "Rectangle": {
            "x": 772.0,
            "y": 224.0,
            "width": 68.0,
            "height": 280.0
          },
          "Pivot": {
            "x": 33.0,
            "y": 239.0
          },
          "Mesh": {
            "TableCoordinate": [],
            "TableIndexVertex": []
          }
        },
        {
          "Name": "shoulder_l2",
          "Rectangle": {
            "x": 841.0,
            "y": 352.0,
            "width": 109.0,
            "height": 294.0
          },
          "Pivot": {
            "x": 54.5,
            "y": 147.0
          },
          "Mesh": {
            "TableCoordinate": [],
            "TableIndexVertex": []
          }
        },
        {
          "Name": "thigh_r",
          "Rectangle": {
            "x": 722.0,
            "y": 504.0,
            "width": 100.0,
            "height": 173.0
          },
          "Pivot": {
            "x": 52.0,
            "y": 32.0
          },
          "Mesh": {
            "TableCoordinate": [],
            "TableIndexVertex": []
          }
        },
        {
          "Name": "foot_r",
          "Rectangle": {
            "x": 580.0,
            "y": 4.0,
            "width": 100.0,
            "height": 89.0
          },
          "Pivot": {
            "x": 33.0,
            "y": 25.0
          },
          "Mesh": {
            "TableCoordinate": [],
            "TableIndexVertex": []
          }
        },
        {
          "Name": "leg_r",
          "Rectangle": {
            "x": 704.0,
            "y": 136.0,
            "width": 68.0,
            "height": 172.0
          },
          "Pivot": {
            "x": 40.0,
            "y": 14.0000019
          },
          "Mesh": {
            "TableCoordinate": [],
            "TableIndexVertex": []
          }
        },
        {
          "Name": "hip",
          "Rectangle": {
            "x": 594.0,
            "y": 136.0,
            "width": 109.0,
            "height": 134.0
          },
          "Pivot": {
            "x": 63.0,
            "y": 75.0
          },
          "Mesh": {
            "TableCoordinate": [],
            "TableIndexVertex": []
          }
        },
        {
          "Name": "thigh_l",
          "Rectangle": {
            "x": 306.0,
            "y": 518.0,
            "width": 181.0,
            "height": 144.0
          },
          "Pivot": {
            "x": 15.0,
            "y": 21.0000019
          },
          "Mesh": {
            "TableCoordinate": [],
            "TableIndexVertex": []
          }
        },
        {
          "Name": "foot_l",
          "Rectangle": {
            "x": 434.0,
            "y": 4.0,
            "width": 145.0,
            "height": 99.0
          },
          "Pivot": {
            "x": 42.0,
            "y": 30.0
          },
          "Mesh": {
            "TableCoordinate": [],
            "TableIndexVertex": []
          }
        },
        {
          "Name": "leg_l",
          "Rectangle": {
            "x": 264.0,
            "y": 180.0,
            "width": 98.0,
            "height": 162.0
          },
          "Pivot": {
            "x": 41.0,
            "y": 17.0
          },
          "Mesh": {
            "TableCoordinate": [],
            "TableIndexVertex": []
          }
        },
        {
          "Name": "weapon_l",
          "Rectangle": {
            "x": 4.0,
            "y": 106.0,
            "width": 116.0,
            "height": 73.0
          },
          "Pivot": {
            "x": 3.99999857,
            "y": 54.0
          },
          "Mesh": {
            "TableCoordinate": [],
            "TableIndexVertex": []
          }
        },
        {
          "Name": "weapon_l_2",
          "Rectangle": {
            "x": 306.0,
            "y": 662.0,
            "width": 303.0,
            "height": 281.0
          },
          "Pivot": {
            "x": 11.0000029,
            "y": 31.9999981
          },
          "Mesh": {
            "TableCoordinate": [
              {
                "x": -2.0,
                "y": 59.0
              },
              {
                "x": 2.0,
                "y": 14.0
              },
              {
                "x": 52.0,
                "y": 54.0
              },
              {
                "x": 52.0,
                "y": -2.0
              },
              {
                "x": 107.0,
                "y": 51.0
              },
              {
                "x": 116.0,
                "y": -2.0
              },
              {
                "x": 143.0,
                "y": 56.0
              },
              {
                "x": 179.0,
                "y": 5.0
              },
              {
                "x": 170.0,
                "y": 73.0
              },
              {
                "x": 199.0,
                "y": 72.0
              },
              {
                "x": 210.0,
                "y": 117.0
              },
              {
                "x": 234.0,
                "y": 78.0
              },
              {
                "x": 253.0,
                "y": 142.0
              },
              {
                "x": 205.0,
                "y": 136.0
              },
              {
                "x": 245.0,
                "y": 183.0
              },
              {
                "x": 284.0,
                "y": 172.0
              },
              {
                "x": 304.0,
                "y": 206.0
              },
              {
                "x": 243.0,
                "y": 232.0
              },
              {
                "x": 267.0,
                "y": 279.0
              },
              {
                "x": 248.0,
                "y": 282.0
              },
              {
                "x": 304.0,
                "y": 127.0
              },
              {
                "x": 291.0,
                "y": 96.0
              },
              {
                "x": 275.0,
                "y": 90.0
              },
              {
                "x": 218.0,
                "y": 27.0
              }
            ],
            "TableIndexVertex": [
              0,
              1,
              2,
              1,
              3,
              2,
              2,
              3,
              4,
              4,
              3,
              5,
              6,
              4,
              5,
              7,
              6,
              5,
              8,
              6,
              7,
              9,
              8,
              7,
              8,
              9,
              10,
              10,
              9,
              11,
              10,
              11,
              12,
              13,
              10,
              12,
              14,
              13,
              12,
              14,
              12,
              15,
              16,
              14,
              15,
              16,
              17,
              14,
              18,
              17,
              16,
              19,
              17,
              18,
              15,
              20,
              16,
              15,
              12,
              20,
              12,
              21,
              20,
              12,
              22,
              21,
              12,
              11,
              22,
              22,
              11,
              23,
              9,
              23,
              11,
              9,
              7,
              23
            ]
          }
        },
        {
          "Name": "arm_l",
          "Rectangle": {
            "x": 4.0,
            "y": 4.0,
            "width": 129.0,
            "height": 101.0
          },
          "Pivot": {
            "x": 20.0000019,
            "y": 18.0
          },
          "Mesh": {
            "TableCoordinate": [],
            "TableIndexVertex": []
          }
        },
        {
          "Name": "rear_r",
          "Rectangle": {
            "x": 542.0,
            "y": 308.0,
            "width": 179.0,
            "height": 270.0
          },
          "Pivot": {
            "x": 164.0,
            "y": 4.999997
          },
          "Mesh": {
            "TableCoordinate": [
              {
                "x": 8.0,
                "y": 271.0
              },
              {
                "x": -2.0,
                "y": 271.0
              },
              {
                "x": 7.0,
                "y": 233.0
              },
              {
                "x": 37.0,
                "y": 242.0
              },
              {
                "x": 44.0,
                "y": 215.0
              },
              {
                "x": 66.0,
                "y": 214.0
              },
              {
                "x": 64.0,
                "y": 196.0
              },
              {
                "x": 31.0,
                "y": 189.0
              },
              {
                "x": 17.0,
                "y": 196.0
              },
              {
                "x": 47.0,
                "y": 170.0
              },
              {
                "x": 25.0,
                "y": 178.0
              },
              {
                "x": 52.0,
                "y": 138.0
              },
              {
                "x": 69.0,
                "y": 167.0
              },
              {
                "x": 79.0,
                "y": 198.0
              },
              {
                "x": 92.0,
                "y": 169.0
              },
              {
                "x": 75.0,
                "y": 134.0
              },
              {
                "x": 98.0,
                "y": 167.0
              },
              {
                "x": 100.0,
                "y": 127.0
              },
              {
                "x": 127.0,
                "y": 116.0
              },
              {
                "x": 101.0,
                "y": 92.0
              },
              {
                "x": 77.0,
                "y": 99.0
              },
              {
                "x": 99.0,
                "y": 61.0
              },
              {
                "x": 127.0,
                "y": 81.0
              },
              {
                "x": 155.0,
                "y": 66.0
              },
              {
                "x": 125.0,
                "y": 50.0
              },
              {
                "x": 122.0,
                "y": 23.0
              },
              {
                "x": 151.0,
                "y": 41.0
              },
              {
                "x": 178.0,
                "y": 36.0
              },
              {
                "x": 157.0,
                "y": -2.0
              },
              {
                "x": 178.0,
                "y": 2.0
              },
              {
                "x": 135.0,
                "y": 9.0
              },
              {
                "x": 25.0,
                "y": 187.0
              }
            ],
            "TableIndexVertex": [
              0,
              1,
              2,
              3,
              0,
              2,
              3,
              2,
              4,
              3,
              4,
              5,
              4,
              6,
              5,
              4,
              7,
              6,
              8,
              7,
              4,
              2,
              8,
              4,
              7,
              9,
              6,
              9,
              7,
              10,
              9,
              10,
              11,
              9,
              11,
              12,
              6,
              9,
              12,
              6,
              12,
              13,
              13,
              12,
              14,
              14,
              12,
              15,
              16,
              14,
              15,
              16,
              15,
              17,
              16,
              17,
              18,
              17,
              19,
              18,
              17,
              20,
              19,
              15,
              20,
              17,
              15,
              11,
              20,
              12,
              11,
              15,
              20,
              21,
              19,
              19,
              21,
              22,
              19,
              22,
              18,
              18,
              22,
              23,
              22,
              24,
              23,
              21,
              24,
              22,
              21,
              25,
              24,
              24,
              25,
              26,
              24,
              26,
              23,
              23,
              26,
              27,
              27,
              26,
              28,
              28,
              29,
              27,
              26,
              30,
              28,
              25,
              30,
              26,
              7,
              31,
              10
            ]
          }
        },
        {
          "Name": "rear_l",
          "Rectangle": {
            "x": 362.0,
            "y": 248.0,
            "width": 179.0,
            "height": 270.0
          },
          "Pivot": {
            "x": 14.0,
            "y": 7.00000238
          },
          "Mesh": {
            "TableCoordinate": [
              {
                "x": 1.0,
                "y": 36.0
              },
              {
                "x": -2.0,
                "y": 13.0
              },
              {
                "x": 28.0,
                "y": 19.0
              },
              {
                "x": 27.0,
                "y": 41.0
              },
              {
                "x": 24.0,
                "y": 66.0
              },
              {
                "x": 54.0,
                "y": 50.0
              },
              {
                "x": 49.0,
                "y": 74.0
              },
              {
                "x": 36.0,
                "y": 94.0
              },
              {
                "x": 42.0,
                "y": 96.0
              },
              {
                "x": 75.0,
                "y": 86.0
              },
              {
                "x": 68.0,
                "y": 108.0
              },
              {
                "x": 61.0,
                "y": 130.0
              },
              {
                "x": 97.0,
                "y": 123.0
              },
              {
                "x": 89.0,
                "y": 145.0
              },
              {
                "x": 81.0,
                "y": 167.0
              },
              {
                "x": 87.0,
                "y": 169.0
              },
              {
                "x": 110.0,
                "y": 168.0
              },
              {
                "x": 100.0,
                "y": 198.0
              },
              {
                "x": 116.0,
                "y": 197.0
              },
              {
                "x": 132.0,
                "y": 171.0
              },
              {
                "x": 148.0,
                "y": 189.0
              },
              {
                "x": 134.0,
                "y": 214.0
              },
              {
                "x": 113.0,
                "y": 214.0
              },
              {
                "x": 141.0,
                "y": 241.0
              },
              {
                "x": 170.0,
                "y": 227.0
              },
              {
                "x": 180.0,
                "y": 258.0
              },
              {
                "x": 171.0,
                "y": 271.0
              },
              {
                "x": 180.0,
                "y": 271.0
              },
              {
                "x": 162.0,
                "y": 196.0
              },
              {
                "x": 154.0,
                "y": 178.0
              },
              {
                "x": 154.0,
                "y": 187.0
              },
              {
                "x": 127.0,
                "y": 139.0
              },
              {
                "x": 103.0,
                "y": 100.0
              },
              {
                "x": 81.0,
                "y": 62.0
              },
              {
                "x": 57.0,
                "y": 23.0
              },
              {
                "x": 28.0,
                "y": 0.0
              },
              {
                "x": 6.0,
                "y": -2.0
              }
            ],
            "TableIndexVertex": [
              0,
              1,
              2,
              3,
              0,
              2,
              4,
              0,
              3,
              4,
              3,
              5,
              6,
              4,
              5,
              7,
              4,
              6,
              8,
              7,
              6,
              8,
              6,
              9,
              10,
              8,
              9,
              11,
              8,
              10,
              11,
              10,
              12,
              13,
              11,
              12,
              14,
              11,
              13,
              15,
              14,
              13,
              16,
              15,
              13,
              17,
              15,
              16,
              17,
              16,
              18,
              18,
              16,
              19,
              18,
              19,
              20,
              21,
              18,
              20,
              22,
              18,
              21,
              22,
              21,
              23,
              23,
              21,
              24,
              23,
              24,
              25,
              26,
              23,
              25,
              26,
              25,
              27,
              24,
              21,
              28,
              21,
              20,
              28,
              20,
              19,
              29,
              30,
              20,
              29,
              29,
              19,
              31,
              16,
              31,
              19,
              16,
              13,
              31,
              13,
              12,
              31,
              12,
              32,
              31,
              12,
              10,
              32,
              10,
              9,
              32,
              9,
              33,
              32,
              9,
              6,
              33,
              6,
              5,
              33,
              5,
              34,
              33,
              5,
              3,
              34,
              3,
              2,
              34,
              34,
              2,
              35,
              36,
              35,
              2,
              1,
              36,
              2
            ]
          }
        }
      ]
    }
  ]
}