{
  "m_GameObject": {
    "m_FileID": 0,
    "m_PathID": 0
  },
  "m_Enabled": 1,
  "m_Script": {
    "m_FileID": 0,
    "m_PathID": -2767099076474933927
  },
  "m_Name": "dc_1120600_sd",
  "Version": 65537,
  "TableCellMap": [
    {
      "Name": "1120600_sd",
      "SizeOriginal": {
        "x": 2048.0,
        "y": 2048.0
      },
      "TableCell": [
        {
          "Name": "face_normal",
          "Rectangle": {
            "x": 4.0,
            "y": 654.0,
            "width": 250.0,
            "height": 250.0
          },
          "Pivot": {
            "x": 125.0,
            "y": 135.0
          },
          "Mesh": {
            "TableCoordinate": [],
            "TableIndexVertex": []
          }
        },
        {
          "Name": "face_eye_close_normal",
          "Rectangle": {
            "x": 1164.0,
            "y": 584.0,
            "width": 250.0,
            "height": 250.0
          },
          "Pivot": {
            "x": 125.0,
            "y": 135.0
          },
          "Mesh": {
            "TableCoordinate": [],
            "TableIndexVertex": []
          }
        },
        {
          "Name": "face_mouth_open_happy",
          "Rectangle": {
            "x": 1664.0,
            "y": 614.0,
            "width": 250.0,
            "height": 250.0
          },
          "Pivot": {
            "x": 125.0,
            "y": 135.0
          },
          "Mesh": {
            "TableCoordinate": [],
            "TableIndexVertex": []
          }
        },
        {
          "Name": "face_happy",
          "Rectangle": {
            "x": 1414.0,
            "y": 584.0,
            "width": 250.0,
            "height": 250.0
          },
          "Pivot": {
            "x": 125.0,
            "y": 135.0
          },
          "Mesh": {
            "TableCoordinate": [],
            "TableIndexVertex": []
          }
        },
        {
          "Name": "face_attack",
          "Rectangle": {
            "x": 134.0,
            "y": 404.0,
            "width": 250.0,
            "height": 250.0
          },
          "Pivot": {
            "x": 125.0,
            "y": 135.0
          },
          "Mesh": {
            "TableCoordinate": [],
            "TableIndexVertex": []
          }
        },
        {
          "Name": "face_damage",
          "Rectangle": {
            "x": 384.0,
            "y": 404.0,
            "width": 250.0,
            "height": 250.0
          },
          "Pivot": {
            "x": 125.0,
            "y": 135.0
          },
          "Mesh": {
            "TableCoordinate": [],
            "TableIndexVertex": []
          }
        },
        {
          "Name": "face_unique",
          "Rectangle": {
            "x": 254.0,
            "y": 654.0,
            "width": 250.0,
            "height": 250.0
          },
          "Pivot": {
            "x": 125.0,
            "y": 135.0
          },
          "Mesh": {
            "TableCoordinate": [],
            "TableIndexVertex": []
          }
        },
        {
          "Name": "acce_head_front_c",
          "Rectangle": {
            "x": 834.0,
            "y": 4.0,
            "width": 530.0,
            "height": 360.0
          },
          "Pivot": {
            "x": 257.0,
            "y": 132.0
          },
          "Mesh": {
            "TableCoordinate": [],
            "TableIndexVertex": []
          }
        },
        {
          "Name": "acce_head_front_l",
          "Rectangle": {
            "x": 1364.0,
            "y": 4.0,
            "width": 250.0,
            "height": 280.0
          },
          "Pivot": {
            "x": 105.0,
            "y": 119.0
          },
          "Mesh": {
            "TableCoordinate": [],
            "TableIndexVertex": []
          }
        },
        {
          "Name": "acce_head_front_r",
          "Rectangle": {
            "x": 1614.0,
            "y": 4.0,
            "width": 250.0,
            "height": 280.0
          },
          "Pivot": {
            "x": 123.0,
            "y": 133.999878
          },
          "Mesh": {
            "TableCoordinate": [],
            "TableIndexVertex": []
          }
        },
        {
          "Name": "hear_front_c",
          "Rectangle": {
            "x": 4.0,
            "y": 904.0,
            "width": 430.0,
            "height": 320.0
          },
          "Pivot": {
            "x": 216.0,
            "y": 71.00001
          },
          "Mesh": {
            "TableCoordinate": [
              {
                "x": 95.0,
                "y": 175.0
              },
              {
                "x": 94.0,
                "y": 132.0
              },
              {
                "x": 137.0,
                "y": 151.0
              },
              {
                "x": 143.0,
                "y": 190.0
              },
              {
                "x": 124.0,
                "y": 203.0
              },
              {
                "x": 108.0,
                "y": 212.0
              },
              {
                "x": 123.0,
                "y": 214.0
              },
              {
                "x": 157.0,
                "y": 227.0
              },
              {
                "x": 179.0,
                "y": 186.0
              },
              {
                "x": 189.0,
                "y": 235.0
              },
              {
                "x": 209.0,
                "y": 219.0
              },
              {
                "x": 209.0,
                "y": 234.0
              },
              {
                "x": 190.0,
                "y": 158.0
              },
              {
                "x": 144.0,
                "y": 102.0
              },
              {
                "x": 210.0,
                "y": 117.0
              },
              {
                "x": 221.0,
                "y": 161.0
              },
              {
                "x": 201.0,
                "y": 177.0
              },
              {
                "x": 216.0,
                "y": 177.0
              },
              {
                "x": 247.0,
                "y": 122.0
              },
              {
                "x": 251.0,
                "y": 180.0
              },
              {
                "x": 281.0,
                "y": 133.0
              },
              {
                "x": 278.0,
                "y": 87.0
              },
              {
                "x": 240.0,
                "y": 73.0
              },
              {
                "x": 194.0,
                "y": 72.0
              },
              {
                "x": 167.0,
                "y": 82.0
              },
              {
                "x": 177.0,
                "y": 33.0
              },
              {
                "x": 217.0,
                "y": 26.0
              },
              {
                "x": 282.0,
                "y": 33.0
              },
              {
                "x": 332.0,
                "y": 69.0
              },
              {
                "x": 352.0,
                "y": 112.0
              },
              {
                "x": 334.0,
                "y": 157.0
              },
              {
                "x": 292.0,
                "y": 170.0
              },
              {
                "x": 329.0,
                "y": 209.0
              },
              {
                "x": 298.0,
                "y": 233.0
              },
              {
                "x": 278.0,
                "y": 234.0
              },
              {
                "x": 360.0,
                "y": 189.0
              },
              {
                "x": 344.0,
                "y": 232.0
              },
              {
                "x": 331.0,
                "y": 232.0
              },
              {
                "x": 136.0,
                "y": 57.0
              },
              {
                "x": 108.0,
                "y": 92.0
              }
            ],
            "TableIndexVertex": [
              0,
              1,
              2,
              0,
              2,
              3,
              4,
              0,
              3,
              5,
              0,
              4,
              6,
              5,
              4,
              3,
              7,
              4,
              7,
              3,
              8,
              9,
              7,
              8,
              10,
              9,
              8,
              11,
              9,
              10,
              3,
              2,
              8,
              8,
              2,
              12,
              13,
              12,
              2,
              14,
              12,
              13,
              12,
              14,
              15,
              16,
              12,
              15,
              17,
              16,
              15,
              15,
              14,
              18,
              19,
              15,
              18,
              18,
              20,
              19,
              18,
              21,
              20,
              18,
              22,
              21,
              14,
              22,
              18,
              14,
              23,
              22,
              24,
              23,
              14,
              23,
              24,
              25,
              23,
              25,
              26,
              23,
              26,
              22,
              22,
              26,
              27,
              21,
              22,
              27,
              21,
              27,
              28,
              29,
              21,
              28,
              29,
              20,
              21,
              30,
              20,
              29,
              31,
              20,
              30,
              31,
              19,
              20,
              32,
              31,
              30,
              33,
              31,
              32,
              34,
              31,
              33,
              32,
              30,
              35,
              35,
              36,
              32,
              36,
              37,
              32,
              30,
              29,
              35,
              24,
              38,
              25,
              24,
              13,
              38,
              14,
              13,
              24,
              13,
              39,
              38,
              13,
              1,
              39,
              2,
              1,
              13
            ]
          }
        },
        {
          "Name": "hear_front_r",
          "Rectangle": {
            "x": 1800.0,
            "y": 864.0,
            "width": 200.0,
            "height": 380.0
          },
          "Pivot": {
            "x": 107.0,
            "y": 99.0
          },
          "Mesh": {
            "TableCoordinate": [
              {
                "x": 114.0,
                "y": 69.0
              },
              {
                "x": 80.0,
                "y": 108.0
              },
              {
                "x": 79.0,
                "y": 70.0
              },
              {
                "x": 122.0,
                "y": 108.0
              },
              {
                "x": 88.0,
                "y": 147.0
              },
              {
                "x": 135.0,
                "y": 151.0
              },
              {
                "x": 109.0,
                "y": 182.0
              },
              {
                "x": 147.0,
                "y": 187.0
              },
              {
                "x": 132.0,
                "y": 202.0
              },
              {
                "x": 159.0,
                "y": 215.0
              },
              {
                "x": 98.0,
                "y": 59.0
              }
            ],
            "TableIndexVertex": [
              0,
              1,
              2,
              1,
              0,
              3,
              4,
              1,
              3,
              4,
              3,
              5,
              6,
              4,
              5,
              6,
              5,
              7,
              8,
              6,
              7,
              8,
              7,
              9,
              0,
              2,
              10
            ]
          }
        },
        {
          "Name": "head",
          "Rectangle": {
            "x": 730.0,
            "y": 694.0,
            "width": 290.0,
            "height": 250.0
          },
          "Pivot": {
            "x": 163.000015,
            "y": 225.0
          },
          "Mesh": {
            "TableCoordinate": [],
            "TableIndexVertex": []
          }
        },
        {
          "Name": "hear_front_l",
          "Rectangle": {
            "x": 504.0,
            "y": 840.0,
            "width": 200.0,
            "height": 380.0
          },
          "Pivot": {
            "x": 90.0,
            "y": 83.99999
          },
          "Mesh": {
            "TableCoordinate": [
              {
                "x": 62.0,
                "y": 214.0
              },
              {
                "x": 66.0,
                "y": 175.0
              },
              {
                "x": 79.0,
                "y": 200.0
              },
              {
                "x": 95.0,
                "y": 178.0
              },
              {
                "x": 107.0,
                "y": 153.0
              },
              {
                "x": 72.0,
                "y": 130.0
              },
              {
                "x": 116.0,
                "y": 122.0
              },
              {
                "x": 78.0,
                "y": 92.0
              },
              {
                "x": 113.0,
                "y": 75.0
              },
              {
                "x": 101.0,
                "y": 58.0
              },
              {
                "x": 83.0,
                "y": 55.0
              }
            ],
            "TableIndexVertex": [
              0,
              1,
              2,
              2,
              1,
              3,
              3,
              1,
              4,
              1,
              5,
              4,
              4,
              5,
              6,
              5,
              7,
              6,
              7,
              8,
              6,
              7,
              9,
              8,
              7,
              10,
              9
            ]
          }
        },
        {
          "Name": "acce_body_front",
          "Rectangle": {
            "x": 4.0,
            "y": 4.0,
            "width": 250.0,
            "height": 275.0
          },
          "Pivot": {
            "x": 125.0,
            "y": 101.999977
          },
          "Mesh": {
            "TableCoordinate": [],
            "TableIndexVertex": []
          }
        },
        {
          "Name": "hand_r",
          "Rectangle": {
            "x": 504.0,
            "y": 660.0,
            "width": 225.0,
            "height": 180.0
          },
          "Pivot": {
            "x": 81.9999,
            "y": 61.00002
          },
          "Mesh": {
            "TableCoordinate": [],
            "TableIndexVertex": []
          }
        },
        {
          "Name": "arm_r",
          "Rectangle": {
            "x": 4.0,
            "y": 280.0,
            "width": 130.0,
            "height": 180.0
          },
          "Pivot": {
            "x": 78.99996,
            "y": 64.00008
          },
          "Mesh": {
            "TableCoordinate": [],
            "TableIndexVertex": []
          }
        },
        {
          "Name": "body",
          "Rectangle": {
            "x": 1164.0,
            "y": 364.0,
            "width": 180.0,
            "height": 220.0
          },
          "Pivot": {
            "x": 93.99996,
            "y": 151.000076
          },
          "Mesh": {
            "TableCoordinate": [],
            "TableIndexVertex": []
          }
        },
        {
          "Name": "acce_hip_front",
          "Rectangle": {
            "x": 1664.0,
            "y": 284.0,
            "width": 330.0,
            "height": 330.0
          },
          "Pivot": {
            "x": 167.000137,
            "y": 141.000092
          },
          "Mesh": {
            "TableCoordinate": [],
            "TableIndexVertex": []
          }
        },
        {
          "Name": "thigh_r",
          "Rectangle": {
            "x": 864.0,
            "y": 1124.0,
            "width": 130.0,
            "height": 180.0
          },
          "Pivot": {
            "x": 61.00003,
            "y": 68.00004
          },
          "Mesh": {
            "TableCoordinate": [],
            "TableIndexVertex": []
          }
        },
        {
          "Name": "leg_r",
          "Rectangle": {
            "x": 1914.0,
            "y": 614.0,
            "width": 130.0,
            "height": 180.0
          },
          "Pivot": {
            "x": 78.0,
            "y": 54.0
          },
          "Mesh": {
            "TableCoordinate": [],
            "TableIndexVertex": []
          }
        },
        {
          "Name": "hip",
          "Rectangle": {
            "x": 704.0,
            "y": 944.0,
            "width": 180.0,
            "height": 180.0
          },
          "Pivot": {
            "x": 95.00004,
            "y": 109.000076
          },
          "Mesh": {
            "TableCoordinate": [],
            "TableIndexVertex": []
          }
        },
        {
          "Name": "thigh_l",
          "Rectangle": {
            "x": 884.0,
            "y": 944.0,
            "width": 130.0,
            "height": 180.0
          },
          "Pivot": {
            "x": 61.99999,
            "y": 68.00004
          },
          "Mesh": {
            "TableCoordinate": [],
            "TableIndexVertex": []
          }
        },
        {
          "Name": "leg_l",
          "Rectangle": {
            "x": 4.0,
            "y": 460.0,
            "width": 130.0,
            "height": 180.0
          },
          "Pivot": {
            "x": 71.99998,
            "y": 55.00008
          },
          "Mesh": {
            "TableCoordinate": [],
            "TableIndexVertex": []
          }
        },
        {
          "Name": "weapon_b",
          "Rectangle": {
            "x": 1294.0,
            "y": 1384.0,
            "width": 250.0,
            "height": 500.0
          },
          "Pivot": {
            "x": 127.0,
            "y": 320.0
          },
          "Mesh": {
            "TableCoordinate": [],
            "TableIndexVertex": []
          }
        },
        {
          "Name": "weapon_b_1",
          "Rectangle": {
            "x": 1294.0,
            "y": 1384.0,
            "width": 250.0,
            "height": 500.0
          },
          "Pivot": {
            "x": 127.0,
            "y": 320.0
          },
          "Mesh": {
            "TableCoordinate": [],
            "TableIndexVertex": []
          }
        },
        {
          "Name": "hand_l",
          "Rectangle": {
            "x": 634.0,
            "y": 404.0,
            "width": 180.0,
            "height": 255.0
          },
          "Pivot": {
            "x": 99.0,
            "y": 59.00012
          },
          "Mesh": {
            "TableCoordinate": [],
            "TableIndexVertex": []
          }
        },
        {
          "Name": "arm_l",
          "Rectangle": {
            "x": 1864.0,
            "y": 4.0,
            "width": 130.0,
            "height": 180.0
          },
          "Pivot": {
            "x": 49.99995,
            "y": 63.0
          },
          "Mesh": {
            "TableCoordinate": [],
            "TableIndexVertex": []
          }
        },
        {
          "Name": "hear_back_c",
          "Rectangle": {
            "x": 1020.0,
            "y": 834.0,
            "width": 260.0,
            "height": 520.0
          },
          "Pivot": {
            "x": 139.0,
            "y": 79.00001
          },
          "Mesh": {
            "TableCoordinate": [
              {
                "x": 22.0,
                "y": 231.0
              },
              {
                "x": 17.0,
                "y": 186.0
              },
              {
                "x": 56.0,
                "y": 210.0
              },
              {
                "x": 66.0,
                "y": 245.0
              },
              {
                "x": 47.0,
                "y": 278.0
              },
              {
                "x": 76.0,
                "y": 279.0
              },
              {
                "x": 98.0,
                "y": 231.0
              },
              {
                "x": 116.0,
                "y": 277.0
              },
              {
                "x": 141.0,
                "y": 226.0
              },
              {
                "x": 159.0,
                "y": 276.0
              },
              {
                "x": 184.0,
                "y": 225.0
              },
              {
                "x": 199.0,
                "y": 274.0
              },
              {
                "x": 214.0,
                "y": 237.0
              },
              {
                "x": 229.0,
                "y": 273.0
              },
              {
                "x": 249.0,
                "y": 239.0
              },
              {
                "x": 218.0,
                "y": 198.0
              },
              {
                "x": 178.0,
                "y": 178.0
              },
              {
                "x": 137.0,
                "y": 172.0
              },
              {
                "x": 95.0,
                "y": 188.0
              },
              {
                "x": 82.0,
                "y": 142.0
              },
              {
                "x": 52.0,
                "y": 170.0
              },
              {
                "x": 28.0,
                "y": 136.0
              },
              {
                "x": 70.0,
                "y": 104.0
              },
              {
                "x": 125.0,
                "y": 128.0
              },
              {
                "x": 168.0,
                "y": 127.0
              },
              {
                "x": 213.0,
                "y": 151.0
              },
              {
                "x": 255.0,
                "y": 195.0
              },
              {
                "x": 247.0,
                "y": 133.0
              },
              {
                "x": 205.0,
                "y": 104.0
              },
              {
                "x": 132.0,
                "y": 95.0
              }
            ],
            "TableIndexVertex": [
              0,
              1,
              2,
              0,
              2,
              3,
              4,
              0,
              3,
              5,
              4,
              3,
              5,
              3,
              6,
              6,
              7,
              5,
              7,
              6,
              8,
              7,
              8,
              9,
              9,
              8,
              10,
              9,
              10,
              11,
              11,
              10,
              12,
              11,
              12,
              13,
              13,
              12,
              14,
              12,
              15,
              14,
              12,
              10,
              15,
              10,
              16,
              15,
              8,
              16,
              10,
              8,
              17,
              16,
              18,
              17,
              8,
              18,
              19,
              17,
              20,
              19,
              18,
              20,
              21,
              19,
              1,
              21,
              20,
              1,
              20,
              2,
              2,
              20,
              18,
              2,
              18,
              6,
              3,
              2,
              6,
              6,
              18,
              8,
              21,
              22,
              19,
              19,
              22,
              23,
              19,
              23,
              17,
              17,
              23,
              24,
              17,
              24,
              16,
              16,
              24,
              25,
              16,
              25,
              15,
              15,
              25,
              26,
              14,
              15,
              26,
              25,
              27,
              26,
              25,
              28,
              27,
              24,
              28,
              25,
              24,
              29,
              28,
              23,
              29,
              24,
              23,
              22,
              29
            ]
          }
        },
        {
          "Name": "hear_back",
          "Rectangle": {
            "x": 1540.0,
            "y": 864.0,
            "width": 260.0,
            "height": 520.0
          },
          "Pivot": {
            "x": 177.0,
            "y": 74.0
          },
          "Mesh": {
            "TableCoordinate": [
              {
                "x": -4.0,
                "y": 378.0
              },
              {
                "x": -5.0,
                "y": 327.0
              },
              {
                "x": 48.0,
                "y": 346.0
              },
              {
                "x": 69.0,
                "y": 385.0
              },
              {
                "x": 18.0,
                "y": 416.0
              },
              {
                "x": 60.0,
                "y": 443.0
              },
              {
                "x": 107.0,
                "y": 413.0
              },
              {
                "x": 109.0,
                "y": 462.0
              },
              {
                "x": 126.0,
                "y": 441.0
              },
              {
                "x": 147.0,
                "y": 466.0
              },
              {
                "x": 123.0,
                "y": 363.0
              },
              {
                "x": 148.0,
                "y": 391.0
              },
              {
                "x": 140.0,
                "y": 417.0
              },
              {
                "x": 171.0,
                "y": 413.0
              },
              {
                "x": 108.0,
                "y": 322.0
              },
              {
                "x": 49.0,
                "y": 309.0
              },
              {
                "x": 14.0,
                "y": 275.0
              },
              {
                "x": 66.0,
                "y": 265.0
              },
              {
                "x": 115.0,
                "y": 281.0
              },
              {
                "x": 88.0,
                "y": 224.0
              },
              {
                "x": 37.0,
                "y": 227.0
              },
              {
                "x": 52.0,
                "y": 201.0
              },
              {
                "x": 109.0,
                "y": 185.0
              },
              {
                "x": 138.0,
                "y": 234.0
              },
              {
                "x": 152.0,
                "y": 193.0
              },
              {
                "x": 137.0,
                "y": 153.0
              },
              {
                "x": 115.0,
                "y": 129.0
              },
              {
                "x": 86.0,
                "y": 126.0
              },
              {
                "x": 46.0,
                "y": 158.0
              },
              {
                "x": 5.0,
                "y": 188.0
              },
              {
                "x": 7.0,
                "y": 203.0
              },
              {
                "x": 107.0,
                "y": 81.0
              },
              {
                "x": 152.0,
                "y": 102.0
              },
              {
                "x": 166.0,
                "y": 145.0
              },
              {
                "x": 175.0,
                "y": 96.0
              },
              {
                "x": 138.0,
                "y": 71.0
              },
              {
                "x": 133.0,
                "y": 37.0
              },
              {
                "x": 155.0,
                "y": 38.0
              },
              {
                "x": 169.0,
                "y": 49.0
              }
            ],
            "TableIndexVertex": [
              0,
              1,
              2,
              0,
              2,
              3,
              4,
              0,
              3,
              5,
              4,
              3,
              5,
              3,
              6,
              5,
              6,
              7,
              7,
              6,
              8,
              7,
              8,
              9,
              6,
              3,
              10,
              6,
              10,
              11,
              12,
              6,
              11,
              12,
              11,
              13,
              10,
              3,
              14,
              3,
              2,
              14,
              2,
              15,
              14,
              2,
              1,
              15,
              1,
              16,
              15,
              15,
              16,
              17,
              15,
              17,
              14,
              14,
              17,
              18,
              17,
              19,
              18,
              17,
              20,
              19,
              16,
              20,
              17,
              20,
              21,
              19,
              19,
              21,
              22,
              19,
              22,
              23,
              18,
              19,
              23,
              23,
              22,
              24,
              22,
              25,
              24,
              22,
              26,
              25,
              22,
              27,
              26,
              28,
              27,
              22,
              21,
              28,
              22,
              29,
              28,
              21,
              30,
              29,
              21,
              31,
              26,
              27,
              32,
              26,
              31,
              25,
              26,
              32,
              33,
              25,
              32,
              24,
              25,
              33,
              33,
              32,
              34,
              32,
              35,
              34,
              32,
              31,
              35,
              31,
              36,
              35,
              35,
              36,
              37,
              35,
              37,
              38,
              35,
              38,
              34
            ]
          }
        },
        {
          "Name": "hear_back_l",
          "Rectangle": {
            "x": 1280.0,
            "y": 834.0,
            "width": 260.0,
            "height": 520.0
          },
          "Pivot": {
            "x": 70.0,
            "y": 91.99999
          },
          "Mesh": {
            "TableCoordinate": [
              {
                "x": 134.0,
                "y": 169.0
              },
              {
                "x": 97.0,
                "y": 195.0
              },
              {
                "x": 94.0,
                "y": 138.0
              },
              {
                "x": 142.0,
                "y": 206.0
              },
              {
                "x": 113.0,
                "y": 257.0
              },
              {
                "x": 154.0,
                "y": 247.0
              },
              {
                "x": 178.0,
                "y": 283.0
              },
              {
                "x": 158.0,
                "y": 329.0
              },
              {
                "x": 203.0,
                "y": 308.0
              },
              {
                "x": 222.0,
                "y": 341.0
              },
              {
                "x": 176.0,
                "y": 374.0
              },
              {
                "x": 218.0,
                "y": 375.0
              },
              {
                "x": 201.0,
                "y": 412.0
              },
              {
                "x": 161.0,
                "y": 415.0
              },
              {
                "x": 145.0,
                "y": 369.0
              },
              {
                "x": 125.0,
                "y": 393.0
              },
              {
                "x": 100.0,
                "y": 413.0
              },
              {
                "x": 201.0,
                "y": 455.0
              },
              {
                "x": 149.0,
                "y": 440.0
              },
              {
                "x": 163.0,
                "y": 464.0
              },
              {
                "x": 122.0,
                "y": 467.0
              },
              {
                "x": 234.0,
                "y": 416.0
              },
              {
                "x": 261.0,
                "y": 397.0
              },
              {
                "x": 255.0,
                "y": 427.0
              },
              {
                "x": 241.0,
                "y": 443.0
              },
              {
                "x": 261.0,
                "y": 352.0
              },
              {
                "x": 246.0,
                "y": 312.0
              },
              {
                "x": 209.0,
                "y": 268.0
              },
              {
                "x": 184.0,
                "y": 204.0
              },
              {
                "x": 209.0,
                "y": 167.0
              },
              {
                "x": 222.0,
                "y": 215.0
              },
              {
                "x": 235.0,
                "y": 193.0
              },
              {
                "x": 260.0,
                "y": 217.0
              },
              {
                "x": 169.0,
                "y": 129.0
              },
              {
                "x": 128.0,
                "y": 136.0
              },
              {
                "x": 96.0,
                "y": 81.0
              },
              {
                "x": 119.0,
                "y": 77.0
              },
              {
                "x": 103.0,
                "y": 44.0
              },
              {
                "x": 141.0,
                "y": 45.0
              },
              {
                "x": 156.0,
                "y": 87.0
              },
              {
                "x": 116.0,
                "y": 31.0
              },
              {
                "x": 131.0,
                "y": 31.0
              }
            ],
            "TableIndexVertex": [
              0,
              1,
              2,
              1,
              0,
              3,
              4,
              1,
              3,
              4,
              3,
              5,
              6,
              4,
              5,
              7,
              4,
              6,
              7,
              6,
              8,
              9,
              7,
              8,
              9,
              10,
              7,
              11,
              10,
              9,
              12,
              10,
              11,
              13,
              10,
              12,
              13,
              14,
              10,
              15,
              14,
              13,
              16,
              15,
              13,
              14,
              7,
              10,
              13,
              12,
              17,
              18,
              13,
              17,
              19,
              18,
              17,
              20,
              18,
              19,
              17,
              12,
              21,
              21,
              12,
              11,
              22,
              21,
              11,
              23,
              21,
              22,
              24,
              21,
              23,
              11,
              25,
              22,
              11,
              9,
              25,
              9,
              26,
              25,
              9,
              8,
              26,
              8,
              27,
              26,
              8,
              6,
              27,
              6,
              5,
              27,
              5,
              28,
              27,
              5,
              3,
              28,
              3,
              0,
              28,
              28,
              0,
              29,
              30,
              28,
              29,
              31,
              30,
              29,
              30,
              31,
              32,
              0,
              33,
              29,
              0,
              34,
              33,
              0,
              2,
              34,
              2,
              35,
              34,
              35,
              36,
              34,
              35,
              37,
              36,
              36,
              37,
              38,
              36,
              38,
              39,
              34,
              36,
              39,
              34,
              39,
              33,
              40,
              38,
              37,
              38,
              40,
              41
            ]
          }
        },
        {
          "Name": "weapon_r",
          "Rectangle": {
            "x": 1794.0,
            "y": 1384.0,
            "width": 250.0,
            "height": 400.0
          },
          "Pivot": {
            "x": 131.0,
            "y": 338.0
          },
          "Mesh": {
            "TableCoordinate": [],
            "TableIndexVertex": []
          }
        },
        {
          "Name": "weapon_l",
          "Rectangle": {
            "x": 1544.0,
            "y": 1384.0,
            "width": 250.0,
            "height": 400.0
          },
          "Pivot": {
            "x": 131.0,
            "y": 338.0
          },
          "Mesh": {
            "TableCoordinate": [],
            "TableIndexVertex": []
          }
        },
        {
          "Name": "rear_c",
          "Rectangle": {
            "x": 434.0,
            "y": 1220.0,
            "width": 430.0,
            "height": 430.0
          },
          "Pivot": {
            "x": 215.0,
            "y": 215.0
          },
          "Mesh": {
            "TableCoordinate": [],
            "TableIndexVertex": []
          }
        },
        {
          "Name": "rear_r",
          "Rectangle": {
            "x": 864.0,
            "y": 1354.0,
            "width": 430.0,
            "height": 430.0
          },
          "Pivot": {
            "x": 267.0,
            "y": 298.0
          },
          "Mesh": {
            "TableCoordinate": [],
            "TableIndexVertex": []
          }
        },
        {
          "Name": "rear_l",
          "Rectangle": {
            "x": 4.0,
            "y": 1224.0,
            "width": 430.0,
            "height": 430.0
          },
          "Pivot": {
            "x": 127.0,
            "y": 291.0
          },
          "Mesh": {
            "TableCoordinate": [],
            "TableIndexVertex": []
          }
        },
        {
          "Name": "acce_head_rear_c",
          "Rectangle": {
            "x": 1364.0,
            "y": 284.0,
            "width": 300.0,
            "height": 300.0
          },
          "Pivot": {
            "x": 150.0,
            "y": 150.0
          },
          "Mesh": {
            "TableCoordinate": [],
            "TableIndexVertex": []
          }
        },
        {
          "Name": "acce_body_rear",
          "Rectangle": {
            "x": 254.0,
            "y": 4.0,
            "width": 580.0,
            "height": 400.0
          },
          "Pivot": {
            "x": 290.0,
            "y": 200.0
          },
          "Mesh": {
            "TableCoordinate": [],
            "TableIndexVertex": []
          }
        },
        {
          "Name": "acce_hip_rear",
          "Rectangle": {
            "x": 834.0,
            "y": 364.0,
            "width": 330.0,
            "height": 330.0
          },
          "Pivot": {
            "x": 165.0,
            "y": 165.0
          },
          "Mesh": {
            "TableCoordinate": [],
            "TableIndexVertex": []
          }
        }
      ]
    }
  ]
}