{
  "m_GameObject": {
    "m_FileID": 0,
    "m_PathID": 0
  },
  "m_Enabled": 1,
  "m_Script": {
    "m_FileID": 0,
    "m_PathID": -2767099076474933927
  },
  "m_Name": "dc_1180200_sd",
  "Version": 65537,
  "TableCellMap": [
    {
      "Name": "1180200_sd",
      "SizeOriginal": {
        "x": 2048.0,
        "y": 2048.0
      },
      "TableCell": [
        {
          "Name": "face_normal",
          "Rectangle": {
            "x": 4.0,
            "y": 654.0,
            "width": 250.0,
            "height": 250.0
          },
          "Pivot": {
            "x": 125.0,
            "y": 135.0
          },
          "Mesh": {
            "TableCoordinate": [],
            "TableIndexVertex": []
          }
        },
        {
          "Name": "face_eye_close_normal",
          "Rectangle": {
            "x": 1164.0,
            "y": 584.0,
            "width": 250.0,
            "height": 250.0
          },
          "Pivot": {
            "x": 125.0,
            "y": 135.0
          },
          "Mesh": {
            "TableCoordinate": [],
            "TableIndexVertex": []
          }
        },
        {
          "Name": "face_mouth_open_happy",
          "Rectangle": {
            "x": 1664.0,
            "y": 614.0,
            "width": 250.0,
            "height": 250.0
          },
          "Pivot": {
            "x": 125.0,
            "y": 135.0
          },
          "Mesh": {
            "TableCoordinate": [],
            "TableIndexVertex": []
          }
        },
        {
          "Name": "face_happy",
          "Rectangle": {
            "x": 1414.0,
            "y": 584.0,
            "width": 250.0,
            "height": 250.0
          },
          "Pivot": {
            "x": 125.0,
            "y": 135.0
          },
          "Mesh": {
            "TableCoordinate": [],
            "TableIndexVertex": []
          }
        },
        {
          "Name": "face_attack",
          "Rectangle": {
            "x": 134.0,
            "y": 404.0,
            "width": 250.0,
            "height": 250.0
          },
          "Pivot": {
            "x": 125.0,
            "y": 135.0
          },
          "Mesh": {
            "TableCoordinate": [],
            "TableIndexVertex": []
          }
        },
        {
          "Name": "face_damage",
          "Rectangle": {
            "x": 384.0,
            "y": 404.0,
            "width": 250.0,
            "height": 250.0
          },
          "Pivot": {
            "x": 125.0,
            "y": 135.0
          },
          "Mesh": {
            "TableCoordinate": [],
            "TableIndexVertex": []
          }
        },
        {
          "Name": "face_unique",
          "Rectangle": {
            "x": 254.0,
            "y": 654.0,
            "width": 250.0,
            "height": 250.0
          },
          "Pivot": {
            "x": 125.0,
            "y": 135.0
          },
          "Mesh": {
            "TableCoordinate": [],
            "TableIndexVertex": []
          }
        },
        {
          "Name": "acce_head_front_c",
          "Rectangle": {
            "x": 834.0,
            "y": 4.0,
            "width": 530.0,
            "height": 360.0
          },
          "Pivot": {
            "x": 265.0,
            "y": 180.0
          },
          "Mesh": {
            "TableCoordinate": [],
            "TableIndexVertex": []
          }
        },
        {
          "Name": "acce_head_front_l",
          "Rectangle": {
            "x": 1364.0,
            "y": 4.0,
            "width": 250.0,
            "height": 280.0
          },
          "Pivot": {
            "x": 93.0,
            "y": 132.0
          },
          "Mesh": {
            "TableCoordinate": [],
            "TableIndexVertex": []
          }
        },
        {
          "Name": "acce_head_front_r",
          "Rectangle": {
            "x": 1614.0,
            "y": 4.0,
            "width": 250.0,
            "height": 280.0
          },
          "Pivot": {
            "x": 118.0,
            "y": 133.0
          },
          "Mesh": {
            "TableCoordinate": [],
            "TableIndexVertex": []
          }
        },
        {
          "Name": "hear_front_c",
          "Rectangle": {
            "x": 4.0,
            "y": 904.0,
            "width": 430.0,
            "height": 320.0
          },
          "Pivot": {
            "x": 213.0,
            "y": 63.0
          },
          "Mesh": {
            "TableCoordinate": [
              {
                "x": 153.0,
                "y": 231.0
              },
              {
                "x": 138.0,
                "y": 209.0
              },
              {
                "x": 190.0,
                "y": 204.0
              },
              {
                "x": 173.0,
                "y": 233.0
              },
              {
                "x": 194.0,
                "y": 225.0
              },
              {
                "x": 142.0,
                "y": 122.0
              },
              {
                "x": 183.0,
                "y": 120.0
              },
              {
                "x": 223.0,
                "y": 183.0
              },
              {
                "x": 222.0,
                "y": 204.0
              },
              {
                "x": 245.0,
                "y": 135.0
              },
              {
                "x": 271.0,
                "y": 184.0
              },
              {
                "x": 249.0,
                "y": 207.0
              },
              {
                "x": 263.0,
                "y": 206.0
              },
              {
                "x": 237.0,
                "y": 206.0
              },
              {
                "x": 305.0,
                "y": 132.0
              },
              {
                "x": 285.0,
                "y": 199.0
              },
              {
                "x": 330.0,
                "y": 200.0
              },
              {
                "x": 311.0,
                "y": 225.0
              },
              {
                "x": 285.0,
                "y": 226.0
              },
              {
                "x": 333.0,
                "y": 137.0
              },
              {
                "x": 313.0,
                "y": 75.0
              },
              {
                "x": 275.0,
                "y": 99.0
              },
              {
                "x": 216.0,
                "y": 93.0
              },
              {
                "x": 184.0,
                "y": 57.0
              },
              {
                "x": 242.0,
                "y": 40.0
              },
              {
                "x": 278.0,
                "y": 44.0
              },
              {
                "x": 272.0,
                "y": 197.0
              }
            ],
            "TableIndexVertex": [
              0,
              1,
              2,
              3,
              0,
              2,
              4,
              3,
              2,
              2,
              1,
              5,
              2,
              5,
              6,
              2,
              6,
              7,
              8,
              2,
              7,
              7,
              6,
              9,
              7,
              9,
              10,
              10,
              11,
              7,
              12,
              11,
              10,
              7,
              11,
              13,
              10,
              9,
              14,
              14,
              15,
              10,
              15,
              14,
              16,
              17,
              15,
              16,
              18,
              15,
              17,
              16,
              14,
              19,
              14,
              20,
              19,
              14,
              21,
              20,
              9,
              21,
              14,
              9,
              22,
              21,
              6,
              22,
              9,
              6,
              23,
              22,
              6,
              5,
              23,
              22,
              23,
              24,
              21,
              22,
              24,
              25,
              21,
              24,
              21,
              25,
              20,
              15,
              26,
              10
            ]
          }
        },
        {
          "Name": "hear_front_r",
          "Rectangle": {
            "x": 1800.0,
            "y": 864.0,
            "width": 200.0,
            "height": 380.0
          },
          "Pivot": {
            "x": 100.0,
            "y": 190.0
          },
          "Mesh": {
            "TableCoordinate": [
              {
                "x": 83.0,
                "y": 161.0
              },
              {
                "x": 82.0,
                "y": 127.0
              },
              {
                "x": 129.0,
                "y": 129.0
              },
              {
                "x": 118.0,
                "y": 172.0
              },
              {
                "x": 89.0,
                "y": 196.0
              },
              {
                "x": 129.0,
                "y": 198.0
              },
              {
                "x": 115.0,
                "y": 222.0
              },
              {
                "x": 145.0,
                "y": 214.0
              },
              {
                "x": 145.0,
                "y": 205.0
              },
              {
                "x": 143.0,
                "y": 183.0
              },
              {
                "x": 154.0,
                "y": 201.0
              },
              {
                "x": 154.0,
                "y": 191.0
              },
              {
                "x": 142.0,
                "y": 159.0
              },
              {
                "x": 162.0,
                "y": 176.0
              },
              {
                "x": 162.0,
                "y": 185.0
              },
              {
                "x": 99.0,
                "y": 100.0
              },
              {
                "x": 87.0,
                "y": 78.0
              },
              {
                "x": 117.0,
                "y": 75.0
              },
              {
                "x": 128.0,
                "y": 95.0
              },
              {
                "x": 138.0,
                "y": 52.0
              },
              {
                "x": 107.0,
                "y": 53.0
              },
              {
                "x": 97.0,
                "y": 30.0
              },
              {
                "x": 125.0,
                "y": 30.0
              },
              {
                "x": 140.0,
                "y": 9.0
              },
              {
                "x": 120.0,
                "y": -1.0
              },
              {
                "x": 136.0,
                "y": 1.0
              }
            ],
            "TableIndexVertex": [
              0,
              1,
              2,
              3,
              0,
              2,
              4,
              0,
              3,
              4,
              3,
              5,
              6,
              4,
              5,
              6,
              5,
              7,
              5,
              8,
              7,
              5,
              3,
              9,
              5,
              9,
              10,
              9,
              11,
              10,
              3,
              12,
              9,
              12,
              3,
              2,
              9,
              12,
              13,
              9,
              13,
              14,
              1,
              15,
              2,
              1,
              16,
              15,
              15,
              16,
              17,
              15,
              17,
              18,
              15,
              18,
              2,
              18,
              17,
              19,
              17,
              20,
              19,
              16,
              20,
              17,
              16,
              21,
              20,
              20,
              21,
              22,
              20,
              22,
              19,
              19,
              22,
              23,
              23,
              22,
              24,
              23,
              24,
              25,
              21,
              24,
              22
            ]
          }
        },
        {
          "Name": "head",
          "Rectangle": {
            "x": 730.0,
            "y": 694.0,
            "width": 290.0,
            "height": 250.0
          },
          "Pivot": {
            "x": 163.000015,
            "y": 225.0
          },
          "Mesh": {
            "TableCoordinate": [],
            "TableIndexVertex": []
          }
        },
        {
          "Name": "hear_front_l",
          "Rectangle": {
            "x": 504.0,
            "y": 840.0,
            "width": 200.0,
            "height": 380.0
          },
          "Pivot": {
            "x": 81.0,
            "y": 93.00006
          },
          "Mesh": {
            "TableCoordinate": [
              {
                "x": 47.0,
                "y": 198.0
              },
              {
                "x": 43.0,
                "y": 187.0
              },
              {
                "x": 57.0,
                "y": 182.0
              },
              {
                "x": 68.0,
                "y": 199.0
              },
              {
                "x": 95.0,
                "y": 176.0
              },
              {
                "x": 97.0,
                "y": 205.0
              },
              {
                "x": 62.0,
                "y": 214.0
              },
              {
                "x": 60.0,
                "y": 204.0
              },
              {
                "x": 117.0,
                "y": 169.0
              },
              {
                "x": 105.0,
                "y": 137.0
              },
              {
                "x": 117.0,
                "y": 110.0
              },
              {
                "x": 81.0,
                "y": 132.0
              },
              {
                "x": 72.0,
                "y": 154.0
              },
              {
                "x": 56.0,
                "y": 172.0
              },
              {
                "x": 78.0,
                "y": 87.0
              },
              {
                "x": 102.0,
                "y": 82.0
              },
              {
                "x": 111.0,
                "y": 51.0
              },
              {
                "x": 71.0,
                "y": 43.0
              },
              {
                "x": 72.0,
                "y": 20.0
              },
              {
                "x": 98.0,
                "y": 17.0
              },
              {
                "x": 79.0,
                "y": 12.0
              }
            ],
            "TableIndexVertex": [
              0,
              1,
              2,
              0,
              2,
              3,
              3,
              2,
              4,
              3,
              4,
              5,
              6,
              3,
              5,
              6,
              7,
              3,
              5,
              4,
              8,
              8,
              4,
              9,
              9,
              10,
              8,
              9,
              11,
              10,
              12,
              11,
              9,
              9,
              4,
              12,
              13,
              12,
              4,
              2,
              13,
              4,
              10,
              11,
              14,
              10,
              14,
              15,
              15,
              16,
              10,
              15,
              17,
              16,
              14,
              17,
              15,
              16,
              17,
              18,
              19,
              16,
              18,
              19,
              18,
              20
            ]
          }
        },
        {
          "Name": "acce_body_front",
          "Rectangle": {
            "x": 4.0,
            "y": 4.0,
            "width": 250.0,
            "height": 275.0
          },
          "Pivot": {
            "x": 125.0,
            "y": 101.999977
          },
          "Mesh": {
            "TableCoordinate": [],
            "TableIndexVertex": []
          }
        },
        {
          "Name": "hand_r",
          "Rectangle": {
            "x": 504.0,
            "y": 660.0,
            "width": 225.0,
            "height": 180.0
          },
          "Pivot": {
            "x": 81.9999,
            "y": 61.00002
          },
          "Mesh": {
            "TableCoordinate": [],
            "TableIndexVertex": []
          }
        },
        {
          "Name": "arm_r",
          "Rectangle": {
            "x": 4.0,
            "y": 280.0,
            "width": 130.0,
            "height": 180.0
          },
          "Pivot": {
            "x": 78.99996,
            "y": 64.00008
          },
          "Mesh": {
            "TableCoordinate": [],
            "TableIndexVertex": []
          }
        },
        {
          "Name": "body",
          "Rectangle": {
            "x": 1164.0,
            "y": 364.0,
            "width": 180.0,
            "height": 220.0
          },
          "Pivot": {
            "x": 93.99996,
            "y": 151.000076
          },
          "Mesh": {
            "TableCoordinate": [],
            "TableIndexVertex": []
          }
        },
        {
          "Name": "acce_hip_front",
          "Rectangle": {
            "x": 1664.0,
            "y": 284.0,
            "width": 330.0,
            "height": 330.0
          },
          "Pivot": {
            "x": 168.0,
            "y": 120.0
          },
          "Mesh": {
            "TableCoordinate": [],
            "TableIndexVertex": []
          }
        },
        {
          "Name": "thigh_r",
          "Rectangle": {
            "x": 864.0,
            "y": 1124.0,
            "width": 130.0,
            "height": 180.0
          },
          "Pivot": {
            "x": 61.00003,
            "y": 68.00004
          },
          "Mesh": {
            "TableCoordinate": [],
            "TableIndexVertex": []
          }
        },
        {
          "Name": "leg_r",
          "Rectangle": {
            "x": 1914.0,
            "y": 614.0,
            "width": 130.0,
            "height": 180.0
          },
          "Pivot": {
            "x": 78.0,
            "y": 54.0
          },
          "Mesh": {
            "TableCoordinate": [],
            "TableIndexVertex": []
          }
        },
        {
          "Name": "hip",
          "Rectangle": {
            "x": 704.0,
            "y": 944.0,
            "width": 180.0,
            "height": 180.0
          },
          "Pivot": {
            "x": 95.00004,
            "y": 109.000076
          },
          "Mesh": {
            "TableCoordinate": [],
            "TableIndexVertex": []
          }
        },
        {
          "Name": "thigh_l",
          "Rectangle": {
            "x": 884.0,
            "y": 944.0,
            "width": 130.0,
            "height": 180.0
          },
          "Pivot": {
            "x": 61.99999,
            "y": 68.00004
          },
          "Mesh": {
            "TableCoordinate": [],
            "TableIndexVertex": []
          }
        },
        {
          "Name": "leg_l",
          "Rectangle": {
            "x": 4.0,
            "y": 460.0,
            "width": 130.0,
            "height": 180.0
          },
          "Pivot": {
            "x": 63.0,
            "y": 57.0
          },
          "Mesh": {
            "TableCoordinate": [],
            "TableIndexVertex": []
          }
        },
        {
          "Name": "weapon_b",
          "Rectangle": {
            "x": 1294.0,
            "y": 1384.0,
            "width": 250.0,
            "height": 500.0
          },
          "Pivot": {
            "x": 113.0,
            "y": 324.0
          },
          "Mesh": {
            "TableCoordinate": [],
            "TableIndexVertex": []
          }
        },
        {
          "Name": "hand_l",
          "Rectangle": {
            "x": 634.0,
            "y": 404.0,
            "width": 180.0,
            "height": 255.0
          },
          "Pivot": {
            "x": 99.0,
            "y": 59.00012
          },
          "Mesh": {
            "TableCoordinate": [],
            "TableIndexVertex": []
          }
        },
        {
          "Name": "arm_l",
          "Rectangle": {
            "x": 1864.0,
            "y": 4.0,
            "width": 130.0,
            "height": 180.0
          },
          "Pivot": {
            "x": 49.99995,
            "y": 63.0
          },
          "Mesh": {
            "TableCoordinate": [],
            "TableIndexVertex": []
          }
        },
        {
          "Name": "hear_back_c",
          "Rectangle": {
            "x": 1020.0,
            "y": 834.0,
            "width": 260.0,
            "height": 520.0
          },
          "Pivot": {
            "x": 119.999878,
            "y": 80.99988
          },
          "Mesh": {
            "TableCoordinate": [
              {
                "x": 64.0,
                "y": 410.0
              },
              {
                "x": 21.0,
                "y": 359.0
              },
              {
                "x": 81.0,
                "y": 363.0
              },
              {
                "x": 103.0,
                "y": 388.0
              },
              {
                "x": 87.0,
                "y": 433.0
              },
              {
                "x": 61.0,
                "y": 436.0
              },
              {
                "x": 119.0,
                "y": 398.0
              },
              {
                "x": 113.0,
                "y": 440.0
              },
              {
                "x": 100.0,
                "y": 457.0
              },
              {
                "x": 89.0,
                "y": 457.0
              },
              {
                "x": 159.0,
                "y": 416.0
              },
              {
                "x": 119.0,
                "y": 449.0
              },
              {
                "x": 160.0,
                "y": 445.0
              },
              {
                "x": 204.0,
                "y": 422.0
              },
              {
                "x": 176.0,
                "y": 460.0
              },
              {
                "x": 163.0,
                "y": 460.0
              },
              {
                "x": 211.0,
                "y": 386.0
              },
              {
                "x": 158.0,
                "y": 375.0
              },
              {
                "x": 205.0,
                "y": 364.0
              },
              {
                "x": 158.0,
                "y": 321.0
              },
              {
                "x": 125.0,
                "y": 364.0
              },
              {
                "x": 115.0,
                "y": 329.0
              },
              {
                "x": 67.0,
                "y": 330.0
              },
              {
                "x": 23.0,
                "y": 312.0
              },
              {
                "x": 73.0,
                "y": 280.0
              },
              {
                "x": 107.0,
                "y": 304.0
              },
              {
                "x": 142.0,
                "y": 279.0
              },
              {
                "x": 116.0,
                "y": 246.0
              },
              {
                "x": 152.0,
                "y": 211.0
              },
              {
                "x": 90.0,
                "y": 221.0
              },
              {
                "x": 54.0,
                "y": 249.0
              },
              {
                "x": 64.0,
                "y": 205.0
              },
              {
                "x": 96.0,
                "y": 192.0
              },
              {
                "x": 130.0,
                "y": 171.0
              },
              {
                "x": 107.0,
                "y": 141.0
              },
              {
                "x": 74.0,
                "y": 162.0
              },
              {
                "x": 82.0,
                "y": 119.0
              },
              {
                "x": 122.0,
                "y": 109.0
              },
              {
                "x": 165.0,
                "y": 142.0
              },
              {
                "x": 151.0,
                "y": 94.0
              },
              {
                "x": 120.0,
                "y": 68.0
              },
              {
                "x": 89.0,
                "y": 76.0
              },
              {
                "x": 168.0,
                "y": 72.0
              }
            ],
            "TableIndexVertex": [
              0,
              1,
              2,
              0,
              2,
              3,
              4,
              0,
              3,
              5,
              0,
              4,
              4,
              3,
              6,
              7,
              4,
              6,
              7,
              8,
              4,
              8,
              9,
              4,
              7,
              6,
              10,
              11,
              7,
              10,
              12,
              11,
              10,
              12,
              10,
              13,
              13,
              14,
              12,
              14,
              15,
              12,
              13,
              10,
              16,
              16,
              10,
              17,
              16,
              17,
              18,
              18,
              17,
              19,
              17,
              20,
              19,
              6,
              20,
              17,
              6,
              3,
              20,
              3,
              2,
              20,
              2,
              21,
              20,
              2,
              22,
              21,
              1,
              22,
              2,
              1,
              23,
              22,
              22,
              23,
              24,
              22,
              24,
              25,
              22,
              25,
              21,
              21,
              25,
              19,
              20,
              21,
              19,
              25,
              26,
              19,
              26,
              25,
              27,
              26,
              27,
              28,
              27,
              29,
              28,
              24,
              29,
              27,
              24,
              30,
              29,
              23,
              30,
              24,
              30,
              31,
              29,
              29,
              31,
              32,
              29,
              32,
              28,
              32,
              33,
              28,
              32,
              34,
              33,
              32,
              35,
              34,
              31,
              35,
              32,
              35,
              36,
              34,
              34,
              36,
              37,
              34,
              37,
              38,
              33,
              34,
              38,
              28,
              33,
              38,
              37,
              39,
              38,
              37,
              40,
              39,
              41,
              40,
              37,
              36,
              41,
              37,
              39,
              40,
              42,
              38,
              39,
              42,
              25,
              24,
              27,
              6,
              17,
              10
            ]
          }
        },
        {
          "Name": "hear_back_r",
          "Rectangle": {
            "x": 1540.0,
            "y": 864.0,
            "width": 260.0,
            "height": 520.0
          },
          "Pivot": {
            "x": 164.999908,
            "y": 81.99983
          },
          "Mesh": {
            "TableCoordinate": [
              {
                "x": 22.0,
                "y": 387.0
              },
              {
                "x": 11.0,
                "y": 362.0
              },
              {
                "x": 48.0,
                "y": 344.0
              },
              {
                "x": 63.0,
                "y": 400.0
              },
              {
                "x": 39.0,
                "y": 431.0
              },
              {
                "x": 92.0,
                "y": 420.0
              },
              {
                "x": 48.0,
                "y": 452.0
              },
              {
                "x": 68.0,
                "y": 466.0
              },
              {
                "x": 36.0,
                "y": 469.0
              },
              {
                "x": 36.0,
                "y": 457.0
              },
              {
                "x": 108.0,
                "y": 446.0
              },
              {
                "x": 154.0,
                "y": 412.0
              },
              {
                "x": 155.0,
                "y": 438.0
              },
              {
                "x": 130.0,
                "y": 456.0
              },
              {
                "x": 109.0,
                "y": 456.0
              },
              {
                "x": 129.0,
                "y": 384.0
              },
              {
                "x": 90.0,
                "y": 372.0
              },
              {
                "x": 60.0,
                "y": 318.0
              },
              {
                "x": 15.0,
                "y": 326.0
              },
              {
                "x": 46.0,
                "y": 284.0
              },
              {
                "x": 85.0,
                "y": 276.0
              },
              {
                "x": 100.0,
                "y": 310.0
              },
              {
                "x": 119.0,
                "y": 345.0
              },
              {
                "x": 136.0,
                "y": 303.0
              },
              {
                "x": 134.0,
                "y": 261.0
              },
              {
                "x": 118.0,
                "y": 225.0
              },
              {
                "x": 73.0,
                "y": 242.0
              },
              {
                "x": 86.0,
                "y": 197.0
              },
              {
                "x": 126.0,
                "y": 195.0
              },
              {
                "x": 166.0,
                "y": 231.0
              },
              {
                "x": 195.0,
                "y": 238.0
              },
              {
                "x": 169.0,
                "y": 194.0
              },
              {
                "x": 143.0,
                "y": 154.0
              },
              {
                "x": 99.0,
                "y": 152.0
              },
              {
                "x": 117.0,
                "y": 117.0
              },
              {
                "x": 162.0,
                "y": 116.0
              },
              {
                "x": 185.0,
                "y": 152.0
              },
              {
                "x": 215.0,
                "y": 194.0
              },
              {
                "x": 224.0,
                "y": 145.0
              },
              {
                "x": 187.0,
                "y": 101.0
              },
              {
                "x": 147.0,
                "y": 87.0
              },
              {
                "x": 192.0,
                "y": 71.0
              },
              {
                "x": 218.0,
                "y": 76.0
              },
              {
                "x": 227.0,
                "y": 95.0
              },
              {
                "x": 38.0,
                "y": 444.0
              },
              {
                "x": 14.0,
                "y": 415.0
              }
            ],
            "TableIndexVertex": [
              0,
              1,
              2,
              3,
              0,
              2,
              3,
              4,
              0,
              5,
              4,
              3,
              5,
              6,
              4,
              7,
              6,
              5,
              8,
              6,
              7,
              8,
              9,
              6,
              10,
              7,
              5,
              10,
              5,
              11,
              12,
              10,
              11,
              12,
              13,
              10,
              13,
              14,
              10,
              5,
              15,
              11,
              5,
              16,
              15,
              3,
              16,
              5,
              16,
              3,
              2,
              2,
              17,
              16,
              2,
              18,
              17,
              1,
              18,
              2,
              18,
              19,
              17,
              17,
              19,
              20,
              17,
              20,
              21,
              16,
              17,
              21,
              22,
              16,
              21,
              16,
              22,
              15,
              22,
              21,
              23,
              21,
              20,
              23,
              20,
              24,
              23,
              20,
              25,
              24,
              20,
              26,
              25,
              19,
              26,
              20,
              26,
              27,
              25,
              25,
              27,
              28,
              25,
              28,
              29,
              24,
              25,
              29,
              30,
              24,
              29,
              30,
              23,
              24,
              29,
              31,
              30,
              29,
              28,
              31,
              28,
              32,
              31,
              28,
              33,
              32,
              27,
              33,
              28,
              33,
              34,
              32,
              32,
              34,
              35,
              32,
              35,
              36,
              31,
              32,
              36,
              31,
              36,
              37,
              30,
              31,
              37,
              37,
              36,
              38,
              36,
              39,
              38,
              36,
              35,
              39,
              35,
              40,
              39,
              34,
              40,
              35,
              39,
              40,
              41,
              39,
              41,
              42,
              39,
              42,
              43,
              38,
              39,
              43,
              44,
              4,
              6,
              4,
              45,
              0
            ]
          }
        },
        {
          "Name": "hear_back_l",
          "Rectangle": {
            "x": 1280.0,
            "y": 834.0,
            "width": 260.0,
            "height": 520.0
          },
          "Pivot": {
            "x": 71.99998,
            "y": 77.0000458
          },
          "Mesh": {
            "TableCoordinate": [
              {
                "x": 8.0,
                "y": 312.0
              },
              {
                "x": -2.0,
                "y": 266.0
              },
              {
                "x": 52.0,
                "y": 258.0
              },
              {
                "x": 65.0,
                "y": 305.0
              },
              {
                "x": 23.0,
                "y": 338.0
              },
              {
                "x": 70.0,
                "y": 361.0
              },
              {
                "x": 90.0,
                "y": 400.0
              },
              {
                "x": 97.0,
                "y": 345.0
              },
              {
                "x": 137.0,
                "y": 403.0
              },
              {
                "x": 125.0,
                "y": 335.0
              },
              {
                "x": 157.0,
                "y": 360.0
              },
              {
                "x": 152.0,
                "y": 320.0
              },
              {
                "x": 122.0,
                "y": 300.0
              },
              {
                "x": 108.0,
                "y": 258.0
              },
              {
                "x": 84.0,
                "y": 210.0
              },
              {
                "x": 49.0,
                "y": 229.0
              },
              {
                "x": -2.0,
                "y": 226.0
              },
              {
                "x": 49.0,
                "y": 203.0
              },
              {
                "x": -2.0,
                "y": 186.0
              },
              {
                "x": 32.0,
                "y": 177.0
              },
              {
                "x": 95.0,
                "y": 170.0
              },
              {
                "x": 118.0,
                "y": 208.0
              },
              {
                "x": 141.0,
                "y": 240.0
              },
              {
                "x": 165.0,
                "y": 265.0
              },
              {
                "x": 178.0,
                "y": 299.0
              },
              {
                "x": 210.0,
                "y": 335.0
              },
              {
                "x": 212.0,
                "y": 368.0
              },
              {
                "x": 205.0,
                "y": 382.0
              },
              {
                "x": 175.0,
                "y": 428.0
              },
              {
                "x": 133.0,
                "y": 446.0
              },
              {
                "x": 116.0,
                "y": 428.0
              },
              {
                "x": 82.0,
                "y": 441.0
              },
              {
                "x": 103.0,
                "y": 445.0
              },
              {
                "x": 91.0,
                "y": 458.0
              },
              {
                "x": 104.0,
                "y": 458.0
              },
              {
                "x": 187.0,
                "y": 457.0
              },
              {
                "x": 218.0,
                "y": 433.0
              },
              {
                "x": 229.0,
                "y": 448.0
              },
              {
                "x": 230.0,
                "y": 435.0
              },
              {
                "x": 226.0,
                "y": 403.0
              },
              {
                "x": 152.0,
                "y": 197.0
              },
              {
                "x": 128.0,
                "y": 165.0
              },
              {
                "x": 137.0,
                "y": 128.0
              },
              {
                "x": 86.0,
                "y": 109.0
              },
              {
                "x": 109.0,
                "y": 85.0
              },
              {
                "x": 63.0,
                "y": 71.0
              },
              {
                "x": 35.0,
                "y": 82.0
              },
              {
                "x": 49.0,
                "y": 143.0
              },
              {
                "x": 12.0,
                "y": 116.0
              }
            ],
            "TableIndexVertex": [
              0,
              1,
              2,
              0,
              2,
              3,
              4,
              0,
              3,
              4,
              3,
              5,
              4,
              5,
              6,
              6,
              5,
              7,
              7,
              8,
              6,
              9,
              8,
              7,
              9,
              10,
              8,
              9,
              11,
              10,
              9,
              12,
              11,
              9,
              7,
              12,
              7,
              3,
              12,
              5,
              3,
              7,
              3,
              13,
              12,
              3,
              2,
              13,
              2,
              14,
              13,
              2,
              15,
              14,
              1,
              15,
              2,
              1,
              16,
              15,
              16,
              17,
              15,
              17,
              16,
              18,
              17,
              18,
              19,
              17,
              19,
              20,
              14,
              17,
              20,
              15,
              17,
              14,
              21,
              14,
              20,
              13,
              14,
              21,
              13,
              21,
              22,
              23,
              13,
              22,
              23,
              12,
              13,
              12,
              23,
              24,
              11,
              12,
              24,
              25,
              11,
              24,
              25,
              10,
              11,
              10,
              25,
              26,
              27,
              10,
              26,
              28,
              10,
              27,
              8,
              10,
              28,
              29,
              8,
              28,
              29,
              30,
              8,
              30,
              6,
              8,
              31,
              6,
              30,
              32,
              31,
              30,
              33,
              31,
              32,
              33,
              32,
              34,
              29,
              28,
              35,
              35,
              28,
              36,
              35,
              36,
              37,
              37,
              36,
              38,
              36,
              28,
              39,
              28,
              27,
              39,
              22,
              40,
              23,
              22,
              21,
              40,
              21,
              41,
              40,
              21,
              20,
              41,
              42,
              41,
              20,
              41,
              42,
              40,
              42,
              20,
              43,
              43,
              44,
              42,
              43,
              45,
              44,
              43,
              46,
              45,
              43,
              47,
              46,
              20,
              47,
              43,
              19,
              47,
              20,
              19,
              48,
              47,
              18,
              48,
              19,
              48,
              46,
              47
            ]
          }
        },
        {
          "Name": "weapon_r",
          "Rectangle": {
            "x": 1794.0,
            "y": 1384.0,
            "width": 250.0,
            "height": 400.0
          },
          "Pivot": {
            "x": 107.0,
            "y": 344.0
          },
          "Mesh": {
            "TableCoordinate": [],
            "TableIndexVertex": []
          }
        },
        {
          "Name": "weapon_r_1",
          "Rectangle": {
            "x": 1794.0,
            "y": 1384.0,
            "width": 250.0,
            "height": 400.0
          },
          "Pivot": {
            "x": 128.0,
            "y": 182.0
          },
          "Mesh": {
            "TableCoordinate": [],
            "TableIndexVertex": []
          }
        },
        {
          "Name": "weapon_l",
          "Rectangle": {
            "x": 1772.0,
            "y": 1376.0,
            "width": 250.0,
            "height": 400.0
          },
          "Pivot": {
            "x": 131.0,
            "y": 338.0
          },
          "Mesh": {
            "TableCoordinate": [],
            "TableIndexVertex": []
          }
        },
        {
          "Name": "rear_c",
          "Rectangle": {
            "x": 434.0,
            "y": 1220.0,
            "width": 430.0,
            "height": 430.0
          },
          "Pivot": {
            "x": 215.0,
            "y": 215.0
          },
          "Mesh": {
            "TableCoordinate": [],
            "TableIndexVertex": []
          }
        },
        {
          "Name": "rear_r",
          "Rectangle": {
            "x": 864.0,
            "y": 1354.0,
            "width": 430.0,
            "height": 430.0
          },
          "Pivot": {
            "x": 215.0,
            "y": 215.0
          },
          "Mesh": {
            "TableCoordinate": [],
            "TableIndexVertex": []
          }
        },
        {
          "Name": "rear_l",
          "Rectangle": {
            "x": 4.0,
            "y": 1224.0,
            "width": 430.0,
            "height": 430.0
          },
          "Pivot": {
            "x": 215.0,
            "y": 215.0
          },
          "Mesh": {
            "TableCoordinate": [],
            "TableIndexVertex": []
          }
        },
        {
          "Name": "acce_head_rear_c",
          "Rectangle": {
            "x": 1364.0,
            "y": 284.0,
            "width": 300.0,
            "height": 300.0
          },
          "Pivot": {
            "x": 150.0,
            "y": 150.0
          },
          "Mesh": {
            "TableCoordinate": [],
            "TableIndexVertex": []
          }
        },
        {
          "Name": "acce_body_rear",
          "Rectangle": {
            "x": 254.0,
            "y": 4.0,
            "width": 580.0,
            "height": 400.0
          },
          "Pivot": {
            "x": 290.0,
            "y": 200.0
          },
          "Mesh": {
            "TableCoordinate": [],
            "TableIndexVertex": []
          }
        },
        {
          "Name": "acce_hip_rear",
          "Rectangle": {
            "x": 834.0,
            "y": 364.0,
            "width": 330.0,
            "height": 330.0
          },
          "Pivot": {
            "x": 165.0,
            "y": 165.0
          },
          "Mesh": {
            "TableCoordinate": [],
            "TableIndexVertex": []
          }
        }
      ]
    }
  ]
}