{
  "m_GameObject": {
    "m_FileID": 0,
    "m_PathID": 0
  },
  "m_Enabled": 1,
  "m_Script": {
    "m_FileID": 0,
    "m_PathID": 8527011069456626154
  },
  "m_Name": "adv_101001_path",
  "advPathList": [
    {
      "assetName": "",
      "assetPath": "texture/character/stand/1040100_stand",
      "resourcePath": "Texture/Character/1040100_stand.asset"
    },
    {
      "assetName": "",
      "assetPath": "texture/character/stand/1030800_stand",
      "resourcePath": "Texture/Character/1030800_stand.asset"
    },
    {
      "assetName": "",
      "assetPath": "texture/character/stand/1040200_stand",
      "resourcePath": "Texture/Character/1040200_stand.asset"
    },
    {
      "assetName": "",
      "assetPath": "texture/character/stand/1010400_stand",
      "resourcePath": "Texture/Character/1010400_stand.asset"
    },
    {
      "assetName": "",
      "assetPath": "texture/character/stand/1011400_stand",
      "resourcePath": "Texture/Character/1011400_stand.asset"
    },
    {
      "assetName": "",
      "assetPath": "texture/character/stand/1011600_stand",
      "resourcePath": "Texture/Character/1011600_stand.asset"
    },
    {
      "assetName": "",
      "assetPath": "texture/character/stand/1040600_stand",
      "resourcePath": "Texture/Character/1040600_stand.asset"
    },
    {
      "assetName": "",
      "assetPath": "texture/character/stand/2000200_stand",
      "resourcePath": "Texture/Character/2000200_stand.asset"
    },
    {
      "assetName": "",
      "assetPath": "texture/character/stand/1120100_stand",
      "resourcePath": "Texture/Character/1120100_stand.asset"
    },
    {
      "assetName": "",
      "assetPath": "texture/background/bg_007_ll",
      "resourcePath": "Texture/BG/bg_007_LL.png"
    },
    {
      "assetName": "",
      "assetPath": "texture/background/bg_022_ll",
      "resourcePath": "Texture/BG/bg_022_LL.png"
    },
    {
      "assetName": "",
      "assetPath": "texture/background/bg_055_ll",
      "resourcePath": "Texture/BG/bg_055_LL.png"
    },
    {
      "assetName": "",
      "assetPath": "texture/background/bg_072_ll",
      "resourcePath": "Texture/BG/bg_072_LL.png"
    },
    {
      "assetName": "",
      "assetPath": "texture/adventure/sprite_anti_crystal",
      "resourcePath": "Texture/Sprite/sprite_anti_crystal.png"
    },
    {
      "assetName": "",
      "assetPath": "sound/bgm/adventure/bgm_adv_general",
      "resourcePath": "Sound/BGM/bgm_adv_general.wav"
    },
    {
      "assetName": "",
      "assetPath": "sound/bgm/adventure/bgm_suspiction",
      "resourcePath": "Sound/BGM/bgm_suspiction.wav"
    },
    {
      "assetName": "",
      "assetPath": "sound/se/adventure/se_typing",
      "resourcePath": "Sound/SE/se_typing.wav"
    },
    {
      "assetName": "",
      "assetPath": "sound/se/adventure/se_depression",
      "resourcePath": "Sound/SE/se_depression.wav"
    },
    {
      "assetName": "",
      "assetPath": "sound/se/adventure/se_crack",
      "resourcePath": "Sound/SE/se_crack.wav"
    },
    {
      "assetName": "",
      "assetPath": "data/adventure/main/story1010/adv_101001.scenarios",
      "resourcePath": "adv_101001.scenarios.asset"
    }
  ]
}