g Cylinder001
v 0.32 0 0
v 0.4257678 -1.253578E-08 0.1068925
v 0.4175867 0.08306316 0.1068925
v 0.3138513 0.0624289 0
v 0.3933581 0.1629343 0.1068925
v 0.2956414 0.1224587 0
v 0.3540129 0.2365439 0.1068925
v 0.2660703 0.1777825 0
v 0.3010632 0.3010633 0.1068925
v 0.2262742 0.2262742 0
v 0.3138514 -0.06242842 0
v 0.4175869 -0.08306254 0.1068925
v 0.2956416 -0.1224583 0
v 0.3933583 -0.1629337 0.1068925
v 0.2660705 -0.1777821 0
v 0.3540133 -0.2365434 0.1068925
v 0.2262744 -0.2262739 0
v 0.3010636 -0.3010629 0.1068925
v 0.2262742 0.2262742 0
v 0.3010632 0.3010633 0.1068925
v 0.2365438 0.354013 0.1068925
v 0.1777825 0.2660703 0
v 0.1629342 0.3933581 0.1068925
v 0.1224587 0.2956414 0
v 0.08306317 0.4175867 0.1068925
v 0.06242891 0.3138513 0
v 2.086884E-08 0.4257678 0.1068925
v 2.415933E-08 0.32 0
v -0.08306313 0.4175867 0.1068925
v -0.06242887 0.3138513 0
v -0.1629342 0.3933581 0.1068925
v -0.1224586 0.2956415 0
v -0.2365439 0.354013 0.1068925
v -0.1777825 0.2660703 0
v -0.3010633 0.3010633 0.1068925
v -0.2262742 0.2262742 0
v -0.2262742 0.2262742 0
v -0.3010633 0.3010633 0.1068925
v -0.354013 0.2365439 0.1068925
v -0.2660703 0.1777825 0
v -0.3933581 0.1629342 0.1068925
v -0.2956415 0.1224586 0
v -0.4175867 0.08306306 0.1068925
v -0.3138513 0.06242882 0
v -0.4257678 -1.512685E-07 0.1068925
v -0.32 -1.042692E-07 0
v -0.4175867 -0.08306335 0.1068925
v -0.3138513 -0.06242903 0
v -0.393358 -0.1629345 0.1068925
v -0.2956414 -0.1224588 0
v -0.3540128 -0.2365441 0.1068925
v -0.2660702 -0.1777826 0
v -0.3010631 -0.3010634 0.1068925
v -0.226274 -0.2262743 0
v -0.226274 -0.2262743 0
v -0.3010631 -0.3010634 0.1068925
v -0.2365437 -0.3540131 0.1068925
v -0.1777823 -0.2660704 0
v -0.162934 -0.3933583 0.1068925
v -0.1224585 -0.2956415 0
v -0.08306281 -0.4175868 0.1068925
v -0.06242863 -0.3138513 0
v 3.998452E-07 -0.4257678 0.1068925
v 3.089917E-07 -0.32 0
v 0.08306359 -0.4175867 0.1068925
v 0.06242923 -0.3138512 0
v 0.1629347 -0.3933579 0.1068925
v 0.122459 -0.2956413 0
v 0.2365443 -0.3540126 0.1068925
v 0.1777828 -0.2660701 0
v 0.3010636 -0.3010629 0.1068925
v 0.2262744 -0.2262739 0
v 0.3199999 0 0
v 0.3138511 0.0624289 0
v 0.4175866 0.08306316 0.1068925
v 0.4257676 -1.253578E-08 0.1068925
v 0.393358 0.1629343 0.1068925
v 0.2956413 0.1224587 0
v 0.3540128 0.2365439 0.1068925
v 0.2660701 0.1777825 0
v 0.3010631 0.3010633 0.1068925
v 0.226274 0.2262742 0
v 0.3138512 -0.06242842 0
v 0.4175867 -0.08306254 0.1068925
v 0.2956415 -0.1224583 0
v 0.3933582 -0.1629337 0.1068925
v 0.2660704 -0.1777821 0
v 0.3540131 -0.2365434 0.1068925
v 0.2262743 -0.2262739 0
v 0.3010635 -0.3010629 0.1068925
v 0.226274 0.2262742 0
v 0.1777823 0.2660703 0
v 0.2365437 0.354013 0.1068925
v 0.3010631 0.3010633 0.1068925
v 0.162934 0.3933581 0.1068925
v 0.1224586 0.2956414 0
v 0.08306301 0.4175867 0.1068925
v 0.06242879 0.3138513 0
v -1.381644E-07 0.4257678 0.1068925
v -9.536743E-08 0.32 0
v -0.08306329 0.4175867 0.1068925
v -0.06242898 0.3138513 0
v -0.1629344 0.3933581 0.1068925
v -0.1224588 0.2956415 0
v -0.2365441 0.354013 0.1068925
v -0.1777826 0.2660703 0
v -0.3010634 0.3010633 0.1068925
v -0.2262743 0.2262742 0
v -0.2262743 0.2262742 0
v -0.2660704 0.1777825 0
v -0.3540131 0.2365439 0.1068925
v -0.3010634 0.3010633 0.1068925
v -0.3933583 0.1629342 0.1068925
v -0.2956416 0.1224586 0
v -0.4175869 0.08306306 0.1068925
v -0.3138514 0.06242882 0
v -0.4257679 -1.512685E-07 0.1068925
v -0.3200001 -1.042692E-07 0
v -0.4175869 -0.08306335 0.1068925
v -0.3138514 -0.06242903 0
v -0.3933582 -0.1629345 0.1068925
v -0.2956415 -0.1224588 0
v -0.354013 -0.2365441 0.1068925
v -0.2660703 -0.1777826 0
v -0.3010632 -0.3010634 0.1068925
v -0.2262741 -0.2262743 0
v -0.2262741 -0.2262743 0
v -0.1777824 -0.2660704 0
v -0.2365438 -0.3540131 0.1068925
v -0.3010632 -0.3010634 0.1068925
v -0.1629341 -0.3933583 0.1068925
v -0.1224586 -0.2956415 0
v -0.08306297 -0.4175868 0.1068925
v -0.06242875 -0.3138513 0
v 2.425016E-07 -0.4257678 0.1068925
v 1.907349E-07 -0.32 0
v 0.08306345 -0.4175867 0.1068925
v 0.06242912 -0.3138512 0
v 0.1629345 -0.3933579 0.1068925
v 0.1224589 -0.2956413 0
v 0.2365441 -0.3540126 0.1068925
v 0.1777827 -0.2660701 0
v 0.3010635 -0.3010629 0.1068925
v 0.2262743 -0.2262739 0
vt 0.4999995 0.05997455
vt 0.4999995 0.9400254
vt 0.8906738 0.9400254
vt 0.8906738 0.05997455
vt 1.266335 0.9400254
vt 1.266335 0.05997455
vt 1.612546 0.9400254
vt 1.612546 0.05997455
vt 1.916002 0.9400254
vt 1.916002 0.05997455
vt 0.1093283 0.05997455
vt 0.1093283 0.9400254
vt -0.2663327 0.05997455
vt -0.2663327 0.9400254
vt -0.6125441 0.05997455
vt -0.6125441 0.9400254
vt -0.916001 0.05997455
vt -0.916001 0.9400254
vt -0.9160028 0.05997455
vt -0.9160028 0.9400254
vt -0.6125462 0.9400254
vt -0.6125462 0.05997455
vt -0.2663355 0.9400254
vt -0.2663355 0.05997455
vt 0.1093253 0.9400254
vt 0.1093253 0.05997455
vt 0.4999993 0.9400254
vt 0.4999993 0.05997455
vt 0.8906735 0.9400254
vt 0.8906735 0.05997455
vt 1.266334 0.9400254
vt 1.266334 0.05997455
vt 1.612545 0.9400254
vt 1.612545 0.05997455
vt 1.916002 0.9400254
vt 1.916002 0.05997455
vt -0.9160028 0.05997455
vt -0.9160028 0.9400254
vt -0.6125462 0.9400254
vt -0.6125462 0.05997455
vt -0.2663351 0.9400254
vt -0.2663351 0.05997455
vt 0.1093258 0.9400254
vt 0.1093258 0.05997455
vt 0.5000002 0.9400254
vt 0.5000002 0.05997455
vt 0.8906745 0.9400254
vt 0.8906745 0.05997455
vt 1.266335 0.9400254
vt 1.266335 0.05997455
vt 1.612547 0.9400254
vt 1.612547 0.05997455
vt 1.916003 0.9400254
vt 1.916003 0.05997455
vt -0.9160019 0.05997455
vt -0.9160019 0.9400254
vt -0.6125451 0.9400254
vt -0.6125451 0.05997455
vt -0.2663339 0.9400254
vt -0.2663339 0.05997455
vt 0.109327 0.9400254
vt 0.109327 0.05997455
vt 0.5000014 0.9400254
vt 0.5000014 0.05997455
vt 0.8906758 0.9400254
vt 0.8906758 0.05997455
vt 1.266337 0.9400254
vt 1.266337 0.05997455
vt 1.612548 0.9400254
vt 1.612548 0.05997455
vt 1.916004 0.9400254
vt 1.916004 0.05997455
vt 0.4999995 0.05997455
vt 0.8906738 0.05997455
vt 0.8906738 0.9400254
vt 0.4999995 0.9400254
vt 1.266335 0.9400254
vt 1.266335 0.05997455
vt 1.612546 0.9400254
vt 1.612546 0.05997455
vt 1.916002 0.9400254
vt 1.916002 0.05997455
vt 0.1093283 0.05997455
vt 0.1093283 0.9400254
vt -0.2663327 0.05997455
vt -0.2663327 0.9400254
vt -0.6125441 0.05997455
vt -0.6125441 0.9400254
vt -0.916001 0.05997455
vt -0.916001 0.9400254
vt -0.9160028 0.05997455
vt -0.6125462 0.05997455
vt -0.6125462 0.9400254
vt -0.9160028 0.9400254
vt -0.2663355 0.9400254
vt -0.2663355 0.05997455
vt 0.1093253 0.9400254
vt 0.1093253 0.05997455
vt 0.4999993 0.9400254
vt 0.4999993 0.05997455
vt 0.8906735 0.9400254
vt 0.8906735 0.05997455
vt 1.266334 0.9400254
vt 1.266334 0.05997455
vt 1.612545 0.9400254
vt 1.612545 0.05997455
vt 1.916002 0.9400254
vt 1.916002 0.05997455
vt -0.9160028 0.05997455
vt -0.6125462 0.05997455
vt -0.6125462 0.9400254
vt -0.9160028 0.9400254
vt -0.2663351 0.9400254
vt -0.2663351 0.05997455
vt 0.1093258 0.9400254
vt 0.1093258 0.05997455
vt 0.5000002 0.9400254
vt 0.5000002 0.05997455
vt 0.8906745 0.9400254
vt 0.8906745 0.05997455
vt 1.266335 0.9400254
vt 1.266335 0.05997455
vt 1.612547 0.9400254
vt 1.612547 0.05997455
vt 1.916003 0.9400254
vt 1.916003 0.05997455
vt -0.9160019 0.05997455
vt -0.6125451 0.05997455
vt -0.6125451 0.9400254
vt -0.9160019 0.9400254
vt -0.2663339 0.9400254
vt -0.2663339 0.05997455
vt 0.109327 0.9400254
vt 0.109327 0.05997455
vt 0.5000014 0.9400254
vt 0.5000014 0.05997455
vt 0.8906758 0.9400254
vt 0.8906758 0.05997455
vt 1.266337 0.9400254
vt 1.266337 0.05997455
vt 1.612548 0.9400254
vt 1.612548 0.05997455
vt 1.916004 0.9400254
vt 1.916004 0.05997455
vn 0.7108366 3.621015E-07 -0.7033572
vn 0.7108367 3.257474E-07 -0.703357
vn 0.6971781 0.1386774 -0.703357
vn 0.6971781 0.1386774 -0.703357
vn 0.6567276 0.2720253 -0.703357
vn 0.6567276 0.2720253 -0.703357
vn 0.5910391 0.3949197 -0.703357
vn 0.5910391 0.3949198 -0.703357
vn 0.5026375 0.5026375 -0.7033571
vn 0.5026375 0.5026375 -0.7033571
vn 0.6971782 -0.1386766 -0.7033571
vn 0.6971782 -0.1386766 -0.7033571
vn 0.6567279 -0.2720244 -0.7033572
vn 0.6567279 -0.2720244 -0.7033571
vn 0.5910396 -0.394919 -0.7033571
vn 0.5910397 -0.394919 -0.7033571
vn 0.502638 -0.5026369 -0.703357
vn 0.5026381 -0.5026368 -0.703357
vn 0.5026375 0.5026375 -0.7033571
vn 0.5026375 0.5026375 -0.7033571
vn 0.3949197 0.5910392 -0.7033571
vn 0.3949197 0.5910392 -0.7033571
vn 0.2720253 0.6567276 -0.703357
vn 0.2720253 0.6567276 -0.703357
vn 0.1386775 0.6971781 -0.703357
vn 0.1386775 0.6971781 -0.703357
vn 1.367642E-07 0.7108366 -0.7033571
vn 1.525836E-07 0.7108367 -0.703357
vn -0.1386774 0.6971781 -0.7033571
vn -0.1386773 0.6971781 -0.7033571
vn -0.2720253 0.6567274 -0.7033572
vn -0.2720253 0.6567276 -0.7033572
vn -0.3949196 0.591039 -0.7033572
vn -0.3949196 0.5910391 -0.7033572
vn -0.5026375 0.5026374 -0.7033571
vn -0.5026374 0.5026374 -0.7033572
vn -0.5026374 0.5026374 -0.7033572
vn -0.5026375 0.5026374 -0.7033571
vn -0.5910391 0.3949196 -0.7033572
vn -0.5910391 0.3949197 -0.7033572
vn -0.6567276 0.2720252 -0.7033571
vn -0.6567276 0.2720252 -0.7033571
vn -0.6971782 0.1386772 -0.703357
vn -0.6971782 0.1386772 -0.703357
vn -0.7108366 -1.964431E-07 -0.7033571
vn -0.7108366 -1.844667E-07 -0.7033571
vn -0.6971781 -0.1386778 -0.7033571
vn -0.6971781 -0.1386777 -0.7033571
vn -0.6567273 -0.2720258 -0.7033571
vn -0.6567273 -0.2720258 -0.7033572
vn -0.5910389 -0.3949201 -0.7033571
vn -0.5910389 -0.39492 -0.703357
vn -0.5026373 -0.5026377 -0.7033571
vn -0.5026372 -0.5026377 -0.7033572
vn -0.5026372 -0.5026377 -0.7033572
vn -0.5026373 -0.5026377 -0.7033571
vn -0.3949193 -0.5910393 -0.7033572
vn -0.3949193 -0.5910393 -0.7033572
vn -0.2720248 -0.6567276 -0.7033572
vn -0.2720248 -0.6567277 -0.7033572
vn -0.1386767 -0.6971783 -0.703357
vn -0.1386767 -0.6971782 -0.7033571
vn 6.514948E-07 -0.7108367 -0.703357
vn 6.536044E-07 -0.7108366 -0.7033571
vn 0.1386782 -0.6971779 -0.7033571
vn 0.1386782 -0.6971779 -0.7033571
vn 0.2720262 -0.6567272 -0.703357
vn 0.2720262 -0.6567272 -0.703357
vn 0.3949204 -0.5910387 -0.703357
vn 0.3949205 -0.5910388 -0.703357
vn 0.5026381 -0.5026368 -0.703357
vn 0.502638 -0.5026369 -0.703357
vn -0.7108368 -1.11591E-07 0.703357
vn -0.6971781 -0.1386775 0.703357
vn -0.6971782 -0.1386775 0.703357
vn -0.7108368 0 0.703357
vn -0.6567276 -0.2720256 0.703357
vn -0.6567275 -0.2720256 0.703357
vn -0.5910392 -0.39492 0.7033569
vn -0.5910391 -0.39492 0.7033569
vn -0.5026376 -0.5026375 0.7033569
vn -0.5026376 -0.5026374 0.7033569
vn -0.6971784 0.1386766 0.7033569
vn -0.6971784 0.1386766 0.703357
vn -0.656728 0.2720243 0.703357
vn -0.656728 0.2720243 0.703357
vn -0.5910397 0.3949191 0.703357
vn -0.5910397 0.394919 0.703357
vn -0.5026381 0.502637 0.703357
vn -0.5026381 0.5026369 0.703357
vn -0.5026376 -0.5026374 0.7033569
vn -0.3949198 -0.5910392 0.703357
vn -0.3949197 -0.5910391 0.703357
vn -0.5026376 -0.5026375 0.7033569
vn -0.2720253 -0.6567277 0.703357
vn -0.2720253 -0.6567277 0.703357
vn -0.1386775 -0.6971782 0.703357
vn -0.1386776 -0.6971782 0.703357
vn -1.218445E-07 -0.7108367 0.703357
vn -1.594157E-07 -0.7108366 0.7033571
vn 0.1386773 -0.6971781 0.7033572
vn 0.1386773 -0.6971781 0.7033571
vn 0.2720252 -0.6567274 0.7033572
vn 0.2720251 -0.6567276 0.7033572
vn 0.3949195 -0.591039 0.7033573
vn 0.3949195 -0.591039 0.7033573
vn 0.5026374 -0.5026373 0.7033573
vn 0.5026374 -0.5026373 0.7033572
vn 0.5026374 -0.5026373 0.7033572
vn 0.5910391 -0.3949196 0.7033572
vn 0.5910391 -0.3949195 0.7033572
vn 0.5026374 -0.5026373 0.7033573
vn 0.6567274 -0.2720253 0.7033572
vn 0.6567275 -0.2720253 0.7033571
vn 0.6971781 -0.1386771 0.7033572
vn 0.6971781 -0.1386771 0.7033572
vn 0.7108366 1.96443E-07 0.7033572
vn 0.7108366 1.867441E-07 0.7033572
vn 0.697178 0.1386775 0.7033573
vn 0.697178 0.1386775 0.7033573
vn 0.6567271 0.2720257 0.7033573
vn 0.6567272 0.2720257 0.7033573
vn 0.5910388 0.39492 0.7033573
vn 0.5910388 0.39492 0.7033573
vn 0.5026371 0.5026377 0.7033573
vn 0.5026371 0.5026377 0.7033572
vn 0.5026371 0.5026377 0.7033572
vn 0.3949192 0.5910393 0.7033572
vn 0.3949192 0.5910393 0.7033573
vn 0.5026371 0.5026377 0.7033573
vn 0.2720248 0.6567276 0.7033572
vn 0.2720248 0.6567277 0.7033573
vn 0.1386767 0.6971783 0.7033572
vn 0.1386767 0.6971782 0.7033572
vn -6.36575E-07 0.7108366 0.7033572
vn -6.627138E-07 0.7108366 0.7033572
vn -0.1386782 0.697178 0.703357
vn -0.1386782 0.6971779 0.7033571
vn -0.2720263 0.6567272 0.703357
vn -0.2720263 0.6567272 0.703357
vn -0.3949204 0.5910388 0.703357
vn -0.3949205 0.5910388 0.703357
vn -0.5026381 0.5026369 0.703357
vn -0.5026381 0.502637 0.703357
g Cylinder001_0
f 3/3/3 2/2/2 1/1/1
f 4/4/4 3/3/3 1/1/1
f 5/5/5 3/3/3 4/4/4
f 6/6/6 5/5/5 4/4/4
f 7/7/7 5/5/5 6/6/6
f 8/8/8 7/7/7 6/6/6
f 9/9/9 7/7/7 8/8/8
f 10/10/10 9/9/9 8/8/8
f 1/1/1 2/2/2 11/11/11
f 2/2/2 12/12/12 11/11/11
f 11/11/11 12/12/12 13/13/13
f 12/12/12 14/14/14 13/13/13
f 13/13/13 14/14/14 15/15/15
f 14/14/14 16/16/16 15/15/15
f 15/15/15 16/16/16 17/17/17
f 16/16/16 18/18/18 17/17/17
f 21/21/21 20/20/20 19/19/19
f 22/22/22 21/21/21 19/19/19
f 23/23/23 21/21/21 22/22/22
f 24/24/24 23/23/23 22/22/22
f 25/25/25 23/23/23 24/24/24
f 26/26/26 25/25/25 24/24/24
f 27/27/27 25/25/25 26/26/26
f 28/28/28 27/27/27 26/26/26
f 29/29/29 27/27/27 28/28/28
f 30/30/30 29/29/29 28/28/28
f 31/31/31 29/29/29 30/30/30
f 32/32/32 31/31/31 30/30/30
f 33/33/33 31/31/31 32/32/32
f 34/34/34 33/33/33 32/32/32
f 35/35/35 33/33/33 34/34/34
f 36/36/36 35/35/35 34/34/34
f 39/39/39 38/38/38 37/37/37
f 40/40/40 39/39/39 37/37/37
f 41/41/41 39/39/39 40/40/40
f 42/42/42 41/41/41 40/40/40
f 43/43/43 41/41/41 42/42/42
f 44/44/44 43/43/43 42/42/42
f 45/45/45 43/43/43 44/44/44
f 46/46/46 45/45/45 44/44/44
f 47/47/47 45/45/45 46/46/46
f 48/48/48 47/47/47 46/46/46
f 49/49/49 47/47/47 48/48/48
f 50/50/50 49/49/49 48/48/48
f 51/51/51 49/49/49 50/50/50
f 52/52/52 51/51/51 50/50/50
f 53/53/53 51/51/51 52/52/52
f 54/54/54 53/53/53 52/52/52
f 57/57/57 56/56/56 55/55/55
f 58/58/58 57/57/57 55/55/55
f 59/59/59 57/57/57 58/58/58
f 60/60/60 59/59/59 58/58/58
f 61/61/61 59/59/59 60/60/60
f 62/62/62 61/61/61 60/60/60
f 63/63/63 61/61/61 62/62/62
f 64/64/64 63/63/63 62/62/62
f 65/65/65 63/63/63 64/64/64
f 66/66/66 65/65/65 64/64/64
f 67/67/67 65/65/65 66/66/66
f 68/68/68 67/67/67 66/66/66
f 69/69/69 67/67/67 68/68/68
f 70/70/70 69/69/69 68/68/68
f 71/71/71 69/69/69 70/70/70
f 72/72/72 71/71/71 70/70/70
f 75/75/75 74/74/74 73/73/73
f 76/76/76 75/75/75 73/73/73
f 75/75/75 77/77/77 74/74/74
f 77/77/77 78/78/78 74/74/74
f 77/77/77 79/79/79 78/78/78
f 79/79/79 80/80/80 78/78/78
f 79/79/79 81/81/81 80/80/80
f 81/81/81 82/82/82 80/80/80
f 76/76/76 73/73/73 83/83/83
f 84/84/84 76/76/76 83/83/83
f 84/84/84 83/83/83 85/85/85
f 86/86/86 84/84/84 85/85/85
f 86/86/86 85/85/85 87/87/87
f 88/88/88 86/86/86 87/87/87
f 88/88/88 87/87/87 89/89/89
f 90/90/90 88/88/88 89/89/89
f 93/93/93 92/92/92 91/91/91
f 94/94/94 93/93/93 91/91/91
f 93/93/93 95/95/95 92/92/92
f 95/95/95 96/96/96 92/92/92
f 95/95/95 97/97/97 96/96/96
f 97/97/97 98/98/98 96/96/96
f 97/97/97 99/99/99 98/98/98
f 99/99/99 100/100/100 98/98/98
f 99/99/99 101/101/101 100/100/100
f 101/101/101 102/102/102 100/100/100
f 101/101/101 103/103/103 102/102/102
f 103/103/103 104/104/104 102/102/102
f 103/103/103 105/105/105 104/104/104
f 105/105/105 106/106/106 104/104/104
f 105/105/105 107/107/107 106/106/106
f 107/107/107 108/108/108 106/106/106
f 111/111/111 110/110/110 109/109/109
f 112/112/112 111/111/111 109/109/109
f 111/111/111 113/113/113 110/110/110
f 113/113/113 114/114/114 110/110/110
f 113/113/113 115/115/115 114/114/114
f 115/115/115 116/116/116 114/114/114
f 115/115/115 117/117/117 116/116/116
f 117/117/117 118/118/118 116/116/116
f 117/117/117 119/119/119 118/118/118
f 119/119/119 120/120/120 118/118/118
f 119/119/119 121/121/121 120/120/120
f 121/121/121 122/122/122 120/120/120
f 121/121/121 123/123/123 122/122/122
f 123/123/123 124/124/124 122/122/122
f 123/123/123 125/125/125 124/124/124
f 125/125/125 126/126/126 124/124/124
f 129/129/129 128/128/128 127/127/127
f 130/130/130 129/129/129 127/127/127
f 129/129/129 131/131/131 128/128/128
f 131/131/131 132/132/132 128/128/128
f 131/131/131 133/133/133 132/132/132
f 133/133/133 134/134/134 132/132/132
f 133/133/133 135/135/135 134/134/134
f 135/135/135 136/136/136 134/134/134
f 135/135/135 137/137/137 136/136/136
f 137/137/137 138/138/138 136/136/136
f 137/137/137 139/139/139 138/138/138
f 139/139/139 140/140/140 138/138/138
f 139/139/139 141/141/141 140/140/140
f 141/141/141 142/142/142 140/140/140
f 141/141/141 143/143/143 142/142/142
f 143/143/143 144/144/144 142/142/142
