{
  "m_GameObject": {
    "m_FileID": 0,
    "m_PathID": 0
  },
  "m_Enabled": 1,
  "m_Script": {
    "m_FileID": 0,
    "m_PathID": 8527011069456626154
  },
  "m_Name": "adv_200705_path",
  "advPathList": [
    {
      "assetName": "",
      "assetPath": "texture/character/stand/1031100_stand",
      "resourcePath": "Texture/Character/1031100_stand.asset"
    },
    {
      "assetName": "",
      "assetPath": "texture/character/stand/1040700_stand",
      "resourcePath": "Texture/Character/1040700_stand.asset"
    },
    {
      "assetName": "",
      "assetPath": "texture/character/stand/1011100_stand",
      "resourcePath": "Texture/Character/1011100_stand.asset"
    },
    {
      "assetName": "",
      "assetPath": "texture/character/stand/2000400_stand",
      "resourcePath": "Texture/Character/2000400_stand.asset"
    },
    {
      "assetName": "",
      "assetPath": "texture/character/stand/1061600_stand",
      "resourcePath": "Texture/Character/1061600_stand.asset"
    },
    {
      "assetName": "",
      "assetPath": "texture/character/stand/1061500_stand",
      "resourcePath": "Texture/Character/1061500_stand.asset"
    },
    {
      "assetName": "",
      "assetPath": "texture/background/bg_007_ll",
      "resourcePath": "Texture/BG/bg_007_LL.png"
    },
    {
      "assetName": "",
      "assetPath": "texture/background/bg_056_ll",
      "resourcePath": "Texture/BG/bg_056_LL.png"
    },
    {
      "assetName": "",
      "assetPath": "sound/bgm/adventure/bgm_adv_general",
      "resourcePath": "Sound/BGM/bgm_adv_general.wav"
    },
    {
      "assetName": "",
      "assetPath": "sound/bgm/adventure/bgm_comical",
      "resourcePath": "Sound/BGM/bgm_comical.wav"
    },
    {
      "assetName": "",
      "assetPath": "sound/bgm/adventure/bgm_nervous",
      "resourcePath": "Sound/BGM/bgm_nervous.wav"
    },
    {
      "assetName": "",
      "assetPath": "sound/se/adventure/se_depression",
      "resourcePath": "Sound/SE/se_depression.wav"
    },
    {
      "assetName": "",
      "assetPath": "sound/se/adventure/se_ng",
      "resourcePath": "Sound/SE/se_ng.wav"
    },
    {
      "assetName": "",
      "assetPath": "data/adventure/event/story2007/adv_200705.scenarios",
      "resourcePath": "adv_200705.scenarios.asset"
    }
  ]
}