{
  "m_GameObject": {
    "m_FileID": 0,
    "m_PathID": 0
  },
  "m_Enabled": 1,
  "m_Script": {
    "m_FileID": 0,
    "m_PathID": -2195584510539435343
  },
  "m_Name": "adv_200705.book",
  "importVersion": 0,
  "importGridList": [
    {
      "rows": [
        {
          "rowIndex": 0,
          "strings": [
            "Command",
            "Arg1",
            "Arg2",
            "Arg3",
            "Arg4",
            "Arg5",
            "Arg6",
            "WaitType",
            "Text",
            "PageCtrl",
            "Voice",
            "WindowType"
          ],
          "isEmpty": 0,
          "isCommentOut": 0
        },
        {
          "rowIndex": 1,
          "strings": [
            "FadeOut",
            "black",
            "",
            "",
            "",
            "",
            "0",
            "",
            "",
            "",
            "",
            ""
          ],
          "isEmpty": 0,
          "isCommentOut": 0
        },
        {
          "rowIndex": 2,
          "strings": [
            "Bg",
            "背景(ビーチ)",
            "",
            "",
            "",
            "",
            "",
            "",
            "",
            "",
            "",
            ""
          ],
          "isEmpty": 0,
          "isCommentOut": 0
        },
        {
          "rowIndex": 3,
          "strings": [
            "Wait",
            "",
            "",
            "",
            "",
            "",
            ".3",
            "",
            "",
            "",
            "",
            ""
          ],
          "isEmpty": 0,
          "isCommentOut": 0
        },
        {
          "rowIndex": 4,
          "strings": [
            "FadeIn",
            "black",
            "",
            "",
            "",
            "",
            "1",
            "",
            "",
            "",
            "",
            ""
          ],
          "isEmpty": 0,
          "isCommentOut": 0
        },
        {
          "rowIndex": 5,
          "strings": [
            "Bgm",
            "ADV通常",
            "",
            "",
            "",
            "",
            "",
            "",
            "",
            "",
            "",
            ""
          ],
          "isEmpty": 0,
          "isCommentOut": 0
        },
        {
          "rowIndex": 6,
          "strings": [
            "",
            "ネプテューヌサマー",
            "固有",
            "キャラ左",
            "",
            "",
            "",
            "",
            "",
            "",
            "",
            ""
          ],
          "isEmpty": 0,
          "isCommentOut": 0
        },
        {
          "rowIndex": 7,
          "strings": [
            "",
            "クロワールサマー",
            "悲しみ",
            "キャラ右",
            "",
            "",
            "",
            "",
            "",
            "",
            "",
            ""
          ],
          "isEmpty": 0,
          "isCommentOut": 0
        },
        {
          "rowIndex": 8,
          "strings": [
            "",
            "ネプテューヌサマー",
            "",
            "",
            "",
            "",
            "",
            "",
            "いやー、遊んだ遊んだー",
            "",
            "",
            ""
          ],
          "isEmpty": 0,
          "isCommentOut": 0
        },
        {
          "rowIndex": 9,
          "strings": [
            "",
            "クロワールサマー",
            "",
            "",
            "",
            "",
            "",
            "",
            "くそ、俺としたことがガキどもにムキになっちまったぜ。\n後で、史書を陰干ししないと……",
            "Input",
            "",
            ""
          ],
          "isEmpty": 0,
          "isCommentOut": 0
        },
        {
          "rowIndex": 10,
          "strings": [
            "Selection",
            "*200705-1",
            "",
            "",
            "",
            "0",
            "300",
            "",
            "「お腹すいたね」",
            "",
            "",
            ""
          ],
          "isEmpty": 0,
          "isCommentOut": 0
        },
        {
          "rowIndex": 11,
          "strings": [
            "*200705-1",
            "",
            "",
            "",
            "",
            "",
            "",
            "",
            "",
            "",
            "",
            ""
          ],
          "isEmpty": 0,
          "isCommentOut": 0
        },
        {
          "rowIndex": 12,
          "strings": [
            "",
            "クロワールサマー",
            "笑い",
            "",
            "",
            "",
            ".2",
            "",
            "朝から遊びっぱなしだったからな。\nここらで休憩するか",
            "",
            "",
            ""
          ],
          "isEmpty": 0,
          "isCommentOut": 0
        },
        {
          "rowIndex": 13,
          "strings": [
            "",
            "ネプテューヌサマー",
            "固有",
            "",
            "",
            "",
            ".2",
            "",
            "あそこに屋台があるよ！",
            "Input",
            "",
            ""
          ],
          "isEmpty": 0,
          "isCommentOut": 0
        },
        {
          "rowIndex": 14,
          "strings": [
            "Selection",
            "*200705-2",
            "",
            "",
            "",
            "0",
            "300",
            "",
            "「カロリー！」",
            "",
            "",
            ""
          ],
          "isEmpty": 0,
          "isCommentOut": 0
        },
        {
          "rowIndex": 15,
          "strings": [
            "*200705-2",
            "",
            "",
            "",
            "",
            "",
            "",
            "",
            "",
            "",
            "",
            ""
          ],
          "isEmpty": 0,
          "isCommentOut": 0
        },
        {
          "rowIndex": 16,
          "strings": [
            "",
            "クロワールサマー",
            "悲しみ",
            "",
            "",
            "",
            ".2",
            "",
            "他にもっと言い方あるだろ……",
            "",
            "",
            ""
          ],
          "isEmpty": 0,
          "isCommentOut": 0
        },
        {
          "rowIndex": 17,
          "strings": [
            "CharacterOff",
            "",
            "",
            "",
            "",
            "",
            "",
            "",
            "",
            "",
            "",
            ""
          ],
          "isEmpty": 0,
          "isCommentOut": 0
        },
        {
          "rowIndex": 18,
          "strings": [
            "Wait",
            "",
            "",
            "",
            "",
            "",
            "1",
            "",
            "",
            "",
            "",
            ""
          ],
          "isEmpty": 0,
          "isCommentOut": 0
        },
        {
          "rowIndex": 19,
          "strings": [
            "Se",
            "踏み込み音",
            "",
            "",
            "",
            "",
            "",
            "",
            "",
            "",
            "",
            ""
          ],
          "isEmpty": 0,
          "isCommentOut": 0
        },
        {
          "rowIndex": 20,
          "strings": [
            "",
            "ネプテューヌサマー",
            "",
            "",
            "",
            "",
            "1",
            "Add",
            "",
            "",
            "",
            ""
          ],
          "isEmpty": 0,
          "isCommentOut": 0
        },
        {
          "rowIndex": 21,
          "strings": [
            "Tween",
            "ネプテューヌサマー",
            "MoveFrom",
            "x=100 y=0 islocal=true time=1",
            "easeOutQuad",
            "",
            "",
            "Add",
            "",
            "",
            "",
            ""
          ],
          "isEmpty": 0,
          "isCommentOut": 0
        },
        {
          "rowIndex": 22,
          "strings": [
            "",
            "ネプテューヌサマー",
            "笑い",
            "",
            "",
            "",
            "",
            "",
            "すみませーん、くーださーいなっ",
            "",
            "",
            ""
          ],
          "isEmpty": 0,
          "isCommentOut": 0
        },
        {
          "rowIndex": 23,
          "strings": [
            "StopBgm",
            "",
            "",
            "",
            "",
            "",
            "",
            "",
            "",
            "",
            "",
            ""
          ],
          "isEmpty": 0,
          "isCommentOut": 0
        },
        {
          "rowIndex": 24,
          "strings": [
            "CharacterOff",
            "",
            "",
            "",
            "",
            "",
            "",
            "",
            "",
            "",
            "",
            ""
          ],
          "isEmpty": 0,
          "isCommentOut": 0
        },
        {
          "rowIndex": 25,
          "strings": [
            "",
            "マジェコンヌ",
            "笑い",
            "",
            "",
            "",
            "",
            "",
            "へい！　らっしゃい！",
            "",
            "",
            ""
          ],
          "isEmpty": 0,
          "isCommentOut": 0
        },
        {
          "rowIndex": 26,
          "strings": [
            "Bgm",
            "コミカル",
            "",
            "",
            "",
            "",
            "",
            "",
            "",
            "",
            "",
            ""
          ],
          "isEmpty": 0,
          "isCommentOut": 0
        },
        {
          "rowIndex": 27,
          "strings": [
            "",
            "クロワールサマー",
            "悲しみ",
            "",
            "",
            "",
            "",
            "",
            "って、おい……",
            "",
            "",
            ""
          ],
          "isEmpty": 0,
          "isCommentOut": 0
        },
        {
          "rowIndex": 28,
          "strings": [
            "",
            "マジェコンヌ",
            "笑い",
            "",
            "",
            "",
            "",
            "",
            "具のない焼きそばに粉っぽいカレー、\nのびたラーメン、溶けかけのかき氷、なんでもあるよ！",
            "",
            "",
            ""
          ],
          "isEmpty": 0,
          "isCommentOut": 0
        },
        {
          "rowIndex": 29,
          "strings": [
            "",
            "マジェコンヌ",
            "",
            "",
            "",
            "",
            "",
            "",
            "",
            "",
            "",
            ""
          ],
          "isEmpty": 0,
          "isCommentOut": 0
        },
        {
          "rowIndex": 30,
          "strings": [
            "CharacterOff",
            "",
            "",
            "",
            "",
            "",
            "",
            "",
            "",
            "",
            "",
            ""
          ],
          "isEmpty": 0,
          "isCommentOut": 0
        },
        {
          "rowIndex": 31,
          "strings": [
            "",
            "ネプテューヌサマー",
            "照れ",
            "キャラ左",
            "",
            "",
            "",
            "",
            "",
            "",
            "",
            ""
          ],
          "isEmpty": 0,
          "isCommentOut": 0
        },
        {
          "rowIndex": 32,
          "strings": [
            "",
            "クロワールサマー",
            "真剣",
            "キャラ右",
            "",
            "",
            "",
            "",
            "",
            "",
            "",
            ""
          ],
          "isEmpty": 0,
          "isCommentOut": 0
        },
        {
          "rowIndex": 33,
          "strings": [
            "",
            "ネプテューヌサマー",
            "",
            "",
            "",
            "",
            "",
            "",
            "わー、海っぽーい！　どれにしようかな……",
            "",
            "",
            ""
          ],
          "isEmpty": 0,
          "isCommentOut": 0
        },
        {
          "rowIndex": 34,
          "strings": [
            "",
            "クロワールサマー",
            "",
            "",
            "",
            "",
            "",
            "",
            "おいこら、なにやってんだよ",
            "",
            "",
            ""
          ],
          "isEmpty": 0,
          "isCommentOut": 0
        },
        {
          "rowIndex": 35,
          "strings": [
            "CharacterOff",
            "",
            "",
            "",
            "",
            "",
            "",
            "",
            "",
            "",
            "",
            ""
          ],
          "isEmpty": 0,
          "isCommentOut": 0
        },
        {
          "rowIndex": 36,
          "strings": [
            "Wait",
            "",
            "",
            "",
            "",
            "",
            ".5",
            "",
            "",
            "",
            "",
            ""
          ],
          "isEmpty": 0,
          "isCommentOut": 0
        },
        {
          "rowIndex": 37,
          "strings": [
            "Se",
            "踏み込み音",
            "",
            "",
            "",
            "",
            "",
            "",
            "",
            "",
            "",
            ""
          ],
          "isEmpty": 0,
          "isCommentOut": 0
        },
        {
          "rowIndex": 38,
          "strings": [
            "",
            "下っ端",
            "笑い",
            "",
            "",
            "",
            "1",
            "Add",
            "",
            "",
            "",
            ""
          ],
          "isEmpty": 0,
          "isCommentOut": 0
        },
        {
          "rowIndex": 39,
          "strings": [
            "Tween",
            "下っ端",
            "MoveFrom",
            "x=-100 y=0 islocal=true time=1",
            "easeOutQuad",
            "",
            "",
            "",
            "",
            "",
            "",
            ""
          ],
          "isEmpty": 0,
          "isCommentOut": 0
        },
        {
          "rowIndex": 40,
          "strings": [
            "",
            "下っ端",
            "",
            "",
            "",
            "",
            "",
            "",
            "マジェコンヌ様、商品届けてきました！",
            "Br",
            "",
            ""
          ],
          "isEmpty": 0,
          "isCommentOut": 0
        },
        {
          "rowIndex": 41,
          "strings": [
            "Wait",
            "",
            "",
            "",
            "",
            "",
            ".3",
            "",
            "",
            "",
            "",
            ""
          ],
          "isEmpty": 0,
          "isCommentOut": 0
        },
        {
          "rowIndex": 42,
          "strings": [
            "StopBgm",
            "",
            "",
            "",
            "",
            "",
            "",
            "",
            "",
            "",
            "",
            ""
          ],
          "isEmpty": 0,
          "isCommentOut": 0
        },
        {
          "rowIndex": 43,
          "strings": [
            "Bgm",
            "緊張感",
            "",
            "",
            "",
            "",
            "",
            "",
            "",
            "",
            "",
            ""
          ],
          "isEmpty": 0,
          "isCommentOut": 0
        },
        {
          "rowIndex": 44,
          "strings": [
            "Tween",
            "下っ端",
            "ShakePosition",
            "x=10 islocal=true time=.3",
            "",
            "",
            "",
            "Add",
            "",
            "",
            "",
            ""
          ],
          "isEmpty": 0,
          "isCommentOut": 0
        },
        {
          "rowIndex": 45,
          "strings": [
            "",
            "下っ端",
            "驚き",
            "",
            "",
            "",
            ".2",
            "",
            "……って、あああああっ！",
            "",
            "",
            ""
          ],
          "isEmpty": 0,
          "isCommentOut": 0
        },
        {
          "rowIndex": 46,
          "strings": [
            "",
            "下っ端",
            "真剣",
            "",
            "",
            "",
            ".2",
            "",
            "て、テメェら！　ここで会ったがうんびゃくねん。\n今度こそ、ぜってー倒してやるぜ！",
            "",
            "",
            ""
          ],
          "isEmpty": 0,
          "isCommentOut": 0
        },
        {
          "rowIndex": 47,
          "strings": [
            "",
            "クロワールサマー",
            "真剣",
            "",
            "",
            "",
            "",
            "",
            "くっ、こんなとこで待ち伏せとは、\nやってくれるじゃねーか！",
            "",
            "",
            ""
          ],
          "isEmpty": 0,
          "isCommentOut": 0
        },
        {
          "rowIndex": 48,
          "strings": [
            "StopBgm",
            "",
            "",
            "",
            "",
            "",
            "",
            "",
            "",
            "",
            "",
            ""
          ],
          "isEmpty": 0,
          "isCommentOut": 0
        },
        {
          "rowIndex": 49,
          "strings": [
            "",
            "マジェコンヌ",
            "固有",
            "",
            "",
            "",
            "",
            "",
            "やめな！",
            "",
            "",
            ""
          ],
          "isEmpty": 0,
          "isCommentOut": 0
        },
        {
          "rowIndex": 50,
          "strings": [
            "",
            "下っ端",
            "困り",
            "",
            "",
            "",
            "",
            "",
            "ま、マジェコンヌ様……！？",
            "",
            "",
            ""
          ],
          "isEmpty": 0,
          "isCommentOut": 0
        },
        {
          "rowIndex": 51,
          "strings": [
            "Bgm",
            "コミカル",
            "",
            "",
            "",
            "",
            "",
            "",
            "",
            "",
            "",
            ""
          ],
          "isEmpty": 0,
          "isCommentOut": 0
        },
        {
          "rowIndex": 52,
          "strings": [
            "",
            "マジェコンヌ",
            "真剣",
            "",
            "",
            "",
            "",
            "",
            "今は仕事中だよ。喧嘩なら後にしな",
            "",
            "",
            ""
          ],
          "isEmpty": 0,
          "isCommentOut": 0
        },
        {
          "rowIndex": 53,
          "strings": [
            "",
            "マジェコンヌ",
            "固有",
            "",
            "",
            "",
            ".2",
            "",
            "お前らも、買う気がないなら帰っておくれ\n今日の私はただの<ruby=はまぢゃやし>浜茶屋師</ruby>だからね",
            "",
            "",
            ""
          ],
          "isEmpty": 0,
          "isCommentOut": 0
        },
        {
          "rowIndex": 54,
          "strings": [
            "CharacterOff",
            "",
            "",
            "",
            "",
            "",
            "",
            "",
            "",
            "",
            "",
            ""
          ],
          "isEmpty": 0,
          "isCommentOut": 0
        },
        {
          "rowIndex": 55,
          "strings": [
            "",
            "ネプテューヌサマー",
            "通常",
            "キャラ左",
            "",
            "",
            "",
            "",
            "",
            "",
            "",
            ""
          ],
          "isEmpty": 0,
          "isCommentOut": 0
        },
        {
          "rowIndex": 56,
          "strings": [
            "",
            "クロワールサマー",
            "真剣",
            "キャラ右",
            "",
            "",
            "",
            "",
            "",
            "",
            "",
            ""
          ],
          "isEmpty": 0,
          "isCommentOut": 0
        },
        {
          "rowIndex": 57,
          "strings": [
            "",
            "クロワールサマー",
            "",
            "",
            "",
            "",
            "",
            "",
            "なんだよ浜茶屋師って……",
            "",
            "",
            ""
          ],
          "isEmpty": 0,
          "isCommentOut": 0
        },
        {
          "rowIndex": 58,
          "strings": [
            "",
            "ネプテューヌサマー",
            "",
            "",
            "",
            "",
            "",
            "",
            "ねぇねぇマザコング－、なんで屋台出してるの？",
            "",
            "",
            ""
          ],
          "isEmpty": 0,
          "isCommentOut": 0
        },
        {
          "rowIndex": 59,
          "strings": [
            "CharacterOff",
            "",
            "",
            "",
            "",
            "",
            "",
            "",
            "",
            "",
            "",
            ""
          ],
          "isEmpty": 0,
          "isCommentOut": 0
        },
        {
          "rowIndex": 60,
          "strings": [
            "",
            "マジェコンヌ",
            "真剣",
            "",
            "",
            "",
            "",
            "",
            "",
            "",
            "",
            ""
          ],
          "isEmpty": 0,
          "isCommentOut": 0
        },
        {
          "rowIndex": 61,
          "strings": [
            "Wait",
            "",
            "",
            "",
            "",
            "",
            ".5",
            "",
            "",
            "",
            "",
            ""
          ],
          "isEmpty": 0,
          "isCommentOut": 0
        },
        {
          "rowIndex": 62,
          "strings": [
            "Tween",
            "マジェコンヌ",
            "MoveTo",
            "x=0 y=40 islocal=true time=.1",
            "easeOutCirc",
            "pingPong=2",
            "",
            "Add",
            "",
            "",
            "",
            ""
          ],
          "isEmpty": 0,
          "isCommentOut": 0
        },
        {
          "rowIndex": 63,
          "strings": [
            "",
            "マジェコンヌ",
            "真剣",
            "",
            "",
            "",
            "",
            "",
            "マジェコンヌだ！",
            "",
            "",
            ""
          ],
          "isEmpty": 0,
          "isCommentOut": 0
        },
        {
          "rowIndex": 64,
          "strings": [
            "",
            "マジェコンヌ",
            "悲しみ",
            "",
            "",
            "",
            ".2",
            "",
            "はっ！　いかんいかん、こんな大声を出したら、\n海を楽しんでるチビッコたちが怖がっちまうよ",
            "",
            "",
            ""
          ],
          "isEmpty": 0,
          "isCommentOut": 0
        },
        {
          "rowIndex": 65,
          "strings": [
            "",
            "クロワールサマー",
            "悲しみ",
            "",
            "",
            "",
            "",
            "",
            "なにその職業倫理……",
            "",
            "",
            ""
          ],
          "isEmpty": 0,
          "isCommentOut": 0
        },
        {
          "rowIndex": 66,
          "strings": [
            "",
            "マジェコンヌ",
            "固有",
            "",
            "",
            "",
            "",
            "",
            "組織なんて柄じゃないからね。\n資金繰りは自分でなんとかしなくちゃならないんだ",
            "",
            "",
            ""
          ],
          "isEmpty": 0,
          "isCommentOut": 0
        },
        {
          "rowIndex": 67,
          "strings": [
            "",
            "マジェコンヌ",
            "笑い",
            "",
            "",
            "",
            ".2",
            "",
            "だから、こうして地道にコツコツ金を貯めてるのさ",
            "",
            "",
            ""
          ],
          "isEmpty": 0,
          "isCommentOut": 0
        },
        {
          "rowIndex": 68,
          "strings": [
            "",
            "ネプテューヌサマー",
            "悲しみ",
            "",
            "",
            "",
            "",
            "",
            "苦労してるんだね……マズコンヌ",
            "",
            "",
            ""
          ],
          "isEmpty": 0,
          "isCommentOut": 0
        },
        {
          "rowIndex": 69,
          "strings": [
            "",
            "マジェコンヌ",
            "真剣",
            "",
            "",
            "",
            "",
            "",
            "",
            "",
            "",
            ""
          ],
          "isEmpty": 0,
          "isCommentOut": 0
        },
        {
          "rowIndex": 70,
          "strings": [
            "Wait",
            "",
            "",
            "",
            "",
            "",
            ".5",
            "",
            "",
            "",
            "",
            ""
          ],
          "isEmpty": 0,
          "isCommentOut": 0
        },
        {
          "rowIndex": 71,
          "strings": [
            "Tween",
            "マジェコンヌ",
            "MoveTo",
            "x=0 y=40 islocal=true time=.1",
            "easeOutCirc",
            "pingPong=2",
            "",
            "Add",
            "",
            "",
            "",
            ""
          ],
          "isEmpty": 0,
          "isCommentOut": 0
        },
        {
          "rowIndex": 72,
          "strings": [
            "",
            "マジェコンヌ",
            "真剣",
            "",
            "",
            "",
            "",
            "",
            "マジェコンヌだ！　あとマズいとか言うな！",
            "",
            "",
            ""
          ],
          "isEmpty": 0,
          "isCommentOut": 0
        },
        {
          "rowIndex": 73,
          "strings": [
            "",
            "ネプテューヌサマー",
            "真剣",
            "",
            "",
            "",
            "",
            "",
            "よし、今日は敵味方なし！\nわたしたちが売り上げに貢献してあげよう！",
            "",
            "",
            ""
          ],
          "isEmpty": 0,
          "isCommentOut": 0
        },
        {
          "rowIndex": 74,
          "strings": [
            "CharacterOff",
            "",
            "",
            "",
            "",
            "",
            "",
            "",
            "",
            "",
            "",
            ""
          ],
          "isEmpty": 0,
          "isCommentOut": 0
        },
        {
          "rowIndex": 75,
          "strings": [
            "",
            "マジェコンヌ",
            "笑い",
            "",
            "",
            "",
            "",
            "",
            "",
            "",
            "",
            ""
          ],
          "isEmpty": 0,
          "isCommentOut": 0
        },
        {
          "rowIndex": 76,
          "strings": [
            "Wait",
            "",
            "",
            "",
            "",
            "",
            ".5",
            "",
            "",
            "",
            "",
            ""
          ],
          "isEmpty": 0,
          "isCommentOut": 0
        },
        {
          "rowIndex": 77,
          "strings": [
            "",
            "マジェコンヌ",
            "笑い",
            "",
            "",
            "",
            "",
            "",
            "おおっ、そうかい！",
            "",
            "",
            ""
          ],
          "isEmpty": 0,
          "isCommentOut": 0
        },
        {
          "rowIndex": 78,
          "strings": [
            "",
            "マジェコンヌ",
            "通常",
            "",
            "",
            "",
            ".2",
            "",
            "ナス焼きそばにナスラーメン、\n夏野菜（主にナス）のカレー、どれもオススメだよ！",
            "",
            "",
            ""
          ],
          "isEmpty": 0,
          "isCommentOut": 0
        },
        {
          "rowIndex": 79,
          "strings": [
            "",
            "ネプテューヌサマー",
            "固有",
            "",
            "",
            "",
            "",
            "",
            "うん！　パス！　別のお店に行こう！",
            "",
            "",
            ""
          ],
          "isEmpty": 0,
          "isCommentOut": 0
        },
        {
          "rowIndex": 80,
          "strings": [
            "CharacterOff",
            "",
            "",
            "",
            "",
            "",
            "",
            "",
            "",
            "",
            "",
            ""
          ],
          "isEmpty": 0,
          "isCommentOut": 0
        },
        {
          "rowIndex": 81,
          "strings": [
            "",
            "マジェコンヌ",
            "悲しみ",
            "キャラ左",
            "",
            "",
            "",
            "",
            "",
            "",
            "",
            ""
          ],
          "isEmpty": 0,
          "isCommentOut": 0
        },
        {
          "rowIndex": 82,
          "strings": [
            "",
            "下っ端",
            "驚き",
            "キャラ右",
            "",
            "",
            "",
            "",
            "",
            "",
            "",
            ""
          ],
          "isEmpty": 0,
          "isCommentOut": 0
        },
        {
          "rowIndex": 83,
          "strings": [
            "",
            "マジェコンヌ",
            "",
            "",
            "",
            "",
            "",
            "",
            "なんで！？",
            "",
            "",
            ""
          ],
          "isEmpty": 0,
          "isCommentOut": 0
        },
        {
          "rowIndex": 84,
          "strings": [
            "",
            "下っ端",
            "",
            "",
            "",
            "",
            "",
            "",
            "アタイらが丹精込めて育てたナスが食えないってのか！",
            "",
            "",
            ""
          ],
          "isEmpty": 0,
          "isCommentOut": 0
        },
        {
          "rowIndex": 85,
          "strings": [
            "CharacterOff",
            "",
            "",
            "",
            "",
            "",
            "",
            "",
            "",
            "",
            "",
            ""
          ],
          "isEmpty": 0,
          "isCommentOut": 0
        },
        {
          "rowIndex": 86,
          "strings": [
            "",
            "ネプテューヌサマー",
            "悲しみ",
            "",
            "",
            "",
            "",
            "",
            "（ボソっと）潰れちゃえばいいよこんな店",
            "",
            "",
            ""
          ],
          "isEmpty": 0,
          "isCommentOut": 0
        },
        {
          "rowIndex": 87,
          "strings": [
            "CharacterOff",
            "",
            "",
            "",
            "",
            "",
            "",
            "",
            "",
            "",
            "",
            ""
          ],
          "isEmpty": 0,
          "isCommentOut": 0
        },
        {
          "rowIndex": 88,
          "strings": [
            "",
            "マジェコンヌ",
            "悲しみ",
            "キャラ左",
            "",
            "",
            "",
            "",
            "",
            "",
            "",
            ""
          ],
          "isEmpty": 0,
          "isCommentOut": 0
        },
        {
          "rowIndex": 89,
          "strings": [
            "",
            "下っ端",
            "驚き",
            "キャラ右",
            "",
            "",
            "",
            "",
            "",
            "",
            "",
            ""
          ],
          "isEmpty": 0,
          "isCommentOut": 0
        },
        {
          "rowIndex": 90,
          "strings": [
            "Wait",
            "",
            "",
            "",
            "",
            "",
            ".5",
            "",
            "",
            "",
            "",
            ""
          ],
          "isEmpty": 0,
          "isCommentOut": 0
        },
        {
          "rowIndex": 91,
          "strings": [
            "Tween",
            "マジェコンヌ",
            "MoveTo",
            "x=0 y=40 islocal=true time=.1",
            "easeOutCirc",
            "pingPong=2",
            "",
            "Add",
            "",
            "",
            "",
            ""
          ],
          "isEmpty": 0,
          "isCommentOut": 0
        },
        {
          "rowIndex": 92,
          "strings": [
            "Tween",
            "下っ端",
            "MoveTo",
            "x=0 y=40 islocal=true time=.1",
            "easeOutCirc",
            "pingPong=2",
            "",
            "Add",
            "",
            "",
            "",
            ""
          ],
          "isEmpty": 0,
          "isCommentOut": 0
        },
        {
          "rowIndex": 93,
          "strings": [
            "SendMessageByName",
            "AdvEngine",
            "ChangeNoGrayOutCharacter",
            "マジェコンヌ,下っ端",
            "",
            "",
            "",
            "",
            "",
            "",
            "",
            ""
          ],
          "isEmpty": 0,
          "isCommentOut": 0
        },
        {
          "rowIndex": 94,
          "strings": [
            "",
            "マジェコンヌ・下っ端",
            "",
            "",
            "",
            "",
            "",
            "",
            "ひどい！",
            "",
            "",
            ""
          ],
          "isEmpty": 0,
          "isCommentOut": 0
        },
        {
          "rowIndex": 95,
          "strings": [
            "",
            "マジェコンヌ",
            "真剣",
            "",
            "",
            "",
            "",
            "",
            "だったら、これはどうだい！\n今流行のタピオカドリンク！",
            "",
            "",
            ""
          ],
          "isEmpty": 0,
          "isCommentOut": 0
        },
        {
          "rowIndex": 96,
          "strings": [
            "",
            "マジェコンヌ",
            "",
            "",
            "",
            "",
            "",
            "",
            "",
            "",
            "",
            ""
          ],
          "isEmpty": 0,
          "isCommentOut": 0
        },
        {
          "rowIndex": 97,
          "strings": [
            "CharacterOff",
            "",
            "",
            "",
            "",
            "",
            "",
            "",
            "",
            "",
            "",
            ""
          ],
          "isEmpty": 0,
          "isCommentOut": 0
        },
        {
          "rowIndex": 98,
          "strings": [
            "",
            "ネプテューヌサマー",
            "笑い",
            "",
            "",
            "",
            "",
            "",
            "なーんだ、普通のもあるんだ",
            "",
            "",
            ""
          ],
          "isEmpty": 0,
          "isCommentOut": 0
        },
        {
          "rowIndex": 99,
          "strings": [
            "",
            "マジェコンヌ",
            "笑い",
            "",
            "",
            "",
            "",
            "",
            "流行はしっかりおさえておくのが、\n真の浜茶屋師ってもんさ",
            "",
            "",
            ""
          ],
          "isEmpty": 0,
          "isCommentOut": 0
        },
        {
          "rowIndex": 100,
          "strings": [
            "",
            "ネプテューヌサマー",
            "通常",
            "",
            "",
            "",
            "",
            "",
            "ところでタピオカってなんなの？",
            "",
            "",
            ""
          ],
          "isEmpty": 0,
          "isCommentOut": 0
        },
        {
          "rowIndex": 101,
          "strings": [
            "",
            "マジェコンヌ",
            "悲しみ",
            "",
            "",
            "",
            "",
            "",
            "なんだい、そんなことも知らないのかい",
            "",
            "",
            ""
          ],
          "isEmpty": 0,
          "isCommentOut": 0
        },
        {
          "rowIndex": 102,
          "strings": [
            "",
            "マジェコンヌ",
            "笑い",
            "",
            "",
            "",
            ".2",
            "",
            "タピオカってのはね、朝採りの新鮮なナスを\nよーく潰して練って丸めたものだよ",
            "",
            "",
            ""
          ],
          "isEmpty": 0,
          "isCommentOut": 0
        },
        {
          "rowIndex": 103,
          "strings": [
            "",
            "マジェコンヌ",
            "固有",
            "",
            "",
            "",
            ".2",
            "",
            "これがなかなか難しい職人技でね。\n長いこと修行してやっと店に出せるレベルに……",
            "Input",
            "",
            ""
          ],
          "isEmpty": 0,
          "isCommentOut": 0
        },
        {
          "rowIndex": 104,
          "strings": [
            "Selection",
            "*200705-3",
            "",
            "",
            "",
            "0",
            "350",
            "",
            "「タピオカって」",
            "",
            "",
            ""
          ],
          "isEmpty": 0,
          "isCommentOut": 0
        },
        {
          "rowIndex": 105,
          "strings": [
            "Selection",
            "*200705-3",
            "",
            "",
            "",
            "0",
            "200",
            "",
            "「そうやって作るんだ……」",
            "",
            "",
            ""
          ],
          "isEmpty": 0,
          "isCommentOut": 0
        },
        {
          "rowIndex": 106,
          "strings": [
            "*200705-3",
            "",
            "",
            "",
            "",
            "",
            "",
            "",
            "",
            "",
            "",
            ""
          ],
          "isEmpty": 0,
          "isCommentOut": 0
        },
        {
          "rowIndex": 107,
          "strings": [
            "CharacterOff",
            "",
            "",
            "",
            "",
            "",
            "0",
            "",
            "",
            "",
            "",
            ""
          ],
          "isEmpty": 0,
          "isCommentOut": 0
        },
        {
          "rowIndex": 108,
          "strings": [
            "Se",
            "NG音",
            "",
            "",
            "",
            "",
            "",
            "",
            "",
            "",
            "",
            ""
          ],
          "isEmpty": 0,
          "isCommentOut": 0
        },
        {
          "rowIndex": 109,
          "strings": [
            "Wait",
            "",
            "",
            "",
            "",
            "",
            ".2",
            "",
            "",
            "",
            "",
            ""
          ],
          "isEmpty": 0,
          "isCommentOut": 0
        },
        {
          "rowIndex": 110,
          "strings": [
            "Se",
            "NG音",
            "",
            "",
            "",
            "",
            "",
            "",
            "",
            "",
            "",
            ""
          ],
          "isEmpty": 0,
          "isCommentOut": 0
        },
        {
          "rowIndex": 111,
          "strings": [
            "",
            "",
            "",
            "",
            "",
            "",
            "",
            "",
            "※ちがいます",
            "",
            "",
            ""
          ],
          "isEmpty": 0,
          "isCommentOut": 0
        },
        {
          "rowIndex": 112,
          "strings": [
            "",
            "ネプテューヌサマー",
            "笑い",
            "",
            "",
            "",
            "",
            "",
            "そっかー、がんばって修行したんだね。\n",
            "Next",
            "",
            ""
          ],
          "isEmpty": 0,
          "isCommentOut": 0
        },
        {
          "rowIndex": 113,
          "strings": [
            "Wait",
            "",
            "",
            "",
            "",
            "",
            ".3",
            "",
            "",
            "",
            "",
            ""
          ],
          "isEmpty": 0,
          "isCommentOut": 0
        },
        {
          "rowIndex": 114,
          "strings": [
            "",
            "ネプテューヌサマー",
            "",
            "",
            "",
            "",
            "",
            "",
            "よし、じゃあ今からこの店を木っ端微塵にしよう",
            "",
            "",
            ""
          ],
          "isEmpty": 0,
          "isCommentOut": 0
        },
        {
          "rowIndex": 115,
          "strings": [
            "CharacterOff",
            "",
            "",
            "",
            "",
            "",
            "",
            "",
            "",
            "",
            "",
            ""
          ],
          "isEmpty": 0,
          "isCommentOut": 0
        },
        {
          "rowIndex": 116,
          "strings": [
            "",
            "マジェコンヌ",
            "悲しみ",
            "キャラ左",
            "",
            "",
            "",
            "",
            "",
            "",
            "",
            ""
          ],
          "isEmpty": 0,
          "isCommentOut": 0
        },
        {
          "rowIndex": 117,
          "strings": [
            "",
            "下っ端",
            "驚き",
            "キャラ右",
            "",
            "",
            "",
            "",
            "",
            "",
            "",
            ""
          ],
          "isEmpty": 0,
          "isCommentOut": 0
        },
        {
          "rowIndex": 118,
          "strings": [
            "Wait",
            "",
            "",
            "",
            "",
            "",
            ".5",
            "",
            "",
            "",
            "",
            ""
          ],
          "isEmpty": 0,
          "isCommentOut": 0
        },
        {
          "rowIndex": 119,
          "strings": [
            "Tween",
            "マジェコンヌ",
            "MoveTo",
            "x=0 y=40 islocal=true time=.1",
            "easeOutCirc",
            "pingPong=2",
            "",
            "Add",
            "",
            "",
            "",
            ""
          ],
          "isEmpty": 0,
          "isCommentOut": 0
        },
        {
          "rowIndex": 120,
          "strings": [
            "Tween",
            "下っ端",
            "MoveTo",
            "x=0 y=40 islocal=true time=.1",
            "easeOutCirc",
            "pingPong=2",
            "",
            "Add",
            "",
            "",
            "",
            ""
          ],
          "isEmpty": 0,
          "isCommentOut": 0
        },
        {
          "rowIndex": 121,
          "strings": [
            "SendMessageByName",
            "AdvEngine",
            "ChangeNoGrayOutCharacter",
            "マジェコンヌ,下っ端",
            "",
            "",
            "",
            "",
            "",
            "",
            "",
            ""
          ],
          "isEmpty": 0,
          "isCommentOut": 0
        },
        {
          "rowIndex": 122,
          "strings": [
            "",
            "マジェコンヌ・下っ端",
            "",
            "",
            "",
            "",
            "",
            "",
            "ひどい！",
            "",
            "",
            ""
          ],
          "isEmpty": 0,
          "isCommentOut": 0
        },
        {
          "rowIndex": 123,
          "strings": [
            "CharacterOff",
            "",
            "",
            "",
            "",
            "",
            "",
            "",
            "",
            "",
            "",
            ""
          ],
          "isEmpty": 0,
          "isCommentOut": 0
        },
        {
          "rowIndex": 124,
          "strings": [
            "",
            "クロワールサマー",
            "真剣",
            "",
            "",
            "",
            "",
            "",
            "落ち着け。",
            "Br",
            "",
            ""
          ],
          "isEmpty": 0,
          "isCommentOut": 0
        },
        {
          "rowIndex": 125,
          "strings": [
            "Wait",
            "",
            "",
            "",
            "",
            "",
            ".3",
            "",
            "",
            "",
            "",
            ""
          ],
          "isEmpty": 0,
          "isCommentOut": 0
        },
        {
          "rowIndex": 126,
          "strings": [
            "",
            "クロワールサマー",
            "悲しみ",
            "",
            "",
            "",
            ".2",
            "",
            "にしてもニッチな店だな。他にねーのかよ？",
            "",
            "",
            ""
          ],
          "isEmpty": 0,
          "isCommentOut": 0
        },
        {
          "rowIndex": 127,
          "strings": [
            "",
            "マジェコンヌ",
            "悲しみ",
            "",
            "",
            "",
            "",
            "",
            "あったが、売れちまったよ。\nあそこにいる客が全部買い上げたんだ",
            "",
            "",
            ""
          ],
          "isEmpty": 0,
          "isCommentOut": 0
        },
        {
          "rowIndex": 128,
          "strings": [
            "CharacterOff",
            "",
            "",
            "",
            "",
            "",
            "",
            "",
            "",
            "",
            "",
            ""
          ],
          "isEmpty": 0,
          "isCommentOut": 0
        },
        {
          "rowIndex": 129,
          "strings": [
            "",
            "ファングサマー",
            "笑い",
            "キャラ左",
            "",
            "",
            "",
            "",
            "",
            "",
            "",
            ""
          ],
          "isEmpty": 0,
          "isCommentOut": 0
        },
        {
          "rowIndex": 130,
          "strings": [
            "",
            "アリンサマー",
            "真剣",
            "キャラ右",
            "",
            "",
            "",
            "",
            "",
            "",
            "",
            ""
          ],
          "isEmpty": 0,
          "isCommentOut": 0
        },
        {
          "rowIndex": 131,
          "strings": [
            "",
            "ファングサマー",
            "",
            "",
            "",
            "",
            "",
            "",
            "おぉー！　うめぇぞこれ！",
            "",
            "",
            ""
          ],
          "isEmpty": 0,
          "isCommentOut": 0
        },
        {
          "rowIndex": 132,
          "strings": [
            "",
            "アリンサマー",
            "",
            "",
            "",
            "",
            "",
            "",
            "食べ過ぎだし、無駄にお金を使いすぎよファング",
            "",
            "",
            ""
          ],
          "isEmpty": 0,
          "isCommentOut": 0
        },
        {
          "rowIndex": 133,
          "strings": [
            "",
            "ファングサマー",
            "固有",
            "",
            "",
            "",
            ".2",
            "",
            "ビーチに来てまで、ケチくせぇこと言うなって。",
            "Br",
            "",
            ""
          ],
          "isEmpty": 0,
          "isCommentOut": 0
        },
        {
          "rowIndex": 134,
          "strings": [
            "Wait",
            "",
            "",
            "",
            "",
            "",
            ".3",
            "",
            "",
            "",
            "",
            ""
          ],
          "isEmpty": 0,
          "isCommentOut": 0
        },
        {
          "rowIndex": 135,
          "strings": [
            "",
            "ファングサマー",
            "笑い",
            "",
            "",
            "",
            ".2",
            "",
            "こういうのは楽しまねぇと",
            "",
            "",
            ""
          ],
          "isEmpty": 0,
          "isCommentOut": 0
        },
        {
          "rowIndex": 136,
          "strings": [
            "",
            "アリンサマー",
            "悲しみ",
            "",
            "",
            "",
            ".2",
            "",
            "いいから、もう行くわよ！\nこれじゃお金がいくらあっても足りやしないわ",
            "",
            "",
            ""
          ],
          "isEmpty": 0,
          "isCommentOut": 0
        },
        {
          "rowIndex": 137,
          "strings": [
            "CharacterOff",
            "",
            "",
            "",
            "",
            "",
            "",
            "",
            "",
            "",
            "",
            ""
          ],
          "isEmpty": 0,
          "isCommentOut": 0
        },
        {
          "rowIndex": 138,
          "strings": [
            "",
            "ネプテューヌサマー",
            "悲しみ",
            "キャラ左",
            "",
            "",
            "",
            "",
            "",
            "",
            "",
            ""
          ],
          "isEmpty": 0,
          "isCommentOut": 0
        },
        {
          "rowIndex": 139,
          "strings": [
            "",
            "クロワールサマー",
            "悲しみ",
            "キャラ右",
            "",
            "",
            "",
            "",
            "",
            "",
            "",
            ""
          ],
          "isEmpty": 0,
          "isCommentOut": 0
        },
        {
          "rowIndex": 140,
          "strings": [
            "",
            "クロワールサマー",
            "",
            "",
            "",
            "",
            "",
            "",
            "残ってないんじゃ、仕方ねーな。\n諦めてナス食うか",
            "",
            "",
            ""
          ],
          "isEmpty": 0,
          "isCommentOut": 0
        },
        {
          "rowIndex": 141,
          "strings": [
            "",
            "ネプテューヌサマー",
            "",
            "",
            "",
            "",
            "",
            "",
            "ぜーったい、嫌！",
            "",
            "",
            ""
          ],
          "isEmpty": 0,
          "isCommentOut": 0
        },
        {
          "rowIndex": 142,
          "strings": [
            "CharacterOff",
            "",
            "",
            "",
            "",
            "",
            "",
            "",
            "",
            "",
            "",
            ""
          ],
          "isEmpty": 0,
          "isCommentOut": 0
        },
        {
          "rowIndex": 143,
          "strings": [
            "",
            "下っ端",
            "固有",
            "",
            "",
            "",
            "",
            "",
            "",
            "",
            "",
            ""
          ],
          "isEmpty": 0,
          "isCommentOut": 0
        },
        {
          "rowIndex": 144,
          "strings": [
            "Wait",
            "",
            "",
            "",
            "",
            "",
            ".5",
            "",
            "",
            "",
            "",
            ""
          ],
          "isEmpty": 0,
          "isCommentOut": 0
        },
        {
          "rowIndex": 145,
          "strings": [
            "Tween",
            "下っ端",
            "MoveTo",
            "x=0 y=40 islocal=true time=.1",
            "easeOutCirc",
            "pingPong=2",
            "",
            "Add",
            "",
            "",
            "",
            ""
          ],
          "isEmpty": 0,
          "isCommentOut": 0
        },
        {
          "rowIndex": 146,
          "strings": [
            "",
            "下っ端",
            "",
            "",
            "",
            "",
            "",
            "",
            "ぴこーんと思いついた！",
            "",
            "",
            ""
          ],
          "isEmpty": 0,
          "isCommentOut": 0
        },
        {
          "rowIndex": 147,
          "strings": [
            "CharacterOff",
            "",
            "",
            "",
            "",
            "",
            "",
            "",
            "",
            "",
            "",
            ""
          ],
          "isEmpty": 0,
          "isCommentOut": 0
        },
        {
          "rowIndex": 148,
          "strings": [
            "",
            "ネプテューヌサマー",
            "悲しみ",
            "キャラ右",
            "",
            "",
            "",
            "",
            "",
            "",
            "",
            ""
          ],
          "isEmpty": 0,
          "isCommentOut": 0
        },
        {
          "rowIndex": 149,
          "strings": [
            "",
            "下っ端",
            "固有",
            "キャラ左",
            "",
            "",
            "1",
            "Add",
            "",
            "",
            "",
            ""
          ],
          "isEmpty": 0,
          "isCommentOut": 0
        },
        {
          "rowIndex": 150,
          "strings": [
            "Tween",
            "下っ端",
            "MoveFrom",
            "x=-100 y=0 islocal=true time=1",
            "easeOutQuad",
            "",
            "",
            "",
            "",
            "",
            "",
            ""
          ],
          "isEmpty": 0,
          "isCommentOut": 0
        },
        {
          "rowIndex": 151,
          "strings": [
            "",
            "下っ端",
            "固有",
            "",
            "",
            "",
            "",
            "",
            "まあまあそう言わずにナス食えよ。",
            "Br",
            "",
            ""
          ],
          "isEmpty": 0,
          "isCommentOut": 0
        },
        {
          "rowIndex": 152,
          "strings": [
            "Se",
            "踏み込み音",
            "",
            "",
            "",
            "",
            "",
            "",
            "",
            "",
            "",
            ""
          ],
          "isEmpty": 0,
          "isCommentOut": 0
        },
        {
          "rowIndex": 153,
          "strings": [
            "Tween",
            "下っ端",
            "MoveAdd",
            "x=500 y=0 time=.5",
            "",
            "",
            "",
            "Add",
            "",
            "",
            "",
            ""
          ],
          "isEmpty": 0,
          "isCommentOut": 0
        },
        {
          "rowIndex": 154,
          "strings": [
            "",
            "下っ端",
            "",
            "",
            "",
            "",
            "",
            "",
            "ほれ、ほれほれ、ほれほれほれほれほれほれ！",
            "",
            "",
            ""
          ],
          "isEmpty": 0,
          "isCommentOut": 0
        },
        {
          "rowIndex": 155,
          "strings": [
            "Tween",
            "ネプテューヌサマー",
            "ShakePosition",
            "x=10 islocal=true time=.3",
            "",
            "",
            "",
            "Add",
            "",
            "",
            "",
            ""
          ],
          "isEmpty": 0,
          "isCommentOut": 0
        },
        {
          "rowIndex": 156,
          "strings": [
            "",
            "ネプテューヌサマー",
            "真剣",
            "",
            "",
            "",
            ".2",
            "",
            "いやーっ！　ナスを近づけないでー！",
            "",
            "",
            ""
          ],
          "isEmpty": 0,
          "isCommentOut": 0
        },
        {
          "rowIndex": 157,
          "strings": [
            "Wait",
            "",
            "",
            "",
            "",
            "",
            ".5",
            "",
            "",
            "",
            "",
            ""
          ],
          "isEmpty": 0,
          "isCommentOut": 0
        },
        {
          "rowIndex": 158,
          "strings": [
            "",
            "下っ端",
            "笑い",
            "",
            "",
            "",
            ".2",
            "",
            "",
            "",
            "",
            ""
          ],
          "isEmpty": 0,
          "isCommentOut": 0
        },
        {
          "rowIndex": 159,
          "strings": [
            "Tween",
            "下っ端",
            "MoveAdd",
            "x=0 y=-10 time=.3",
            "",
            "",
            "",
            "",
            "",
            "",
            "",
            ""
          ],
          "isEmpty": 0,
          "isCommentOut": 0
        },
        {
          "rowIndex": 160,
          "strings": [
            "Tween",
            "下っ端",
            "MoveAdd",
            "x=0 y=10 time=.3",
            "",
            "",
            "",
            "Add",
            "",
            "",
            "",
            ""
          ],
          "isEmpty": 0,
          "isCommentOut": 0
        },
        {
          "rowIndex": 161,
          "strings": [
            "",
            "下っ端",
            "笑い",
            "",
            "",
            "",
            "",
            "",
            "わはははは！　日頃の鬱憤を晴らすチャーンス！",
            "",
            "",
            ""
          ],
          "isEmpty": 0,
          "isCommentOut": 0
        },
        {
          "rowIndex": 162,
          "strings": [
            "Tween",
            "ネプテューヌサマー",
            "ShakePosition",
            "x=10 islocal=true time=.3",
            "",
            "",
            "",
            "Add",
            "",
            "",
            "",
            ""
          ],
          "isEmpty": 0,
          "isCommentOut": 0
        },
        {
          "rowIndex": 163,
          "strings": [
            "",
            "ネプテューヌサマー",
            "悲しみ",
            "",
            "",
            "",
            "",
            "",
            "わーん、ナスやだー！",
            "",
            "",
            ""
          ],
          "isEmpty": 0,
          "isCommentOut": 0
        },
        {
          "rowIndex": 164,
          "strings": [
            "Se",
            "踏み込み音",
            "",
            "",
            "",
            "",
            "",
            "",
            "",
            "",
            "",
            ""
          ],
          "isEmpty": 0,
          "isCommentOut": 0
        },
        {
          "rowIndex": 165,
          "strings": [
            "Tween",
            "ネプテューヌサマー",
            "MoveAdd",
            "x=100 y=0 time=1",
            "easeOutQuad",
            "",
            "",
            "Add",
            "",
            "",
            "",
            ""
          ],
          "isEmpty": 0,
          "isCommentOut": 0
        },
        {
          "rowIndex": 166,
          "strings": [
            "CharacterOff",
            "ネプテューヌサマー",
            "",
            "",
            "",
            "",
            "1",
            "",
            "",
            "",
            "",
            ""
          ],
          "isEmpty": 0,
          "isCommentOut": 0
        },
        {
          "rowIndex": 167,
          "strings": [
            "Wait",
            "",
            "",
            "",
            "",
            "",
            ".5",
            "",
            "",
            "",
            "",
            ""
          ],
          "isEmpty": 0,
          "isCommentOut": 0
        },
        {
          "rowIndex": 168,
          "strings": [
            "CharacterOff",
            "",
            "",
            "",
            "",
            "",
            "",
            "",
            "",
            "",
            "",
            ""
          ],
          "isEmpty": 0,
          "isCommentOut": 0
        },
        {
          "rowIndex": 169,
          "strings": [
            "",
            "クロワールサマー",
            "悲しみ",
            "",
            "",
            "",
            "",
            "",
            "なにやってんだか……\nとりあえず、ナス食うか",
            "",
            "",
            ""
          ],
          "isEmpty": 0,
          "isCommentOut": 0
        },
        {
          "rowIndex": 170,
          "strings": [
            "FadeOut",
            "black",
            "",
            "",
            "",
            "",
            "1",
            "",
            "",
            "",
            "",
            ""
          ],
          "isEmpty": 0,
          "isCommentOut": 0
        },
        {
          "rowIndex": 171,
          "strings": [
            "Wait",
            "",
            "",
            "",
            "",
            "",
            ".3",
            "",
            "",
            "",
            "",
            ""
          ],
          "isEmpty": 0,
          "isCommentOut": 0
        },
        {
          "rowIndex": 172,
          "strings": [
            "EndScenario",
            "",
            "",
            "",
            "",
            "",
            "",
            "",
            "",
            "",
            "",
            ""
          ],
          "isEmpty": 0,
          "isCommentOut": 0
        }
      ],
      "name": "Assets/BundleResources/Data/Adventure/Event/Story2007/adv_200705.xls:200705",
      "type": 1,
      "textLength": 3989,
      "headerRow": 0,
      "entityIndexTbl": [],
      "entityDataList": []
    }
  ]
}