{
  "m_GameObject": {
    "m_FileID": 0,
    "m_PathID": 0
  },
  "m_Enabled": 1,
  "m_Script": {
    "m_FileID": 0,
    "m_PathID": -8016775561480030637
  },
  "m_Name": "adv_400401.chapter",
  "chapterName": "",
  "dataList": [
    {
      "m_FileID": 0,
      "m_PathID": -1911678715539373930
    }
  ],
  "settingList": [
    {
      "rows": [
        {
          "rowIndex": 0,
          "strings": [
            "CharacterName",
            "NameText",
            "Pattern",
            "X",
            "Y",
            "Z",
            "Pivot",
            "Scale",
            "Conditional",
            "BundlePath",
            "FileName",
            "SubFileName",
            "FileType",
            "Animation",
            "RenderTexture",
            "RenderRect",
            "EyeBlink",
            "LipSynch",
            "Icon",
            "IconSubFileName",
            "IconRect"
          ],
          "isEmpty": 0,
          "isCommentOut": 0
        },
        {
          "rowIndex": 1,
          "strings": [
            "ネプテューヌ",
            "",
            "通常",
            "",
            "-100",
            "",
            "",
            "",
            "",
            "texture/character/stand/1010100_stand",
            "1010100_stand.asset",
            "1010100_stand_01",
            "Dicing"
          ],
          "isEmpty": 0,
          "isCommentOut": 0
        },
        {
          "rowIndex": 2,
          "strings": [
            "//",
            "",
            "目閉じ",
            "",
            "-100",
            "",
            "",
            "",
            "",
            "texture/character/stand/1010100_stand",
            "1010100_stand.asset",
            "1010100_stand_02",
            "Dicing"
          ],
          "isEmpty": 0,
          "isCommentOut": 1
        },
        {
          "rowIndex": 3,
          "strings": [
            "",
            "",
            "真剣",
            "",
            "-100",
            "",
            "",
            "",
            "",
            "texture/character/stand/1010100_stand",
            "1010100_stand.asset",
            "1010100_stand_03",
            "Dicing"
          ],
          "isEmpty": 0,
          "isCommentOut": 0
        },
        {
          "rowIndex": 4,
          "strings": [
            "",
            "",
            "笑い",
            "",
            "-100",
            "",
            "",
            "",
            "",
            "texture/character/stand/1010100_stand",
            "1010100_stand.asset",
            "1010100_stand_04",
            "Dicing"
          ],
          "isEmpty": 0,
          "isCommentOut": 0
        },
        {
          "rowIndex": 5,
          "strings": [
            "",
            "",
            "悲しみ",
            "",
            "-100",
            "",
            "",
            "",
            "",
            "texture/character/stand/1010100_stand",
            "1010100_stand.asset",
            "1010100_stand_05",
            "Dicing"
          ],
          "isEmpty": 0,
          "isCommentOut": 0
        },
        {
          "rowIndex": 6,
          "strings": [
            "",
            "",
            "照れ",
            "",
            "-100",
            "",
            "",
            "",
            "",
            "texture/character/stand/1010100_stand",
            "1010100_stand.asset",
            "1010100_stand_06",
            "Dicing"
          ],
          "isEmpty": 0,
          "isCommentOut": 0
        },
        {
          "rowIndex": 7,
          "strings": [
            "",
            "",
            "固有",
            "",
            "-100",
            "",
            "",
            "",
            "",
            "texture/character/stand/1010100_stand",
            "1010100_stand.asset",
            "1010100_stand_07",
            "Dicing"
          ],
          "isEmpty": 0,
          "isCommentOut": 0
        },
        {
          "rowIndex": 8,
          "strings": [
            "ノワール",
            "",
            "通常",
            "",
            "-50",
            "",
            "",
            "",
            "",
            "texture/character/stand/1010200_stand",
            "1010200_stand.asset",
            "1010200_stand_01",
            "Dicing"
          ],
          "isEmpty": 0,
          "isCommentOut": 0
        },
        {
          "rowIndex": 9,
          "strings": [
            "",
            "",
            "目閉じ",
            "",
            "-50",
            "",
            "",
            "",
            "",
            "texture/character/stand/1010200_stand",
            "1010200_stand.asset",
            "1010200_stand_02",
            "Dicing"
          ],
          "isEmpty": 0,
          "isCommentOut": 0
        },
        {
          "rowIndex": 10,
          "strings": [
            "",
            "",
            "真剣",
            "",
            "-50",
            "",
            "",
            "",
            "",
            "texture/character/stand/1010200_stand",
            "1010200_stand.asset",
            "1010200_stand_03",
            "Dicing"
          ],
          "isEmpty": 0,
          "isCommentOut": 0
        },
        {
          "rowIndex": 11,
          "strings": [
            "",
            "",
            "笑い",
            "",
            "-50",
            "",
            "",
            "",
            "",
            "texture/character/stand/1010200_stand",
            "1010200_stand.asset",
            "1010200_stand_04",
            "Dicing"
          ],
          "isEmpty": 0,
          "isCommentOut": 0
        },
        {
          "rowIndex": 12,
          "strings": [
            "",
            "",
            "悲しみ",
            "",
            "-50",
            "",
            "",
            "",
            "",
            "texture/character/stand/1010200_stand",
            "1010200_stand.asset",
            "1010200_stand_05",
            "Dicing"
          ],
          "isEmpty": 0,
          "isCommentOut": 0
        },
        {
          "rowIndex": 13,
          "strings": [
            "",
            "",
            "照れ",
            "",
            "-50",
            "",
            "",
            "",
            "",
            "texture/character/stand/1010200_stand",
            "1010200_stand.asset",
            "1010200_stand_06",
            "Dicing"
          ],
          "isEmpty": 0,
          "isCommentOut": 0
        },
        {
          "rowIndex": 14,
          "strings": [
            "",
            "",
            "固有",
            "",
            "-50",
            "",
            "",
            "",
            "",
            "texture/character/stand/1010200_stand",
            "1010200_stand.asset",
            "1010200_stand_07",
            "Dicing"
          ],
          "isEmpty": 0,
          "isCommentOut": 0
        },
        {
          "rowIndex": 15,
          "strings": [
            "ブラン",
            "",
            "通常",
            "",
            "-100",
            "",
            "",
            "",
            "",
            "texture/character/stand/1010300_stand",
            "1010300_stand.asset",
            "1010300_stand_01",
            "Dicing"
          ],
          "isEmpty": 0,
          "isCommentOut": 0
        },
        {
          "rowIndex": 16,
          "strings": [
            "",
            "",
            "目閉じ",
            "",
            "-100",
            "",
            "",
            "",
            "",
            "texture/character/stand/1010300_stand",
            "1010300_stand.asset",
            "1010300_stand_02",
            "Dicing"
          ],
          "isEmpty": 0,
          "isCommentOut": 0
        },
        {
          "rowIndex": 17,
          "strings": [
            "",
            "",
            "真剣",
            "",
            "-100",
            "",
            "",
            "",
            "",
            "texture/character/stand/1010300_stand",
            "1010300_stand.asset",
            "1010300_stand_03",
            "Dicing"
          ],
          "isEmpty": 0,
          "isCommentOut": 0
        },
        {
          "rowIndex": 18,
          "strings": [
            "",
            "",
            "笑い",
            "",
            "-100",
            "",
            "",
            "",
            "",
            "texture/character/stand/1010300_stand",
            "1010300_stand.asset",
            "1010300_stand_04",
            "Dicing"
          ],
          "isEmpty": 0,
          "isCommentOut": 0
        },
        {
          "rowIndex": 19,
          "strings": [
            "",
            "",
            "悲しみ",
            "",
            "-100",
            "",
            "",
            "",
            "",
            "texture/character/stand/1010300_stand",
            "1010300_stand.asset",
            "1010300_stand_05",
            "Dicing"
          ],
          "isEmpty": 0,
          "isCommentOut": 0
        },
        {
          "rowIndex": 20,
          "strings": [
            "",
            "",
            "照れ",
            "",
            "-100",
            "",
            "",
            "",
            "",
            "texture/character/stand/1010300_stand",
            "1010300_stand.asset",
            "1010300_stand_06",
            "Dicing"
          ],
          "isEmpty": 0,
          "isCommentOut": 0
        },
        {
          "rowIndex": 21,
          "strings": [
            "",
            "",
            "固有",
            "",
            "-100",
            "",
            "",
            "",
            "",
            "texture/character/stand/1010300_stand",
            "1010300_stand.asset",
            "1010300_stand_07",
            "Dicing"
          ],
          "isEmpty": 0,
          "isCommentOut": 0
        },
        {
          "rowIndex": 22,
          "strings": [
            "ベール",
            "",
            "通常",
            "",
            "0",
            "",
            "",
            "",
            "",
            "texture/character/stand/1010400_stand",
            "1010400_stand.asset",
            "1010400_stand_01",
            "Dicing"
          ],
          "isEmpty": 0,
          "isCommentOut": 0
        },
        {
          "rowIndex": 23,
          "strings": [
            "",
            "",
            "目閉じ",
            "",
            "0",
            "",
            "",
            "",
            "",
            "texture/character/stand/1010400_stand",
            "1010400_stand.asset",
            "1010400_stand_02",
            "Dicing"
          ],
          "isEmpty": 0,
          "isCommentOut": 0
        },
        {
          "rowIndex": 24,
          "strings": [
            "",
            "",
            "真剣",
            "",
            "0",
            "",
            "",
            "",
            "",
            "texture/character/stand/1010400_stand",
            "1010400_stand.asset",
            "1010400_stand_03",
            "Dicing"
          ],
          "isEmpty": 0,
          "isCommentOut": 0
        },
        {
          "rowIndex": 25,
          "strings": [
            "",
            "",
            "笑い",
            "",
            "0",
            "",
            "",
            "",
            "",
            "texture/character/stand/1010400_stand",
            "1010400_stand.asset",
            "1010400_stand_04",
            "Dicing"
          ],
          "isEmpty": 0,
          "isCommentOut": 0
        },
        {
          "rowIndex": 26,
          "strings": [
            "",
            "",
            "悲しみ",
            "",
            "0",
            "",
            "",
            "",
            "",
            "texture/character/stand/1010400_stand",
            "1010400_stand.asset",
            "1010400_stand_05",
            "Dicing"
          ],
          "isEmpty": 0,
          "isCommentOut": 0
        },
        {
          "rowIndex": 27,
          "strings": [
            "",
            "",
            "照れ",
            "",
            "0",
            "",
            "",
            "",
            "",
            "texture/character/stand/1010400_stand",
            "1010400_stand.asset",
            "1010400_stand_06",
            "Dicing"
          ],
          "isEmpty": 0,
          "isCommentOut": 0
        },
        {
          "rowIndex": 28,
          "strings": [
            "",
            "",
            "固有",
            "",
            "0",
            "",
            "",
            "",
            "",
            "texture/character/stand/1010400_stand",
            "1010400_stand.asset",
            "1010400_stand_07",
            "Dicing"
          ],
          "isEmpty": 0,
          "isCommentOut": 0
        },
        {
          "rowIndex": 29,
          "strings": [
            "アイエフ",
            "",
            "通常",
            "",
            "-50",
            "",
            "",
            "",
            "",
            "texture/character/stand/1010900_stand",
            "1010900_stand.asset",
            "1010900_stand_01",
            "Dicing"
          ],
          "isEmpty": 0,
          "isCommentOut": 0
        },
        {
          "rowIndex": 30,
          "strings": [
            "",
            "",
            "目閉じ",
            "",
            "-50",
            "",
            "",
            "",
            "",
            "texture/character/stand/1010900_stand",
            "1010900_stand.asset",
            "1010900_stand_02",
            "Dicing"
          ],
          "isEmpty": 0,
          "isCommentOut": 0
        },
        {
          "rowIndex": 31,
          "strings": [
            "",
            "",
            "真剣",
            "",
            "-50",
            "",
            "",
            "",
            "",
            "texture/character/stand/1010900_stand",
            "1010900_stand.asset",
            "1010900_stand_03",
            "Dicing"
          ],
          "isEmpty": 0,
          "isCommentOut": 0
        },
        {
          "rowIndex": 32,
          "strings": [
            "",
            "",
            "笑い",
            "",
            "-50",
            "",
            "",
            "",
            "",
            "texture/character/stand/1010900_stand",
            "1010900_stand.asset",
            "1010900_stand_04",
            "Dicing"
          ],
          "isEmpty": 0,
          "isCommentOut": 0
        },
        {
          "rowIndex": 33,
          "strings": [
            "",
            "",
            "悲しみ",
            "",
            "-50",
            "",
            "",
            "",
            "",
            "texture/character/stand/1010900_stand",
            "1010900_stand.asset",
            "1010900_stand_05",
            "Dicing"
          ],
          "isEmpty": 0,
          "isCommentOut": 0
        },
        {
          "rowIndex": 34,
          "strings": [
            "",
            "",
            "照れ",
            "",
            "-50",
            "",
            "",
            "",
            "",
            "texture/character/stand/1010900_stand",
            "1010900_stand.asset",
            "1010900_stand_06",
            "Dicing"
          ],
          "isEmpty": 0,
          "isCommentOut": 0
        },
        {
          "rowIndex": 35,
          "strings": [
            "",
            "",
            "固有",
            "",
            "-50",
            "",
            "",
            "",
            "",
            "texture/character/stand/1010900_stand",
            "1010900_stand.asset",
            "1010900_stand_07",
            "Dicing"
          ],
          "isEmpty": 0,
          "isCommentOut": 0
        },
        {
          "rowIndex": 36,
          "strings": [
            "コンパ",
            "",
            "通常",
            "",
            "-50",
            "",
            "",
            "",
            "",
            "texture/character/stand/1011000_stand",
            "1011000_stand.asset",
            "1011000_stand_01",
            "Dicing"
          ],
          "isEmpty": 0,
          "isCommentOut": 0
        },
        {
          "rowIndex": 37,
          "strings": [
            "",
            "",
            "目閉じ",
            "",
            "-50",
            "",
            "",
            "",
            "",
            "texture/character/stand/1011000_stand",
            "1011000_stand.asset",
            "1011000_stand_02",
            "Dicing"
          ],
          "isEmpty": 0,
          "isCommentOut": 0
        },
        {
          "rowIndex": 38,
          "strings": [
            "",
            "",
            "真剣",
            "",
            "-50",
            "",
            "",
            "",
            "",
            "texture/character/stand/1011000_stand",
            "1011000_stand.asset",
            "1011000_stand_03",
            "Dicing"
          ],
          "isEmpty": 0,
          "isCommentOut": 0
        },
        {
          "rowIndex": 39,
          "strings": [
            "",
            "",
            "笑い",
            "",
            "-50",
            "",
            "",
            "",
            "",
            "texture/character/stand/1011000_stand",
            "1011000_stand.asset",
            "1011000_stand_04",
            "Dicing"
          ],
          "isEmpty": 0,
          "isCommentOut": 0
        },
        {
          "rowIndex": 40,
          "strings": [
            "",
            "",
            "悲しみ",
            "",
            "-50",
            "",
            "",
            "",
            "",
            "texture/character/stand/1011000_stand",
            "1011000_stand.asset",
            "1011000_stand_05",
            "Dicing"
          ],
          "isEmpty": 0,
          "isCommentOut": 0
        },
        {
          "rowIndex": 41,
          "strings": [
            "",
            "",
            "照れ",
            "",
            "-50",
            "",
            "",
            "",
            "",
            "texture/character/stand/1011000_stand",
            "1011000_stand.asset",
            "1011000_stand_06",
            "Dicing"
          ],
          "isEmpty": 0,
          "isCommentOut": 0
        },
        {
          "rowIndex": 42,
          "strings": [
            "",
            "",
            "固有",
            "",
            "-50",
            "",
            "",
            "",
            "",
            "texture/character/stand/1011000_stand",
            "1011000_stand.asset",
            "1011000_stand_07",
            "Dicing"
          ],
          "isEmpty": 0,
          "isCommentOut": 0
        },
        {
          "rowIndex": 43,
          "strings": [
            "ネプギア",
            "",
            "通常",
            "",
            "-100",
            "",
            "",
            "",
            "",
            "texture/character/stand/1020100_stand",
            "1020100_stand.asset",
            "1020100_stand_01",
            "Dicing"
          ],
          "isEmpty": 0,
          "isCommentOut": 0
        },
        {
          "rowIndex": 44,
          "strings": [
            "",
            "",
            "目閉じ",
            "",
            "-100",
            "",
            "",
            "",
            "",
            "texture/character/stand/1020100_stand",
            "1020100_stand.asset",
            "1020100_stand_02",
            "Dicing"
          ],
          "isEmpty": 0,
          "isCommentOut": 0
        },
        {
          "rowIndex": 45,
          "strings": [
            "",
            "",
            "真剣",
            "",
            "-100",
            "",
            "",
            "",
            "",
            "texture/character/stand/1020100_stand",
            "1020100_stand.asset",
            "1020100_stand_03",
            "Dicing"
          ],
          "isEmpty": 0,
          "isCommentOut": 0
        },
        {
          "rowIndex": 46,
          "strings": [
            "",
            "",
            "笑い",
            "",
            "-100",
            "",
            "",
            "",
            "",
            "texture/character/stand/1020100_stand",
            "1020100_stand.asset",
            "1020100_stand_04",
            "Dicing"
          ],
          "isEmpty": 0,
          "isCommentOut": 0
        },
        {
          "rowIndex": 47,
          "strings": [
            "",
            "",
            "悲しみ",
            "",
            "-100",
            "",
            "",
            "",
            "",
            "texture/character/stand/1020100_stand",
            "1020100_stand.asset",
            "1020100_stand_05",
            "Dicing"
          ],
          "isEmpty": 0,
          "isCommentOut": 0
        },
        {
          "rowIndex": 48,
          "strings": [
            "",
            "",
            "照れ",
            "",
            "-100",
            "",
            "",
            "",
            "",
            "texture/character/stand/1020100_stand",
            "1020100_stand.asset",
            "1020100_stand_06",
            "Dicing"
          ],
          "isEmpty": 0,
          "isCommentOut": 0
        },
        {
          "rowIndex": 49,
          "strings": [
            "",
            "",
            "固有",
            "",
            "-100",
            "",
            "",
            "",
            "",
            "texture/character/stand/1020100_stand",
            "1020100_stand.asset",
            "1020100_stand_07",
            "Dicing"
          ],
          "isEmpty": 0,
          "isCommentOut": 0
        },
        {
          "rowIndex": 50,
          "strings": [
            "ユニ",
            "",
            "通常",
            "",
            "-100",
            "",
            "",
            "",
            "",
            "texture/character/stand/1020200_stand",
            "1020200_stand.asset",
            "1020200_stand_01",
            "Dicing"
          ],
          "isEmpty": 0,
          "isCommentOut": 0
        },
        {
          "rowIndex": 51,
          "strings": [
            "",
            "",
            "目閉じ",
            "",
            "-100",
            "",
            "",
            "",
            "",
            "texture/character/stand/1020200_stand",
            "1020200_stand.asset",
            "1020200_stand_02",
            "Dicing"
          ],
          "isEmpty": 0,
          "isCommentOut": 0
        },
        {
          "rowIndex": 52,
          "strings": [
            "",
            "",
            "真剣",
            "",
            "-100",
            "",
            "",
            "",
            "",
            "texture/character/stand/1020200_stand",
            "1020200_stand.asset",
            "1020200_stand_03",
            "Dicing"
          ],
          "isEmpty": 0,
          "isCommentOut": 0
        },
        {
          "rowIndex": 53,
          "strings": [
            "",
            "",
            "笑い",
            "",
            "-100",
            "",
            "",
            "",
            "",
            "texture/character/stand/1020200_stand",
            "1020200_stand.asset",
            "1020200_stand_04",
            "Dicing"
          ],
          "isEmpty": 0,
          "isCommentOut": 0
        },
        {
          "rowIndex": 54,
          "strings": [
            "",
            "",
            "悲しみ",
            "",
            "-100",
            "",
            "",
            "",
            "",
            "texture/character/stand/1020200_stand",
            "1020200_stand.asset",
            "1020200_stand_05",
            "Dicing"
          ],
          "isEmpty": 0,
          "isCommentOut": 0
        },
        {
          "rowIndex": 55,
          "strings": [
            "",
            "",
            "照れ",
            "",
            "-100",
            "",
            "",
            "",
            "",
            "texture/character/stand/1020200_stand",
            "1020200_stand.asset",
            "1020200_stand_06",
            "Dicing"
          ],
          "isEmpty": 0,
          "isCommentOut": 0
        },
        {
          "rowIndex": 56,
          "strings": [
            "",
            "",
            "固有",
            "",
            "-100",
            "",
            "",
            "",
            "",
            "texture/character/stand/1020200_stand",
            "1020200_stand.asset",
            "1020200_stand_07",
            "Dicing"
          ],
          "isEmpty": 0,
          "isCommentOut": 0
        },
        {
          "rowIndex": 57,
          "strings": [
            "ロム",
            "",
            "通常",
            "",
            "-150",
            "",
            "",
            "",
            "",
            "texture/character/stand/1020300_stand",
            "1020300_stand.asset",
            "1020300_stand_01",
            "Dicing"
          ],
          "isEmpty": 0,
          "isCommentOut": 0
        },
        {
          "rowIndex": 58,
          "strings": [
            "",
            "",
            "目閉じ",
            "",
            "-150",
            "",
            "",
            "",
            "",
            "texture/character/stand/1020300_stand",
            "1020300_stand.asset",
            "1020300_stand_02",
            "Dicing"
          ],
          "isEmpty": 0,
          "isCommentOut": 0
        },
        {
          "rowIndex": 59,
          "strings": [
            "",
            "",
            "真剣",
            "",
            "-150",
            "",
            "",
            "",
            "",
            "texture/character/stand/1020300_stand",
            "1020300_stand.asset",
            "1020300_stand_03",
            "Dicing"
          ],
          "isEmpty": 0,
          "isCommentOut": 0
        },
        {
          "rowIndex": 60,
          "strings": [
            "",
            "",
            "笑い",
            "",
            "-150",
            "",
            "",
            "",
            "",
            "texture/character/stand/1020300_stand",
            "1020300_stand.asset",
            "1020300_stand_04",
            "Dicing"
          ],
          "isEmpty": 0,
          "isCommentOut": 0
        },
        {
          "rowIndex": 61,
          "strings": [
            "",
            "",
            "悲しみ",
            "",
            "-150",
            "",
            "",
            "",
            "",
            "texture/character/stand/1020300_stand",
            "1020300_stand.asset",
            "1020300_stand_05",
            "Dicing"
          ],
          "isEmpty": 0,
          "isCommentOut": 0
        },
        {
          "rowIndex": 62,
          "strings": [
            "",
            "",
            "照れ",
            "",
            "-150",
            "",
            "",
            "",
            "",
            "texture/character/stand/1020300_stand",
            "1020300_stand.asset",
            "1020300_stand_06",
            "Dicing"
          ],
          "isEmpty": 0,
          "isCommentOut": 0
        },
        {
          "rowIndex": 63,
          "strings": [
            "",
            "",
            "固有",
            "",
            "-150",
            "",
            "",
            "",
            "",
            "texture/character/stand/1020300_stand",
            "1020300_stand.asset",
            "1020300_stand_07",
            "Dicing"
          ],
          "isEmpty": 0,
          "isCommentOut": 0
        },
        {
          "rowIndex": 64,
          "strings": [
            "ラム",
            "",
            "通常",
            "",
            "-150",
            "",
            "",
            "",
            "",
            "texture/character/stand/1020400_stand",
            "1020400_stand.asset",
            "1020400_stand_01",
            "Dicing"
          ],
          "isEmpty": 0,
          "isCommentOut": 0
        },
        {
          "rowIndex": 65,
          "strings": [
            "",
            "",
            "目閉じ",
            "",
            "-150",
            "",
            "",
            "",
            "",
            "texture/character/stand/1020400_stand",
            "1020400_stand.asset",
            "1020400_stand_02",
            "Dicing"
          ],
          "isEmpty": 0,
          "isCommentOut": 0
        },
        {
          "rowIndex": 66,
          "strings": [
            "",
            "",
            "真剣",
            "",
            "-150",
            "",
            "",
            "",
            "",
            "texture/character/stand/1020400_stand",
            "1020400_stand.asset",
            "1020400_stand_03",
            "Dicing"
          ],
          "isEmpty": 0,
          "isCommentOut": 0
        },
        {
          "rowIndex": 67,
          "strings": [
            "",
            "",
            "笑い",
            "",
            "-150",
            "",
            "",
            "",
            "",
            "texture/character/stand/1020400_stand",
            "1020400_stand.asset",
            "1020400_stand_04",
            "Dicing"
          ],
          "isEmpty": 0,
          "isCommentOut": 0
        },
        {
          "rowIndex": 68,
          "strings": [
            "",
            "",
            "悲しみ",
            "",
            "-150",
            "",
            "",
            "",
            "",
            "texture/character/stand/1020400_stand",
            "1020400_stand.asset",
            "1020400_stand_05",
            "Dicing"
          ],
          "isEmpty": 0,
          "isCommentOut": 0
        },
        {
          "rowIndex": 69,
          "strings": [
            "",
            "",
            "照れ",
            "",
            "-150",
            "",
            "",
            "",
            "",
            "texture/character/stand/1020400_stand",
            "1020400_stand.asset",
            "1020400_stand_06",
            "Dicing"
          ],
          "isEmpty": 0,
          "isCommentOut": 0
        },
        {
          "rowIndex": 70,
          "strings": [
            "",
            "",
            "固有",
            "",
            "-150",
            "",
            "",
            "",
            "",
            "texture/character/stand/1020400_stand",
            "1020400_stand.asset",
            "1020400_stand_07",
            "Dicing"
          ],
          "isEmpty": 0,
          "isCommentOut": 0
        },
        {
          "rowIndex": 71,
          "strings": [
            "イストワール",
            "",
            "通常",
            "",
            "-50",
            "",
            "",
            "",
            "",
            "texture/character/stand/1011200_stand",
            "1011200_stand.asset",
            "1011200_stand_01",
            "Dicing"
          ],
          "isEmpty": 0,
          "isCommentOut": 0
        },
        {
          "rowIndex": 72,
          "strings": [
            "",
            "",
            "目閉じ",
            "",
            "-50",
            "",
            "",
            "",
            "",
            "texture/character/stand/1011200_stand",
            "1011200_stand.asset",
            "1011200_stand_02",
            "Dicing"
          ],
          "isEmpty": 0,
          "isCommentOut": 0
        },
        {
          "rowIndex": 73,
          "strings": [
            "",
            "",
            "真剣",
            "",
            "-50",
            "",
            "",
            "",
            "",
            "texture/character/stand/1011200_stand",
            "1011200_stand.asset",
            "1011200_stand_03",
            "Dicing"
          ],
          "isEmpty": 0,
          "isCommentOut": 0
        },
        {
          "rowIndex": 74,
          "strings": [
            "",
            "",
            "笑い",
            "",
            "-50",
            "",
            "",
            "",
            "",
            "texture/character/stand/1011200_stand",
            "1011200_stand.asset",
            "1011200_stand_04",
            "Dicing"
          ],
          "isEmpty": 0,
          "isCommentOut": 0
        },
        {
          "rowIndex": 75,
          "strings": [
            "",
            "",
            "悲しみ",
            "",
            "-50",
            "",
            "",
            "",
            "",
            "texture/character/stand/1011200_stand",
            "1011200_stand.asset",
            "1011200_stand_05",
            "Dicing"
          ],
          "isEmpty": 0,
          "isCommentOut": 0
        },
        {
          "rowIndex": 76,
          "strings": [
            "//",
            "",
            "照れ",
            "",
            "-50",
            "",
            "",
            "",
            "",
            "texture/character/stand/1011200_stand",
            "1011200_stand.asset",
            "1011200_stand_06",
            "Dicing"
          ],
          "isEmpty": 0,
          "isCommentOut": 1
        },
        {
          "rowIndex": 77,
          "strings": [
            "",
            "",
            "固有",
            "",
            "-50",
            "",
            "",
            "",
            "",
            "texture/character/stand/1011200_stand",
            "1011200_stand.asset",
            "1011200_stand_07",
            "Dicing"
          ],
          "isEmpty": 0,
          "isCommentOut": 0
        },
        {
          "rowIndex": 78,
          "strings": [
            "",
            "",
            "",
            "",
            "",
            "",
            "",
            "",
            "",
            "",
            "",
            "",
            ""
          ],
          "isEmpty": 1,
          "isCommentOut": 0
        }
      ],
      "name": "Assets/BundleResources/Data/Adventure/Scenequest/Story4004/adv_400401.xls:Character",
      "type": 1,
      "textLength": 6648,
      "headerRow": 0
    },
    {
      "rows": [
        {
          "rowIndex": 0,
          "strings": [
            "Label",
            "Title",
            "Type",
            "BundlePath",
            "FileName",
            "IntroTime",
            "Volume",
            "Comment"
          ],
          "isEmpty": 0,
          "isCommentOut": 0
        },
        {
          "rowIndex": 1,
          "strings": [
            "//BGM",
            "",
            "",
            "",
            "",
            "",
            "",
            ""
          ],
          "isEmpty": 0,
          "isCommentOut": 1
        },
        {
          "rowIndex": 2,
          "strings": [
            "ADV通常",
            "",
            "Bgm",
            "sound/bgm/adventure/bgm_adv_general",
            "bgm_adv_general.wav",
            "",
            "",
            "既存BGM113"
          ],
          "isEmpty": 0,
          "isCommentOut": 0
        },
        {
          "rowIndex": 3,
          "strings": [
            "//SE",
            "",
            "",
            "",
            "",
            "",
            "",
            ""
          ],
          "isEmpty": 0,
          "isCommentOut": 1
        },
        {
          "rowIndex": 4,
          "strings": [
            ""
          ],
          "isEmpty": 1,
          "isCommentOut": 0
        }
      ],
      "name": "Assets/BundleResources/Data/Adventure/Scenequest/Story4004/adv_400401.xls:Sound",
      "type": 1,
      "textLength": 133,
      "headerRow": 0
    },
    {
      "rows": [
        {
          "rowIndex": 0,
          "strings": [
            "Label",
            "Type",
            "X",
            "Y",
            "Z",
            "Pivot",
            "Scale",
            "Conditional",
            "BundlePath",
            "FileName",
            "FileType",
            "SubFileName",
            "Animation",
            "RenderTexture",
            "RenderRect",
            "Thumbnail",
            "CgCategolly",
            "元画像名"
          ],
          "isEmpty": 0,
          "isCommentOut": 0
        },
        {
          "rowIndex": 1,
          "strings": [
            "//背景",
            "",
            "",
            "",
            "",
            "",
            "",
            "",
            "",
            ""
          ],
          "isEmpty": 0,
          "isCommentOut": 1
        },
        {
          "rowIndex": 2,
          "strings": [
            "背景(黒)",
            "Bg",
            "",
            "",
            "",
            "",
            "x=1.25 y=0.9375",
            "",
            "texture/background/bg_007_ll",
            "bg_007_LL.png",
            "",
            "",
            "",
            "",
            "",
            "",
            "01_0048.png"
          ],
          "isEmpty": 0,
          "isCommentOut": 0
        },
        {
          "rowIndex": 3,
          "strings": [
            "背景(白)",
            "Bg",
            "",
            "",
            "",
            "",
            "x=1.25 y=0.9375",
            "",
            "texture/background/bg_022_ll",
            "bg_022_LL.png"
          ],
          "isEmpty": 0,
          "isCommentOut": 0
        },
        {
          "rowIndex": 4,
          "strings": [
            "背景(ネプテューヌとネプギアの部屋)",
            "Bg",
            "",
            "",
            "",
            "",
            "x=1.25 y=0.9375",
            "",
            "texture/background/bg_027_ll",
            "bg_027_LL.png"
          ],
          "isEmpty": 0,
          "isCommentOut": 0
        },
        {
          "rowIndex": 5,
          "strings": [
            "//",
            "",
            "",
            "",
            "",
            "",
            "",
            "",
            "",
            ""
          ],
          "isEmpty": 0,
          "isCommentOut": 1
        }
      ],
      "name": "Assets/BundleResources/Data/Adventure/Scenequest/Story4004/adv_400401.xls:Texture",
      "type": 1,
      "textLength": 345,
      "headerRow": 0
    },
    {
      "rows": [
        {
          "rowIndex": 0,
          "strings": [
            "LayerName",
            "Type",
            "X",
            "Y",
            "Order",
            "LayerMask",
            "ScaleX",
            "ScaleY",
            "FlipX",
            "FlipY",
            "Width",
            "Height",
            "BorderLeft",
            "BorderRight",
            "BorderTop",
            "BorderBottom",
            "Align"
          ],
          "isEmpty": 0,
          "isCommentOut": 0
        },
        {
          "rowIndex": 1,
          "strings": [
            "キャラ中央",
            "Character",
            "0",
            "0",
            "1",
            "",
            "",
            "",
            "",
            "",
            "",
            "",
            "",
            "",
            "",
            "0"
          ],
          "isEmpty": 0,
          "isCommentOut": 0
        },
        {
          "rowIndex": 2,
          "strings": [
            "キャラ左",
            "Character",
            "-350",
            "0",
            "2",
            "",
            "",
            "",
            "",
            "",
            "",
            "",
            "",
            "",
            "",
            "0"
          ],
          "isEmpty": 0,
          "isCommentOut": 0
        },
        {
          "rowIndex": 3,
          "strings": [
            "キャラ右",
            "Character",
            "350",
            "0",
            "3",
            "",
            "",
            "",
            "",
            "",
            "",
            "",
            "",
            "",
            "",
            "0"
          ],
          "isEmpty": 0,
          "isCommentOut": 0
        },
        {
          "rowIndex": 4,
          "strings": [
            "背景",
            "Bg",
            "0",
            "0",
            "0"
          ],
          "isEmpty": 0,
          "isCommentOut": 0
        },
        {
          "rowIndex": 5,
          "strings": [],
          "isEmpty": 1,
          "isCommentOut": 0
        },
        {
          "rowIndex": 6,
          "strings": [
            "フェードレイヤー",
            "Sprite",
            "0",
            "0",
            "150"
          ],
          "isEmpty": 0,
          "isCommentOut": 0
        },
        {
          "rowIndex": 7,
          "strings": [
            "スプライトレイヤー",
            "Sprite",
            "0",
            "0",
            "151"
          ],
          "isEmpty": 0,
          "isCommentOut": 0
        },
        {
          "rowIndex": 8,
          "strings": [
            "キャプチャ画像レイヤー",
            "Sprite",
            "0",
            "0",
            "500"
          ],
          "isEmpty": 0,
          "isCommentOut": 0
        }
      ],
      "name": "Assets/BundleResources/Data/Adventure/Scenequest/Story4004/adv_400401.xls:Layer",
      "type": 1,
      "textLength": 234,
      "headerRow": 0
    },
    {
      "rows": [
        {
          "rowIndex": 0,
          "strings": [
            "Label",
            "Type",
            "Value",
            "FileType"
          ],
          "isEmpty": 0,
          "isCommentOut": 0
        },
        {
          "rowIndex": 1,
          "strings": [
            "player_name",
            "String",
            "アルト"
          ],
          "isEmpty": 0,
          "isCommentOut": 0
        },
        {
          "rowIndex": 2,
          "strings": [
            "is_heroine",
            "Bool",
            "FALSE"
          ],
          "isEmpty": 0,
          "isCommentOut": 0
        }
      ],
      "name": "Assets/BundleResources/Data/Adventure/Scenequest/Story4004/adv_400401.xls:Param",
      "type": 1,
      "textLength": 61,
      "headerRow": 0
    }
  ]
}