{
  "m_GameObject": {
    "m_FileID": 0,
    "m_PathID": 0
  },
  "m_Enabled": 1,
  "m_Script": {
    "m_FileID": 0,
    "m_PathID": 8527011069456626154
  },
  "m_Name": "adv_400401_path",
  "advPathList": [
    {
      "assetName": "",
      "assetPath": "texture/character/stand/1010100_stand",
      "resourcePath": "Texture/Character/1010100_stand.asset"
    },
    {
      "assetName": "",
      "assetPath": "texture/character/stand/1010200_stand",
      "resourcePath": "Texture/Character/1010200_stand.asset"
    },
    {
      "assetName": "",
      "assetPath": "texture/character/stand/1010300_stand",
      "resourcePath": "Texture/Character/1010300_stand.asset"
    },
    {
      "assetName": "",
      "assetPath": "texture/character/stand/1010400_stand",
      "resourcePath": "Texture/Character/1010400_stand.asset"
    },
    {
      "assetName": "",
      "assetPath": "texture/character/stand/1010900_stand",
      "resourcePath": "Texture/Character/1010900_stand.asset"
    },
    {
      "assetName": "",
      "assetPath": "texture/character/stand/1011000_stand",
      "resourcePath": "Texture/Character/1011000_stand.asset"
    },
    {
      "assetName": "",
      "assetPath": "texture/character/stand/1020100_stand",
      "resourcePath": "Texture/Character/1020100_stand.asset"
    },
    {
      "assetName": "",
      "assetPath": "texture/character/stand/1020200_stand",
      "resourcePath": "Texture/Character/1020200_stand.asset"
    },
    {
      "assetName": "",
      "assetPath": "texture/character/stand/1020300_stand",
      "resourcePath": "Texture/Character/1020300_stand.asset"
    },
    {
      "assetName": "",
      "assetPath": "texture/character/stand/1020400_stand",
      "resourcePath": "Texture/Character/1020400_stand.asset"
    },
    {
      "assetName": "",
      "assetPath": "texture/character/stand/1011200_stand",
      "resourcePath": "Texture/Character/1011200_stand.asset"
    },
    {
      "assetName": "",
      "assetPath": "sound/bgm/adventure/bgm_adv_general",
      "resourcePath": "Sound/BGM/bgm_adv_general.wav"
    },
    {
      "assetName": "",
      "assetPath": "texture/background/bg_007_ll",
      "resourcePath": "Texture/BG/bg_007_LL.png"
    },
    {
      "assetName": "",
      "assetPath": "texture/background/bg_022_ll",
      "resourcePath": "Texture/BG/bg_022_LL.png"
    },
    {
      "assetName": "",
      "assetPath": "texture/background/bg_027_ll",
      "resourcePath": "Texture/BG/bg_027_LL.png"
    },
    {
      "assetName": "",
      "assetPath": "data/adventure/scenequest/story4004/adv_400401.scenarios",
      "resourcePath": "adv_400401.scenarios.asset"
    }
  ]
}