{
  "m_GameObject": {
    "m_FileID": 0,
    "m_PathID": 0
  },
  "m_Enabled": 1,
  "m_Script": {
    "m_FileID": 0,
    "m_PathID": 8527011069456626154
  },
  "m_Name": "adv_400403_path",
  "advPathList": [
    {
      "assetName": "",
      "assetPath": "texture/character/stand/1010300_stand",
      "resourcePath": "Texture/Character/1010300_stand.asset"
    },
    {
      "assetName": "",
      "assetPath": "texture/character/stand/1020300_stand",
      "resourcePath": "Texture/Character/1020300_stand.asset"
    },
    {
      "assetName": "",
      "assetPath": "texture/character/stand/1020400_stand",
      "resourcePath": "Texture/Character/1020400_stand.asset"
    },
    {
      "assetName": "",
      "assetPath": "sound/bgm/adventure/bgm_adv_general",
      "resourcePath": "Sound/BGM/bgm_adv_general.wav"
    },
    {
      "assetName": "",
      "assetPath": "sound/se/adventure/se_snowstorm",
      "resourcePath": "Sound/SE/se_snowstorm.wav"
    },
    {
      "assetName": "",
      "assetPath": "texture/background/bg_007_ll",
      "resourcePath": "Texture/BG/bg_007_LL.png"
    },
    {
      "assetName": "",
      "assetPath": "texture/background/bg_022_ll",
      "resourcePath": "Texture/BG/bg_022_LL.png"
    },
    {
      "assetName": "",
      "assetPath": "texture/background/bg_018_ll",
      "resourcePath": "Texture/BG/bg_018_LL.png"
    },
    {
      "assetName": "",
      "assetPath": "data/adventure/scenequest/story4004/adv_400403.scenarios",
      "resourcePath": "adv_400403.scenarios.asset"
    }
  ]
}