{
  "m_GameObject": {
    "m_FileID": 0,
    "m_PathID": 0
  },
  "m_Enabled": 1,
  "m_Script": {
    "m_FileID": 0,
    "m_PathID": 8527011069456626154
  },
  "m_Name": "adv_400601_path",
  "advPathList": [
    {
      "assetName": "",
      "assetPath": "texture/character/stand/3000600_stand",
      "resourcePath": "Texture/Character/3000600_stand.asset"
    },
    {
      "assetName": "",
      "assetPath": "texture/character/stand/1030800_stand",
      "resourcePath": "Texture/Character/1030800_stand.asset"
    },
    {
      "assetName": "",
      "assetPath": "texture/character/stand/1040200_stand",
      "resourcePath": "Texture/Character/1040200_stand.asset"
    },
    {
      "assetName": "",
      "assetPath": "texture/character/stand/1010100_stand",
      "resourcePath": "Texture/Character/1010100_stand.asset"
    },
    {
      "assetName": "",
      "assetPath": "sound/bgm/adventure/bgm_description",
      "resourcePath": "Sound/BGM/bgm_description.wav"
    },
    {
      "assetName": "",
      "assetPath": "sound/bgm/adventure/bgm_adv_general",
      "resourcePath": "Sound/BGM/bgm_adv_general.wav"
    },
    {
      "assetName": "",
      "assetPath": "sound/bgm/adventure/bgm_sad",
      "resourcePath": "Sound/BGM/bgm_sad.wav"
    },
    {
      "assetName": "",
      "assetPath": "sound/se/adventure/se_heart_sound",
      "resourcePath": "Sound/SE/se_heart_sound.wav"
    },
    {
      "assetName": "",
      "assetPath": "texture/background/bg_007_ll",
      "resourcePath": "Texture/BG/bg_007_LL.png"
    },
    {
      "assetName": "",
      "assetPath": "texture/background/bg_022_ll",
      "resourcePath": "Texture/BG/bg_022_LL.png"
    },
    {
      "assetName": "",
      "assetPath": "texture/background/bg_004_ll",
      "resourcePath": "Texture/BG/bg_004_LL.png"
    },
    {
      "assetName": "",
      "assetPath": "data/adventure/scenequest/story4006/adv_400601.scenarios",
      "resourcePath": "adv_400601.scenarios.asset"
    }
  ]
}