{
  "m_GameObject": {
    "m_FileID": 0,
    "m_PathID": 0
  },
  "m_Enabled": 1,
  "m_Script": {
    "m_FileID": 0,
    "m_PathID": -8016775561480030637
  },
  "m_Name": "adv_400604.chapter",
  "chapterName": "",
  "dataList": [
    {
      "m_FileID": 0,
      "m_PathID": 5758230430027608821
    }
  ],
  "settingList": [
    {
      "rows": [
        {
          "rowIndex": 0,
          "strings": [
            "CharacterName",
            "NameText",
            "Pattern",
            "X",
            "Y",
            "Z",
            "Pivot",
            "Scale",
            "Conditional",
            "BundlePath",
            "FileName",
            "SubFileName",
            "FileType",
            "Animation",
            "RenderTexture",
            "RenderRect",
            "EyeBlink",
            "LipSynch",
            "Icon",
            "IconSubFileName",
            "IconRect"
          ],
          "isEmpty": 0,
          "isCommentOut": 0
        },
        {
          "rowIndex": 1,
          "strings": [
            "大人ネプテューヌ",
            "ネプテューヌ",
            "通常",
            "",
            "-50",
            "",
            "",
            "",
            "",
            "texture/character/stand/1040100_stand",
            "1040100_stand.asset",
            "1040100_stand_01",
            "Dicing"
          ],
          "isEmpty": 0,
          "isCommentOut": 0
        },
        {
          "rowIndex": 2,
          "strings": [
            "",
            "",
            "目閉じ",
            "",
            "-50",
            "",
            "",
            "",
            "",
            "texture/character/stand/1040100_stand",
            "1040100_stand.asset",
            "1040100_stand_02",
            "Dicing"
          ],
          "isEmpty": 0,
          "isCommentOut": 0
        },
        {
          "rowIndex": 3,
          "strings": [
            "",
            "",
            "真剣",
            "",
            "-50",
            "",
            "",
            "",
            "",
            "texture/character/stand/1040100_stand",
            "1040100_stand.asset",
            "1040100_stand_03",
            "Dicing"
          ],
          "isEmpty": 0,
          "isCommentOut": 0
        },
        {
          "rowIndex": 4,
          "strings": [
            "",
            "",
            "笑い",
            "",
            "-50",
            "",
            "",
            "",
            "",
            "texture/character/stand/1040100_stand",
            "1040100_stand.asset",
            "1040100_stand_04",
            "Dicing"
          ],
          "isEmpty": 0,
          "isCommentOut": 0
        },
        {
          "rowIndex": 5,
          "strings": [
            "",
            "",
            "悲しみ",
            "",
            "-50",
            "",
            "",
            "",
            "",
            "texture/character/stand/1040100_stand",
            "1040100_stand.asset",
            "1040100_stand_05",
            "Dicing"
          ],
          "isEmpty": 0,
          "isCommentOut": 0
        },
        {
          "rowIndex": 6,
          "strings": [
            "",
            "",
            "照れ",
            "",
            "-50",
            "",
            "",
            "",
            "",
            "texture/character/stand/1040100_stand",
            "1040100_stand.asset",
            "1040100_stand_06",
            "Dicing"
          ],
          "isEmpty": 0,
          "isCommentOut": 0
        },
        {
          "rowIndex": 7,
          "strings": [
            "",
            "",
            "固有",
            "",
            "-50",
            "",
            "",
            "",
            "",
            "texture/character/stand/1040100_stand",
            "1040100_stand.asset",
            "1040100_stand_07",
            "Dicing"
          ],
          "isEmpty": 0,
          "isCommentOut": 0
        },
        {
          "rowIndex": 8,
          "strings": [
            "クロワール",
            "",
            "通常",
            "",
            "-50",
            "",
            "",
            "",
            "",
            "texture/character/stand/1030800_stand",
            "1030800_stand.asset",
            "1030800_stand_01",
            "Dicing"
          ],
          "isEmpty": 0,
          "isCommentOut": 0
        },
        {
          "rowIndex": 9,
          "strings": [
            "//",
            "",
            "目閉じ",
            "",
            "-50",
            "",
            "",
            "",
            "",
            "texture/character/stand/1030800_stand",
            "1030800_stand.asset",
            "1030800_stand_02",
            "Dicing"
          ],
          "isEmpty": 0,
          "isCommentOut": 1
        },
        {
          "rowIndex": 10,
          "strings": [
            "",
            "",
            "真剣",
            "",
            "-50",
            "",
            "",
            "",
            "",
            "texture/character/stand/1030800_stand",
            "1030800_stand.asset",
            "1030800_stand_03",
            "Dicing"
          ],
          "isEmpty": 0,
          "isCommentOut": 0
        },
        {
          "rowIndex": 11,
          "strings": [
            "",
            "",
            "笑い",
            "",
            "-50",
            "",
            "",
            "",
            "",
            "texture/character/stand/1030800_stand",
            "1030800_stand.asset",
            "1030800_stand_04",
            "Dicing"
          ],
          "isEmpty": 0,
          "isCommentOut": 0
        },
        {
          "rowIndex": 12,
          "strings": [
            "",
            "",
            "悲しみ",
            "",
            "-50",
            "",
            "",
            "",
            "",
            "texture/character/stand/1030800_stand",
            "1030800_stand.asset",
            "1030800_stand_05",
            "Dicing"
          ],
          "isEmpty": 0,
          "isCommentOut": 0
        },
        {
          "rowIndex": 13,
          "strings": [
            "//",
            "",
            "照れ",
            "",
            "-50",
            "",
            "",
            "",
            "",
            "texture/character/stand/1030800_stand",
            "1030800_stand.asset",
            "1030800_stand_06",
            "Dicing"
          ],
          "isEmpty": 0,
          "isCommentOut": 1
        },
        {
          "rowIndex": 14,
          "strings": [
            "",
            "",
            "固有",
            "",
            "-50",
            "",
            "",
            "",
            "",
            "texture/character/stand/1030800_stand",
            "1030800_stand.asset",
            "1030800_stand_07",
            "Dicing"
          ],
          "isEmpty": 0,
          "isCommentOut": 0
        },
        {
          "rowIndex": 15,
          "strings": [
            "レリック・オンスロート",
            "",
            "通常",
            "",
            "-50",
            "",
            "",
            "",
            "",
            "texture/character/stand/2000100_stand",
            "2000100_stand.asset",
            "2000100_stand_01",
            "Dicing"
          ],
          "isEmpty": 0,
          "isCommentOut": 0
        },
        {
          "rowIndex": 16,
          "strings": [
            "//",
            "",
            "目閉じ",
            "",
            "-50",
            "",
            "",
            "",
            "",
            "texture/character/stand/2000100_stand",
            "2000100_stand.asset",
            "2000100_stand_02",
            "Dicing"
          ],
          "isEmpty": 0,
          "isCommentOut": 1
        },
        {
          "rowIndex": 17,
          "strings": [
            "暗黒星くろめ",
            "",
            "通常",
            "",
            "-50",
            "",
            "",
            "",
            "",
            "texture/character/stand/3000600_stand",
            "3000600_stand.asset",
            "3000600_stand_01",
            "Dicing"
          ],
          "isEmpty": 0,
          "isCommentOut": 0
        },
        {
          "rowIndex": 18,
          "strings": [
            "",
            "",
            "目閉じ",
            "",
            "-50",
            "",
            "",
            "",
            "",
            "texture/character/stand/3000600_stand",
            "3000600_stand.asset",
            "3000600_stand_02",
            "Dicing"
          ],
          "isEmpty": 0,
          "isCommentOut": 0
        },
        {
          "rowIndex": 19,
          "strings": [
            "",
            "",
            "真剣",
            "",
            "-50",
            "",
            "",
            "",
            "",
            "texture/character/stand/3000600_stand",
            "3000600_stand.asset",
            "3000600_stand_03",
            "Dicing"
          ],
          "isEmpty": 0,
          "isCommentOut": 0
        },
        {
          "rowIndex": 20,
          "strings": [
            "",
            "",
            "笑い",
            "",
            "-50",
            "",
            "",
            "",
            "",
            "texture/character/stand/3000600_stand",
            "3000600_stand.asset",
            "3000600_stand_04",
            "Dicing"
          ],
          "isEmpty": 0,
          "isCommentOut": 0
        },
        {
          "rowIndex": 21,
          "strings": [
            "",
            "",
            "悲しみ",
            "",
            "-50",
            "",
            "",
            "",
            "",
            "texture/character/stand/3000600_stand",
            "3000600_stand.asset",
            "3000600_stand_05",
            "Dicing"
          ],
          "isEmpty": 0,
          "isCommentOut": 0
        },
        {
          "rowIndex": 22,
          "strings": [
            "",
            "",
            "照れ",
            "",
            "-50",
            "",
            "",
            "",
            "",
            "texture/character/stand/3000600_stand",
            "3000600_stand.asset",
            "3000600_stand_06",
            "Dicing"
          ],
          "isEmpty": 0,
          "isCommentOut": 0
        },
        {
          "rowIndex": 23,
          "strings": [
            "",
            "",
            "固有",
            "",
            "-50",
            "",
            "",
            "",
            "",
            "texture/character/stand/3000600_stand",
            "3000600_stand.asset",
            "3000600_stand_07",
            "Dicing"
          ],
          "isEmpty": 0,
          "isCommentOut": 0
        },
        {
          "rowIndex": 24,
          "strings": [
            "ワルキューレ",
            "",
            "通常",
            "",
            "-50",
            "",
            "",
            "",
            "",
            "texture/character/stand/1082200_stand",
            "1082200_stand.asset",
            "1082200_stand_01",
            "Dicing"
          ],
          "isEmpty": 0,
          "isCommentOut": 0
        },
        {
          "rowIndex": 25,
          "strings": [
            "//",
            "",
            "目閉じ",
            "",
            "-50",
            "",
            "",
            "",
            "",
            "texture/character/stand/1082200_stand",
            "1082200_stand.asset",
            "1082200_stand_02",
            "Dicing"
          ],
          "isEmpty": 0,
          "isCommentOut": 1
        },
        {
          "rowIndex": 26,
          "strings": [
            "",
            "",
            "真剣",
            "",
            "-50",
            "",
            "",
            "",
            "",
            "texture/character/stand/1082200_stand",
            "1082200_stand.asset",
            "1082200_stand_03",
            "Dicing"
          ],
          "isEmpty": 0,
          "isCommentOut": 0
        },
        {
          "rowIndex": 27,
          "strings": [
            "",
            "",
            "笑い",
            "",
            "-50",
            "",
            "",
            "",
            "",
            "texture/character/stand/1082200_stand",
            "1082200_stand.asset",
            "1082200_stand_04",
            "Dicing"
          ],
          "isEmpty": 0,
          "isCommentOut": 0
        },
        {
          "rowIndex": 28,
          "strings": [
            "",
            "",
            "悲しみ",
            "",
            "-50",
            "",
            "",
            "",
            "",
            "texture/character/stand/1082200_stand",
            "1082200_stand.asset",
            "1082200_stand_05",
            "Dicing"
          ],
          "isEmpty": 0,
          "isCommentOut": 0
        },
        {
          "rowIndex": 29,
          "strings": [
            "",
            "",
            "照れ",
            "",
            "-50",
            "",
            "",
            "",
            "",
            "texture/character/stand/1082200_stand",
            "1082200_stand.asset",
            "1082200_stand_06",
            "Dicing"
          ],
          "isEmpty": 0,
          "isCommentOut": 0
        },
        {
          "rowIndex": 30,
          "strings": [
            "//",
            "",
            "固有",
            "",
            "-50",
            "",
            "",
            "",
            "",
            "texture/character/stand/1082200_stand",
            "1082200_stand.asset",
            "1082200_stand_07",
            "Dicing"
          ],
          "isEmpty": 0,
          "isCommentOut": 1
        },
        {
          "rowIndex": 31,
          "strings": [
            "天王星うずめ",
            "",
            "通常",
            "",
            "-50",
            "",
            "",
            "",
            "",
            "texture/character/stand/1040200_stand",
            "1040200_stand.asset",
            "1040200_stand_01",
            "Dicing"
          ],
          "isEmpty": 0,
          "isCommentOut": 0
        },
        {
          "rowIndex": 32,
          "strings": [
            "",
            "",
            "目閉じ",
            "",
            "-50",
            "",
            "",
            "",
            "",
            "texture/character/stand/1040200_stand",
            "1040200_stand.asset",
            "1040200_stand_02",
            "Dicing"
          ],
          "isEmpty": 0,
          "isCommentOut": 0
        },
        {
          "rowIndex": 33,
          "strings": [
            "",
            "",
            "真剣",
            "",
            "-50",
            "",
            "",
            "",
            "",
            "texture/character/stand/1040200_stand",
            "1040200_stand.asset",
            "1040200_stand_03",
            "Dicing"
          ],
          "isEmpty": 0,
          "isCommentOut": 0
        },
        {
          "rowIndex": 34,
          "strings": [
            "",
            "",
            "笑い",
            "",
            "-50",
            "",
            "",
            "",
            "",
            "texture/character/stand/1040200_stand",
            "1040200_stand.asset",
            "1040200_stand_04",
            "Dicing"
          ],
          "isEmpty": 0,
          "isCommentOut": 0
        },
        {
          "rowIndex": 35,
          "strings": [
            "",
            "",
            "悲しみ",
            "",
            "-50",
            "",
            "",
            "",
            "",
            "texture/character/stand/1040200_stand",
            "1040200_stand.asset",
            "1040200_stand_05",
            "Dicing"
          ],
          "isEmpty": 0,
          "isCommentOut": 0
        },
        {
          "rowIndex": 36,
          "strings": [
            "",
            "",
            "照れ",
            "",
            "-50",
            "",
            "",
            "",
            "",
            "texture/character/stand/1040200_stand",
            "1040200_stand.asset",
            "1040200_stand_06",
            "Dicing"
          ],
          "isEmpty": 0,
          "isCommentOut": 0
        },
        {
          "rowIndex": 37,
          "strings": [
            "",
            "",
            "固有",
            "",
            "-50",
            "",
            "",
            "",
            "",
            "texture/character/stand/1040200_stand",
            "1040200_stand.asset",
            "1040200_stand_07",
            "Dicing"
          ],
          "isEmpty": 0,
          "isCommentOut": 0
        },
        {
          "rowIndex": 38,
          "strings": [
            "",
            "",
            "",
            "",
            "",
            "",
            "",
            "",
            "",
            "",
            "",
            "",
            ""
          ],
          "isEmpty": 1,
          "isCommentOut": 0
        }
      ],
      "name": "Assets/BundleResources/Data/Adventure/Scenequest/Story4006/adv_400604.xls:Character",
      "type": 1,
      "textLength": 3304,
      "headerRow": 0
    },
    {
      "rows": [
        {
          "rowIndex": 0,
          "strings": [
            "Label",
            "Title",
            "Type",
            "BundlePath",
            "FileName",
            "IntroTime",
            "Volume",
            "Comment"
          ],
          "isEmpty": 0,
          "isCommentOut": 0
        },
        {
          "rowIndex": 1,
          "strings": [
            "//BGM",
            "",
            "",
            "",
            "",
            "",
            "",
            ""
          ],
          "isEmpty": 0,
          "isCommentOut": 1
        },
        {
          "rowIndex": 2,
          "strings": [
            "冒険者たちの軌跡",
            "",
            "Bgm",
            "sound/bgm/bgm_battle01",
            "bgm_battle01.wav",
            "",
            "",
            "戦闘で使用するBGM"
          ],
          "isEmpty": 0,
          "isCommentOut": 0
        },
        {
          "rowIndex": 3,
          "strings": [
            "風切り音",
            "",
            "Se",
            "sound/se/adventure/se_swing",
            "se_swing.wav",
            "",
            "",
            "2章-3節 クロワールに向かって、エフォールからの攻撃。(当たらないので風切り音)"
          ],
          "isEmpty": 0,
          "isCommentOut": 0
        },
        {
          "rowIndex": 4,
          "strings": [
            "斬撃1",
            "",
            "Se",
            "sound/se/adventure/se_slashing_sin",
            "se_slashing_sin.wav",
            "",
            "",
            "プロローグ-1節 主人公に向けて、ブラックハート(神次元)からの攻撃"
          ],
          "isEmpty": 0,
          "isCommentOut": 0
        },
        {
          "rowIndex": 5,
          "strings": [
            "倒れる音",
            "",
            "Se",
            "sound/se/adventure/se_down",
            "se_down.wav",
            "",
            "",
            ""
          ],
          "isEmpty": 0,
          "isCommentOut": 0
        },
        {
          "rowIndex": 6,
          "strings": [
            "状況説明",
            "",
            "Bgm",
            "sound/bgm/adventure/bgm_description",
            "bgm_description.wav",
            "",
            "",
            "既存BGM103"
          ],
          "isEmpty": 0,
          "isCommentOut": 0
        },
        {
          "rowIndex": 7,
          "strings": [
            "消滅音",
            "",
            "Se",
            "sound/se/adventure/se_disappear",
            "se_disappear.wav",
            "",
            "",
            "プロローグ-1節 主人公の消滅音（転移するようなイメージ）"
          ],
          "isEmpty": 0,
          "isCommentOut": 0
        },
        {
          "rowIndex": 8,
          "strings": [
            "鼓動音",
            "",
            "Se",
            "sound/se/adventure/se_heart_sound",
            "se_heart_sound.wav",
            "",
            "",
            "プロローグ-2節 主人公の鼓動音（1回大きく「どくん」）"
          ],
          "isEmpty": 0,
          "isCommentOut": 0
        },
        {
          "rowIndex": 9,
          "strings": [
            "",
            "",
            "",
            "",
            "",
            "",
            "",
            ""
          ],
          "isEmpty": 1,
          "isCommentOut": 0
        },
        {
          "rowIndex": 10,
          "strings": [
            "",
            "",
            "",
            "",
            "",
            "",
            "",
            ""
          ],
          "isEmpty": 1,
          "isCommentOut": 0
        },
        {
          "rowIndex": 11,
          "strings": [
            "",
            "",
            "",
            "",
            "",
            "",
            "",
            ""
          ],
          "isEmpty": 1,
          "isCommentOut": 0
        },
        {
          "rowIndex": 12,
          "strings": [
            "",
            "",
            "",
            "",
            "",
            "",
            "",
            ""
          ],
          "isEmpty": 1,
          "isCommentOut": 0
        },
        {
          "rowIndex": 13,
          "strings": [
            "",
            "",
            "",
            "",
            "",
            "",
            "",
            ""
          ],
          "isEmpty": 1,
          "isCommentOut": 0
        },
        {
          "rowIndex": 14,
          "strings": [
            "",
            "",
            "",
            "",
            "",
            "",
            "",
            ""
          ],
          "isEmpty": 1,
          "isCommentOut": 0
        },
        {
          "rowIndex": 15,
          "strings": [
            "",
            "",
            "",
            "",
            "",
            "",
            "",
            ""
          ],
          "isEmpty": 1,
          "isCommentOut": 0
        },
        {
          "rowIndex": 16,
          "strings": [
            "",
            "",
            "",
            "",
            "",
            "",
            "",
            ""
          ],
          "isEmpty": 1,
          "isCommentOut": 0
        },
        {
          "rowIndex": 17,
          "strings": [
            "",
            "",
            "",
            "",
            "",
            "",
            "",
            ""
          ],
          "isEmpty": 1,
          "isCommentOut": 0
        },
        {
          "rowIndex": 18,
          "strings": [
            "",
            "",
            "",
            "",
            "",
            "",
            "",
            ""
          ],
          "isEmpty": 1,
          "isCommentOut": 0
        },
        {
          "rowIndex": 19,
          "strings": [
            "",
            "",
            "",
            "",
            "",
            "",
            "",
            ""
          ],
          "isEmpty": 1,
          "isCommentOut": 0
        },
        {
          "rowIndex": 20,
          "strings": [
            "",
            "",
            "",
            "",
            "",
            "",
            "",
            ""
          ],
          "isEmpty": 1,
          "isCommentOut": 0
        },
        {
          "rowIndex": 21,
          "strings": [
            "",
            "",
            "",
            "",
            "",
            "",
            "",
            ""
          ],
          "isEmpty": 1,
          "isCommentOut": 0
        },
        {
          "rowIndex": 22,
          "strings": [
            "",
            "",
            "",
            "",
            "",
            "",
            "",
            ""
          ],
          "isEmpty": 1,
          "isCommentOut": 0
        },
        {
          "rowIndex": 23,
          "strings": [
            "",
            "",
            "",
            "",
            "",
            "",
            "",
            ""
          ],
          "isEmpty": 1,
          "isCommentOut": 0
        }
      ],
      "name": "Assets/BundleResources/Data/Adventure/Scenequest/Story4006/adv_400604.xls:Sound",
      "type": 1,
      "textLength": 573,
      "headerRow": 0
    },
    {
      "rows": [
        {
          "rowIndex": 0,
          "strings": [
            "Label",
            "Type",
            "X",
            "Y",
            "Z",
            "Pivot",
            "Scale",
            "Conditional",
            "BundlePath",
            "FileName",
            "FileType",
            "SubFileName",
            "Animation",
            "RenderTexture",
            "RenderRect",
            "Thumbnail",
            "CgCategolly",
            "元画像名"
          ],
          "isEmpty": 0,
          "isCommentOut": 0
        },
        {
          "rowIndex": 1,
          "strings": [
            "//背景",
            "",
            "",
            "",
            "",
            "",
            "",
            "",
            "",
            ""
          ],
          "isEmpty": 0,
          "isCommentOut": 1
        },
        {
          "rowIndex": 2,
          "strings": [
            "背景(黒)",
            "Bg",
            "",
            "",
            "",
            "",
            "x=1.25 y=0.9375",
            "",
            "texture/background/bg_007_ll",
            "bg_007_LL.png",
            "",
            "",
            "",
            "",
            "",
            "",
            "01_0048.png"
          ],
          "isEmpty": 0,
          "isCommentOut": 0
        },
        {
          "rowIndex": 3,
          "strings": [
            "背景(白)",
            "Bg",
            "",
            "",
            "",
            "",
            "x=1.25 y=0.9375",
            "",
            "texture/background/bg_022_ll",
            "bg_022_LL.png"
          ],
          "isEmpty": 0,
          "isCommentOut": 0
        },
        {
          "rowIndex": 4,
          "strings": [
            "背景(森：夜)",
            "Bg",
            "",
            "",
            "",
            "",
            "x=1.25 y=0.9375",
            "",
            "texture/background/bg_036_ll",
            "bg_036_LL.png"
          ],
          "isEmpty": 0,
          "isCommentOut": 0
        },
        {
          "rowIndex": 5,
          "strings": [
            "",
            "",
            "",
            "",
            "",
            "",
            "",
            "",
            "",
            ""
          ],
          "isEmpty": 1,
          "isCommentOut": 0
        },
        {
          "rowIndex": 6,
          "strings": [
            "",
            "",
            "",
            "",
            "",
            "",
            "",
            "",
            "",
            ""
          ],
          "isEmpty": 1,
          "isCommentOut": 0
        },
        {
          "rowIndex": 7,
          "strings": [
            "",
            "",
            "",
            "",
            "",
            "",
            "",
            "",
            "",
            ""
          ],
          "isEmpty": 1,
          "isCommentOut": 0
        },
        {
          "rowIndex": 8,
          "strings": [
            "",
            "",
            "",
            "",
            "",
            "",
            "",
            "",
            "",
            ""
          ],
          "isEmpty": 1,
          "isCommentOut": 0
        },
        {
          "rowIndex": 9,
          "strings": [
            "",
            "",
            "",
            "",
            "",
            "",
            "",
            "",
            "",
            ""
          ],
          "isEmpty": 1,
          "isCommentOut": 0
        },
        {
          "rowIndex": 10,
          "strings": [
            "",
            "",
            "",
            "",
            "",
            "",
            "",
            "",
            "",
            ""
          ],
          "isEmpty": 1,
          "isCommentOut": 0
        },
        {
          "rowIndex": 11,
          "strings": [
            "",
            "",
            "",
            "",
            "",
            "",
            "",
            "",
            "",
            ""
          ],
          "isEmpty": 1,
          "isCommentOut": 0
        },
        {
          "rowIndex": 12,
          "strings": [
            "",
            "",
            "",
            "",
            "",
            "",
            "",
            "",
            "",
            ""
          ],
          "isEmpty": 1,
          "isCommentOut": 0
        }
      ],
      "name": "Assets/BundleResources/Data/Adventure/Scenequest/Story4006/adv_400604.xls:Texture",
      "type": 1,
      "textLength": 332,
      "headerRow": 0
    },
    {
      "rows": [
        {
          "rowIndex": 0,
          "strings": [
            "Label",
            "FileName",
            "BundlePath"
          ],
          "isEmpty": 0,
          "isCommentOut": 0
        },
        {
          "rowIndex": 1,
          "strings": [
            "袈裟斬り",
            "eff_017",
            "prefabs/effect/adventure/eff_017/eff_017",
            "↙の方向へ斬撃（赤）"
          ],
          "isEmpty": 0,
          "isCommentOut": 0
        },
        {
          "rowIndex": 2,
          "strings": [
            "",
            "",
            ""
          ],
          "isEmpty": 1,
          "isCommentOut": 0
        }
      ],
      "name": "Assets/BundleResources/Data/Adventure/Scenequest/Story4006/adv_400604.xls:Particle",
      "type": 1,
      "textLength": 84,
      "headerRow": 0
    },
    {
      "rows": [
        {
          "rowIndex": 0,
          "strings": [
            "LayerName",
            "Type",
            "X",
            "Y",
            "Order",
            "LayerMask",
            "ScaleX",
            "ScaleY",
            "FlipX",
            "FlipY",
            "Width",
            "Height",
            "BorderLeft",
            "BorderRight",
            "BorderTop",
            "BorderBottom",
            "Align"
          ],
          "isEmpty": 0,
          "isCommentOut": 0
        },
        {
          "rowIndex": 1,
          "strings": [
            "キャラ中央",
            "Character",
            "0",
            "0",
            "1",
            "",
            "",
            "",
            "",
            "",
            "",
            "",
            "",
            "",
            "",
            "0"
          ],
          "isEmpty": 0,
          "isCommentOut": 0
        },
        {
          "rowIndex": 2,
          "strings": [
            "キャラ左",
            "Character",
            "-350",
            "0",
            "2",
            "",
            "",
            "",
            "",
            "",
            "",
            "",
            "",
            "",
            "",
            "0"
          ],
          "isEmpty": 0,
          "isCommentOut": 0
        },
        {
          "rowIndex": 3,
          "strings": [
            "キャラ右",
            "Character",
            "350",
            "0",
            "3",
            "",
            "",
            "",
            "",
            "",
            "",
            "",
            "",
            "",
            "",
            "0"
          ],
          "isEmpty": 0,
          "isCommentOut": 0
        },
        {
          "rowIndex": 4,
          "strings": [
            "背景",
            "Bg",
            "0",
            "0",
            "0"
          ],
          "isEmpty": 0,
          "isCommentOut": 0
        },
        {
          "rowIndex": 5,
          "strings": [],
          "isEmpty": 1,
          "isCommentOut": 0
        },
        {
          "rowIndex": 6,
          "strings": [
            "フェードレイヤー",
            "Sprite",
            "0",
            "0",
            "150"
          ],
          "isEmpty": 0,
          "isCommentOut": 0
        },
        {
          "rowIndex": 7,
          "strings": [
            "スプライトレイヤー",
            "Sprite",
            "0",
            "0",
            "151"
          ],
          "isEmpty": 0,
          "isCommentOut": 0
        },
        {
          "rowIndex": 8,
          "strings": [
            "キャプチャ画像レイヤー",
            "Sprite",
            "0",
            "0",
            "500"
          ],
          "isEmpty": 0,
          "isCommentOut": 0
        }
      ],
      "name": "Assets/BundleResources/Data/Adventure/Scenequest/Story4006/adv_400604.xls:Layer",
      "type": 1,
      "textLength": 234,
      "headerRow": 0
    },
    {
      "rows": [
        {
          "rowIndex": 0,
          "strings": [
            "Label",
            "Type",
            "Value",
            "FileType"
          ],
          "isEmpty": 0,
          "isCommentOut": 0
        },
        {
          "rowIndex": 1,
          "strings": [
            "player_name",
            "String",
            "アルト"
          ],
          "isEmpty": 0,
          "isCommentOut": 0
        },
        {
          "rowIndex": 2,
          "strings": [
            "is_heroine",
            "Bool",
            "FALSE"
          ],
          "isEmpty": 0,
          "isCommentOut": 0
        }
      ],
      "name": "Assets/BundleResources/Data/Adventure/Scenequest/Story4006/adv_400604.xls:Param",
      "type": 1,
      "textLength": 61,
      "headerRow": 0
    }
  ]
}